ave_fitness	ave_genome_length	ave_tree_depth	ave_tree_nodes	ave_used_codons	best_fitness	gen	invalids	max_genome_length	max_tree_depth	max_tree_nodes	max_used_codons	min_genome_length	min_tree_depth	min_tree_nodes	min_used_codons	runtime_error	time_adjust	time_taken	total_inds	total_time	unique_inds	unused_search	
0.0	56.785714285714285	8.271428571428572	54.614285714285714	38.05714285714286	0.0	0	0	160	10	156	107	16	7	15	11	0	0	1525.3853044509888	70	1525.3853044509888	70	0.0	
0.00666666	58.27142857142857	8.66	48.22	33.72	0.333333	1	21	151	12.0	103.0	72.0	16	7.0	15.0	11.0	0	0	916.9513821601868	140	2442.3366866111755	111	20.714285714285722	
0.00564971186440678	57.24285714285714	8.711864406779661	42.644067796610166	29.864406779661017	0.333333	2	33	134	12.0	89.0	63.0	16	7.0	15.0	11.0	0	0	1059.154499053955	210	3501.4911856651306	149	29.04761904761905	
0.01190475	52.22857142857143	8.196428571428571	35.785714285714285	25.017857142857142	0.333333	3	48	164	13.0	97.0	68.0	12	7.0	15.0	11.0	0	0	980.687178850174	280	4482.178364515305	180	35.71428571428571	
0.01041665625	59.92857142857143	8.09375	35.109375	24.515625	0.333333	4	55	130	13.0	121.0	84.0	13	7.0	15.0	11.0	0	0	1136.8932664394379	350	5619.071630954742	203	42.00000000000001	
0.03864730434782609	63.285714285714285	8.202898550724637	36.20289855072464	25.217391304347824	0.333333	5	57	157	12.0	114.0	80.0	16	7.0	15.0	11.0	0	0	1228.63951587677	420	6847.711146831512	234	44.285714285714285	
0.10945261194029851	67.61428571428571	8.626865671641792	42.16417910447761	29.29850746268657	1.33333	6	61	146	12.0	80.0	55.0	28	7.0	17.0	12.0	0	0	1181.497965335846	490	8029.209112167358	256	47.755102040816325	
0.19117619117647058	77.32857142857142	9.088235294117647	50.544117647058826	35.11764705882353	1.33333	7	64	146	12.0	89.0	62.0	28	7.0	17.0	12.0	0	0	1235.852231502533	560	9265.061343669891	290	48.21428571428571	
0.33823475000000003	85.62857142857143	9.485294117647058	60.01470588235294	41.60294117647059	1.33333	8	67	184	13.0	99.0	69.0	38	7.0	17.0	12.0	0	0	1230.7870752811432	630	10495.848418951035	337	46.507936507936506	
0.4427853432835821	94.12857142857143	9.746268656716419	63.3134328358209	43.8955223880597	2.0	9	71	184	13.0	110.0	77.0	38	7.0	23.0	16.0	0	0	1248.3788599967957	700	11744.22727894783	380	45.714285714285715	
0.338235	94.9	9.514705882352942	60.955882352941174	42.338235294117645	2.0	10	74	190	14.0	155.0	108.0	38	7.0	23.0	16.0	0	0	1231.723106622696	770	12975.950385570526	423	45.064935064935064	
0.39613523188405797	100.44285714285714	9.985507246376812	71.97101449275362	50.130434782608695	2.0	11	76	152	14.0	155.0	108.0	61	7.0	26.0	18.0	0	0	1343.8416225910187	840	14319.792008161545	468	44.285714285714285	
0.516908115942029	100.52857142857142	9.985507246376812	68.6231884057971	47.68115942028985	2.0	12	78	144	12.0	128.0	88.0	46	7.0	24.0	17.0	0	0	1295.7473702430725	910	15615.539378404617	513	43.62637362637363	
0.6428572285714286	101.28571428571429	10.128571428571428	70.71428571428571	49.2	2.66667	13	79	152	13	117	82	64	7	29	20	0	0	1303.6319725513458	980	16919.171350955963	562	42.6530612244898	
0.6570049855072463	106.92857142857143	10.26086956521739	72.3913043478261	50.3768115942029	3.66667	14	81	161	13.0	156.0	108.0	34	8.0	31.0	22.0	0	0	1337.1131994724274	1050	18256.28455042839	607	42.19047619047619	
0.6904763	106.61428571428571	9.957142857142857	67.9	47.214285714285715	3.66667	15	81	161	12	131	91	64	8	26	18	0	0	1361.466337442398	1120	19617.75088787079	646	42.32142857142858	
0.6476192428571429	104.98571428571428	9.971428571428572	67.57142857142857	46.94285714285714	3.66667	16	81	193	12	116	81	55	7	17	12	0	0	1376.129719734192	1190	20993.88060760498	694	41.68067226890756	
0.4476191	109.87142857142857	9.742857142857142	67.72857142857143	47.1	3.66667	17	81	198	12	163	113	55	7	17	12	0	0	1357.7004435062408	1260	22351.58105111122	747	40.714285714285715	
0.5124378208955224	115.91428571428571	9.582089552238806	72.07462686567165	50.11940298507463	3.66667	18	85	205	12.0	138.0	96.0	37	7.0	17.0	12.0	0	0	1305.2193608283997	1330	23656.80041193962	790	40.6015037593985	
0.5024153768115943	116.75714285714285	9.898550724637682	73.43478260869566	51.15942028985507	3.66667	19	87	205	15.0	146.0	102.0	58	7.0	17.0	12.0	0	0	1361.8750841617584	1400	25018.67549610138	837	40.214285714285715	
0.7142856142857144	115.65714285714286	9.871428571428572	73.45714285714286	51.15714285714286	3.66667	20	87	205	13	146	102	65	7	17	12	0	0	1378.745940208435	1470	26397.421436309814	882	40.0	
0.7190475857142857	122.1	10.128571428571428	76.47142857142858	53.24285714285714	4.66667	21	87	208	13	150	104	62	8	27	19	0	0	1435.10258603096	1540	27832.524022340775	934	39.35064935064935	
0.695238	121.64285714285714	10.114285714285714	77.68571428571428	53.98571428571429	7.0	22	88	205	13	172	118	62	8	35	24	0	0	1442.0145828723907	1610	29274.538605213165	986	38.75776397515528	
0.9095238571428572	120.88571428571429	10.257142857142858	78.85714285714286	54.82857142857143	7.0	23	89	205	15	172	118	62	8	42	29	0	0	1353.5074026584625	1680	30628.046007871628	1032	38.57142857142857	
1.033333642857143	132.57142857142858	10.2	76.31428571428572	53.042857142857144	7.0	24	90	205	15	130	91	69	8	38	27	0	0	1387.5727806091309	1750	32015.61878848076	1082	38.171428571428564	
1.1857143714285714	134.75714285714287	10.014285714285714	77.14285714285714	53.614285714285714	9.33333	25	90	205	13	157	109	69	7	26	18	0	0	1423.913452386856	1820	33439.532240867615	1132	37.8021978021978	
1.2047620142857143	142.8	10.2	82.67142857142858	57.48571428571429	9.33333	26	90	215	14	176	123	79	7	17	12	0	0	1426.9892556667328	1890	34866.52149653435	1192	36.93121693121692	
1.5047617714285715	155.44285714285715	10.542857142857143	85.98571428571428	59.82857142857143	9.33333	27	90	221	15	175	123	95	7	17	12	0	0	1406.1381738185883	1960	36272.659670352936	1243	36.58163265306123	
1.9476189857142856	151.35714285714286	10.542857142857143	88.22857142857143	61.5	9.33333	28	91	211	15	206	144	95	7	15	11	0	0	1334.7494349479675	2030	37607.4091053009	1290	36.45320197044335	
2.2285712	155.72857142857143	10.685714285714285	91.12857142857143	63.457142857142856	9.33333	29	91	235	15	207	144	95	8	49	35	0	0	1445.8086891174316	2100	39053.217794418335	1342	36.09523809523809	
1.7714281571428574	153.57142857142858	10.528571428571428	93.81428571428572	65.2	9.33333	30	91	241	14	207	144	31	8	33	24	0	0	1034.691279411316	2170	40087.90907382965	1397	35.62211981566821	
1.9619044714285714	160.95714285714286	10.814285714285715	96.32857142857142	67.07142857142857	9.66667	31	91	259	15	229	159	82	8	41	29	0	0	1030.3672213554382	2240	41118.27629518509	1452	35.17857142857143	
2.2238084285714286	165.1	10.957142857142857	93.77142857142857	65.35714285714286	10.3333	32	91	267	16	212	146	96	8	49	35	0	0	1003.185310125351	2310	42121.46160531044	1505	34.848484848484844	
2.1095233285714285	171.87142857142857	10.471428571428572	86.41428571428571	60.2	10.6667	33	91	267	16	253	175	105	8	51	36	0	0	1014.4116630554199	2380	43135.87326836586	1549	34.915966386554615	
2.0238086714285712	178.1	10.442857142857143	84.18571428571428	58.8	10.6667	34	91	314	16	206	144	95	8	35	24	0	0	1026.2978262901306	2450	44162.17109465599	1598	34.77551020408163	
1.5619038142857142	175.12857142857143	10.142857142857142	76.98571428571428	53.714285714285715	10.6667	35	91	273	15	205	144	126	7	18	13	0	0	978.3553786277771	2520	45140.52647328377	1645	34.722222222222214	
1.533332	174.78571428571428	10.185714285714285	81.67142857142858	56.885714285714286	10.6667	36	91	240	15	157	109	103	8	35	24	0	0	970.0107548236847	2590	46110.53722810745	1694	34.5945945945946	
1.4142837571428573	174.9857142857143	10.32857142857143	89.88571428571429	62.57142857142857	10.6667	37	91	261	15	226	158	103	7	17	12	0	0	983.4078152179718	2660	47093.945043325424	1741	34.54887218045113	
2.4047609000000003	175.22857142857143	10.442857142857143	87.51428571428572	61.07142857142857	11.0	38	91	278	15	215	150	88	7	17	12	0	0	1035.030675649643	2730	48128.97571897507	1793	34.32234432234432	
2.3380970857142858	187.0142857142857	10.485714285714286	86.31428571428572	60.25714285714286	11.0	39	91	276	14	219	153	103	7	17	12	0	0	1011.5790588855743	2800	49140.55477786064	1841	34.25	
2.076193042857143	192.42857142857142	10.557142857142857	82.7	57.65714285714286	11.3333	40	91	264	15	175	123	103	7	17	12	0	0	1012.7745871543884	2870	50153.32936501503	1892	34.0766550522648	
1.3238114285714284	195.32857142857142	10.942857142857143	89.68571428571428	62.51428571428571	11.3333	41	91	280	16	225	156	111	8	42	29	0	0	1096.5632166862488	2940	51249.89258170128	1947	33.77551020408164	
1.8428594285714286	199.4142857142857	10.742857142857142	82.91428571428571	57.785714285714285	11.3333	42	91	265	13	158	110	109	8	42	29	0	0	1047.871136188507	3010	52297.763717889786	2001	33.52159468438538	
2.257143814285714	197.57142857142858	10.628571428571428	82.1	57.22857142857143	11.3333	43	91	265	14	151	104	142	8	30	21	0	0	1023.7078561782837	3080	53321.47157406807	2050	33.44155844155844	
3.114286714285714	198.38571428571427	10.814285714285715	86.24285714285715	60.142857142857146	11.3333	44	91	265	16	204	141	142	8	39	27	0	0	1032.2331371307373	3150	54353.70471119881	2101	33.301587301587304	
2.3523807142857143	198.88571428571427	11.0	94.1	65.55714285714286	11.3333	45	91	265	17	228	158	142	7	18	13	0	0	1058.2975599765778	3220	55412.002271175385	2157	33.01242236024845	
2.2571429	205.2	11.042857142857143	90.08571428571429	62.84285714285714	11.3333	46	91	272	15	186	129	153	9	33	23	0	0	1042.7679896354675	3290	56454.77026081085	2207	32.91793313069908	
1.8047618428571428	199.12857142857143	10.685714285714285	79.8	55.642857142857146	11.3333	47	91	316	15	183	127	121	7	17	12	0	0	1074.268047094345	3360	57529.0383079052	2262	32.678571428571416	
1.8285715571428571	197.72857142857143	10.357142857142858	74.47142857142858	51.98571428571429	11.3333	48	91	316	14	131	92	151	8	36	26	0	0	1035.4655895233154	3430	58564.50389742851	2314	32.53644314868805	
2.0619035142857145	205.24285714285713	10.742857142857142	84.32857142857142	58.98571428571429	11.3333	49	91	243	17	261	182	151	8	36	26	0	0	1084.5979421138763	3500	59649.10183954239	2368	32.34285714285714	
2.338091714285714	203.32857142857142	11.071428571428571	91.31428571428572	63.68571428571428	11.3333	50	91	279	17	200	140	102	8	36	26	0	0	1037.605328321457	3570	60686.707167863846	2419	32.24089635854341	
2.9380924714285714	211.02857142857144	10.742857142857142	82.68571428571428	57.7	11.3333	51	91	293	17	200	140	60	9	33	23	0	0	1045.433822631836	3640	61732.14099049568	2469	32.170329670329664	
2.833328614285714	208.95714285714286	10.6	82.78571428571429	57.714285714285715	11.3333	52	91	318	14	221	153	152	8	26	18	0	0	1068.383759021759	3710	62800.52474951744	2523	31.99460916442048	
2.266662571428571	201.38571428571427	10.642857142857142	85.94285714285714	59.94285714285714	11.3333	53	91	327	15	218	153	125	8	47	33	0	0	1042.400531053543	3780	63842.925280570984	2572	31.957671957671963	
2.1523775285714284	200.12857142857143	10.442857142857143	78.3	54.55714285714286	11.3333	54	92	330	14	162	112	151	7	15	11	0	0	1003.67112159729	3850	64846.596402168274	2623	31.870129870129873	
2.028569	194.8	10.271428571428572	73.7	51.42857142857143	11.3333	55	93	356	15	180	126	109	8	26	18	0	0	1016.1773808002472	3920	65862.77378296852	2664	32.0408163265306	
2.038092	202.12857142857143	10.585714285714285	78.2	54.44285714285714	11.3333	56	93	371	15	192	134	144	7	26	18	0	0	1013.1426458358765	3990	66875.9164288044	2715	31.954887218045116	
1.4142834714285715	201.72857142857143	10.514285714285714	75.58571428571429	52.614285714285714	11.3333	57	93	356	15	126	87	113	7	27	19	0	0	1026.815691947937	4060	67902.73212075233	2767	31.847290640394093	
1.6190458714285716	203.65714285714284	10.67142857142857	74.92857142857143	52.25714285714286	11.3333	58	93	275	15	207	144	135	8	24	17	0	0	1047.5366740226746	4130	68950.26879477501	2824	31.622276029055683	
2.2809481	202.17142857142858	10.657142857142857	77.81428571428572	54.285714285714285	11.3333	59	93	286	15	187	129	77	8	29	21	0	0	1071.4756886959076	4200	70021.74448347092	2874	31.57142857142857	
2.6714245285714284	200.88571428571427	10.914285714285715	85.42857142857143	59.5	11.3333	60	93	275	16	181	124	123	8	33	23	0	0	1079.8110876083374	4270	71101.55557107925	2924	31.522248243559716	
2.5523771857142856	196.4	11.028571428571428	82.87142857142857	57.75714285714286	11.3333	61	93	265	16	142	100	123	9	31	22	0	0	1059.0031459331512	4340	72160.5587170124	2971	31.543778801843317	
2.2476157	198.47142857142856	10.985714285714286	85.05714285714286	59.3	11.3333	62	93	246	16	189	130	148	7	17	12	0	0	1070.2778520584106	4410	73230.83656907082	3022	31.473922902494337	
2.266662742857143	199.18571428571428	10.4	78.02857142857142	54.34285714285714	11.3333	63	93	292	16	177	122	151	7	17	12	0	0	1045.8119866847992	4480	74276.64855575562	3071	31.450892857142847	
2.933329457142857	199.28571428571428	10.4	79.75714285714285	55.57142857142857	11.3333	64	93	239	14	138	96	155	8	31	22	0	0	1023.7586104869843	4550	75300.4071662426	3116	31.516483516483518	
2.6999959	199.5857142857143	10.528571428571428	80.95714285714286	56.357142857142854	11.3333	65	93	260	14	172	118	151	8	31	22	0	0	1032.10542678833	4620	76332.51259303093	3163	31.536796536796544	
3.0761867000000005	199.24285714285713	10.757142857142858	87.51428571428572	60.98571428571429	11.3333	66	93	276	15	164	115	136	8	30	22	0	0	1032.3990018367767	4690	77364.9115948677	3209	31.57782515991471	
2.9476153285714286	198.4142857142857	10.928571428571429	89.35714285714286	62.25714285714286	11.3333	67	93	248	16	194	134	149	8	33	23	0	0	1047.5916068553925	4760	78412.5032017231	3264	31.42857142857143	
2.3333319	199.31428571428572	11.114285714285714	95.14285714285714	66.22857142857143	12.0	68	94	248	15	194	134	150	8	33	23	0	0	1026.5158689022064	4830	79439.0190706253	3319	31.28364389233954	
2.2761882	202.7	11.371428571428572	95.82857142857142	66.67142857142858	12.0	69	95	248	16	257	179	118	9	29	20	0	0	1029.8883895874023	4900	80468.90746021271	3368	31.265306122448976	
2.1380939	202.21428571428572	11.485714285714286	99.08571428571429	69.0	12.0	70	95	264	17	284	197	140	7	23	16	0	0	1070.7119317054749	4970	81539.61939191818	3421	31.16700201207243	
2.7142859	202.55714285714285	10.942857142857143	88.77142857142857	61.957142857142856	12.0	71	96	260	15	234	164	149	9	34	24	0	0	1033.0718450546265	5040	82572.69123697281	3469	31.170634920634924	
2.1428567142857147	196.71428571428572	10.685714285714285	85.07142857142857	59.34285714285714	12.0	72	96	235	15	161	112	149	9	42	29	0	0	1035.5159471035004	5110	83608.20718407631	3521	31.0958904109589	
2.5285714285714285	198.4	10.957142857142857	88.35714285714286	61.52857142857143	12.0	73	96	259	16	227	158	132	7	17	12	0	0	994.3720462322235	5180	84602.57923030853	3575	30.984555984555982	
3.0714281428571426	198.74285714285713	10.614285714285714	87.81428571428572	61.042857142857144	12.0	74	97	263	15	236	164	123	7	26	18	0	0	994.3828761577606	5250	85596.9621064663	3617	31.1047619047619	
2.5952378	199.04285714285714	10.771428571428572	84.12857142857143	58.628571428571426	12.0	75	98	255	16	221	155	106	8	42	29	0	0	1007.2798199653625	5320	86604.24192643166	3663	31.14661654135338	
1.9857147142857143	201.4	10.785714285714286	85.68571428571428	59.714285714285715	12.0	76	98	305	17	197	136	96	8	26	18	0	0	1021.1027638912201	5390	87625.34469032288	3711	31.150278293135443	
2.047619457142857	196.1	10.371428571428572	76.54285714285714	53.457142857142856	12.0	77	98	306	16	167	116	96	8	22	16	0	0	1024.0948493480682	5460	88649.43953967094	3762	31.098901098901095	
1.885713942857143	191.62857142857143	10.842857142857143	83.94285714285714	58.5	12.0	78	98	237	16	209	147	96	8	24	17	0	0	1043.9915153980255	5530	89693.43105506897	3817	30.976491862567812	
2.352380757142857	195.64285714285714	10.428571428571429	77.35714285714286	54.02857142857143	12.0	79	98	268	16	247	172	94	7	17	12	0	0	1041.9491267204285	5600	90735.3801817894	3873	30.839285714285708	
2.4857138142857145	197.5142857142857	10.6	80.91428571428571	56.41428571428571	12.0	80	99	268	16	247	172	96	7	15	11	0	0	1033.1263558864594	5670	91768.50653767586	3917	30.917107583774253	
2.5190474285714286	199.17142857142858	10.571428571428571	79.28571428571429	55.34285714285714	12.0	81	99	268	15	192	133	149	9	33	23	0	0	1045.2460532188416	5740	92813.7525908947	3961	30.99303135888502	
2.0523808142857143	205.35714285714286	10.414285714285715	79.0	55.05714285714286	12.0	82	99	314	15	204	141	135	8	26	18	0	0	1022.5707731246948	5810	93836.3233640194	4014	30.912220309810664	
1.623809242857143	203.65714285714284	10.442857142857143	83.24285714285715	57.871428571428574	12.0	83	99	300	16	191	132	150	8	26	18	0	0	1037.018373966217	5880	94873.34173798561	4069	30.79931972789116	
2.3666669571428574	201.68571428571428	10.571428571428571	86.8	60.41428571428571	12.0	84	99	262	16	199	138	127	8	31	22	0	0	1040.765733242035	5950	95914.10747122765	4122	30.722689075630257	
2.4666669999999997	200.18571428571428	10.32857142857143	78.82857142857142	54.98571428571429	12.0	85	99	252	14	192	132	127	9	31	22	0	0	1058.0915746688843	6020	96972.19904589653	4166	30.797342192691033	
3.142857671428571	198.07142857142858	10.514285714285714	77.72857142857143	54.2	12.0	86	99	241	15	166	116	167	8	31	22	0	0	1038.8105595111847	6090	98011.00960540771	4212	30.837438423645324	
2.219046714285714	198.3	10.67142857142857	82.15714285714286	57.25714285714286	12.0	87	99	236	16	218	151	140	8	37	26	0	0	1066.1859183311462	6160	99077.19552373886	4266	30.746753246753244	
2.590476142857143	197.1	10.528571428571428	79.67142857142858	55.67142857142857	12.0	88	99	267	17	184	127	128	8	26	18	0	0	1055.6782810688019	6230	100132.87380480766	4311	30.80256821829856	
2.9619037999999995	201.04285714285714	11.028571428571428	86.97142857142858	60.65714285714286	12.0	89	99	265	15	178	124	125	7	17	12	0	0	1032.835678577423	6300	101165.70948338509	4357	30.841269841269835	
2.857142328571429	200.88571428571427	11.028571428571428	87.65714285714286	61.214285714285715	12.0	90	99	251	16	178	124	158	8	34	24	0	0	1012.5442435741425	6370	102178.25372695923	4406	30.832025117739406	
2.5809529571428573	205.65714285714284	10.757142857142858	78.37142857142857	54.7	12.0	91	99	274	16	237	165	120	8	26	18	0	0	986.4535088539124	6440	103164.70723581314	4457	30.791925465838517	
2.5190466714285713	203.67142857142858	10.17142857142857	71.17142857142858	49.72857142857143	12.0	92	99	274	13	127	88	140	8	26	18	0	0	1006.4650723934174	6510	104171.17230820656	4504	30.814132104454686	
3.104759857142857	202.1	10.371428571428572	77.65714285714286	54.22857142857143	12.0	93	99	318	16	195	134	140	7	18	13	0	0	1010.8714067935944	6580	105182.04371500015	4548	30.881458966565347	
2.576189857142857	197.9857142857143	10.885714285714286	89.11428571428571	62.142857142857146	12.0	94	99	301	15	183	126	125	8	26	18	0	0	1042.0812833309174	6650	106224.12499833107	4596	30.88721804511279	
2.1666666142857145	196.95714285714286	10.914285714285715	89.78571428571429	62.542857142857144	12.0	95	99	300	17	200	138	108	7	17	12	0	0	1061.0665962696075	6720	107285.19159460068	4650	30.80357142857143	
1.9047618142857143	195.4857142857143	10.514285714285714	82.91428571428571	57.68571428571428	12.0	96	99	249	15	182	126	154	7	17	12	0	0	1014.7168588638306	6790	108299.90845346451	4693	30.88365243004418	
1.842857571428571	196.95714285714286	10.657142857142857	87.5	60.871428571428574	12.0	97	99	290	16	182	126	99	8	26	18	0	0	1032.9633021354675	6860	109332.87175559998	4749	30.772594752186592	
2.3190477142857144	206.64285714285714	11.057142857142857	91.37142857142857	63.41428571428571	12.0	98	99	316	16	205	144	149	7	17	12	0	0	1043.5798902511597	6930	110376.45164585114	4801	30.721500721500718	
2.2809519	197.44285714285715	10.785714285714286	84.02857142857142	58.457142857142856	12.0	99	99	316	15	157	109	121	8	26	18	0	0	1039.4716601371765	7000	111415.92330598831	4851	30.700000000000003	
3.0095238571428573	199.34285714285716	10.571428571428571	82.77142857142857	57.628571428571426	12.0	100	99	238	17	176	123	156	7	17	12	0	0	1016.9240081310272	7070	112432.84731411934	4893	30.792079207920793	
2.8238092285714282	198.67142857142858	11.1	90.18571428571428	62.642857142857146	12.0	101	99	313	16	178	123	92	7	17	12	0	0	1043.6762523651123	7140	113476.52356648445	4948	30.700280112044823	
2.823809142857143	206.3	10.871428571428572	88.02857142857142	61.27142857142857	12.0	102	99	311	16	193	134	83	8	52	37	0	0	1040.1770215034485	7210	114516.7005879879	4995	30.721220527045773	
3.0	206.55714285714285	10.928571428571429	90.2	62.72857142857143	12.0	103	99	284	15	188	130	83	8	40	28	0	0	1038.1159846782684	7280	115554.81657266617	5050	30.63186813186813	
1.8190471857142858	211.31428571428572	10.428571428571429	83.04285714285714	57.77142857142857	12.0	104	99	284	15	167	115	114	7	26	18	0	0	1045.1654796600342	7350	116599.9820523262	5098	30.639455782312936	
1.3904761857142856	215.45714285714286	10.985714285714286	92.91428571428571	64.57142857142857	12.0	105	100	298	16	196	137	127	9	51	36	0	0	1061.704157114029	7420	117661.68620944023	5155	30.525606469002696	
1.9523804285714286	210.9857142857143	10.785714285714286	87.25714285714285	60.74285714285714	12.0	106	100	298	16	293	202	104	9	52	37	0	0	1057.6797649860382	7490	118719.36597442627	5194	30.65420560747664	
2.433333328571429	212.82857142857142	10.628571428571428	92.35714285714286	64.25714285714285	12.0	107	100	327	15	274	189	158	8	26	18	0	0	1081.1458473205566	7560	119800.51182174683	5243	30.648148148148152	
2.166667085714286	213.28571428571428	10.471428571428572	84.32857142857142	58.7	12.0	108	101	328	16	254	174	157	7	17	12	0	0	1025.0431649684906	7630	120825.55498671532	5289	30.68152031454784	
2.242857571428571	196.97142857142856	10.585714285714285	79.05714285714286	55.128571428571426	12.0	109	101	261	15	141	99	157	7	17	12	0	0	1095.1131706237793	7700	121920.6681573391	5338	30.675324675324674	
2.542857757142857	195.82857142857142	10.528571428571428	79.57142857142857	55.542857142857144	12.0	110	101	261	14	170	118	145	8	31	22	0	0	1104.3491053581238	7770	123025.01726269722	5387	30.669240669240665	
2.2761905285714286	197.65714285714284	10.8	79.54285714285714	55.457142857142856	12.0	111	101	232	15	132	91	149	8	31	22	0	0	1076.2762796878815	7840	124101.2935423851	5436	30.66326530612244	
2.1761904857142853	192.4	10.985714285714286	87.57142857142857	61.01428571428571	12.0	112	101	234	16	173	119	149	8	38	26	0	0	1085.3859493732452	7910	125186.67949175835	5483	30.682680151706705	
2.914285814285714	195.82857142857142	10.657142857142857	84.28571428571429	58.74285714285714	12.0	113	101	241	16	173	119	123	7	26	18	0	0	1042.8918220996857	7980	126229.57131385803	5526	30.75187969924812	
2.6857134285714284	195.62857142857143	10.514285714285714	78.0	54.32857142857143	12.0	114	101	259	16	176	121	123	7	24	17	0	0	1022.724374294281	8050	127252.29568815231	5571	30.795031055900623	
1.7571433285714286	193.81428571428572	10.314285714285715	73.95714285714286	51.614285714285714	12.0	115	101	259	14	152	106	135	7	22	16	0	0	1007.0659415721893	8120	128259.3616297245	5618	30.812807881773395	
2.214285571428572	192.65714285714284	10.142857142857142	71.6	49.94285714285714	12.0	116	101	235	14	182	126	135	7	22	16	0	0	1011.9802067279816	8190	129271.34183645248	5663	30.85470085470085	
2.857143814285714	194.34285714285716	10.314285714285715	73.67142857142858	51.41428571428571	12.0	117	101	238	15	138	97	135	7	15	11	0	0	1014.4098126888275	8260	130285.75164914131	5708	30.895883777239703	
1.8619055714285715	190.42857142857142	10.071428571428571	73.95714285714286	51.55714285714286	12.0	118	101	266	13	145	101	123	7	15	11	0	0	1013.481157541275	8330	131299.2328066826	5753	30.936374549819917	
1.6952379999999998	192.74285714285713	10.285714285714286	81.21428571428571	56.57142857142857	12.0	119	101	266	14	184	126	123	7	24	17	0	0	1047.0733079910278	8400	132346.3061146736	5799	30.964285714285708	
1.9333334714285717	187.67142857142858	10.514285714285714	82.21428571428571	57.3	12.0	120	101	266	16	184	126	122	7	24	17	0	0	1017.512369632721	8470	133363.81848430634	5848	30.95631641086186	
1.6473434782608694	186.2	10.55072463768116	85.44927536231884	59.42028985507246	12.0	121	103	309	15.0	184.0	126.0	57	7.0	24.0	17.0	0	0	984.0343976020813	8540	134347.85288190842	5897	30.948477751756442	
2.6238105285714286	185.5142857142857	10.342857142857143	78.48571428571428	54.74285714285714	12.0	122	103	309	14	185	129	81	7	24	17	0	0	997.0291543006897	8610	135344.8820362091	5941	30.998838559814175	
1.295238142857143	181.24285714285713	10.657142857142857	82.62857142857143	57.52857142857143	12.0	123	104	267	17	184	126	52	8	24	17	0	0	999.7394270896912	8680	136344.6214632988	5992	30.967741935483872	
1.928570857142857	188.34285714285716	10.371428571428572	78.11428571428571	54.51428571428571	12.0	124	104	281	16	163	112	52	7	17	12	0	0	1031.0134937763214	8750	137375.63495707512	6037	31.005714285714276	
1.980676956521739	185.37142857142857	10.63768115942029	87.02898550724638	60.78260869565217	12.0	125	106	281	16.0	227.0	158.0	30	8.0	31.0	22.0	0	0	1016.5903322696686	8820	138392.2252893448	6089	30.963718820861672	
1.6095234714285713	195.45714285714286	10.685714285714285	83.64285714285714	58.25714285714286	12.0	126	106	259	15	162	112	141	8	26	18	0	0	1055.9580373764038	8890	139448.1833267212	6143	30.899887514060737	
1.9523809	189.4142857142857	10.285714285714286	72.52857142857142	50.628571428571426	12.0	127	106	232	15	155	108	122	8	26	18	0	0	1029.663429260254	8960	140477.84675598145	6184	30.98214285714286	
1.704761857142857	194.12857142857143	10.128571428571428	72.71428571428571	50.77142857142857	12.0	128	106	228	14	156	107	141	8	26	18	0	0	1039.244217634201	9030	141517.09097361565	6231	30.996677740863788	
2.5809535285714285	198.62857142857143	10.271428571428572	75.67142857142858	52.81428571428572	12.0	129	106	223	16	230	160	158	8	34	24	0	0	1000.3491306304932	9100	142517.44010424614	6279	31.0	
3.3380966142857145	197.97142857142856	10.371428571428572	77.28571428571429	53.97142857142857	12.0	130	106	235	14	172	120	159	8	31	22	0	0	1018.7441785335541	9170	143536.1842827797	6324	31.035986913849513	
2.1666665714285713	198.2	10.271428571428572	81.25714285714285	56.6	12.0	131	106	241	15	184	128	150	8	42	29	0	0	1033.7105944156647	9240	144569.89487719536	6374	31.01731601731602	
2.2000007142857143	196.62857142857143	10.128571428571428	75.0	52.25714285714286	12.0	132	106	241	12	174	120	162	8	24	17	0	0	994.4376773834229	9310	145564.33255457878	6423	31.009667024704626	
2.2952379	200.05714285714285	10.414285714285715	80.28571428571429	55.81428571428572	12.0	133	106	241	14	174	120	172	8	32	22	0	0	1008.4481630325317	9380	146572.7807176113	6470	31.02345415778251	
1.5857145285714285	203.47142857142856	10.842857142857143	87.25714285714285	60.55714285714286	12.0	134	106	270	16	213	147	142	8	30	21	0	0	999.8030972480774	9450	147572.5838148594	6526	30.941798941798936	
1.7333338142857144	207.22857142857143	10.757142857142858	83.2	57.885714285714286	12.0	135	107	270	16	166	116	148	8	39	27	0	0	1008.5424883365631	9520	148581.12630319595	6577	30.91386554621849	
2.052381385714286	204.9	10.714285714285714	83.01428571428572	57.81428571428572	12.0	136	107	287	15	240	166	154	8	22	16	0	0	1023.982583284378	9590	149605.10888648033	6626	30.907194994786238	
2.0476195714285716	206.11428571428573	10.5	81.01428571428572	56.32857142857143	12.0	137	107	273	14	172	120	159	7	17	12	0	0	980.5056147575378	9660	150585.61450123787	6679	30.8592132505176	
2.0761904857142857	204.0857142857143	10.585714285714285	81.98571428571428	57.02857142857143	12.0	138	107	291	14	215	150	100	7	17	12	0	0	996.8965246677399	9730	151582.5110259056	6727	30.863309352517987	
3.2142857	209.57142857142858	10.871428571428572	86.68571428571428	60.25714285714286	12.0	139	107	320	16	212	146	129	7	17	12	0	0	964.6088507175446	9800	152547.11987662315	6774	30.877551020408163	
3.0333335142857143	199.9	10.82857142857143	86.58571428571429	60.31428571428572	12.0	140	107	273	15	214	148	141	9	49	34	0	0	997.412446975708	9870	153544.53232359886	6820	30.901722391084093	
2.8571432285714287	198.64285714285714	10.528571428571428	79.5	55.41428571428571	12.0	141	107	245	12	137	94	141	7	17	12	0	0	1014.2693822383881	9940	154558.80170583725	6875	30.83501006036218	
2.809524771428572	195.15714285714284	10.757142857142858	83.3	58.08571428571429	12.0	142	107	252	15	209	144	129	7	27	19	0	0	1041.3585848808289	10010	155600.16029071808	6924	30.82917082917082	
2.0380961857142856	194.02857142857144	10.457142857142857	78.82857142857142	55.01428571428571	12.0	143	107	282	15	184	127	98	7	22	16	0	0	1043.5814852714539	10080	156643.74177598953	6970	30.853174603174608	
2.4666662285714285	199.95714285714286	10.342857142857143	79.38571428571429	55.357142857142854	12.0	144	107	282	16	167	115	141	7	22	16	0	0	1022.6372413635254	10150	157666.37901735306	7025	30.78817733990148	
2.433333771428572	202.64285714285714	10.514285714285714	78.67142857142858	54.84285714285714	12.0	145	107	271	14	150	104	141	7	15	11	0	0	1025.0325481891632	10220	158691.41156554222	7075	30.77299412915852	
2.0714284285714286	208.22857142857143	10.542857142857143	82.22857142857143	57.17142857142857	12.0	146	107	246	15	192	132	170	7	15	11	0	0	996.1182765960693	10290	159687.5298421383	7123	30.777453838678326	
1.5904761	212.52857142857144	10.457142857142857	82.35714285714286	57.34285714285714	12.0	147	107	277	17	233	161	167	7	17	12	0	0	1004.5821027755737	10360	160692.11194491386	7173	30.762548262548265	
2.271428185714286	213.0	11.028571428571428	90.92857142857143	63.3	12.0	148	107	291	16	221	151	161	8	42	29	0	0	1011.1158993244171	10430	161703.22784423828	7218	30.79578139980825	
2.7809519428571425	206.5142857142857	10.957142857142857	90.47142857142858	63.15714285714286	12.0	149	107	331	17	191	133	141	8	35	24	0	0	1027.9931421279907	10500	162731.22098636627	7264	30.819047619047623	
2.776191	198.84285714285716	10.857142857142858	92.47142857142858	64.51428571428572	12.0	150	107	238	17	220	152	134	8	24	17	0	0	1039.5418574810028	10570	163770.76284384727	7319	30.756859035004737	
3.0523815714285716	198.94285714285715	10.814285714285715	88.65714285714286	61.785714285714285	12.0	151	107	276	15	211	148	129	8	29	20	0	0	991.1968195438385	10640	164761.9596633911	7367	30.761278195488714	
2.900000714285714	196.12857142857143	10.82857142857143	83.12857142857143	57.97142857142857	12.0	152	107	256	16	201	140	133	8	24	17	0	0	1002.6579105854034	10710	165764.61757397652	7408	30.830999066293188	
2.585715242857143	199.37142857142857	10.642857142857142	84.05714285714286	58.47142857142857	12.0	153	107	268	16	170	118	144	8	33	23	0	0	990.8210632801056	10780	166755.43863725662	7455	30.844155844155836	
2.1523805714285715	199.97142857142856	10.628571428571428	86.64285714285714	60.4	12.0	154	108	271	14	192	135	151	8	31	22	0	0	1009.0712125301361	10850	167764.50984978676	7506	30.820276497695858	
2.199999714285714	201.4	10.871428571428572	89.98571428571428	62.68571428571428	12.0	155	109	260	16	178	124	87	7	27	19	0	0	1050.1573870182037	10920	168814.66723680496	7553	30.83333333333333	
2.2666666714285713	192.18571428571428	10.685714285714285	86.4	60.17142857142857	12.0	156	109	247	15	181	126	77	7	24	17	0	0	1061.366355895996	10990	169876.03359270096	7600	30.846223839854417	
2.5238080857142857	192.9857142857143	10.742857142857142	86.2	60.02857142857143	12.0	157	109	236	13	194	136	87	7	21	15	0	0	1077.9143741130829	11060	170953.94796681404	7649	30.840867992766732	
1.9095233285714284	186.15714285714284	10.685714285714285	83.54285714285714	58.15714285714286	12.0	158	109	234	16	189	132	59	8	31	22	0	0	1008.7147526741028	11130	171962.66271948814	7701	30.80862533692722	
2.058823382352941	175.9	10.735294117647058	85.94117647058823	59.720588235294116	12.0	159	112	231	16.0	168.0	118.0	66	8.0	26.0	18.0	0	0	981.5738244056702	11200	172944.2365438938	7749	30.8125	
2.609523185714286	191.75714285714287	10.82857142857143	90.87142857142857	63.25714285714286	12.0	160	112	279	16	212	149	90	8	26	18	0	0	1032.5164546966553	11270	173976.75299859047	7800	30.789707187222717	
2.1428574714285715	192.74285714285713	10.814285714285715	89.57142857142857	62.32857142857143	12.0	161	112	286	14	177	121	90	8	26	18	0	0	1060.879112958908	11340	175037.63211154938	7852	30.75837742504409	
2.1952373571428567	195.5142857142857	11.0	89.74285714285715	62.542857142857144	12.0	162	113	286	16	212	147	112	7	18	13	0	0	1008.5038800239563	11410	176046.13599157333	7896	30.797546012269933	
2.995237657142857	195.44285714285715	11.1	91.71428571428571	63.91428571428571	12.0	163	114	286	17	261	180	144	9	42	29	0	0	1036.3945648670197	11480	177082.53055644035	7942	30.818815331010455	
3.771428185714286	199.4857142857143	10.928571428571429	87.81428571428572	61.24285714285714	12.0	164	114	274	16	209	144	145	9	42	29	0	0	1034.5993897914886	11550	178117.12994623184	7987	30.848484848484844	
2.433333142857143	199.25714285714287	10.485714285714286	83.28571428571429	58.05714285714286	12.0	165	114	274	16	200	138	150	8	31	22	0	0	1044.4456670284271	11620	179161.57561326027	8038	30.82616179001721	
2.1428564714285714	194.84285714285716	10.557142857142857	79.78571428571429	55.614285714285714	12.0	166	114	274	15	194	135	150	8	41	29	0	0	1044.4622473716736	11690	180206.03786063194	8084	30.84687767322498	
2.452380042857143	196.62857142857143	10.857142857142858	84.85714285714286	59.22857142857143	12.0	167	114	226	16	162	112	145	8	32	23	0	0	1043.115098953247	11760	181249.1529595852	8129	30.875850340136054	
2.6047620000000005	197.31428571428572	10.642857142857142	84.34285714285714	58.871428571428574	12.0	168	114	230	13	162	112	154	8	42	29	0	0	1071.22465133667	11830	182320.37761092186	8183	30.828402366863912	
2.214286142857143	193.4	10.514285714285714	84.07142857142857	58.628571428571426	12.0	169	114	241	14	227	158	116	7	17	12	0	0	1059.5812468528748	11900	183379.95885777473	8232	30.82352941176471	
2.3190474714285716	196.28571428571428	10.542857142857143	86.14285714285714	60.042857142857144	12.0	170	114	241	16	240	168	116	8	38	27	0	0	1055.0738108158112	11970	184435.03266859055	8280	30.827067669172934	
1.9952380857142855	188.84285714285716	10.285714285714286	76.48571428571428	53.4	12.0	171	114	271	15	140	98	116	8	41	29	0	0	1061.531373500824	12040	185496.56404209137	8330	30.813953488372093	
2.590476285714286	186.37142857142857	10.785714285714286	87.85714285714286	61.22857142857143	12.0	172	114	283	16	180	125	116	8	42	29	0	0	1025.3607575893402	12110	186521.9247996807	8381	30.792733278282412	
2.657142428571429	192.4857142857143	10.642857142857142	86.08571428571429	60.08571428571429	12.0	173	114	308	15	202	140	105	8	24	17	0	0	990.1703760623932	12180	187512.0951757431	8433	30.763546798029566	
2.561904757142857	193.4857142857143	10.728571428571428	85.34285714285714	59.52857142857143	12.0	174	114	308	15	202	140	105	8	22	16	0	0	1004.3355183601379	12250	188516.43069410324	8476	30.80816326530612	
2.5857158142857144	201.52857142857144	10.628571428571428	84.64285714285714	59.042857142857144	12.0	175	114	308	16	175	122	105	8	22	16	0	0	1005.5442290306091	12320	189521.97492313385	8519	30.85227272727272	
2.214286142857143	203.21428571428572	10.814285714285715	86.41428571428571	60.22857142857143	12.0	176	114	308	15	169	118	77	8	42	29	0	0	1023.775294303894	12390	190545.75021743774	8567	30.855528652138815	
2.590476857142857	204.9142857142857	10.814285714285715	89.85714285714286	62.58571428571429	12.0	177	114	319	15	261	181	123	7	17	12	0	0	1027.4069783687592	12460	191573.1571958065	8615	30.858747993579456	
2.2047624285714287	204.8	10.928571428571429	89.3	62.17142857142857	12.0	178	114	319	16	188	130	65	8	47	33	0	0	1057.1143293380737	12530	192630.27152514458	8661	30.877893056664007	
3.2238095714285717	201.64285714285714	11.17142857142857	94.15714285714286	65.5	12.0	179	114	342	17	228	158	65	8	31	22	0	0	1041.9326565265656	12600	193672.20418167114	8708	30.888888888888886	
2.3238095714285714	203.75714285714287	10.857142857142858	85.31428571428572	59.371428571428574	12.0	180	114	322	16	170	118	140	8	38	27	0	0	1044.9219181537628	12670	194717.1260998249	8762	30.844514601420684	
2.1476189999999997	196.0857142857143	10.757142857142858	84.4	58.77142857142857	12.0	181	115	254	14	196	136	140	8	34	24	0	0	987.0612065792084	12740	195704.1873064041	8809	30.855572998430134	
2.2761899999999997	204.4857142857143	10.685714285714285	86.57142857142857	60.385714285714286	12.0	182	115	254	14	178	123	160	8	50	35	0	0	1053.9892151355743	12810	196758.1765215397	8861	30.82747853239657	
2.5523804857142856	201.5142857142857	11.0	91.74285714285715	63.871428571428574	12.0	183	115	254	15	217	150	141	8	42	29	0	0	1075.0677704811096	12880	197833.2442920208	8905	30.861801242236027	
3.114284814285714	205.54285714285714	10.7	90.12857142857143	62.82857142857143	12.0	184	115	255	15	234	162	139	7	17	12	0	0	1031.6613819599152	12950	198864.9056739807	8952	30.872586872586865	
3.0809519	201.75714285714287	10.514285714285714	82.5	57.542857142857144	12.0	185	115	277	13	169	117	150	8	44	30	0	0	1017.9738402366638	13020	199882.87951421738	9000	30.875576036866363	
3.695238614285714	203.07142857142858	10.8	87.81428571428572	61.18571428571428	12.0	186	115	247	16	220	152	152	8	42	29	0	0	1002.5227584838867	13090	200885.40227270126	9045	30.901451489686778	
2.7190473857142856	202.72857142857143	10.885714285714286	90.82857142857142	63.34285714285714	12.0	187	115	247	16	163	113	152	8	38	27	0	0	1030.29855966568	13160	201915.70083236694	9093	30.90425531914893	
2.8238091428571424	200.11428571428573	10.728571428571428	84.45714285714286	58.84285714285714	12.0	188	115	246	15	164	114	134	8	38	27	0	0	1022.1969068050385	13230	202937.89773917198	9144	30.884353741496597	
2.4761900000000003	202.21428571428572	10.757142857142858	87.57142857142857	60.94285714285714	12.0	189	116	272	16	228	158	153	8	26	18	0	0	975.2246761322021	13300	203913.12241530418	9195	30.864661654135332	
1.7857142	203.7	10.557142857142857	86.28571428571429	60.142857142857146	12.0	190	116	310	17	246	170	101	7	17	12	0	0	1013.437374830246	13370	204926.55979013443	9247	30.837696335078533	
2.8333332	214.3	10.5	79.7	55.51428571428571	12.0	191	116	310	16	195	136	122	7	17	12	0	0	986.7551236152649	13440	205913.3149137497	9297	30.82589285714286	
3.828570385714285	215.38571428571427	10.6	85.62857142857143	59.72857142857143	12.0	192	116	310	15	195	136	179	8	22	16	0	0	997.3315114974976	13510	206910.6464252472	9336	30.89563286454478	
3.390476285714286	211.25714285714287	10.757142857142858	84.65714285714286	59.05714285714286	12.0	193	116	310	16	243	168	142	8	42	29	0	0	1028.2759251594543	13580	207938.92235040665	9387	30.876288659793815	
2.4571424714285715	209.65714285714284	10.528571428571428	78.61428571428571	54.82857142857143	12.0	194	116	327	13	161	111	133	8	31	22	0	0	1045.9896807670593	13650	208984.9120311737	9431	30.908424908424905	
2.6523814285714287	204.5857142857143	10.728571428571428	81.95714285714286	57.08571428571429	12.0	195	116	282	15	152	106	140	7	15	11	0	0	1055.22736120224	13720	210040.13939237595	9474	30.947521865889215	
2.252381628571429	207.84285714285716	10.5	78.2	54.542857142857144	12.0	196	116	284	14	167	115	119	7	15	11	0	0	1039.6554403305054	13790	211079.79483270645	9519	30.971718636693254	
2.4571425714285713	203.85714285714286	10.742857142857142	79.91428571428571	55.75714285714286	12.0	197	116	284	15	168	116	145	8	24	17	0	0	1052.9559123516083	13860	212132.75074505806	9571	30.94516594516594	
2.0999996142857142	203.68571428571428	10.857142857142858	82.67142857142858	57.542857142857144	12.0	198	116	294	17	177	123	155	8	39	28	0	0	1058.9078483581543	13930	213191.6585934162	9622	30.926058865757355	
2.5238086285714285	209.5	10.642857142857142	84.25714285714285	58.7	12.0	199	117	322	14	161	112	150	8	38	27	0	0	986.9042122364044	14000	214178.56280565262	9670	30.92857142857143	
1.9380951857142856	202.44285714285715	10.614285714285714	83.35714285714286	57.98571428571429	12.0	200	118	322	15	141	98	99	8	26	18	0	0	1014.7446520328522	14070	215193.30745768547	9721	30.909737029140018	
