Generation:
2000

Phenotype:
*:*:B_RANDOM_WALK,81;B_ANTI_PHOTOTAXIS,44;B_RANDOM_WALK,86;IS_DROP_OBJECT,true,12;IS_WANT_OBJECT,true,47;IS_DROP_OBJECT,false,50;B_RANDOM_WALK,20#

Genotype:
[25393, 28677, 39891, 59691, 28375, 28813, 81250, 42556, 69964, 19646, 75023, 51736, 51086, 12097, 53086, 87914, 87180, 56888, 37062, 7880, 14529, 79506, 2465, 10240, 49105, 95778, 94245, 88776, 2465, 52206, 86904, 37162, 59839, 88616, 95067, 31189, 31537, 25649, 41258, 34243, 61534, 48613, 21263, 93849, 47838, 96540, 78439, 92489, 7880, 14529, 79506, 2465, 81239, 49105, 40366, 96162, 24297, 12581, 17511, 42073, 45003, 95929, 64074, 35176, 47838, 96540, 56888, 97927, 7880, 14529, 79506, 2465, 2236, 49105, 40366, 88964, 24297, 12581, 17511, 42073, 45003, 59358, 66568, 63919, 94716, 22561, 2430, 2866, 70509, 16186, 32917, 77255]
Tree:
None

Fitness:
6.4