Generation:
200

Phenotype:
*:*:IS_WANT_OBJECT,true,66;IS_WANT_OBJECT,false,26;IS_DROP_OBJECT,false,89;B_ANTI_PHOTOTAXIS,91#P_HAS_OBJECT,false;*:*:B_PHOTOTAXIS,65;B_RANDOM_WALK,57;B_PHOTOTAXIS,51;B_RANDOM_WALK,63#

Genotype:
[81252, 16046, 55715, 68998, 65639, 82677, 27594, 67131, 34854, 60166, 56392, 54000, 8326, 21047, 34273, 62898, 58077, 70827, 508, 19907, 60522, 92931, 20653, 53316, 70525, 50828, 23872, 72268, 65640, 13257, 39565, 87246, 36679, 67895, 90191, 93517, 72682, 93401, 39735, 9518, 16780, 89322, 58473, 46121, 77574, 8228, 95300, 69587, 82372, 80174, 3452, 45263, 10806, 5606, 82963, 49790, 65639, 59279, 95205, 36679, 67895, 90191, 20754, 47948, 11897, 25675, 95919, 30574, 94067, 75053, 95133, 47524, 19198, 25584, 6541, 49126, 55176, 96788, 42453, 82963, 90264, 65639, 83009, 27594, 10657, 34854, 60166, 45280, 42199, 8326, 21047, 90075, 62898, 13649, 70827, 2234, 26442, 9005, 67803, 87937, 138, 70525, 50828, 23872, 37469, 69123, 33389, 59279, 87246, 36615, 67895, 90191, 24034, 99785, 93546, 33898, 16036, 56012, 34198, 19475, 20653, 53316, 70525, 13214, 23872, 34100, 7251, 40590, 67796, 7376, 41785, 95284, 90191, 18235, 10904, 81107, 14186, 78899, 52061, 94067, 46617, 38435, 47524, 19198, 14682, 85888, 49126, 81013, 96788, 98079, 59361, 21899, 81367, 66237, 82547, 47290, 86255, 89681, 75091, 57209, 78744, 139, 3501, 11143, 9864, 78308, 53668, 97805, 5111, 78434, 44673, 32936, 76981, 80026, 21598, 21023, 49118, 17513, 32112, 93629, 66254, 55094, 14532, 77207, 84587, 99001, 91624, 82386, 1781, 24923, 13002, 64301, 64434, 22948, 54592, 96453, 33168]
Tree:
None

Fitness:
12.0