ave_fitness	ave_genome_length	ave_tree_depth	ave_tree_nodes	ave_used_codons	best_fitness	gen	invalids	max_genome_length	max_tree_depth	max_tree_nodes	max_used_codons	min_genome_length	min_tree_depth	min_tree_nodes	min_used_codons	runtime_error	time_adjust	time_taken	total_inds	total_time	unique_inds	unused_search	
0.009523814285714286	54.65714285714286	8.257142857142858	52.34285714285714	36.58571428571429	0.666667	0	0	129	10	123	86	16	7	15	11	0	0	1266.6904454231262	70	1266.6904454231262	70	0.0	
0.01282051923076923	49.94285714285714	8.057692307692308	40.71153846153846	28.365384615384617	0.666667	1	19	112	10.0	119.0	82.0	11	7.0	15.0	11.0	0	0	880.0800256729126	140	2146.770471096039	111	20.714285714285722	
0.010752693548387097	47.214285714285715	8.03225806451613	36.5	25.43548387096774	0.666667	2	28	106	13.0	93.0	65.0	16	7.0	15.0	11.0	0	0	1017.6209259033203	210	3164.391396999359	141	32.85714285714286	
0.010582015873015873	40.9	7.873015873015873	31.873015873015873	22.26984126984127	0.666667	3	36	97	10.0	93.0	65.0	7	7.0	15.0	11.0	0	0	1063.6139006614685	280	4228.005297660828	164	41.42857142857142	
0.010582015873015873	41.8	8.0	33.22222222222222	23.22222222222222	0.666667	4	44	102	14.0	93.0	65.0	11	7.0	15.0	11.0	0	0	1078.716739654541	350	5306.722037315369	186	46.857142857142854	
0.011299440677966103	42.128571428571426	8.0	35.88135593220339	25.016949152542374	0.666667	5	56	127	14.0	93.0	65.0	12	7.0	15.0	11.0	0	0	987.5154368877411	420	6294.23747420311	212	49.523809523809526	
0.011299440677966103	42.41428571428571	7.915254237288136	33.355932203389834	23.305084745762713	0.666667	6	68	99	10.0	93.0	65.0	14	7.0	15.0	11.0	0	0	979.4070498943329	490	7273.644524097443	246	49.795918367346935	
0.010928967213114755	44.214285714285715	7.868852459016393	34.59016393442623	24.016393442622952	0.666667	7	78	97	11.0	93.0	65.0	16	7.0	15.0	11.0	0	0	1007.5854086875916	560	8281.229932785034	278	50.357142857142854	
0.010101015151515153	44.01428571428571	7.787878787878788	34.28787878787879	23.78787878787879	0.666667	8	83	97	12.0	93.0	65.0	16	7.0	15.0	11.0	0	0	1079.1229827404022	630	9360.352915525436	305	51.58730158730159	
0.010101015151515153	53.857142857142854	8.136363636363637	36.484848484848484	25.37878787878788	0.666667	9	88	116	12.0	93.0	65.0	16	7.0	15.0	11.0	0	0	1098.227195262909	700	10458.580110788345	339	51.57142857142858	
0.009661840579710146	56.25714285714286	8.115942028985508	37.42028985507246	26.043478260869566	0.666667	10	90	98	13.0	98.0	68.0	16	7.0	15.0	11.0	0	0	1174.8040368556976	770	11633.384147644043	373	51.55844155844156	
0.010101015151515153	53.457142857142856	8.409090909090908	40.65151515151515	28.21212121212121	0.666667	11	95	98	13.0	100.0	69.0	16	7.0	15.0	11.0	0	0	1107.8753399848938	840	12741.259487628937	404	51.904761904761905	
0.010416671875	54.3	8.390625	39.78125	27.640625	0.666667	12	102	145	13.0	98.0	68.0	14	7.0	15.0	11.0	0	0	1050.0569651126862	910	13791.316452741623	444	51.20879120879121	
0.009803926470588236	54.75714285714286	8.367647058823529	40.35294117647059	28.029411764705884	0.666667	13	105	107	13.0	96.0	66.0	16	7.0	15.0	11.0	0	0	1100.6210865974426	980	14891.937539339066	472	51.83673469387755	
0.010101015151515153	56.72857142857143	8.772727272727273	45.39393939393939	31.59090909090909	0.666667	14	110	112	13.0	114.0	80.0	12	7.0	15.0	11.0	0	0	1093.5883977413177	1050	15985.525937080383	507	51.714285714285715	
0.010582015873015873	59.24285714285714	8.825396825396826	46.301587301587304	32.12698412698413	0.666667	15	118	136	13.0	112.0	77.0	14	7.0	15.0	11.0	0	0	1018.649867773056	1120	17004.17580485344	533	52.41071428571429	
0.010256415384615384	64.01428571428572	9.015384615384615	45.07692307692308	31.307692307692307	0.666667	16	124	121	15.0	112.0	77.0	16	7.0	15.0	11.0	0	0	1066.489991903305	1190	18070.665796756744	572	51.9327731092437	
0.010256415384615384	64.67142857142858	9.092307692307692	45.6	31.76923076923077	0.666667	17	130	119	13.0	96.0	67.0	12	7.0	15.0	11.0	0	0	1072.8652527332306	1260	19143.531049489975	610	51.58730158730159	
0.010752693548387097	66.72857142857143	8.919354838709678	41.11290322580645	28.70967741935484	0.666667	18	139	105	13.0	93.0	65.0	16	7.0	15.0	11.0	0	0	1030.1146411895752	1330	20173.64569067955	636	52.18045112781955	
0.010582015873015873	63.3	8.65079365079365	39.20634920634921	27.317460317460316	0.666667	19	147	105	13.0	106.0	73.0	16	7.0	15.0	11.0	0	0	1054.1827535629272	1400	21227.828444242477	661	52.785714285714285	
0.010416671875	63.27142857142857	8.609375	38.75	27.0	0.666667	20	154	129	12.0	126.0	88.0	16	7.0	15.0	11.0	0	0	1057.472196817398	1470	22285.300641059875	698	52.51700680272109	
0.009661840579710146	67.64285714285714	8.521739130434783	41.608695652173914	28.971014492753625	0.666667	21	156	129	13.0	99.0	68.0	16	7.0	15.0	11.0	0	0	1170.0070223808289	1540	23455.307663440704	732	52.46753246753247	
0.009803926470588236	67.04285714285714	8.838235294117647	44.39705882352941	30.985294117647058	0.666667	22	159	130	15.0	95.0	66.0	16	7.0	15.0	11.0	0	0	1156.6621446609497	1610	24611.969808101654	769	52.2360248447205	
0.010416671875	75.31428571428572	8.75	45.484375	31.609375	0.666667	23	166	167	13.0	127.0	87.0	16	7.0	15.0	11.0	0	0	1080.8242750167847	1680	25692.79408311844	806	52.023809523809526	
0.010416671875	73.67142857142858	8.421875	39.203125	27.28125	0.666667	24	173	159	13.0	123.0	85.0	8	7.0	15.0	11.0	0	0	1113.229484319687	1750	26806.023567438126	838	52.114285714285714	
0.010752693548387097	79.45714285714286	8.209677419354838	36.03225806451613	25.048387096774192	0.666667	25	182	145	12.0	93.0	65.0	14	7.0	15.0	11.0	0	0	1041.9794335365295	1820	27848.003000974655	871	52.14285714285714	
0.009661840579710146	84.7	8.043478260869565	33.869565217391305	23.565217391304348	0.666667	26	184	138	10.0	93.0	65.0	16	7.0	15.0	11.0	0	0	1200.9369311332703	1890	29048.939932107925	904	52.16931216931217	
0.009803926470588236	83.47142857142858	7.9411764705882355	36.529411764705884	25.308823529411764	0.666667	27	187	133	10.0	93.0	65.0	16	7.0	15.0	11.0	0	0	1161.2805314064026	1960	30210.220463514328	934	52.3469387755102	
0.010582015873015873	76.85714285714286	8.079365079365079	36.15873015873016	25.22222222222222	0.666667	28	195	141	17.0	136.0	95.0	5	7.0	15.0	11.0	0	0	1054.863007068634	2030	31265.083470582962	961	52.66009852216749	
0.010101015151515153	93.65714285714286	8.0	35.72727272727273	24.96969696969697	0.666667	29	200	152	13.0	93.0	65.0	11	7.0	15.0	11.0	0	0	1104.6463103294373	2100	32369.7297809124	994	52.666666666666664	
0.009950253731343284	91.97142857142858	7.970149253731344	33.507462686567166	23.492537313432837	0.666667	30	204	143	11.0	93.0	65.0	16	7.0	15.0	11.0	0	0	1124.6162357330322	2170	33494.34601664543	1021	52.94930875576037	
0.009661840579710146	89.14285714285714	8.217391304347826	36.7536231884058	25.753623188405797	0.666667	31	206	141	12.0	93.0	65.0	16	7.0	15.0	11.0	0	0	1142.8128967285156	2240	34637.15891337395	1055	52.901785714285715	
0.009803926470588236	82.24285714285715	8.235294117647058	34.470588235294116	24.16176470588235	0.666667	32	209	141	17.0	136.0	95.0	14	7.0	15.0	11.0	0	0	1122.5077271461487	2310	35759.666640520096	1089	52.85714285714286	
0.009523814285714286	76.02857142857142	7.985714285714286	32.72857142857143	22.957142857142856	0.666667	33	210	155	14	153	106	16	7	15	11	0	0	1178.9245872497559	2380	36938.59122776985	1122	52.85714285714286	
0.009950253731343284	64.24285714285715	7.656716417910448	28.791044776119403	20.208955223880597	0.666667	34	214	128	10.0	93.0	65.0	16	7.0	15.0	11.0	0	0	1121.221204996109	2450	38059.81243276596	1143	53.3469387755102	
0.009661840579710146	72.24285714285715	7.666666666666667	29.73913043478261	20.82608695652174	0.666667	35	216	130	12.0	93.0	65.0	16	7.0	15.0	11.0	0	0	1113.8822400569916	2520	39173.69467282295	1174	53.41269841269841	
0.010256415384615384	69.91428571428571	7.6923076923076925	29.96923076923077	20.953846153846154	0.666667	36	222	130	10.0	93.0	65.0	16	7.0	15.0	11.0	0	0	1070.9157972335815	2590	40244.610470056534	1206	53.43629343629344	
0.010256415384615384	69.92857142857143	7.969230769230769	31.29230769230769	21.892307692307693	0.666667	37	228	136	12.0	93.0	65.0	16	7.0	15.0	11.0	0	0	1065.0748937129974	2660	41309.68536376953	1232	53.68421052631579	
0.009803926470588236	74.28571428571429	8.411764705882353	34.86764705882353	24.308823529411764	0.666667	38	231	142	17.0	136.0	95.0	13	7.0	15.0	11.0	0	0	1096.6350982189178	2730	42406.32046198845	1264	53.6996336996337	
0.010416671875	69.64285714285714	8.359375	32.6875	22.8125	0.666667	39	238	155	12.0	93.0	65.0	10	7.0	15.0	11.0	0	0	1030.2851965427399	2800	43436.60565853119	1288	54.0	
0.019323681159420292	70.2	8.594202898550725	34.10144927536232	23.782608695652176	0.666667	40	240	146	12.0	93.0	65.0	16	7.0	15.0	11.0	0	0	1116.732757806778	2870	44553.33841633797	1325	53.83275261324042	
0.030303045454545458	66.92857142857143	8.924242424242424	38.333333333333336	26.651515151515152	0.666667	41	245	159	14.0	93.0	65.0	16	7.0	15.0	11.0	0	0	1062.7595527172089	2940	45616.097969055176	1360	53.74149659863946	
0.030769246153846155	78.85714285714286	8.876923076923077	36.38461538461539	25.353846153846153	0.666667	42	251	159	14.0	93.0	65.0	5	7.0	15.0	11.0	0	0	1072.783937215805	3010	46688.88190627098	1397	53.588039867109636	
0.057971043478260875	78.41428571428571	9.18840579710145	38.869565217391305	27.10144927536232	0.666667	43	253	141	17.0	136.0	95.0	16	7.0	15.0	11.0	0	0	1123.5994791984558	3080	47812.48138546944	1423	53.7987012987013	
0.09523814285714285	95.15714285714286	9.485714285714286	42.75714285714286	29.742857142857144	0.666667	44	253	153	14	115	80	16	7	15	11	0	0	1212.6903529167175	3150	49025.171738386154	1455	53.80952380952381	
0.10784313235294118	103.04285714285714	9.220588235294118	47.13235294117647	32.88235294117647	1.33333	45	256	153	17.0	150.0	106.0	16	7.0	15.0	11.0	0	0	1196.1258573532104	3220	50221.297595739365	1484	53.91304347826087	
0.1616160909090909	100.24285714285715	8.969696969696969	43.696969696969695	30.454545454545453	1.66667	46	261	142	15.0	121.0	85.0	13	7.0	15.0	11.0	0	0	1126.4968211650848	3290	51347.79441690445	1521	53.76899696048632	
0.2512076666666667	102.22857142857143	9.81159420289855	49.56521739130435	34.333333333333336	1.66667	47	263	181	15.0	126.0	87.0	34	7.0	17.0	12.0	0	0	1195.8376414775848	3360	52543.632058382034	1553	53.779761904761905	
0.3478261739130435	102.82857142857142	9.492753623188406	44.42028985507246	30.782608695652176	1.66667	48	265	174	15.0	172.0	120.0	34	7.0	15.0	11.0	0	0	1186.0139286518097	3430	53729.645987033844	1587	53.73177842565598	
0.3857144142857143	101.78571428571429	9.485714285714286	40.128571428571426	27.757142857142856	1.66667	49	265	127	15	101	70	74	7	15	11	0	0	1211.4391536712646	3500	54941.08514070511	1625	53.57142857142857	
0.3333337	103.41428571428571	9.428571428571429	41.8	28.985714285714284	1.66667	50	266	124	14	124	86	75	7	15	11	0	0	1211.5014898777008	3570	56152.58663058281	1664	53.38935574229692	
0.23333368571428573	102.72857142857143	9.614285714285714	42.08571428571429	29.12857142857143	1.66667	51	267	135	14	98	68	82	7	17	12	0	0	1278.2734942436218	3640	57430.86012482643	1709	53.04945054945055	
0.3047622857142857	102.15714285714286	9.342857142857143	38.41428571428571	26.642857142857142	1.66667	52	267	150	14	79	54	66	7	17	12	0	0	1304.9785616397858	3710	58735.83868646622	1742	53.04582210242587	
0.31884100000000004	101.2	9.27536231884058	37.391304347826086	25.92753623188406	1.66667	53	269	131	12.0	72.0	50.0	71	7.0	15.0	11.0	0	0	1194.4401025772095	3780	59930.27878904343	1782	52.85714285714286	
0.3619052285714286	101.07142857142857	9.1	36.614285714285714	25.414285714285715	1.66667	54	269	131	13	62	44	71	7	15	11	0	0	1244.087272644043	3850	61174.36606168747	1820	52.72727272727273	
0.46666734285714284	99.94285714285714	9.142857142857142	37.97142857142857	26.3	1.66667	55	269	140	11	69	47	69	7	15	11	0	0	1214.4736096858978	3920	62388.83967137337	1848	52.85714285714286	
0.6142865142857143	103.98571428571428	9.6	40.31428571428572	27.87142857142857	1.66667	56	269	131	12	102	70	71	7	15	11	0	0	1241.4944484233856	3990	63630.33411979675	1879	52.907268170426065	
0.49523875714285714	103.32857142857142	9.728571428571428	40.67142857142857	28.1	1.66667	57	269	130	13	78	54	67	7	17	12	0	0	1251.6896934509277	4060	64882.02381324768	1915	52.83251231527093	
0.42857199999999995	104.52857142857142	9.814285714285715	41.98571428571429	28.985714285714284	1.66667	58	270	130	14	78	54	86	7	15	11	0	0	1243.7298192977905	4130	66125.75363254547	1946	52.88135593220339	
0.4619054142857143	105.37142857142857	9.5	38.02857142857143	26.37142857142857	1.66667	59	270	130	16	90	62	85	7	15	11	0	0	1270.895226240158	4200	67396.64885878563	1979	52.88095238095238	
0.38571474285714286	104.21428571428571	9.585714285714285	39.0	27.071428571428573	1.66667	60	270	132	13	79	55	82	7	15	11	0	0	1296.0025556087494	4270	68692.65141439438	2012	52.88056206088993	
0.319048	105.5	9.771428571428572	39.68571428571428	27.5	1.66667	61	270	132	13	78	54	91	7	15	11	0	0	1311.1327896118164	4340	70003.7842040062	2039	53.0184331797235	
0.4333340142857143	105.45714285714286	9.571428571428571	40.08571428571429	27.771428571428572	1.66667	62	270	127	16	92	63	89	7	17	12	0	0	1306.2143082618713	4410	71309.99851226807	2074	52.97052154195011	
0.4202903913043478	105.94285714285714	9.507246376811594	40.26086956521739	27.91304347826087	1.66667	63	272	140	13.0	110.0	76.0	77	7.0	17.0	12.0	0	0	1260.32364320755	4480	72570.32215547562	2107	52.96875	
0.5285720999999999	104.82857142857142	9.642857142857142	39.542857142857144	27.37142857142857	1.66667	64	272	129	13	68	46	82	7	15	11	0	0	1276.2061398029327	4550	73846.52829527855	2137	53.03296703296703	
0.3904768	103.38571428571429	9.614285714285714	39.9	27.557142857142857	1.66667	65	272	127	13	70	49	72	7	15	11	0	0	1273.1764123439789	4620	75119.70470762253	2173	52.96536796536797	
0.3476196142857143	104.4	9.642857142857142	39.84285714285714	27.485714285714284	1.66667	66	272	139	13	68	46	72	7	17	12	0	0	1241.8262887001038	4690	76361.53099632263	2207	52.94243070362473	
0.42857218571428574	104.07142857142857	9.614285714285714	39.65714285714286	27.4	1.66667	67	273	127	14	74	51	72	7	22	16	0	0	1252.3351016044617	4760	77613.8660979271	2236	53.02521008403362	
0.38571494285714286	104.57142857142857	9.771428571428572	40.05714285714286	27.65714285714286	1.66667	68	273	128	14	80	54	68	7	17	12	0	0	1268.895292520523	4830	78882.76139044762	2266	53.08488612836439	
0.34285758571428576	103.5	9.642857142857142	40.47142857142857	27.97142857142857	1.66667	69	273	141	15	98	69	77	7	15	11	0	0	1235.4378125667572	4900	80118.19920301437	2292	53.224489795918366	
0.3428575285714286	103.07142857142857	9.67142857142857	40.91428571428571	28.257142857142856	1.66667	70	273	130	15	90	61	65	7	15	11	0	0	1227.887000322342	4970	81346.08620333672	2317	53.38028169014085	
0.4142863428571429	102.37142857142857	9.257142857142858	37.97142857142857	26.285714285714285	1.66667	71	274	135	12	94	65	65	7	15	11	0	0	1221.867052078247	5040	82567.95325541496	2344	53.492063492063494	
0.40476254285714286	105.94285714285714	9.714285714285714	40.08571428571429	27.65714285714286	1.66667	72	274	145	13	63	43	78	7	15	11	0	0	1241.7298529148102	5110	83809.68310832977	2374	53.54207436399217	
0.30476227142857143	103.64285714285714	9.385714285714286	38.25714285714286	26.442857142857143	1.66667	73	275	135	11	72	49	79	7	15	11	0	0	1278.684895515442	5180	85088.36800384521	2406	53.552123552123554	
0.3904766142857143	101.11428571428571	9.3	36.31428571428572	25.15714285714286	1.66667	74	275	128	13	68	46	78	7	15	11	0	0	1325.381336927414	5250	86413.74934077263	2434	53.63809523809524	
0.4761911	101.14285714285714	9.82857142857143	40.44285714285714	27.957142857142856	1.66667	75	276	125	15	78	54	81	7	15	11	0	0	1237.0405025482178	5320	87650.78984332085	2465	53.66541353383459	
0.4380954714285714	102.82857142857142	10.014285714285714	42.0	29.02857142857143	1.66667	76	276	119	15	78	54	84	7	15	11	0	0	1273.865782737732	5390	88924.65562605858	2492	53.76623376623377	
0.35238114285714284	103.9	9.557142857142857	39.285714285714285	27.257142857142856	1.66667	77	276	129	15	104	72	79	7	15	11	0	0	1313.4565238952637	5460	90238.11214995384	2521	53.827838827838825	
0.38647378260869564	104.11428571428571	9.579710144927537	40.68115942028985	28.17391304347826	1.66667	78	278	129	13.0	104.0	72.0	79	7.0	15.0	11.0	0	0	1281.2863149642944	5530	91519.39846491814	2549	53.90596745027125	
0.45238162857142855	103.77142857142857	9.5	37.98571428571429	26.285714285714285	1.66667	79	278	143	14	76	52	78	7	15	11	0	0	1251.0644948482513	5600	92770.46295976639	2574	54.035714285714285	
0.40952434285714284	104.11428571428571	9.67142857142857	40.17142857142857	27.785714285714285	1.66667	80	278	143	14	84	57	78	7	15	11	0	0	1283.9926748275757	5670	94054.45563459396	2602	54.10934744268078	
0.3380955857142857	106.78571428571429	9.642857142857142	40.8	28.214285714285715	1.66667	81	278	143	13	78	54	78	7	15	11	0	0	1290.1818680763245	5740	95344.63750267029	2644	53.937282229965156	
0.3619051285714286	107.62857142857143	9.557142857142857	42.8	29.685714285714287	2.33333	82	279	143	13	107	74	83	7	15	11	0	0	1247.1407313346863	5810	96591.77823400497	2675	53.95869191049914	
0.3857146571428572	103.72857142857143	9.871428571428572	46.52857142857143	32.142857142857146	2.33333	83	279	141	14	120	84	78	7	15	11	0	0	1276.004329442978	5880	97867.78256344795	2715	53.8265306122449	
0.4215688970588235	101.25714285714285	9.808823529411764	48.75	33.794117647058826	2.33333	84	282	148	16.0	145.0	101.0	58	7.0	17.0	12.0	0	0	1225.2465689182281	5950	99093.02913236618	2748	53.81512605042017	
0.502415652173913	105.38571428571429	9.420289855072463	46.44927536231884	32.18840579710145	2.33333	85	284	151	13.0	95.0	65.0	52	7.0	15.0	11.0	0	0	1227.1682171821594	6020	100320.19734954834	2782	53.78737541528239	
0.6965169552238806	109.18571428571428	9.671641791044776	53.35820895522388	36.940298507462686	2.33333	86	288	165	13.0	117.0	80.0	66	7.0	15.0	11.0	0	0	1160.411545753479	6090	101480.60889530182	2817	53.74384236453202	
0.5024870597014927	104.1	9.313432835820896	50.76119402985075	35.149253731343286	2.33333	87	292	148	14.0	117.0	80.0	60	7.0	15.0	11.0	0	0	1151.816092967987	6160	102632.4249882698	2852	53.7012987012987	
0.41538416923076926	111.57142857142857	9.646153846153846	58.58461538461538	40.6	2.33333	88	298	158	15.0	153.0	104.0	63	7.0	20.0	14.0	0	0	1168.120575428009	6230	103800.54556369781	2895	53.531300160513645	
0.28095215714285715	115.28571428571429	9.485714285714286	57.142857142857146	39.642857142857146	2.33333	89	299	192	13	110	75	58	7	15	11	0	0	1274.4596943855286	6300	105075.00525808334	2934	53.42857142857143	
0.27941142647058825	108.77142857142857	9.235294117647058	57.455882352941174	39.94117647058823	2.33333	90	302	152	13.0	117.0	80.0	47	7.0	15.0	11.0	0	0	1219.9131557941437	6370	106294.91841387749	2976	53.28100470957614	
0.28717912307692306	112.62857142857143	9.184615384615384	57.98461538461538	40.41538461538462	2.33333	91	308	186	12.0	90.0	62.0	51	7.0	15.0	11.0	0	0	1176.1642167568207	6440	107471.08263063431	3018	53.13664596273292	
0.46766108955223884	117.94285714285714	9.686567164179104	68.22388059701493	47.38805970149254	2.33333	92	312	192	13.0	117.0	80.0	57	7.0	18.0	13.0	0	0	1245.0513389110565	6510	108716.13396954536	3059	53.01075268817204	
0.6019895820895523	120.9	9.955223880597014	69.32835820895522	48.07462686567164	4.66667	93	316	179	13.0	117.0	80.0	63	7.0	17.0	12.0	0	0	1206.1266808509827	6580	109922.26065039635	3102	52.85714285714286	
0.5808079393939395	116.8	9.93939393939394	70.18181818181819	48.621212121212125	4.66667	94	321	182	16.0	135.0	94.0	60	7.0	18.0	13.0	0	0	1189.4848470687866	6650	111111.74549746513	3150	52.631578947368425	
0.7661689104477613	125.42857142857143	10.17910447761194	73.01492537313433	50.656716417910445	4.66667	95	325	189	16.0	132.0	91.0	41	7.0	17.0	12.0	0	0	1235.40514087677	6720	112347.1506383419	3199	52.395833333333336	
0.741293552238806	124.14285714285714	10.253731343283581	73.94029850746269	51.19402985074627	4.66667	96	329	182	14.0	140.0	96.0	60	7.0	15.0	11.0	0	0	1179.4835884571075	6790	113526.63422679901	3246	52.19440353460972	
0.8585859393939395	130.37142857142857	10.348484848484848	78.4090909090909	54.18181818181818	4.66667	97	334	221	14.0	153.0	107.0	64	7.0	17.0	12.0	0	0	1200.593534708023	6860	114727.22776150703	3293	51.99708454810496	
1.111111696969697	132.24285714285713	10.378787878787879	82.33333333333333	56.95454545454545	4.66667	98	339	244	14.0	158.0	110.0	59	7.0	17.0	12.0	0	0	1223.7537772655487	6930	115950.98153877258	3337	51.847041847041844	
1.1029415441176469	135.61428571428573	10.25	79.32352941176471	54.8235294117647	4.66667	99	342	244	13.0	141.0	99.0	69	7.0	17.0	12.0	0	0	1269.3623685836792	7000	117220.34390735626	3389	51.58571428571428	
1.089552895522388	136.04285714285714	10.328358208955224	83.13432835820896	57.417910447761194	4.66667	100	346	244	13.0	179.0	122.0	68	7.0	17.0	12.0	0	0	1252.071758031845	7070	118472.41566538811	3435	51.41442715700141	
0.7263685522388059	134.18571428571428	10.402985074626866	86.83582089552239	59.985074626865675	4.66667	101	350	238	15.0	186.0	127.0	53	7.0	15.0	11.0	0	0	1226.8471915721893	7140	119699.2628569603	3485	51.19047619047619	
0.67187525	135.9857142857143	10.40625	85.84375	59.375	4.66667	102	357	238	16.0	201.0	139.0	49	7.0	24.0	17.0	0	0	1152.3753232955933	7210	120851.63818025589	3534	50.98474341192788	
0.854167234375	130.9	10.421875	78.65625	54.484375	4.66667	103	364	209	16.0	223.0	155.0	42	7.0	22.0	16.0	0	0	1166.6397576332092	7280	122018.2779378891	3575	50.892857142857146	
0.8000003692307692	127.57142857142857	10.23076923076923	76.44615384615385	53.07692307692308	4.66667	104	370	195	16.0	123.0	87.0	42	7.0	15.0	11.0	0	0	1194.9499793052673	7350	123213.22791719437	3619	50.761904761904766	
0.7142860158730158	127.22857142857143	10.523809523809524	83.5079365079365	57.73015873015873	4.66667	105	378	184	15.0	168.0	116.0	42	7.0	15.0	11.0	0	0	1156.803929567337	7420	124370.0318467617	3664	50.6199460916442	
0.6135269710144927	134.35714285714286	10.623188405797102	83.34782608695652	57.68115942028985	4.66667	106	380	230	16.0	150.0	103.0	42	7.0	15.0	11.0	0	0	1269.2456851005554	7490	125639.27753186226	3718	50.36048064085447	
0.8647348405797101	128.37142857142857	10.231884057971014	76.44927536231884	53.0	4.66667	107	382	221	13.0	144.0	100.0	90	8.0	26.0	18.0	0	0	1269.4821500778198	7560	126908.75968194008	3767	50.17195767195767	
0.7584542898550725	132.74285714285713	10.420289855072463	84.89855072463769	58.7536231884058	4.66667	108	384	248	14.0	204.0	140.0	83	8.0	26.0	18.0	0	0	1231.356717824936	7630	128140.11639976501	3814	50.01310615989515	
0.9154232388059701	136.55714285714285	10.835820895522389	90.31343283582089	62.37313432835821	4.66667	109	388	229	14.0	154.0	108.0	83	8.0	26.0	18.0	0	0	1184.4981846809387	7700	129324.61458444595	3861	49.857142857142854	
0.8750004062500001	138.32857142857142	10.8125	86.0625	59.453125	4.66667	110	395	229	17.0	148.0	102.0	72	8.0	26.0	18.0	0	0	1158.9711723327637	7770	130483.58575677872	3903	49.768339768339764	
0.5761907571428572	139.45714285714286	10.457142857142857	77.81428571428572	53.8	4.66667	111	396	235	15	142	100	66	7	17	12	0	0	1319.2889170646667	7840	131802.87467384338	3955	49.55357142857143	
0.6019901492537313	137.4	10.08955223880597	75.1044776119403	51.95522388059702	4.66667	112	400	273	15.0	141.0	99.0	76	7.0	15.0	11.0	0	0	1232.3770604133606	7910	133035.25173425674	3996	49.48166877370417	
1.078125375	134.84285714285716	10.328125	79.8125	55.140625	4.66667	113	407	224	14.0	141.0	99.0	76	7.0	17.0	12.0	0	0	1132.570972442627	7980	134167.82270669937	4034	49.448621553884706	
1.1212124090909092	128.8	10.454545454545455	78.75757575757575	54.40909090909091	4.66667	114	412	216	16.0	154.0	107.0	60	7.0	23.0	16.0	0	0	1191.4369871616364	8050	135359.259693861	4074	49.39130434782608	
0.9754903235294118	139.67142857142858	10.647058823529411	86.66176470588235	59.970588235294116	4.66667	115	415	273	14.0	154.0	107.0	76	7.0	25.0	18.0	0	0	1234.4004340171814	8120	136593.6601278782	4120	49.26108374384236	
0.9282055538461539	142.0142857142857	10.96923076923077	95.01538461538462	65.49230769230769	4.66667	116	421	242	15.0	153.0	107.0	76	7.0	17.0	12.0	0	0	1152.2643194198608	8190	137745.92444729805	4170	49.08424908424909	
0.8823531911764706	141.31428571428572	10.705882352941176	89.3970588235294	61.60294117647059	5.0	117	424	259	15.0	159.0	110.0	76	7.0	26.0	18.0	0	0	1209.859715461731	8260	138955.78416275978	4220	48.91041162227603	
1.0871799230769232	146.57142857142858	10.907692307692308	95.27692307692308	65.61538461538461	5.0	118	430	248	15.0	146.0	100.0	65	8.0	26.0	18.0	0	0	1195.4244441986084	8330	140151.2086069584	4266	48.7875150060024	
1.2696083823529412	150.55714285714285	11.117647058823529	96.23529411764706	66.32352941176471	5.0	119	433	268	15.0	167.0	116.0	89	8.0	26.0	18.0	0	0	1265.4019348621368	8400	141416.61054182053	4312	48.66666666666667	
1.1293535671641792	144.45714285714286	10.970149253731343	93.64179104477611	64.56716417910448	5.0	120	437	210	14.0	161.0	111.0	72	8.0	26.0	18.0	0	0	1216.8554413318634	8470	142633.4659831524	4359	48.53600944510036	
0.8309179855072464	141.81428571428572	10.753623188405797	88.76811594202898	61.26086956521739	5.0	121	439	239	14.0	135.0	92.0	90	7.0	21.0	15.0	0	0	1215.8021230697632	8540	143849.26810622215	4407	48.395784543325526	
0.8137256029411766	144.97142857142856	10.764705882352942	91.95588235294117	63.55882352941177	5.0	122	442	213	16.0	187.0	131.0	90	8.0	26.0	18.0	0	0	1245.216724395752	8610	145094.4848306179	4460	48.199767711962835	
0.7014926417910448	150.1	10.895522388059701	90.91044776119404	62.88059701492537	5.0	123	446	220	16.0	188.0	130.0	78	7.0	17.0	12.0	0	0	1234.8207714557648	8680	146329.30560207367	4511	48.02995391705069	
0.9264708382352941	144.82857142857142	10.852941176470589	85.19117647058823	58.76470588235294	5.0	124	449	220	15.0	193.0	133.0	84	7.0	17.0	12.0	0	0	1265.5592632293701	8750	147594.86486530304	4557	47.919999999999995	
0.9850749104477613	146.1	11.059701492537313	93.44776119402985	64.5223880597015	5.0	125	453	220	15.0	174.0	122.0	61	8.0	26.0	18.0	0	0	1226.9955530166626	8820	148821.8604183197	4607	47.766439909297056	
1.130208546875	141.28571428571428	10.71875	87.359375	60.34375	5.0	126	460	213	15.0	135.0	93.0	65	9.0	33.0	23.0	0	0	1148.7676091194153	8890	149970.62802743912	4651	47.68278965129359	
0.8405798115942028	145.12857142857143	10.246376811594203	78.91304347826087	54.608695652173914	5.0	127	462	208	15.0	127.0	86.0	72	8.0	33.0	23.0	0	0	1228.3453409671783	8960	151198.9733684063	4695	47.60044642857143	
1.078431544117647	146.78571428571428	10.691176470588236	89.0	61.544117647058826	5.0	128	465	196	14.0	169.0	117.0	78	8.0	33.0	23.0	0	0	1207.133570432663	9030	152406.10693883896	4738	47.53045404208195	
1.338541921875	144.67142857142858	10.890625	92.40625	63.84375	5.0	129	472	249	14.0	183.0	128.0	57	8.0	31.0	22.0	0	0	1164.8538000583649	9100	153570.96073889732	4782	47.45054945054945	
1.0049018823529412	148.02857142857144	11.308823529411764	98.6029411764706	68.01470588235294	5.0	130	475	219	16.0	173.0	120.0	77	8.0	35.0	24.0	0	0	1235.527229309082	9170	154806.4879682064	4839	47.23009814612868	
0.6376810144927536	149.6	11.405797101449275	93.78260869565217	64.7536231884058	5.0	131	477	229	15.0	189.0	130.0	77	8.0	24.0	17.0	0	0	1225.06942820549	9240	156031.5573964119	4893	47.04545454545455	
1.0149255074626866	160.92857142857142	11.477611940298507	99.35820895522389	68.50746268656717	5.0	132	481	238	16.0	213.0	146.0	74	8.0	26.0	18.0	0	0	1210.0812118053436	9310	157241.63860821724	4938	46.96025778732545	
0.9850745820895523	155.95714285714286	11.149253731343284	91.97014925373135	63.40298507462686	5.0	133	485	258	16.0	145.0	100.0	75	8.0	26.0	18.0	0	0	1219.97762966156	9380	158461.6162378788	4991	46.791044776119406	
0.9809523714285715	158.02857142857144	10.957142857142857	91.24285714285715	63.07142857142857	5.0	134	485	262	16	173	121	85	8	44	31	0	0	1276.4655137062073	9450	159738.081751585	5046	46.6031746031746	
0.7941173823529413	145.4142857142857	10.970588235294118	90.33823529411765	62.5	5.0	135	488	245	16.0	182.0	126.0	85	8.0	40.0	28.0	0	0	1216.6617193222046	9520	160954.7434709072	5091	46.52310924369748	
0.7149757536231883	156.62857142857143	10.985507246376812	92.26086956521739	63.85507246376812	5.0	136	490	260	15.0	187.0	129.0	69	8.0	24.0	17.0	0	0	1259.2311239242554	9590	162213.97459483147	5141	46.39207507820646	
0.8164250869565217	155.65714285714284	10.898550724637682	86.71014492753623	60.0	5.0	137	492	260	15.0	158.0	110.0	95	7.0	17.0	12.0	0	0	1242.070764541626	9660	163456.0453593731	5189	46.28364389233954	
0.7571429142857143	153.74285714285713	10.557142857142857	87.92857142857143	60.68571428571428	5.0	138	493	260	13	164	114	97	8	26	18	0	0	1209.3005003929138	9730	164665.345859766	5235	46.19732785200411	
0.7014926716417911	149.27142857142857	10.835820895522389	91.22388059701493	62.97014925373134	5.0	139	497	223	14.0	174.0	121.0	89	7.0	17.0	12.0	0	0	1211.8990483283997	9800	165877.2449080944	5287	46.05102040816327	
0.7352940147058824	143.2	10.911764705882353	88.70588235294117	61.25	5.0	140	500	225	15.0	161.0	111.0	64	8.0	36.0	26.0	0	0	1275.3117363452911	9870	167152.5566444397	5338	45.91691995947315	
0.6715684705882353	152.97142857142856	11.044117647058824	92.36764705882354	63.8235294117647	5.0	141	503	194	17.0	179.0	122.0	97	8.0	22.0	16.0	0	0	1265.699191570282	9940	168418.25583600998	5383	45.845070422535215	
0.7004829275362319	156.14285714285714	10.681159420289855	85.94202898550725	59.492753623188406	5.0	142	505	241	15.0	177.0	121.0	97	8.0	22.0	16.0	0	0	1273.4402651786804	10010	169691.69610118866	5428	45.774225774225776	
0.733333257142857	150.0857142857143	10.757142857142858	84.65714285714286	58.58571428571429	5.0	143	506	241	16	187	130	97	8	22	16	0	0	1245.2120013237	10080	170936.90810251236	5474	45.69444444444445	
0.8285713285714286	160.45714285714286	10.585714285714285	83.38571428571429	57.68571428571428	5.0	144	507	241	16	231	161	90	8	24	17	0	0	1260.1856791973114	10150	172197.09378170967	5528	45.536945812807886	
0.8232324848484849	159.4857142857143	11.030303030303031	97.89393939393939	67.60606060606061	5.0	145	512	241	17.0	187.0	130.0	59	8.0	24.0	17.0	0	0	1207.3763654232025	10220	173404.47014713287	5581	45.39138943248532	
0.7428569571428572	167.42857142857142	11.142857142857142	102.22857142857143	70.72857142857143	5.0	146	512	260	17	210	144	98	8	22	16	0	0	1311.383819103241	10290	174715.8539662361	5639	45.19922254616132	
0.7857141428571429	170.44285714285715	10.814285714285715	92.3	64.01428571428572	5.0	147	513	305	16	190	132	98	8	22	16	0	0	1287.5639009475708	10360	176003.41786718369	5684	45.135135135135144	
0.9951690144927536	166.0857142857143	10.797101449275363	84.72463768115942	58.52173913043478	5.0	148	515	286	16.0	190.0	132.0	88	7.0	17.0	12.0	0	0	1275.2951469421387	10430	177278.71301412582	5730	45.06232023010547	
0.9380952857142857	166.82857142857142	11.014285714285714	86.98571428571428	60.0	5.0	149	516	242	15	185	128	100	7	15	11	0	0	1307.500083208084	10500	178586.2130973339	5769	45.057142857142864	
0.8937198840579711	163.11428571428573	11.289855072463768	96.10144927536231	66.15942028985508	5.0	150	518	262	16.0	185.0	128.0	37	8.0	24.0	17.0	0	0	1254.6001646518707	10570	179840.81326198578	5820	44.93850520340587	
0.9142855857142858	158.97142857142856	11.042857142857143	91.82857142857142	63.22857142857143	5.0	151	519	223	16	163	113	124	8	33	23	0	0	1244.8843548297882	10640	181085.69761681557	5871	44.82142857142857	
1.227053043478261	153.05714285714285	10.985507246376812	91.52173913043478	63.01449275362319	5.0	152	521	242	16.0	135.0	92.0	110	8.0	33.0	23.0	0	0	1216.8670735359192	10710	182302.5646903515	5919	44.73389355742297	
0.7294686086956522	152.9142857142857	10.91304347826087	90.14492753623189	62.130434782608695	5.0	153	523	280	17.0	162.0	110.0	87	8.0	33.0	23.0	0	0	1264.46027302742	10780	183567.0249633789	5971	44.61038961038961	
0.5572138955223881	161.97142857142856	10.746268656716419	85.02985074626865	58.88059701492537	5.0	154	527	322	15.0	134.0	94.0	99	8.0	29.0	21.0	0	0	1262.9470341205597	10850	184829.97199749947	6027	44.4516129032258	
0.8382351764705883	166.75714285714287	10.941176470588236	90.94117647058823	62.779411764705884	5.0	155	530	310	14.0	177.0	123.0	61	8.0	42.0	29.0	0	0	1239.0554378032684	10920	186069.02743530273	6071	44.404761904761905	
0.6666665373134328	174.61428571428573	10.686567164179104	90.02985074626865	62.17910447761194	5.0	156	534	367	14.0	180.0	125.0	69	8.0	42.0	30.0	0	0	1252.884601354599	10990	187321.91203665733	6117	44.340309372156504	
0.7619047285714285	158.65714285714284	10.442857142857143	83.62857142857143	57.81428571428572	5.33333	157	535	242	14	135	94	73	8	32	23	0	0	1299.7672293186188	11060	188621.67926597595	6167	44.24050632911393	
0.8686867424242425	161.0	10.818181818181818	86.78787878787878	59.89393939393939	5.33333	158	540	242	14.0	143.0	100.0	71	8.0	30.0	22.0	0	0	1185.1119332313538	11130	189806.7911992073	6217	44.141958670260564	
0.7929290757575758	169.55714285714285	10.666666666666666	89.04545454545455	61.56060606060606	5.33333	159	545	243	15.0	131.0	90.0	73	9.0	42.0	29.0	0	0	1220.711264371872	11200	191027.50246357918	6269	44.02678571428571	
0.7598037058823529	173.3	10.911764705882353	94.6470588235294	65.42647058823529	5.33333	160	548	254	17.0	198.0	137.0	73	8.0	32.0	23.0	0	0	1264.7529127597809	11270	192292.25537633896	6322	43.90417036379769	
0.7948717230769231	169.1	10.830769230769231	95.44615384615385	66.06153846153846	5.33333	161	554	243	15.0	170.0	117.0	73	8.0	35.0	25.0	0	0	1218.7802834510803	11340	193511.03565979004	6371	43.81834215167548	
0.6969694090909092	173.15714285714284	10.878787878787879	99.46969696969697	68.9090909090909	5.33333	162	559	243	16.0	196.0	137.0	23	8.0	24.0	17.0	0	0	1237.6161515712738	11410	194748.6518113613	6423	43.70727432077125	
0.696078205882353	177.12857142857143	10.588235294117647	90.3529411764706	62.470588235294116	5.33333	163	562	290	16.0	191.0	131.0	77	8.0	32.0	23.0	0	0	1256.8703751564026	11480	196005.52218651772	6471	43.63240418118467	
0.7412933731343284	174.88571428571427	10.537313432835822	84.4776119402985	58.44776119402985	5.33333	164	566	329	16.0	144.0	100.0	77	8.0	32.0	23.0	0	0	1245.543488740921	11550	197251.06567525864	6517	43.57575757575758	
0.8109449850746269	161.54285714285714	10.522388059701493	84.19402985074628	58.25373134328358	5.33333	165	570	293	17.0	226.0	155.0	75	7.0	15.0	11.0	0	0	1277.5555937290192	11620	198528.62126898766	6562	43.52839931153184	
1.0512816153846156	156.05714285714285	10.36923076923077	84.06153846153846	58.2	5.33333	166	576	245	14.0	144.0	100.0	75	8.0	33.0	23.0	0	0	1215.1185760498047	11690	199743.73984503746	6605	43.49871685201027	
0.864734043478261	161.18571428571428	10.826086956521738	89.65217391304348	61.98550724637681	5.33333	167	578	260	17.0	189.0	131.0	88	8.0	22.0	16.0	0	0	1266.0795702934265	11760	201009.8194153309	6657	43.392857142857146	
0.9761902714285715	171.31428571428572	10.385714285714286	81.85714285714286	56.58571428571429	5.33333	168	578	263	14	133	92	92	7	15	11	0	0	1269.8062148094177	11830	202279.6256301403	6704	43.33051563820794	
0.8523808285714286	175.7	10.285714285714286	82.98571428571428	57.542857142857144	5.33333	169	579	282	13	144	99	124	8	22	16	0	0	1261.1788475513458	11900	203540.80447769165	6753	43.25210084033614	
0.8164248840579711	173.11428571428573	10.492753623188406	86.53623188405797	60.0	5.33333	170	581	286	14.0	182.0	127.0	103	7.0	15.0	11.0	0	0	1245.060976266861	11970	204785.8654539585	6802	43.17460317460318	
0.8212556376811595	175.27142857142857	10.72463768115942	89.34782608695652	61.81159420289855	5.33333	171	583	286	14.0	173.0	121.0	94	8.0	24.0	17.0	0	0	1250.4046709537506	12040	206036.27012491226	6851	43.09800664451827	
0.9538456	160.9	10.707692307692307	91.83076923076923	63.46153846153846	5.33333	172	589	286	14.0	152.0	107.0	93	8.0	31.0	22.0	0	0	1197.466411113739	12110	207233.736536026	6904	42.98926507018993	
0.7794111911764706	165.5	10.544117647058824	85.6470588235294	59.19117647058823	5.33333	173	592	300	14.0	133.0	91.0	99	8.0	24.0	17.0	0	0	1222.0584304332733	12180	208455.79496645927	6961	42.84893267651888	
0.8039214705882353	163.67142857142858	10.088235294117647	79.5	55.044117647058826	5.33333	174	595	270	13.0	145.0	101.0	114	7.0	15.0	11.0	0	0	1202.1110763549805	12250	209657.90604281425	7012	42.759183673469394	
0.7632847246376812	165.31428571428572	10.173913043478262	80.69565217391305	55.82608695652174	5.33333	175	597	266	14.0	151.0	105.0	111	7.0	17.0	12.0	0	0	1257.3453936576843	12320	210915.25143647194	7064	42.662337662337656	
0.647342695652174	175.77142857142857	10.492753623188406	83.6231884057971	57.82608695652174	5.33333	176	599	289	15.0	153.0	106.0	121	7.0	17.0	12.0	0	0	1235.8496923446655	12390	212151.1011288166	7117	42.55851493139629	
0.6421564411764706	174.62857142857143	10.573529411764707	83.97058823529412	58.05882352941177	5.33333	177	602	325	14.0	136.0	96.0	87	7.0	17.0	12.0	0	0	1211.7220342159271	12460	213362.82316303253	7164	42.50401284109149	
0.7205878529411764	171.5857142857143	10.705882352941176	87.82352941176471	60.705882352941174	5.33333	178	605	344	15.0	140.0	96.0	93	7.0	17.0	12.0	0	0	1220.3058342933655	12530	214583.1289973259	7211	42.45011971268955	
0.7156859264705883	165.57142857142858	10.191176470588236	81.48529411764706	56.470588235294116	5.33333	179	608	321	15.0	146.0	102.0	73	7.0	17.0	12.0	0	0	1253.8453407287598	12600	215836.97433805466	7262	42.36507936507936	
0.7333329571428572	178.75714285714287	10.32857142857143	84.5	58.51428571428571	5.33333	180	609	338	14	154	107	91	7	17	12	0	0	1290.5250968933105	12670	217127.49943494797	7310	42.30465666929756	
0.7809519428571429	178.95714285714286	10.657142857142857	86.14285714285714	59.52857142857143	5.33333	181	609	365	14	188	132	98	7	17	12	0	0	1308.2631075382233	12740	218435.7625424862	7364	42.197802197802204	
0.6470584852941177	160.4142857142857	10.352941176470589	82.33823529411765	57.05882352941177	5.33333	182	612	342	15.0	250.0	174.0	88	7.0	15.0	11.0	0	0	1266.7786586284637	12810	219702.54120111465	7416	42.10772833723654	
0.6956518695652173	168.17142857142858	10.18840579710145	77.92753623188406	53.89855072463768	5.33333	183	614	342	13.0	132.0	91.0	92	7.0	15.0	11.0	0	0	1263.6125936508179	12880	220966.15379476547	7461	42.07298136645963	
0.9215682941176472	175.65714285714284	10.338235294117647	79.01470588235294	54.76470588235294	5.33333	184	617	373	15.0	130.0	90.0	76	8.0	29.0	21.0	0	0	1237.3469896316528	12950	222203.50078439713	7512	41.99227799227799	
0.8823524411764706	169.32857142857142	10.382352941176471	79.5	54.955882352941174	5.33333	185	620	398	13.0	174.0	122.0	89	7.0	23.0	16.0	0	0	1189.7354049682617	13020	223393.2361893654	7560	41.93548387096774	
0.8047615285714287	198.12857142857143	10.142857142857142	78.85714285714286	54.55714285714286	5.33333	186	621	398	13	200	139	93	7	17	12	0	0	1214.354637145996	13090	224607.59082651138	7610	41.86401833460657	
1.0289850724637681	197.4142857142857	10.53623188405797	83.6376811594203	57.73913043478261	5.33333	187	623	434	15.0	222.0	154.0	112	7.0	17.0	12.0	0	0	1211.1537108421326	13160	225818.74453735352	7664	41.762917933130694	
1.0048305507246376	195.77142857142857	10.826086956521738	93.34782608695652	64.46376811594203	5.33333	188	625	454	16.0	222.0	154.0	92	7.0	17.0	12.0	0	0	1265.1860702037811	13230	227083.9306075573	7711	41.71579743008314	
0.9803916764705882	168.7	10.955882352941176	97.92647058823529	67.48529411764706	5.33333	189	628	444	14.0	158.0	110.0	94	9.0	42.0	29.0	0	0	1230.9750909805298	13300	228314.90569853783	7762	41.639097744360896	
0.7777773768115942	183.57142857142858	10.768115942028986	100.02898550724638	69.18840579710145	5.33333	190	630	444	14.0	222.0	155.0	94	7.0	15.0	11.0	0	0	1249.1496212482452	13370	229564.05531978607	7814	41.55572176514585	
1.247474196969697	176.97142857142856	10.954545454545455	101.8030303030303	70.39393939393939	5.33333	191	635	444	15.0	235.0	164.0	102	9.0	41.0	29.0	0	0	1140.8104181289673	13440	230704.86573791504	7858	41.532738095238095	
0.9333326615384615	189.44285714285715	10.984615384615385	101.1076923076923	69.95384615384616	5.33333	192	641	464	17.0	236.0	164.0	112	8.0	26.0	18.0	0	0	1183.1132080554962	13510	231887.97894597054	7907	41.47298297557364	
1.1642504202898551	170.52857142857144	11.101449275362318	99.4927536231884	68.66666666666667	5.33333	193	643	455	16.0	163.0	113.0	78	9.0	42.0	29.0	0	0	1239.7904534339905	13580	233127.76939940453	7952	41.44329896907216	
1.0796014925373136	170.31428571428572	10.955223880597014	95.65671641791045	65.94029850746269	5.33333	194	647	466	15.0	163.0	113.0	109	8.0	41.0	29.0	0	0	1207.4969744682312	13650	234335.26637387276	7999	41.3992673992674	
1.176767090909091	162.75714285714287	10.681818181818182	88.36363636363636	60.95454545454545	5.33333	195	652	455	17.0	137.0	94.0	100	8.0	31.0	22.0	0	0	1185.3690376281738	13720	235520.63541150093	8048	41.34110787172012	
1.1238087571428572	153.04285714285714	10.842857142857143	91.84285714285714	63.385714285714286	5.33333	196	653	214	17	154	107	84	8	22	16	0	0	1257.3542132377625	13790	236777.9896247387	8100	41.26178390137781	
0.9999991818181817	152.32857142857142	10.666666666666666	90.15151515151516	62.13636363636363	5.33333	197	658	218	17.0	127.0	89.0	97	9.0	41.0	28.0	0	0	1161.186616897583	13860	237939.17624163628	8149	41.2049062049062	
0.9179480153846153	151.42857142857142	10.4	89.75384615384615	62.07692307692308	5.33333	198	664	218	13.0	142.0	99.0	92	8.0	40.0	28.0	0	0	1134.5336422920227	13930	239073.7098839283	8194	41.17731514716439	
0.857842544117647	152.18571428571428	10.411764705882353	89.3529411764706	61.779411764705884	5.33333	199	667	202	14.0	145.0	101.0	96	9.0	40.0	28.0	0	0	1201.7560148239136	14000	240275.4658987522	8245	41.107142857142854	
1.0144920434782607	153.3	10.521739130434783	89.3623188405797	61.78260869565217	5.33333	200	669	215	13.0	146.0	100.0	81	8.0	25.0	18.0	0	0	1220.2637321949005	14070	241495.7296309471	8291	41.073205401563605	
