ave_fitness	ave_genome_length	ave_tree_depth	ave_tree_nodes	ave_used_codons	best_fitness	gen	invalids	max_genome_length	max_tree_depth	max_tree_nodes	max_used_codons	min_genome_length	min_tree_depth	min_tree_nodes	min_used_codons	runtime_error	time_adjust	time_taken	total_inds	total_time	unique_inds	unused_search	
0.0533333	56.33	8.24	53.98	37.74	5.33333	0	0	147	10	141	98	16	7	15	11	0	0	1861.6515998840332	100	1861.6515998840332	100	0.0	
0.06504060975609756	59.94	8.817073170731707	49.5	34.609756097560975	5.33333	1	19	158	12.0	144.0	99.0	16	7.0	15.0	11.0	0	0	1501.1002113819122	200	3362.7518112659454	168	16.0	
