ave_fitness	ave_genome_length	ave_tree_depth	ave_tree_nodes	ave_used_codons	best_fitness	gen	invalids	max_genome_length	max_tree_depth	max_tree_nodes	max_used_codons	min_genome_length	min_tree_depth	min_tree_nodes	min_used_codons	runtime_error	time_adjust	time_taken	total_inds	total_time	unique_inds	unused_search	
0.0	50.57142857142857	8.2	48.457142857142856	33.885714285714286	0.0	0	0	133	10	128	89	16	7	15	11	0	0	1506.039481639862	70	1506.039481639862	70	0.0	
0.0	54.3	8.791666666666666	49.625	34.75	0.0	1	23	133	15.0	160.0	110.0	16	7.0	15.0	11.0	0	0	904.3300421237946	140	2410.3695237636566	109	22.14285714285714	
0.0	56.74285714285714	8.887096774193548	49.79032258064516	34.903225806451616	0.0	2	32	133	13.0	113.0	80.0	15	7.0	15.0	11.0	0	0	1152.5000133514404	210	3562.869537115097	144	31.42857142857143	
0.0	55.24285714285714	8.78688524590164	48.0655737704918	33.68852459016394	0.0	3	42	147	13.0	113.0	80.0	16	7.0	15.0	11.0	0	0	1124.065331697464	280	4686.934868812561	178	36.42857142857143	
0.0	58.9	8.640625	42.484375	29.65625	0.0	4	49	125	13.0	105.0	73.0	16	7.0	15.0	11.0	0	0	1171.0478887557983	350	5857.982757568359	213	39.142857142857146	
0.0	65.12857142857143	8.476190476190476	41.15873015873016	28.761904761904763	0.0	5	57	160	14.0	108.0	74.0	10	7.0	15.0	11.0	0	0	1178.2857875823975	420	7036.268545150757	246	41.42857142857142	
0.0	70.61428571428571	8.666666666666666	42.73913043478261	29.753623188405797	0.0	6	59	128	15.0	171.0	119.0	16	7.0	15.0	11.0	0	0	1301.5506753921509	490	8337.819220542908	272	44.48979591836735	
0.0	73.47142857142858	8.651515151515152	41.46969696969697	28.833333333333332	0.0	7	64	149	14.0	108.0	74.0	14	7.0	15.0	11.0	0	0	1226.855444431305	560	9564.674664974213	301	46.25	
0.0	70.52857142857142	8.772727272727273	42.42424242424242	29.484848484848484	0.0	8	69	127	15.0	113.0	78.0	16	7.0	15.0	11.0	0	0	1169.5157854557037	630	10734.190450429916	335	46.82539682539682	
0.0050504999999999994	72.64285714285714	8.666666666666666	44.015151515151516	30.666666666666668	0.333333	9	74	149	15.0	113.0	78.0	16	7.0	15.0	11.0	0	0	1125.7875332832336	700	11859.97798371315	375	46.42857142857143	
0.0153846	81.91428571428571	8.892307692307693	45.61538461538461	31.753846153846155	0.333333	10	80	148	16.0	113.0	78.0	16	7.0	15.0	11.0	0	0	1120.3142285346985	770	12980.292212247849	408	47.01298701298702	
0.019607823529411764	89.08571428571429	9.25	47.61764705882353	33.14705882352941	0.333333	11	83	186	15.0	150.0	103.0	16	7.0	17.0	12.0	0	0	1226.128918170929	840	14206.421130418777	448	46.666666666666664	
0.033816391304347826	86.88571428571429	9.217391304347826	46.17391304347826	32.11594202898551	0.333333	12	85	186	13.0	163.0	113.0	18	7.0	17.0	12.0	0	0	1214.68057179451	910	15421.101702213287	489	46.26373626373626	
0.038095199999999996	86.3	9.571428571428571	48.58571428571429	33.642857142857146	0.333333	13	86	187	17	163	113	28	7	17	12	0	0	1177.8430936336517	980	16598.94479584694	528	46.12244897959184	
0.06372542647058824	80.91428571428571	9.632352941176471	49.63235294117647	34.455882352941174	0.333333	14	89	123	15.0	163.0	113.0	26	7.0	15.0	11.0	0	0	1193.6975815296173	1050	17792.642377376556	570	45.714285714285715	
0.06666661428571428	72.64285714285714	9.542857142857143	44.08571428571429	30.685714285714287	0.666667	15	90	145	15	94	65	28	7	18	13	0	0	1258.0228185653687	1120	19050.665195941925	606	45.892857142857146	
0.09523805714285714	70.47142857142858	9.428571428571429	41.97142857142857	29.228571428571428	0.666667	16	91	145	13	84	58	40	7	20	14	0	0	1304.6605355739594	1190	20355.325731515884	643	45.96638655462185	
0.13333335714285713	64.78571428571429	8.885714285714286	36.1	25.2	0.666667	17	92	145	14	116	81	32	7	15	11	0	0	1350.7248799800873	1260	21706.05061149597	678	46.19047619047619	
0.1619048	61.0	8.957142857142857	33.75714285714286	23.6	0.666667	18	92	122	16	101	70	32	7	15	11	0	0	1391.0116257667542	1330	23097.062237262726	717	46.09022556390977	
0.18095237142857143	61.08571428571429	9.185714285714285	36.02857142857143	25.142857142857142	1.33333	19	93	110	16	101	70	31	7	15	11	0	0	1337.4698195457458	1400	24434.53205680847	747	46.64285714285714	
0.22380952857142858	61.08571428571429	9.114285714285714	36.142857142857146	25.214285714285715	1.33333	20	93	110	16	101	70	41	7	17	12	0	0	1368.0733964443207	1470	25802.605453252792	781	46.87074829931973	
0.19523798571428572	64.1	9.3	37.957142857142856	26.47142857142857	1.33333	21	93	114	17	101	70	39	7	15	11	0	0	1373.1914176940918	1540	27175.796870946884	821	46.68831168831169	
0.20476175714285713	61.457142857142856	8.957142857142857	34.614285714285714	24.114285714285714	1.33333	22	94	110	15	96	66	33	7	15	11	0	0	1389.4435901641846	1610	28565.24046111107	858	46.70807453416149	
0.24761884285714286	61.42857142857143	8.885714285714286	34.5	24.014285714285716	1.33333	23	95	93	11	64	44	40	7	17	12	0	0	1322.0494599342346	1680	29887.289921045303	889	47.083333333333336	
0.2428567	62.31428571428572	9.685714285714285	39.01428571428571	27.15714285714286	1.33333	24	95	92	17	99	68	30	7	15	11	0	0	1357.9321072101593	1750	31245.222028255463	934	46.62857142857143	
0.1999996142857143	62.52857142857143	9.32857142857143	36.27142857142857	25.34285714285714	1.33333	25	95	91	14	70	49	32	7	15	11	0	0	1396.7558097839355	1820	32641.9778380394	968	46.81318681318681	
0.3428564857142857	62.52857142857143	9.157142857142857	35.3	24.614285714285714	1.33333	26	95	91	14	70	49	33	7	15	11	0	0	1393.333121061325	1890	34035.31095910072	1006	46.77248677248678	
0.24637633333333336	62.871428571428574	8.927536231884059	34.46376811594203	24.043478260869566	1.33333	27	97	89	12.0	74.0	51.0	33	7.0	15.0	11.0	0	0	1308.9811120033264	1960	35344.29207110405	1037	47.091836734693885	
0.29047552857142855	64.75714285714285	8.971428571428572	34.48571428571429	24.057142857142857	1.33333	28	97	94	12	81	56	38	7	15	11	0	0	1368.1690299510956	2030	36712.461101055145	1071	47.241379310344826	
0.32857065714285716	65.37142857142857	8.928571428571429	36.457142857142856	25.32857142857143	1.33333	29	98	95	13	108	74	43	7	15	11	0	0	1289.8738231658936	2100	38002.33492422104	1102	47.523809523809526	
0.32850159420289854	61.24285714285714	9.101449275362318	37.14492753623188	25.81159420289855	1.33333	30	100	82	12.0	78.0	53.0	38	7.0	15.0	11.0	0	0	1303.0851106643677	2170	39305.42003488541	1133	47.78801843317972	
0.23333275714285712	65.04285714285714	9.042857142857143	36.24285714285714	25.242857142857144	1.33333	31	101	118	13	76	52	35	7	15	11	0	0	947.9376289844513	2240	40253.35766386986	1166	47.94642857142857	
0.3284305882352941	64.34285714285714	9.588235294117647	39.5735294117647	27.544117647058822	1.33333	32	104	97	13.0	63.0	44.0	21	7.0	15.0	11.0	0	0	912.4303336143494	2310	41165.78799748421	1198	48.13852813852814	
0.26666599999999996	65.68571428571428	9.542857142857143	39.0	27.15714285714286	1.33333	33	104	101	13	65	45	21	7	17	12	0	0	961.3565185070038	2380	42127.14451599121	1232	48.23529411764705	
0.20772902898550727	65.52857142857142	9.44927536231884	37.26086956521739	25.92753623188406	1.33333	34	106	101	13.0	66.0	45.0	47	7.0	15.0	11.0	0	0	937.8540205955505	2450	43064.99853658676	1267	48.285714285714285	
0.22380904285714287	65.24285714285715	9.314285714285715	36.68571428571428	25.571428571428573	2.0	35	107	96	13	65	45	35	7	15	11	0	0	940.6775851249695	2520	44005.67612171173	1300	48.412698412698404	
0.3285709428571429	66.45714285714286	9.657142857142857	41.25714285714286	28.714285714285715	2.0	36	107	93	14	135	93	35	7	15	11	0	0	983.2729840278625	2590	44988.94910573959	1331	48.61003861003861	
0.2904758142857143	71.37142857142857	9.628571428571428	40.9	28.457142857142856	2.0	37	108	93	14	135	93	39	7	15	11	0	0	951.8918313980103	2660	45940.840937137604	1364	48.7218045112782	
0.24285694285714285	70.61428571428571	9.4	39.52857142857143	27.6	2.0	38	108	108	14	135	93	39	7	15	11	0	0	950.3548228740692	2730	46891.19576001167	1395	48.901098901098905	
0.35238084285714283	75.07142857142857	9.957142857142857	43.75714285714286	30.414285714285715	2.0	39	108	113	15	135	93	46	7	15	11	0	0	965.6459012031555	2800	47856.84166121483	1434	48.785714285714285	
0.43809514285714285	78.4	10.042857142857143	45.628571428571426	31.7	2.0	40	109	113	14	135	93	46	7	15	11	0	0	938.3985371589661	2870	48795.240198373795	1464	48.98954703832753	
0.34803917647058824	84.2	10.735294117647058	51.89705882352941	36.088235294117645	2.0	41	112	153	14.0	135.0	93.0	40	7.0	15.0	11.0	0	0	915.3791446685791	2940	49710.619343042374	1508	48.70748299319728	
0.43809524285714285	88.04285714285714	10.857142857142858	49.32857142857143	34.31428571428572	2.0	42	113	153	14	135	93	40	7	15	11	0	0	990.6838529109955	3010	50701.30319595337	1544	48.70431893687708	
0.3571428428571428	87.98571428571428	10.871428571428572	51.642857142857146	35.94285714285714	2.0	43	113	125	15	135	93	40	7	15	11	0	0	991.468729019165	3080	51692.771924972534	1587	48.47402597402597	
0.4106281449275362	84.15714285714286	10.46376811594203	47.91304347826087	33.34782608695652	2.66667	44	115	126	15.0	135.0	93.0	33	7.0	15.0	11.0	0	0	952.9838557243347	3150	52645.75578069687	1629	48.285714285714285	
0.3142858142857143	85.12857142857143	10.342857142857143	49.142857142857146	34.214285714285715	2.66667	45	115	155	14	135	93	31	7	15	11	0	0	1020.5987117290497	3220	53666.35449242592	1674	48.01242236024845	
0.3047619714285714	89.55714285714286	10.314285714285715	49.65714285714286	34.628571428571426	2.66667	46	116	128	15	135	93	39	7	15	11	0	0	994.4094784259796	3290	54660.7639708519	1713	47.933130699088146	
0.3284314558823529	88.35714285714286	10.264705882352942	51.36764705882353	35.80882352941177	2.66667	47	119	111	15.0	150.0	104.0	39	7.0	15.0	11.0	0	0	944.3709371089935	3360	55605.13490796089	1747	48.00595238095238	
0.33823539705882355	92.17142857142858	9.764705882352942	50.89705882352941	35.529411764705884	2.66667	48	122	151	17.0	135.0	93.0	53	7.0	15.0	11.0	0	0	902.631828546524	3430	56507.766736507416	1795	47.667638483965014	
0.36815929850746265	95.97142857142858	9.985074626865671	51.16417910447761	35.701492537313435	2.66667	49	126	171	17.0	114.0	79.0	17	7.0	15.0	11.0	0	0	912.1773624420166	3500	57419.94409894943	1840	47.42857142857143	
0.4362746470588235	92.11428571428571	9.676470588235293	47.35294117647059	33.11764705882353	2.66667	50	129	151	17.0	114.0	79.0	17	7.0	15.0	11.0	0	0	930.7034780979156	3570	58350.64757704735	1876	47.45098039215686	
0.7142859285714286	87.67142857142858	9.857142857142858	56.41428571428571	39.51428571428571	2.66667	51	129	139	17	151	104	17	7	15	11	0	0	1009.8743572235107	3640	59360.52193427086	1909	47.55494505494505	
0.7333336769230769	96.42857142857143	9.815384615384616	62.96923076923077	44.215384615384615	3.33333	52	135	140	17.0	132.0	91.0	32	7.0	15.0	11.0	0	0	904.1944966316223	3710	60264.71643090248	1947	47.52021563342318	
0.8774509705882353	96.68571428571428	9.985294117647058	72.82352941176471	51.0735294117647	4.33333	53	138	145	17.0	153.0	106.0	50	8.0	24.0	17.0	0	0	948.0906720161438	3780	61212.807102918625	1992	47.3015873015873	
1.0392157794117647	92.64285714285714	9.426470588235293	67.6029411764706	47.44117647058823	4.33333	54	141	121	13.0	109.0	76.0	63	8.0	27.0	19.0	0	0	920.7933304309845	3850	62133.60043334961	2028	47.324675324675326	
0.9420292173913044	93.01428571428572	9.46376811594203	68.26086956521739	47.88405797101449	4.33333	55	143	123	17.0	116.0	80.0	63	8.0	38.0	26.0	0	0	998.2251749038696	3920	63131.82560825348	2068	47.244897959183675	
0.9754898970588236	95.0	9.455882352941176	69.58823529411765	48.80882352941177	4.33333	56	146	148	13.0	102.0	72.0	64	8.0	39.0	28.0	0	0	970.9373557567596	3990	64102.76296401024	2112	47.067669172932334	
0.94270775	97.24285714285715	9.5	70.828125	49.6875	4.33333	57	153	148	13.0	119.0	83.0	66	8.0	33.0	23.0	0	0	901.080495595932	4060	65003.84345960617	2154	46.94581280788177	
1.3781089253731345	98.61428571428571	9.417910447761194	69.80597014925372	49.02985074626866	4.33333	58	157	149	14.0	135.0	94.0	59	8.0	33.0	23.0	0	0	954.2907910346985	4130	65958.13425064087	2196	46.82808716707022	
0.9904756857142857	100.55714285714286	9.514285714285714	68.77142857142857	48.15714285714286	4.33333	59	158	174	14	115	80	67	8	24	17	0	0	997.0824012756348	4200	66955.2166519165	2247	46.5	
1.2769224153846153	99.4	9.23076923076923	67.58461538461539	47.353846153846156	7.66667	60	164	185	13.0	129.0	89.0	33	7.0	17.0	12.0	0	0	891.6476671695709	4270	67846.86431908607	2292	46.3231850117096	
1.3816417971014494	101.44285714285714	9.27536231884058	67.28985507246377	47.2463768115942	7.66667	61	166	208	14.0	109.0	76.0	29	7.0	31.0	22.0	0	0	958.3920290470123	4340	68805.25634813309	2336	46.175115207373274	
1.6135263768115942	96.94285714285714	9.855072463768115	76.01449275362319	53.3768115942029	7.66667	62	168	173	14.0	127.0	88.0	51	8.0	24.0	17.0	0	0	983.8878583908081	4410	69789.1442065239	2381	46.00907029478458	
2.1207729855072466	97.57142857142857	9.376811594202898	74.31884057971014	52.17391304347826	7.66667	63	170	142	13.0	127.0	88.0	56	8.0	36.0	26.0	0	0	951.4780235290527	4480	70740.62223005295	2422	45.9375	
1.909091	95.74285714285715	9.772727272727273	77.15151515151516	54.04545454545455	7.66667	64	175	145	14.0	115.0	80.0	56	8.0	31.0	22.0	0	0	942.5368559360504	4550	71683.159085989	2462	45.89010989010988	
2.0497516417910453	96.77142857142857	9.805970149253731	76.56716417910448	53.71641791044776	7.66667	65	179	155	14.0	128.0	89.0	47	7.0	15.0	11.0	0	0	942.7782077789307	4620	72625.93729376793	2503	45.82251082251082	
2.3697922812499996	98.6	9.578125	75.875	53.15625	7.66667	66	186	139	14.0	139.0	95.0	51	8.0	38.0	27.0	0	0	906.8016583919525	4690	73532.73895215988	2543	45.778251599147126	
2.3383844393939395	97.1	9.606060606060606	74.03030303030303	51.77272727272727	7.66667	67	191	133	14.0	148.0	102.0	61	9.0	33.0	23.0	0	0	977.0491173267365	4760	74509.78806948662	2583	45.735294117647065	
1.990338492753623	100.9	9.840579710144928	75.71014492753623	52.971014492753625	7.66667	68	193	142	14.0	176.0	122.0	49	8.0	33.0	23.0	0	0	1009.3458757400513	4830	75519.13394522667	2631	45.52795031055901	
2.1990054029850747	105.67142857142858	9.701492537313433	77.49253731343283	54.25373134328358	9.33333	69	197	142	14.0	186.0	128.0	52	8.0	24.0	17.0	0	0	997.7128474712372	4900	76516.8467926979	2677	45.36734693877551	
2.5104175	103.18571428571428	9.765625	80.34375	56.1875	9.33333	70	204	160	14.0	143.0	101.0	52	8.0	24.0	17.0	0	0	941.2194142341614	4970	77458.06620693207	2715	45.372233400402415	
1.9282056307692306	97.67142857142858	9.892307692307693	80.47692307692307	56.06153846153846	9.33333	71	210	164	14.0	140.0	97.0	24	8.0	24.0	17.0	0	0	968.5244398117065	5040	78426.59064674377	2752	45.3968253968254	
1.7647059705882353	98.54285714285714	9.882352941176471	76.82352941176471	53.73529411764706	9.33333	72	213	169	13.0	140.0	97.0	24	8.0	24.0	17.0	0	0	1036.202603816986	5110	79462.79325056076	2795	45.303326810176124	
1.6960786764705882	100.01428571428572	9.544117647058824	70.55882352941177	49.3235294117647	9.33333	73	216	221	13.0	142.0	98.0	42	7.0	15.0	11.0	0	0	1003.1248562335968	5180	80465.91810679436	2842	45.135135135135144	
1.870646671641791	95.6	9.582089552238806	73.56716417910448	51.38805970149254	9.33333	74	220	221	15.0	190.0	133.0	50	7.0	24.0	17.0	0	0	1007.1508626937866	5250	81473.06896948814	2886	45.02857142857143	
2.0303029242424246	108.71428571428571	9.878787878787879	82.63636363636364	57.71212121212121	9.33333	75	225	202	15.0	192.0	133.0	41	7.0	24.0	17.0	0	0	989.2008078098297	5320	82462.26977729797	2932	44.88721804511279	
1.7373733333333334	117.51428571428572	10.075757575757576	86.43939393939394	60.28787878787879	9.33333	76	230	214	15.0	192.0	133.0	37	7.0	24.0	17.0	0	0	991.3097262382507	5390	83453.57950353622	2978	44.749536178107604	
1.705881617647059	124.75714285714285	10.191176470588236	84.33823529411765	58.8235294117647	9.33333	77	233	159	15.0	192.0	133.0	75	8.0	33.0	23.0	0	0	997.7400109767914	5460	84451.31951451302	3027	44.560439560439555	
1.7777771212121214	132.31428571428572	10.409090909090908	84.89393939393939	59.27272727272727	9.33333	78	238	195	15.0	219.0	151.0	69	8.0	33.0	23.0	0	0	988.5023481845856	5530	85439.8218626976	3070	44.48462929475588	
1.7826086956521738	137.22857142857143	10.144927536231885	82.66666666666667	57.73913043478261	10.6667	79	240	228	15.0	229.0	158.0	55	8.0	33.0	23.0	0	0	1015.1223199367523	5600	86454.94418263435	3121	44.267857142857146	
1.8792269565217392	135.62857142857143	10.63768115942029	85.57971014492753	59.84057971014493	10.6667	80	242	228	15.0	229.0	158.0	33	8.0	26.0	18.0	0	0	1006.9548010826111	5670	87461.89898371696	3164	44.19753086419753	
1.4523810857142856	138.88571428571427	10.528571428571428	83.74285714285715	58.542857142857144	10.6667	81	243	228	15	204	141	79	8	24	17	0	0	1059.9095604419708	5740	88521.80854415894	3211	44.059233449477354	
1.2892159705882353	143.35714285714286	10.308823529411764	84.77941176470588	59.25	10.6667	82	246	228	15.0	194.0	135.0	77	8.0	24.0	17.0	0	0	1026.377897977829	5810	89548.18644213676	3255	43.975903614457835	
2.0099510298507464	141.68571428571428	10.134328358208956	86.67164179104478	60.56716417910448	10.6667	83	250	248	16.0	218.0	151.0	66	7.0	18.0	13.0	0	0	1003.0583188533783	5880	90551.24476099014	3303	43.826530612244895	
1.9420300434782607	146.72857142857143	10.231884057971014	87.91304347826087	61.405797101449274	10.6667	84	252	256	16.0	225.0	155.0	58	7.0	15.0	11.0	0	0	1055.6526277065277	5950	91606.89738869667	3350	43.69747899159664	
1.9285736714285715	138.2	10.17142857142857	87.8	61.357142857142854	10.6667	85	253	233	17	193	134	67	7	15	11	0	0	1084.9223306179047	6020	92691.81971931458	3403	43.4717607973422	
1.6715006231884058	132.9	9.53623188405797	75.78260869565217	53.01449275362319	10.6667	86	255	247	16.0	191.0	132.0	75	7.0	15.0	11.0	0	0	1028.858660697937	6090	93720.67838001251	3454	43.28407224958949	
1.9571468142857145	126.17142857142858	9.657142857142857	75.38571428571429	52.714285714285715	11.0	87	256	247	16	191	132	64	7	15	11	0	0	1042.7982420921326	6160	94763.47662210464	3499	43.198051948051955	
2.1835789855072467	127.34285714285714	9.898550724637682	77.34782608695652	54.11594202898551	11.0	88	258	203	16.0	193.0	133.0	58	8.0	24.0	17.0	0	0	1037.6547441482544	6230	95801.1313662529	3546	43.08186195826645	
2.5333361	130.64285714285714	9.928571428571429	82.75714285714285	57.92857142857143	11.0	89	258	203	15	177	123	60	8	42	30	0	0	1054.3599050045013	6300	96855.4912712574	3592	42.98412698412698	
1.9666705714285715	136.24285714285713	9.82857142857143	81.77142857142857	57.285714285714285	11.0	90	259	238	16	190	132	63	7	15	11	0	0	1044.7584030628204	6370	97900.24967432022	3640	42.85714285714286	
2.1449309130434786	151.64285714285714	10.347826086956522	91.15942028985508	63.65217391304348	11.0	91	261	238	15.0	185.0	128.0	72	7.0	15.0	11.0	0	0	1069.400309085846	6440	98969.64998340607	3686	42.763975155279496	
1.7952413857142857	152.81428571428572	10.6	89.28571428571429	62.371428571428574	11.0	92	262	254	16	203	141	81	8	31	22	0	0	1068.8704023361206	6510	100038.52038574219	3741	42.534562211981566	
1.589374347826087	157.81428571428572	10.753623188405797	94.79710144927536	66.15942028985508	11.0	93	264	263	16.0	204.0	143.0	75	8.0	22.0	16.0	0	0	1088.706528186798	6580	101127.22691392899	3789	42.41641337386019	
1.1568642647058824	151.34285714285716	10.441176470588236	85.07352941176471	59.294117647058826	11.0	94	267	254	16.0	204.0	141.0	82	8.0	24.0	17.0	0	0	1093.0973167419434	6650	102220.32423067093	3836	42.315789473684205	
0.9000014285714286	162.78571428571428	10.657142857142857	91.12857142857143	63.457142857142856	11.0	95	268	254	16	204	141	74	8	24	17	0	0	1123.2246067523956	6720	103343.54883742332	3887	42.157738095238095	
1.0476204285714286	158.95714285714286	10.428571428571429	85.01428571428572	59.357142857142854	11.0	96	269	263	17	191	133	64	7	17	12	0	0	1067.829907655716	6790	104411.37874507904	3941	41.95876288659793	
1.3666675714285714	164.64285714285714	10.414285714285715	86.22857142857143	60.2	11.0	97	269	259	17	191	132	88	7	17	12	0	0	1076.4672667980194	6860	105487.84601187706	3991	41.82215743440233	
2.366668571428572	171.32857142857142	10.528571428571428	98.84285714285714	68.98571428571428	11.3333	98	269	323	15	209	146	88	7	17	12	0	0	1055.7664604187012	6930	106543.61247229576	4043	41.65945165945166	
1.733334242857143	159.25714285714287	9.814285714285715	82.58571428571429	57.72857142857143	11.3333	99	270	323	15	177	123	87	7	17	12	0	0	1026.935297012329	7000	107570.54776930809	4088	41.6	
1.9952404714285714	172.5142857142857	9.985714285714286	86.48571428571428	60.41428571428571	11.3333	100	271	323	14	192	134	83	7	17	12	0	0	1044.0499730110168	7070	108614.5977423191	4136	41.499292786421506	
1.8190485142857142	173.47142857142856	10.314285714285715	92.1	64.28571428571429	11.3333	101	272	323	14	193	134	92	7	21	15	0	0	1039.6823136806488	7140	109654.28005599976	4185	41.38655462184874	
1.704762242857143	170.5857142857143	10.971428571428572	102.22857142857143	71.21428571428571	11.3333	102	272	323	16	211	145	77	8	33	23	0	0	1073.0609180927277	7210	110727.34097409248	4240	41.19278779472955	
1.7904762	178.54285714285714	10.514285714285714	95.04285714285714	66.31428571428572	11.3333	103	273	323	15	204	141	83	8	33	23	0	0	1076.4868557453156	7280	111803.8278298378	4284	41.15384615384615	
1.8380957142857142	178.74285714285713	10.157142857142857	86.8	60.6	11.3333	104	273	367	15	184	128	101	7	15	11	0	0	1137.6656649112701	7350	112941.49349474907	4330	41.088435374149654	
1.1571424285714287	189.04285714285714	10.82857142857143	105.47142857142858	73.37142857142857	11.3333	105	274	367	16	203	140	92	7	17	12	0	0	1093.1436321735382	7420	114034.63712692261	4380	40.97035040431267	
1.0386473913043477	179.8	11.18840579710145	108.85507246376811	75.7536231884058	11.3333	106	276	367	17.0	262.0	181.0	92	8.0	38.0	27.0	0	0	1045.911241054535	7490	115080.54836797714	4431	40.8411214953271	
0.8142852428571429	179.38571428571427	10.885714285714286	102.75714285714285	71.48571428571428	11.3333	107	277	323	16	232	161	76	8	26	18	0	0	1091.2969453334808	7560	116171.84531331062	4486	40.661375661375665	
1.2857138142857143	175.27142857142857	10.428571428571429	94.67142857142858	65.85714285714286	11.3333	108	277	323	14	193	133	76	7	17	12	0	0	1050.9166250228882	7630	117222.76193833351	4538	40.52424639580603	
1.2904752285714285	193.0142857142857	10.914285714285715	106.04285714285714	73.72857142857143	11.3333	109	277	323	15	206	142	76	8	24	17	0	0	1048.7593216896057	7700	118271.52126002312	4589	40.40259740259741	
1.1142847999999999	197.7	10.928571428571429	105.02857142857142	73.04285714285714	11.3333	110	277	323	17	226	157	114	7	17	12	0	0	1035.0463137626648	7770	119306.56757378578	4637	40.32175032175033	
1.0428562285714285	202.64285714285714	11.042857142857143	106.54285714285714	74.1	11.3333	111	277	323	15	236	163	114	7	17	12	0	0	1046.1424832344055	7840	120352.71005702019	4691	40.16581632653061	
1.0666658142857142	213.21428571428572	11.028571428571428	107.42857142857143	74.77142857142857	11.3333	112	278	334	16	254	178	114	7	17	12	0	0	1040.5665216445923	7910	121393.27657866478	4740	40.07585335018964	
0.9571414285714285	219.97142857142856	10.371428571428572	94.97142857142858	66.14285714285714	11.3333	113	279	364	17	238	165	106	7	17	12	0	0	1041.9596807956696	7980	122435.23625946045	4784	40.05012531328321	
1.4190457142857145	220.87142857142857	10.528571428571428	96.02857142857142	66.91428571428571	11.3333	114	279	364	16	190	132	106	7	15	11	0	0	1043.9850339889526	8050	123479.2212934494	4830	40.0	
1.1999976714285714	218.84285714285716	10.771428571428572	100.12857142857143	69.75714285714285	11.3333	115	280	377	15	194	134	118	7	15	11	0	0	1056.100597858429	8120	124535.32189130783	4873	39.98768472906404	
1.1666643285714287	234.87142857142857	11.157142857142857	109.51428571428572	76.2	11.3333	116	281	364	15	225	156	92	7	15	11	0	0	1033.9766879081726	8190	125569.298579216	4928	39.82905982905983	
1.5666641857142856	252.18571428571428	11.042857142857143	109.72857142857143	76.35714285714286	11.3333	117	281	397	17	239	165	94	7	15	11	0	0	1060.8281679153442	8260	126630.12674713135	4987	39.624697336561745	
1.2285686285714286	265.9	11.114285714285714	108.55714285714286	75.55714285714286	11.3333	118	281	396	17	276	192	130	8	33	23	0	0	1097.1297693252563	8330	127727.2565164566	5044	39.44777911164466	
1.1619028571428571	261.15714285714284	10.842857142857143	109.41428571428571	76.25714285714285	11.3333	119	281	410	17	322	224	130	7	15	11	0	0	1084.212066411972	8400	128811.46858286858	5100	39.28571428571429	
1.6999982428571427	261.5285714285714	11.057142857142857	109.28571428571429	76.11428571428571	11.6667	120	281	384	15	189	131	125	7	17	12	0	0	1068.472663640976	8470	129879.94124650955	5156	39.12632821723731	
1.0476176714285714	245.7	11.17142857142857	111.0	77.27142857142857	11.6667	121	281	371	17	236	165	138	8	24	17	0	0	1104.5479979515076	8540	130984.48924446106	5213	38.957845433255265	
1.3761891428571427	240.17142857142858	10.885714285714286	108.58571428571429	75.5	11.6667	122	281	371	17	227	157	136	8	38	26	0	0	1063.7574305534363	8610	132048.2466750145	5268	38.81533101045296	
1.1884048695652172	237.6	11.057971014492754	113.30434782608695	78.8840579710145	11.6667	123	283	420	16.0	207.0	144.0	124	8.0	37.0	26.0	0	0	1011.9237687587738	8680	133060.17044377327	5320	38.70967741935484	
1.0571414714285714	244.27142857142857	10.985714285714286	113.6	79.05714285714286	11.6667	124	284	420	16	232	161	84	7	23	16	0	0	1059.1923553943634	8750	134119.36279916763	5377	38.548571428571435	
0.9999980999999999	243.92857142857142	10.885714285714286	99.95714285714286	69.71428571428571	11.6667	125	285	431	17	189	131	84	8	27	19	0	0	1118.0197248458862	8820	135237.38252401352	5429	38.446712018140595	
0.9428557571428572	240.38571428571427	10.657142857142857	94.84285714285714	66.1	11.6667	126	285	424	17	255	178	84	7	15	11	0	0	1111.8404183387756	8890	136349.2229423523	5480	38.35770528683915	
0.8333319	233.0857142857143	10.457142857142857	85.25714285714285	59.457142857142856	11.6667	127	285	424	16	189	131	84	8	24	17	0	0	1112.9543104171753	8960	137462.17725276947	5526	38.32589285714286	
1.1714267142857142	234.5	10.7	90.08571428571429	62.74285714285714	11.6667	128	285	430	16	207	144	84	7	15	11	0	0	1096.9282438755035	9030	138559.10549664497	5571	38.30564784053156	
1.285712857142857	224.1	10.971428571428572	97.2	67.74285714285715	11.6667	129	285	367	16	203	141	104	7	15	11	0	0	1089.5236339569092	9100	139648.62913060188	5615	38.29670329670329	
1.3476181	239.31428571428572	10.614285714285714	91.28571428571429	63.614285714285714	11.6667	130	285	376	17	271	187	104	7	15	11	0	0	1080.5232870578766	9170	140729.15241765976	5662	38.25517993456925	
0.9380947142857142	249.55714285714285	10.485714285714286	83.81428571428572	58.48571428571429	11.6667	131	285	483	15	201	141	84	7	15	11	0	0	1053.218158006668	9240	141782.37057566643	5713	38.170995670995666	
0.8190471428571429	223.44285714285715	11.142857142857142	95.65714285714286	66.65714285714286	11.6667	132	286	419	17	204	142	84	7	20	14	0	0	1065.6311230659485	9310	142848.00169873238	5769	38.0343716433942	
1.2801927681159422	207.9	11.0	103.23188405797102	71.84057971014492	11.6667	133	288	404	16.0	220.0	152.0	81	7.0	17.0	12.0	0	0	1026.8807501792908	9380	143874.88244891167	5821	37.94243070362473	
1.0238100142857143	226.5142857142857	10.857142857142858	106.35714285714286	74.18571428571428	11.6667	134	288	404	17	216	149	92	8	36	25	0	0	1065.2139484882355	9450	144940.0963973999	5876	37.82010582010582	
1.1523809571428572	231.04285714285714	11.128571428571428	110.91428571428571	77.28571428571429	11.6667	135	288	428	16	201	139	92	8	37	26	0	0	1075.326443195343	9520	146015.42284059525	5931	37.69957983193277	
0.9952390571428572	242.64285714285714	11.67142857142857	117.3	81.68571428571428	11.6667	136	288	428	17	232	161	98	8	26	18	0	0	1113.782170534134	9590	147129.20501112938	5991	37.528675703858184	
1.0095247714285716	236.37142857142857	11.3	110.92857142857143	77.14285714285714	11.6667	137	289	364	16	244	169	98	8	24	17	0	0	1084.6893367767334	9660	148213.8943479061	6043	37.44306418219462	
1.1761918571428573	218.22857142857143	11.028571428571428	106.21428571428571	73.88571428571429	11.6667	138	290	362	15	204	142	138	8	24	17	0	0	1058.9489443302155	9730	149272.84329223633	6100	37.30729701952723	
1.1238103714285714	213.67142857142858	10.814285714285715	100.3	69.82857142857142	11.6667	139	291	388	14	216	149	110	7	23	16	0	0	1053.9135508537292	9800	150326.75684309006	6152	37.22448979591837	
1.5686279852941178	205.95714285714286	10.544117647058824	98.05882352941177	68.23529411764706	11.6667	140	294	379	15.0	216.0	150.0	84	7.0	15.0	11.0	0	0	992.8654923439026	9870	151319.62233543396	6206	37.1225937183384	
1.3142867142857142	194.7	10.757142857142858	106.92857142857143	74.22857142857143	11.6667	141	295	311	15	210	145	103	7	23	16	0	0	1073.292237997055	9940	152392.91457343102	6262	37.00201207243461	
1.2095248142857142	201.31428571428572	10.971428571428572	110.8	76.85714285714286	11.6667	142	295	273	17	259	180	106	7	23	16	0	0	1069.0159013271332	10010	153461.93047475815	6320	36.86313686313686	
1.4666675142857144	203.4	11.257142857142858	121.31428571428572	84.11428571428571	12.0	143	295	320	15	205	142	111	8	24	17	0	0	1104.3155348300934	10080	154566.24600958824	6374	36.76587301587302	
1.4952390571428573	204.14285714285714	11.114285714285714	112.08571428571429	77.95714285714286	12.0	144	295	320	15	232	162	93	7	23	16	0	0	1125.5464437007904	10150	155691.79245328903	6431	36.64039408866995	
1.4761928571428569	202.72857142857143	11.3	111.48571428571428	77.55714285714286	12.0	145	295	288	16	230	161	111	7	23	16	0	0	1162.9037234783173	10220	156854.69617676735	6482	36.57534246575342	
1.1285728142857143	200.3	10.985714285714286	106.54285714285714	74.18571428571428	12.0	146	295	285	15	243	169	109	7	21	15	0	0	1167.3111169338226	10290	158022.00729370117	6536	36.482021379980566	
1.0238109571428573	206.47142857142856	11.128571428571428	109.2	76.02857142857142	12.0	147	295	276	15	264	184	116	8	33	23	0	0	1167.840805053711	10360	159189.84809875488	6593	36.36100386100386	
1.0428585714285714	206.1	11.2	111.45714285714286	77.65714285714286	12.0	148	296	297	14	199	139	126	8	33	23	0	0	1134.765440940857	10430	160324.61353969574	6645	36.2895493767977	
1.1047628857142857	210.34285714285716	11.228571428571428	113.84285714285714	79.27142857142857	12.0	149	296	319	14	201	139	126	8	24	17	0	0	1166.4695749282837	10500	161491.08311462402	6704	36.152380952380945	
1.2047627142857142	207.92857142857142	11.385714285714286	110.67142857142858	77.07142857142857	12.0	150	297	314	16	206	143	120	8	24	17	0	0	1087.3813858032227	10570	162578.46450042725	6764	36.00756859035005	
1.3523814285714286	206.14285714285714	11.685714285714285	120.77142857142857	84.14285714285714	12.0	151	298	317	16	218	152	101	8	33	23	0	0	1069.355831861496	10640	163647.82033228874	6822	35.883458646616546	
1.3043487971014494	210.81428571428572	11.579710144927537	115.6086956521739	80.6086956521739	12.0	152	300	317	16.0	214.0	150.0	122	8.0	31.0	22.0	0	0	1029.3873636722565	10710	164677.207695961	6877	35.78898225957049	
1.2142866714285714	207.31428571428572	11.0	100.68571428571428	70.21428571428571	12.0	153	301	344	16	189	131	116	8	26	18	0	0	1039.864889383316	10780	165717.07258534431	6933	35.68645640074212	
1.4619042857142857	211.22857142857143	11.514285714285714	111.0	77.17142857142858	12.0	154	301	346	17	202	140	121	8	26	18	0	0	1023.9651358127594	10850	166741.03772115707	6990	35.576036866359445	
1.361904757142857	205.4142857142857	11.4	109.24285714285715	75.98571428571428	12.3333	155	302	317	16	204	142	107	8	24	17	0	0	981.527331829071	10920	167722.56505298615	7047	35.467032967032964	
1.17619	207.75714285714287	11.1	102.08571428571429	70.97142857142858	12.3333	156	303	317	16	205	142	89	8	26	18	0	0	1015.2042155265808	10990	168737.76926851273	7101	35.38671519563239	
1.4428571428571428	211.85714285714286	11.185714285714285	108.65714285714286	75.68571428571428	12.3333	157	303	351	15	228	157	89	8	24	17	0	0	1052.669749736786	11060	169790.4390182495	7158	35.280289330922244	
1.2142847142857143	218.05714285714285	11.057142857142857	109.04285714285714	75.85714285714286	12.3333	158	303	391	15	237	164	89	7	21	15	0	0	1051.3433544635773	11130	170841.7823727131	7215	35.17520215633422	
1.1809519000000002	212.0	11.1	102.95714285714286	71.74285714285715	12.3333	159	304	389	15	189	131	109	7	23	16	0	0	1089.5289964675903	11200	171931.31136918068	7260	35.17857142857143	
1.1999998571428572	223.4857142857143	11.17142857142857	107.38571428571429	74.71428571428571	12.3333	160	304	389	15	252	174	79	7	20	14	0	0	1106.129849910736	11270	173037.44121909142	7319	35.05767524401064	
1.6476188571428574	230.9	11.285714285714286	120.72857142857143	84.08571428571429	12.3333	161	304	389	15	246	170	98	8	33	23	0	0	1078.6015033721924	11340	174116.0427224636	7373	34.982363315696645	
1.399999	204.35714285714286	10.985714285714286	108.55714285714286	75.58571428571429	12.3333	162	304	360	15	221	152	98	7	15	11	0	0	1067.5587520599365	11410	175183.60147452354	7428	34.899211218229624	
1.6809524285714286	192.34285714285716	11.17142857142857	108.72857142857143	75.77142857142857	12.3333	163	304	360	16	216	150	122	7	15	11	0	0	1082.1601600646973	11480	176265.76163458824	7480	34.8432055749129	
1.6238075714285716	190.97142857142856	10.871428571428572	108.0	75.17142857142858	12.3333	164	304	260	14	220	152	120	7	15	11	0	0	1108.722739458084	11550	177374.48437404633	7538	34.73593073593074	
1.0428561857142857	198.35714285714286	10.742857142857142	98.38571428571429	68.5	12.3333	165	304	275	15	204	142	127	7	15	11	0	0	1071.810986995697	11620	178446.29536104202	7594	34.647160068846816	
1.161903857142857	204.37142857142857	11.128571428571428	109.1	75.78571428571429	12.3333	166	304	306	16	232	160	118	8	22	16	0	0	1089.8470194339752	11690	179536.142380476	7653	34.533789563729684	
1.0380938571428573	211.92857142857142	10.342857142857143	88.88571428571429	61.94285714285714	12.3333	167	304	397	16	232	160	127	7	20	14	0	0	1116.4252018928528	11760	180652.56758236885	7704	34.48979591836735	
1.3476171428571428	206.44285714285715	10.771428571428572	99.91428571428571	69.65714285714286	12.3333	168	304	324	14	196	136	98	8	24	17	0	0	1138.9611961841583	11830	181791.528778553	7755	34.44632290786137	
1.6571395285714285	194.11428571428573	10.871428571428572	101.05714285714286	70.48571428571428	12.3333	169	305	284	16	196	136	87	7	15	11	0	0	1102.675530910492	11900	182894.2043094635	7805	34.41176470588235	
1.5190447714285715	205.22857142857143	10.928571428571429	107.82857142857142	75.08571428571429	12.3333	170	306	253	14	198	137	133	7	24	17	0	0	1111.5414493083954	11970	184005.7457587719	7858	34.35254803675856	
1.0476166285714286	210.28571428571428	11.085714285714285	107.32857142857142	74.84285714285714	12.3333	171	306	354	16	279	194	83	7	20	14	0	0	1108.7114312648773	12040	185114.45719003677	7918	34.2358803986711	
1.1428552428571428	205.52857142857144	11.128571428571428	111.15714285714286	77.38571428571429	12.3333	172	307	314	16	265	184	83	7	18	13	0	0	1049.9445645809174	12110	186164.4017546177	7967	34.211395540875316	
1.2714256571428573	210.15714285714284	11.342857142857143	121.72857142857143	84.65714285714286	12.3333	173	307	314	17	285	198	106	8	26	18	0	0	1087.5030407905579	12180	187251.90479540825	8022	34.13793103448276	
1.3142823857142856	215.04285714285714	11.042857142857143	111.25714285714285	77.48571428571428	12.3333	174	307	312	15	311	216	94	7	15	11	0	0	1094.572506904602	12250	188346.47730231285	8078	34.05714285714285	
1.2367130869565217	207.74285714285713	11.173913043478262	107.91304347826087	75.14492753623189	12.3333	175	309	349	16.0	220.0	152.0	94	7.0	15.0	11.0	0	0	1059.9715287685394	12320	189406.4488310814	8132	33.9935064935065	
1.9178713043478262	213.1	11.18840579710145	111.07246376811594	77.3913043478261	12.3333	176	311	325	16.0	275.0	191.0	122	7.0	15.0	11.0	0	0	1057.490847826004	12390	190463.9396789074	8178	33.99515738498789	
1.7857114285714284	209.52857142857144	11.142857142857142	112.04285714285714	77.94285714285714	12.3333	177	311	313	15	234	162	132	7	15	11	0	0	1096.3737058639526	12460	191560.31338477135	8234	33.91653290529695	
1.7714252857142858	205.0857142857143	10.914285714285715	104.72857142857143	72.85714285714286	12.3333	178	312	292	15	230	159	129	7	15	11	0	0	1068.2973444461823	12530	192628.61072921753	8286	33.8707102952913	
1.2476166714285715	205.27142857142857	10.785714285714286	108.04285714285714	75.14285714285714	12.3333	179	313	293	15	232	160	129	7	15	11	0	0	1090.201854467392	12600	193718.81258368492	8341	33.801587301587304	
1.261901857142857	213.37142857142857	10.814285714285715	107.4	74.72857142857143	12.3333	180	313	315	17	238	164	109	7	21	15	0	0	1069.9029755592346	12670	194788.71555924416	8396	33.73322809786899	
1.1523781	213.37142857142857	11.1	112.18571428571428	78.02857142857142	12.3333	181	313	315	16	220	153	111	7	17	12	0	0	1073.0158896446228	12740	195861.73144888878	8453	33.64992150706436	
1.2095219	210.07142857142858	10.8	100.52857142857142	70.05714285714286	12.3333	182	314	289	17	214	147	126	7	17	12	0	0	1058.2048211097717	12810	196919.93626999855	8505	33.606557377049185	
1.0476161857142858	205.4	10.557142857142857	100.0	69.62857142857143	12.3333	183	314	307	14	194	135	111	7	20	14	0	0	1139.8996589183807	12880	198059.83592891693	8563	33.517080745341616	
1.0428542857142855	207.47142857142856	10.82857142857143	100.71428571428571	70.27142857142857	12.3333	184	314	344	14	211	146	111	7	21	15	0	0	1091.7539637088776	12950	199151.5898926258	8618	33.45173745173746	
1.4714261428571427	212.92857142857142	10.842857142857143	104.82857142857142	73.1	12.3333	185	314	344	14	210	146	111	7	21	15	0	0	1079.5264158248901	13020	200231.1163084507	8668	33.42549923195085	
1.799996614285714	222.64285714285714	10.814285714285715	104.72857142857143	72.95714285714286	12.3333	186	315	344	14	207	144	138	8	33	23	0	0	1090.1886796951294	13090	201321.30498814583	8720	33.3842627960275	
1.447615857142857	212.82857142857142	10.8	108.4	75.42857142857143	12.3333	187	315	311	15	193	134	138	8	24	17	0	0	1075.8441967964172	13160	202397.14918494225	8776	33.31306990881458	
1.3571404285714286	221.67142857142858	10.914285714285715	107.37142857142857	74.7	12.3333	188	316	341	15	238	165	100	7	18	13	0	0	1031.051470041275	13230	203428.20065498352	8826	33.287981859410436	
0.9571404285714286	223.28571428571428	11.042857142857143	105.27142857142857	73.27142857142857	12.3333	189	316	341	16	238	165	143	8	24	17	0	0	1102.7160527706146	13300	204530.91670775414	8880	33.23308270676691	
1.1999971428571428	217.2	10.971428571428572	110.28571428571429	76.78571428571429	12.3333	190	316	341	17	263	182	141	7	17	12	0	0	1127.0306553840637	13370	205657.9473631382	8933	33.1862378459237	
0.88095	203.45714285714286	10.5	88.77142857142857	62.0	12.3333	191	316	341	15	191	132	113	7	15	11	0	0	1081.353610754013	13440	206739.3009738922	8982	33.16964285714286	
1.0724608695652174	213.47142857142856	10.666666666666666	91.79710144927536	64.15942028985508	12.3333	192	318	333	15.0	189.0	131.0	157	7.0	15.0	11.0	0	0	1044.7938351631165	13510	207784.09480905533	9026	33.19022945965952	
0.9142832857142856	220.44285714285715	10.414285714285715	87.52857142857142	61.17142857142857	12.3333	193	318	333	16	217	151	131	8	22	16	0	0	1038.148033618927	13580	208822.24284267426	9072	33.195876288659804	
0.9238071428571428	220.4857142857143	10.457142857142857	91.22857142857143	63.67142857142857	12.3333	194	318	368	16	192	134	107	7	15	11	0	0	1077.0418646335602	13650	209899.28470730782	9123	33.164835164835154	
1.4142833857142858	221.52857142857144	10.528571428571428	94.64285714285714	66.1	12.3333	195	319	369	16	201	139	118	7	15	11	0	0	1040.437266588211	13720	210939.72197389603	9171	33.15597667638484	
1.7047590857142856	227.0857142857143	11.2	110.52857142857142	77.01428571428572	12.3333	196	319	432	16	216	150	124	7	15	11	0	0	1039.3329136371613	13790	211979.0548875332	9223	33.118201595358954	
1.3768101449275363	209.2	11.130434782608695	107.8840579710145	75.20289855072464	12.3333	197	321	368	16.0	218.0	152.0	100	7.0	22.0	16.0	0	0	992.5118315219879	13860	212971.56671905518	9280	33.04473304473305	
1.5619009428571429	214.07142857142858	11.571428571428571	113.61428571428571	79.08571428571429	12.3333	198	322	331	17	241	167	127	7	23	16	0	0	1027.0420334339142	13930	213998.6087524891	9332	33.00789662598707	
1.1739106376811592	210.55714285714285	10.898550724637682	104.3913043478261	72.76811594202898	12.3333	199	324	333	16.0	240.0	167.0	122	7.0	17.0	12.0	0	0	1003.5725030899048	14000	215002.181255579	9382	32.98571428571428	
1.23333	211.62857142857143	10.642857142857142	93.58571428571429	65.21428571428571	12.3333	200	325	333	16	214	148	111	7	15	11	0	0	984.9514479637146	14070	215987.1327035427	9434	32.949538024164895	
