best_fitness	avg_fitness
1.33333	0.0428571
1.33333	0.047619
1.33333	0.0619048
1.33333	0.0333333
1.33333	0.047619
1.33333	0.0333333
1.33333	0.047619
1.33333	0.047619
1.33333	0.0333333
1.33333	0.0333333
1.33333	0.0333333
1.33333	0.047619
1.33333	0.0333333
1.33333	0.0333333
1.33333	0.0333333
1.33333	0.047619
1.33333	0.0333333
1.33333	0.0333333
1.33333	0.0333333
1.33333	0.0333333
1.33333	0.0333333
1.33333	0.0333333
1.33333	0.047619
1.33333	0.0333333
1.33333	0.0333333
1.33333	0.0333333
1.33333	0.047619
1.33333	0.047619
1.33333	0.047619
1.33333	0.047619
1.33333	0.0333333
1.33333	0.0333333
1.33333	0.0333333
1.33333	0.0333333
1.33333	0.0333333
1.33333	0.0333333
1.33333	0.0333333
1.33333	0.047619
1.33333	0.0333333
1.33333	0.0619048
1.33333	0.047619
1.33333	0.0333333
1.33333	0.0333333
1.33333	0.047619
1.33333	0.047619
1.33333	0.047619
1.33333	0.0619048
1.33333	0.047619
1.33333	0.0333333
1.33333	0.047619
1.33333	0.0333333
1.33333	0.047619
1.33333	0.0333333
1.33333	0.047619
1.33333	0.047619
1.33333	0.047619
1.33333	0.0333333
1.33333	0.047619
1.33333	0.0761905
1.33333	0.047619
1.33333	0.0333333
1.33333	0.047619
1.33333	0.047619
1.33333	0.0333333
1.33333	0.047619
1.33333	0.047619
1.33333	0.0333333
1.33333	0.0333333
1.33333	0.0333333
1.33333	0.0333333
1.33333	0.0761905
1.33333	0.047619
1.33333	0.0619048
1.33333	0.0333333
1.33333	0.047619
1.33333	0.0333333
1.33333	0.0333333
1.33333	0.0333333
1.33333	0.0333333
1.33333	0.0761905
1.33333	0.047619
1.33333	0.0333333
1.33333	0.047619
1.33333	0.0333333
1.33333	0.0619048
1.33333	0.0333333
1.33333	0.0333333
1.33333	0.0333333
1.33333	0.0333333
1.33333	0.047619
1.33333	0.0333333
1.33333	0.0333333
1.33333	0.047619
1.33333	0.0333333
1.33333	0.0333333
1.33333	0.0333333
1.33333	0.0333333
1.33333	0.047619
1.33333	0.0333333
1.33333	0.0333333
1.33333	0.0333333
1.33333	0.047619
1.33333	0.0333333
1.33333	0.0333333
1.33333	0.047619
1.33333	0.0333333
1.33333	0.0333333
1.33333	0.0333333
1.33333	0.0333333
1.33333	0.0333333
1.33333	0.047619
1.33333	0.0333333
1.33333	0.0619048
1.33333	0.047619
1.33333	0.0619048
1.33333	0.0333333
1.33333	0.0619048
1.33333	0.0333333
1.33333	0.0619048
1.33333	0.0333333
1.33333	0.0333333
1.33333	0.0333333
1.33333	0.0333333
1.33333	0.0333333
1.33333	0.047619
1.33333	0.0333333
1.33333	0.0619048
1.33333	0.047619
1.33333	0.0333333
1.33333	0.0333333
1.33333	0.047619
1.33333	0.047619
1.33333	0.0333333
1.33333	0.0333333
1.33333	0.047619
1.33333	0.0619048
1.33333	0.047619
1.33333	0.0761905
1.33333	0.0761905
1.33333	0.0333333
1.33333	0.0333333
1.33333	0.047619
1.33333	0.0333333
1.33333	0.0333333
1.33333	0.047619
1.33333	0.0333333
1.33333	0.0619048
1.33333	0.104762
1.33333	0.0333333
1.33333	0.047619
1.33333	0.047619
1.33333	0.0333333
1.33333	0.047619
1.33333	0.0333333
1.33333	0.0333333
1.33333	0.0333333
1.33333	0.0619048
1.33333	0.0333333
1.33333	0.0333333
1.33333	0.0333333
1.33333	0.0333333
1.33333	0.047619
1.33333	0.047619
1.33333	0.0333333
1.33333	0.0333333
1.33333	0.0333333
1.33333	0.0333333
1.33333	0.047619
1.33333	0.0333333
1.33333	0.0333333
1.33333	0.0619048
1.33333	0.0333333
1.33333	0.0333333
1.33333	0.0333333
1.33333	0.0333333
1.33333	0.0333333
1.33333	0.047619
1.33333	0.047619
1.33333	0.0333333
1.33333	0.0333333
1.33333	0.0619048
1.33333	0.0333333
1.33333	0.0333333
1.33333	0.047619
1.33333	0.0333333
1.33333	0.0333333
1.33333	0.0333333
1.33333	0.0333333
1.33333	0.0333333
1.33333	0.047619
1.33333	0.0333333
1.33333	0.0333333
1.33333	0.0333333
1.33333	0.047619
1.33333	0.0333333
1.33333	0.047619
1.33333	0.0333333
1.33333	0.0333333
1.33333	0.0619048
1.33333	0.047619
