best_fitness	avg_fitness
0.333333	0.0047619
1	0.157143
1.66667	0.252381
1.66667	0.604762
1.66667	1.66667
1.66667	1.66667
1.66667	1.66667
1.66667	1.66667
1.66667	1.66667
1.66667	1.66667
1.66667	1.66667
1.66667	1.66667
1.66667	1.66667
1.66667	1.66667
1.66667	1.66667
1.66667	1.66667
1.66667	1.66667
1.66667	1.66667
1.66667	1.66667
1.66667	1.66667
1.66667	1.66667
1.66667	1.66667
1.66667	1.66667
1.66667	1.66667
1.66667	1.66667
1.66667	1.66667
1.66667	1.66667
1.66667	1.66667
1.66667	1.66667
1.66667	1.66667
1.66667	1.66667
1.66667	1.66667
1.66667	1.66667
1.66667	1.66667
1.66667	1.66667
1.66667	1.66667
1.66667	1.66667
1.66667	1.66667
1.66667	1.66667
1.66667	1.66667
1.66667	1.66667
1.66667	1.66667
1.66667	1.66667
1.66667	1.66667
1.66667	1.66667
1.66667	1.66667
1.66667	1.66667
1.66667	1.66667
1.66667	1.66667
1.66667	1.66667
1.66667	1.66667
1.66667	1.66667
1.66667	1.66667
1.66667	1.66667
1.66667	1.66667
1.66667	1.66667
1.66667	1.66667
1.66667	1.66667
1.66667	1.66667
1.66667	1.66667
1.66667	1.66667
1.66667	1.66667
1.66667	1.66667
1.66667	1.66667
1.66667	1.66667
1.66667	1.66667
1.66667	1.66667
1.66667	1.66667
1.66667	1.66667
1.66667	1.66667
1.66667	1.66667
1.66667	1.66667
1.66667	1.66667
1.66667	1.66667
1.66667	1.66667
1.66667	1.66667
1.66667	1.66667
1.66667	1.66667
1.66667	1.66667
1.66667	1.66667
1.66667	1.66667
1.66667	1.66667
1.66667	1.66667
1.66667	1.66667
1.66667	1.66667
1.66667	1.66667
1.66667	1.66667
1.66667	1.66667
1.66667	1.66667
1.66667	1.66667
1.66667	1.66667
1.66667	1.66667
1.66667	1.66667
1.66667	1.66667
1.66667	1.66667
1.66667	1.66667
1.66667	1.66667
1.66667	1.66667
1.66667	1.66667
1.66667	1.66667
1.66667	1.66667
1.66667	1.66667
1.66667	1.66667
1.66667	1.66667
1.66667	1.66667
1.66667	1.66667
1.66667	1.66667
1.66667	1.66667
1.66667	1.66667
1.66667	1.66667
1.66667	1.66667
1.66667	1.66667
1.66667	1.66667
1.66667	1.66667
1.66667	1.66667
1.66667	1.66667
1.66667	1.66667
1.66667	1.66667
1.66667	1.66667
1.66667	1.66667
1.66667	1.66667
1.66667	1.66667
1.66667	1.66667
1.66667	1.66667
1.66667	1.66667
1.66667	1.66667
1.66667	1.66667
1.66667	1.66667
1.66667	1.66667
1.66667	1.66667
1.66667	1.66667
1.66667	1.66667
1.66667	1.66667
1.66667	1.66667
1.66667	1.66667
1.66667	1.66667
1.66667	1.66667
1.66667	1.66667
1.66667	1.66667
1.66667	1.66667
1.66667	1.66667
1.66667	1.66667
1.66667	1.66667
1.66667	1.66667
1.66667	1.66667
1.66667	1.66667
1.66667	1.66667
1.66667	1.66667
1.66667	1.66667
1.66667	1.66667
1.66667	1.66667
1.66667	1.66667
1.66667	1.66667
1.66667	1.66667
1.66667	1.66667
1.66667	1.66667
1.66667	1.66667
1.66667	1.66667
1.66667	1.66667
1.66667	1.66667
1.66667	1.66667
1.66667	1.66667
1.66667	1.66667
1.66667	1.66667
1.66667	1.66667
1.66667	1.66667
1.66667	1.66667
1.66667	1.66667
1.66667	1.66667
1.66667	1.66667
1.66667	1.66667
1.66667	1.66667
1.66667	1.66667
1.66667	1.66667
1.66667	1.66667
1.66667	1.66667
1.66667	1.66667
1.66667	1.66667
1.66667	1.66667
1.66667	1.66667
1.66667	1.66667
1.66667	1.66667
1.66667	1.66667
1.66667	1.66667
1.66667	1.66667
1.66667	1.66667
1.66667	1.66667
1.66667	1.66667
1.66667	1.66667
1.66667	1.66667
1.66667	1.66667
1.66667	1.66667
1.66667	1.66667
1.66667	1.66667
1.66667	1.66667
1.66667	1.66667
1.66667	1.66667
1.66667	1.66667
1.66667	1.66667
1.66667	1.66667
