P_MOTIVATION_2_GT,false;P_MOTIVATION_2_GT,false;*:*:B_PHOTOTAXIS,1#
P_MOTIVATION_1_GT,false;P_ON_SLOPE,true;*:*:B_PHOTOTAXIS,5#
P_MOTIVATION_2_GT,false;P_MOTIVATION_2_GT,false;*:*:B_PHOTOTAXIS,1#
P_MOTIVATION_1_GT,false;P_ON_SLOPE,true;*:*:B_PHOTOTAXIS,5#
P_MOTIVATION_2_GT,false;P_MOTIVATION_2_GT,false;*:*:B_PHOTOTAXIS,1#
P_MOTIVATION_1_GT,false;P_ON_SLOPE,true;*:*:B_PHOTOTAXIS,5#
P_MOTIVATION_2_GT,false;P_MOTIVATION_2_GT,false;*:*:B_PHOTOTAXIS,1#
P_MOTIVATION_1_GT,false;P_ON_SLOPE,true;*:*:B_PHOTOTAXIS,5#
P_MOTIVATION_2_GT,false;P_MOTIVATION_2_GT,false;*:*:B_PHOTOTAXIS,1#
P_MOTIVATION_1_GT,false;P_ON_SLOPE,true;*:*:B_PHOTOTAXIS,5#
P_MOTIVATION_2_GT,false;P_MOTIVATION_2_GT,false;*:*:B_PHOTOTAXIS,1#
P_MOTIVATION_1_GT,false;P_ON_SLOPE,true;*:*:B_PHOTOTAXIS,5#
P_MOTIVATION_2_GT,false;P_MOTIVATION_2_GT,false;*:*:B_PHOTOTAXIS,1#
P_MOTIVATION_1_GT,false;P_ON_SLOPE,true;*:*:B_PHOTOTAXIS,5#
P_MOTIVATION_2_GT,false;P_MOTIVATION_2_GT,false;*:*:B_PHOTOTAXIS,1#
P_MOTIVATION_1_GT,false;P_ON_SLOPE,true;*:*:B_PHOTOTAXIS,5#
P_MOTIVATION_2_GT,false;P_MOTIVATION_2_GT,false;*:*:B_PHOTOTAXIS,1#
P_MOTIVATION_1_GT,false;P_ON_SLOPE,true;*:*:B_PHOTOTAXIS,5#
P_MOTIVATION_2_GT,false;P_MOTIVATION_2_GT,false;*:*:B_PHOTOTAXIS,1#
P_MOTIVATION_1_GT,false;P_ON_SLOPE,true;*:*:B_PHOTOTAXIS,5#
P_MOTIVATION_2_GT,false;P_MOTIVATION_2_GT,false;*:*:B_PHOTOTAXIS,1#
P_MOTIVATION_1_GT,false;P_ON_SLOPE,true;*:*:B_PHOTOTAXIS,5#
P_MOTIVATION_2_GT,false;P_MOTIVATION_2_GT,false;*:*:B_PHOTOTAXIS,1#
P_MOTIVATION_1_GT,false;P_ON_SLOPE,true;*:*:B_PHOTOTAXIS,5#
P_MOTIVATION_2_GT,false;P_MOTIVATION_2_GT,false;*:*:B_PHOTOTAXIS,1#
P_MOTIVATION_1_GT,false;P_ON_SLOPE,true;*:*:B_PHOTOTAXIS,5#
P_MOTIVATION_2_GT,false;P_MOTIVATION_2_GT,false;*:*:B_PHOTOTAXIS,1#
P_MOTIVATION_1_GT,false;P_ON_SLOPE,true;*:*:B_PHOTOTAXIS,5#
P_MOTIVATION_2_GT,false;P_MOTIVATION_2_GT,false;*:*:B_PHOTOTAXIS,1#
P_MOTIVATION_1_GT,false;P_ON_SLOPE,true;*:*:B_PHOTOTAXIS,5#
P_MOTIVATION_2_GT,false;P_MOTIVATION_2_GT,false;*:*:B_PHOTOTAXIS,1#
P_MOTIVATION_1_GT,false;P_ON_SLOPE,true;*:*:B_PHOTOTAXIS,5#
P_MOTIVATION_2_GT,false;P_MOTIVATION_2_GT,false;*:*:B_PHOTOTAXIS,1#
P_MOTIVATION_1_GT,false;P_ON_SLOPE,true;*:*:B_PHOTOTAXIS,5#
P_MOTIVATION_2_GT,false;P_MOTIVATION_2_GT,false;*:*:B_PHOTOTAXIS,1#
*:*:B_ANTI_PHOTOTAXIS,6;B_RANDOM_WALK,28;IS_DROP_OBJECT,false,1;IS_WANT_OBJECT,false,90;IS_DROP_OBJECT,true,87;IS_MOTIVATION_2_INC,true,93;IS_WANT_OBJECT,true,52#
*:*:B_ANTI_PHOTOTAXIS,6;B_RANDOM_WALK,28;IS_DROP_OBJECT,false,1;IS_WANT_OBJECT,true,90;IS_MOTIVATION_1_INC,true,87;IS_DROP_OBJECT,true,93;IS_WANT_OBJECT,true,88#
*:*:B_ANTI_PHOTOTAXIS,6;B_RANDOM_WALK,28;IS_DROP_OBJECT,false,1;IS_WANT_OBJECT,false,46;IS_WANT_OBJECT,true,87;IS_MOTIVATION_2_INC,true,93;IS_WANT_OBJECT,true,52#
*:*:B_ANTI_PHOTOTAXIS,6;B_RANDOM_WALK,28;IS_DROP_OBJECT,false,1;IS_WANT_OBJECT,false,46;IS_WANT_OBJECT,true,87;IS_MOTIVATION_2_INC,true,93;IS_WANT_OBJECT,true,52#
*:*:B_ANTI_PHOTOTAXIS,6;B_RANDOM_WALK,28;IS_DROP_OBJECT,false,1;IS_WANT_OBJECT,false,46;IS_WANT_OBJECT,true,87;IS_MOTIVATION_2_DEC,true,93;IS_WANT_OBJECT,true,52#
*:*:B_ANTI_PHOTOTAXIS,6;B_RANDOM_WALK,28;IS_DROP_OBJECT,false,1;IS_WANT_OBJECT,false,46;IS_WANT_OBJECT,true,87;IS_MOTIVATION_2_INC,true,93;IS_WANT_OBJECT,true,52#
*:*:B_ANTI_PHOTOTAXIS,6;B_RANDOM_WALK,28;IS_DROP_OBJECT,false,1;IS_WANT_OBJECT,false,46;IS_WANT_OBJECT,true,87;IS_MOTIVATION_2_DEC,true,93;IS_WANT_OBJECT,true,52#
*:*:B_ANTI_PHOTOTAXIS,6;B_RANDOM_WALK,28;IS_DROP_OBJECT,false,1;IS_WANT_OBJECT,false,46;IS_WANT_OBJECT,true,87;IS_MOTIVATION_2_INC,true,93;IS_WANT_OBJECT,true,52#
*:*:B_ANTI_PHOTOTAXIS,6;B_RANDOM_WALK,28;IS_DROP_OBJECT,false,1;IS_WANT_OBJECT,false,46;IS_WANT_OBJECT,true,87;IS_MOTIVATION_2_DEC,true,93;IS_WANT_OBJECT,true,52#
*:*:B_ANTI_PHOTOTAXIS,6;B_RANDOM_WALK,28;IS_DROP_OBJECT,false,1;IS_WANT_OBJECT,false,46;IS_WANT_OBJECT,true,87;IS_MOTIVATION_2_INC,true,93;IS_WANT_OBJECT,true,52#
*:*:B_ANTI_PHOTOTAXIS,6;B_RANDOM_WALK,28;IS_DROP_OBJECT,false,1;IS_WANT_OBJECT,false,46;IS_WANT_OBJECT,true,87;IS_MOTIVATION_2_DEC,true,93;IS_WANT_OBJECT,true,52#
*:*:B_ANTI_PHOTOTAXIS,6;B_RANDOM_WALK,28;IS_DROP_OBJECT,false,1;IS_WANT_OBJECT,false,46;IS_WANT_OBJECT,true,87;IS_MOTIVATION_2_INC,true,93;IS_WANT_OBJECT,true,52#
*:*:B_ANTI_PHOTOTAXIS,6;B_RANDOM_WALK,28;IS_DROP_OBJECT,false,1;IS_WANT_OBJECT,false,46;IS_WANT_OBJECT,true,87;IS_MOTIVATION_2_DEC,true,93;IS_WANT_OBJECT,true,52#
*:*:B_ANTI_PHOTOTAXIS,6;B_RANDOM_WALK,28;IS_DROP_OBJECT,false,1;IS_WANT_OBJECT,false,46;IS_WANT_OBJECT,true,87;IS_MOTIVATION_2_INC,true,93;IS_WANT_OBJECT,true,52#
*:*:B_ANTI_PHOTOTAXIS,6;B_RANDOM_WALK,28;IS_DROP_OBJECT,false,1;IS_WANT_OBJECT,false,46;IS_WANT_OBJECT,true,87;IS_MOTIVATION_2_DEC,true,93;IS_WANT_OBJECT,true,52#
*:*:B_ANTI_PHOTOTAXIS,6;B_RANDOM_WALK,28;IS_DROP_OBJECT,false,1;IS_WANT_OBJECT,false,46;IS_WANT_OBJECT,true,87;IS_MOTIVATION_2_INC,true,93;IS_WANT_OBJECT,true,52#
*:*:B_ANTI_PHOTOTAXIS,6;B_RANDOM_WALK,28;IS_DROP_OBJECT,false,1;IS_WANT_OBJECT,false,46;IS_WANT_OBJECT,true,87;IS_MOTIVATION_2_DEC,true,93;IS_WANT_OBJECT,true,52#
*:*:B_ANTI_PHOTOTAXIS,6;B_RANDOM_WALK,28;IS_DROP_OBJECT,false,1;IS_WANT_OBJECT,false,46;IS_WANT_OBJECT,true,87;IS_MOTIVATION_2_INC,true,93;IS_WANT_OBJECT,true,52#
*:*:B_ANTI_PHOTOTAXIS,5;B_RANDOM_WALK,28;IS_DROP_OBJECT,false,1;IS_WANT_OBJECT,false,46;IS_WANT_OBJECT,true,87;IS_MOTIVATION_2_INC,true,93;IS_WANT_OBJECT,true,52#
*:*:B_ANTI_PHOTOTAXIS,5;B_RANDOM_WALK,28;IS_DROP_OBJECT,false,1;IS_WANT_OBJECT,false,46;IS_WANT_OBJECT,true,87;IS_MOTIVATION_2_INC,true,93;IS_WANT_OBJECT,true,52#
*:*:B_ANTI_PHOTOTAXIS,5;B_RANDOM_WALK,28;IS_DROP_OBJECT,false,39;IS_WANT_OBJECT,false,46;IS_WANT_OBJECT,true,87;IS_MOTIVATION_1_INC,false,93;IS_WANT_OBJECT,true,52#
*:*:B_ANTI_PHOTOTAXIS,5;B_RANDOM_WALK,28;IS_DROP_OBJECT,false,39;IS_WANT_OBJECT,false,46;IS_WANT_OBJECT,true,87;IS_MOTIVATION_2_INC,false,93;IS_WANT_OBJECT,true,52#
*:*:B_ANTI_PHOTOTAXIS,5;B_RANDOM_WALK,28;IS_DROP_OBJECT,false,39;IS_WANT_OBJECT,false,46;IS_WANT_OBJECT,true,87;IS_MOTIVATION_1_INC,false,93;IS_WANT_OBJECT,true,52#
*:*:B_ANTI_PHOTOTAXIS,5;B_RANDOM_WALK,28;IS_DROP_OBJECT,false,39;IS_WANT_OBJECT,false,46;IS_WANT_OBJECT,true,87;IS_MOTIVATION_2_INC,false,93;IS_WANT_OBJECT,true,52#
*:*:B_ANTI_PHOTOTAXIS,5;B_RANDOM_WALK,28;IS_DROP_OBJECT,false,39;IS_WANT_OBJECT,false,46;IS_WANT_OBJECT,true,87;IS_MOTIVATION_1_INC,false,93;IS_WANT_OBJECT,true,52#
*:*:B_ANTI_PHOTOTAXIS,5;B_RANDOM_WALK,28;IS_DROP_OBJECT,false,39;IS_WANT_OBJECT,false,46;IS_WANT_OBJECT,true,87;IS_MOTIVATION_2_INC,false,93;IS_WANT_OBJECT,true,52#
*:*:B_ANTI_PHOTOTAXIS,5;B_RANDOM_WALK,28;IS_DROP_OBJECT,false,39;IS_WANT_OBJECT,false,46;IS_WANT_OBJECT,true,87;IS_MOTIVATION_1_INC,false,93;IS_WANT_OBJECT,true,52#
*:*:B_ANTI_PHOTOTAXIS,5;B_RANDOM_WALK,28;IS_DROP_OBJECT,false,39;IS_WANT_OBJECT,false,46;IS_WANT_OBJECT,true,87;IS_MOTIVATION_2_INC,false,93;IS_WANT_OBJECT,true,52#
*:*:B_ANTI_PHOTOTAXIS,5;B_RANDOM_WALK,28;IS_DROP_OBJECT,false,39;IS_WANT_OBJECT,false,46;IS_WANT_OBJECT,true,87;IS_MOTIVATION_1_INC,false,93;IS_WANT_OBJECT,true,52#
*:*:B_ANTI_PHOTOTAXIS,5;B_RANDOM_WALK,28;IS_DROP_OBJECT,false,39;IS_WANT_OBJECT,false,46;IS_WANT_OBJECT,true,87;IS_MOTIVATION_2_INC,false,93;IS_WANT_OBJECT,true,52#
*:*:B_ANTI_PHOTOTAXIS,5;B_RANDOM_WALK,28;IS_DROP_OBJECT,false,39;IS_WANT_OBJECT,false,46;IS_WANT_OBJECT,true,87;IS_MOTIVATION_1_INC,false,93;IS_WANT_OBJECT,true,52#
*:*:B_ANTI_PHOTOTAXIS,5;B_RANDOM_WALK,28;IS_DROP_OBJECT,false,39;IS_WANT_OBJECT,false,46;IS_WANT_OBJECT,true,87;IS_MOTIVATION_2_INC,false,93;IS_WANT_OBJECT,true,52#
*:*:B_ANTI_PHOTOTAXIS,5;B_RANDOM_WALK,28;IS_DROP_OBJECT,false,39;IS_WANT_OBJECT,false,46;IS_WANT_OBJECT,true,87;IS_MOTIVATION_1_INC,false,93;IS_WANT_OBJECT,true,52#
*:*:B_ANTI_PHOTOTAXIS,5;B_RANDOM_WALK,28;IS_DROP_OBJECT,false,39;IS_WANT_OBJECT,false,46;IS_WANT_OBJECT,true,87;IS_MOTIVATION_2_INC,false,93;IS_WANT_OBJECT,true,52#
*:*:B_ANTI_PHOTOTAXIS,5;B_RANDOM_WALK,28;IS_DROP_OBJECT,false,39;IS_WANT_OBJECT,false,46;IS_WANT_OBJECT,true,87;IS_MOTIVATION_1_INC,false,93;IS_WANT_OBJECT,true,52#
*:*:B_ANTI_PHOTOTAXIS,5;B_RANDOM_WALK,28;IS_DROP_OBJECT,false,39;IS_WANT_OBJECT,false,46;IS_WANT_OBJECT,true,87;IS_MOTIVATION_2_INC,false,93;IS_WANT_OBJECT,true,52#
*:*:B_ANTI_PHOTOTAXIS,5;B_RANDOM_WALK,28;IS_DROP_OBJECT,false,39;IS_WANT_OBJECT,false,46;IS_WANT_OBJECT,true,87;IS_MOTIVATION_1_INC,false,93;IS_WANT_OBJECT,true,52#
*:*:B_ANTI_PHOTOTAXIS,5;B_RANDOM_WALK,28;IS_DROP_OBJECT,false,39;IS_WANT_OBJECT,false,46;IS_WANT_OBJECT,true,87;IS_MOTIVATION_2_INC,false,93;IS_WANT_OBJECT,true,52#
*:*:B_ANTI_PHOTOTAXIS,5;B_RANDOM_WALK,28;IS_DROP_OBJECT,false,39;IS_WANT_OBJECT,false,46;IS_WANT_OBJECT,true,87;IS_MOTIVATION_1_INC,false,93;IS_WANT_OBJECT,true,52#
*:*:B_ANTI_PHOTOTAXIS,5;B_RANDOM_WALK,28;IS_DROP_OBJECT,false,39;IS_WANT_OBJECT,false,46;IS_WANT_OBJECT,true,87;IS_MOTIVATION_2_INC,false,93;IS_WANT_OBJECT,true,52#
*:*:B_ANTI_PHOTOTAXIS,5;B_RANDOM_WALK,28;IS_MOTIVATION_1_INC,true,39;IS_WANT_OBJECT,false,28;IS_WANT_OBJECT,true,87;IS_MOTIVATION_2_INC,false,93#
*:*:B_ANTI_PHOTOTAXIS,5;B_RANDOM_WALK,28;IS_MOTIVATION_1_INC,true,39;IS_WANT_OBJECT,false,28;IS_WANT_OBJECT,true,87;IS_MOTIVATION_2_INC,false,43#
*:*:B_ANTI_PHOTOTAXIS,5;B_RANDOM_WALK,28;IS_MOTIVATION_1_INC,true,39;IS_WANT_OBJECT,false,28;IS_WANT_OBJECT,true,87;IS_MOTIVATION_2_INC,false,43#
*:*:B_ANTI_PHOTOTAXIS,5;B_RANDOM_WALK,28;IS_MOTIVATION_1_INC,true,39;IS_WANT_OBJECT,false,28;IS_WANT_OBJECT,true,87;IS_MOTIVATION_2_INC,false,43#
*:*:B_ANTI_PHOTOTAXIS,5;B_RANDOM_WALK,28;IS_MOTIVATION_1_INC,true,39;IS_WANT_OBJECT,false,28;IS_WANT_OBJECT,true,87;IS_MOTIVATION_2_INC,false,43#
*:*:B_ANTI_PHOTOTAXIS,5;B_RANDOM_WALK,28;IS_MOTIVATION_1_INC,true,39;IS_WANT_OBJECT,false,28;IS_WANT_OBJECT,true,87;IS_MOTIVATION_2_INC,false,43#
*:*:B_ANTI_PHOTOTAXIS,5;B_RANDOM_WALK,28;IS_MOTIVATION_1_INC,true,39;IS_WANT_OBJECT,false,28;IS_WANT_OBJECT,true,87;IS_MOTIVATION_2_INC,false,43#
*:*:B_ANTI_PHOTOTAXIS,5;B_RANDOM_WALK,28;IS_MOTIVATION_1_INC,true,39;IS_WANT_OBJECT,false,28;IS_WANT_OBJECT,true,87;IS_MOTIVATION_2_INC,false,43#
*:*:B_ANTI_PHOTOTAXIS,5;B_RANDOM_WALK,28;IS_MOTIVATION_1_INC,true,39;IS_WANT_OBJECT,false,28;IS_WANT_OBJECT,true,87;IS_MOTIVATION_2_INC,false,43#
*:*:B_ANTI_PHOTOTAXIS,5;B_RANDOM_WALK,28;IS_MOTIVATION_1_INC,true,39;IS_WANT_OBJECT,false,28;IS_WANT_OBJECT,true,87;IS_MOTIVATION_2_INC,false,43#
*:*:B_ANTI_PHOTOTAXIS,5;B_RANDOM_WALK,28;IS_MOTIVATION_1_INC,true,39;IS_WANT_OBJECT,false,28;IS_WANT_OBJECT,true,87;IS_MOTIVATION_2_INC,false,43#
*:*:B_ANTI_PHOTOTAXIS,5;B_RANDOM_WALK,28;IS_MOTIVATION_1_INC,true,39;IS_WANT_OBJECT,false,28;IS_WANT_OBJECT,true,87;IS_MOTIVATION_2_INC,false,43#
*:*:B_ANTI_PHOTOTAXIS,5;B_RANDOM_WALK,28;IS_MOTIVATION_1_INC,true,39;IS_WANT_OBJECT,false,28;IS_WANT_OBJECT,true,87;IS_MOTIVATION_2_INC,false,43#
*:*:B_ANTI_PHOTOTAXIS,5;B_RANDOM_WALK,28;IS_MOTIVATION_1_INC,true,39;IS_WANT_OBJECT,false,28;IS_WANT_OBJECT,true,87;IS_MOTIVATION_2_INC,false,43#
*:*:B_ANTI_PHOTOTAXIS,5;B_RANDOM_WALK,28;IS_MOTIVATION_1_INC,true,39;IS_WANT_OBJECT,false,28;IS_WANT_OBJECT,true,87;IS_MOTIVATION_2_INC,false,43#
*:*:B_ANTI_PHOTOTAXIS,5;B_RANDOM_WALK,28;IS_MOTIVATION_1_INC,true,39;IS_WANT_OBJECT,false,28;IS_WANT_OBJECT,true,87;IS_MOTIVATION_2_INC,false,43#
*:*:B_ANTI_PHOTOTAXIS,5;B_RANDOM_WALK,28;IS_MOTIVATION_1_INC,true,39;IS_WANT_OBJECT,false,28;IS_WANT_OBJECT,true,87;IS_MOTIVATION_2_INC,false,43#
*:*:B_ANTI_PHOTOTAXIS,5;B_RANDOM_WALK,28;IS_MOTIVATION_1_INC,true,39;IS_WANT_OBJECT,false,28;IS_WANT_OBJECT,true,87;IS_MOTIVATION_2_INC,false,43#
*:*:B_ANTI_PHOTOTAXIS,5;B_RANDOM_WALK,28;IS_MOTIVATION_1_INC,true,39;IS_WANT_OBJECT,false,28;IS_WANT_OBJECT,true,87;IS_MOTIVATION_2_INC,false,43#
*:*:B_ANTI_PHOTOTAXIS,5;B_RANDOM_WALK,28;IS_MOTIVATION_1_INC,true,39;IS_WANT_OBJECT,false,28;IS_WANT_OBJECT,true,87;IS_MOTIVATION_2_INC,false,43#
*:*:B_ANTI_PHOTOTAXIS,5;B_RANDOM_WALK,28;IS_MOTIVATION_1_INC,true,39;IS_WANT_OBJECT,false,28;IS_WANT_OBJECT,true,87;IS_MOTIVATION_2_INC,false,43#
*:*:B_ANTI_PHOTOTAXIS,5;B_RANDOM_WALK,28;IS_MOTIVATION_1_INC,true,39;IS_WANT_OBJECT,false,28;IS_WANT_OBJECT,true,87;IS_MOTIVATION_2_INC,false,43#
*:*:B_ANTI_PHOTOTAXIS,5;B_RANDOM_WALK,28;IS_MOTIVATION_1_INC,true,39;IS_WANT_OBJECT,false,28;IS_WANT_OBJECT,true,87;IS_MOTIVATION_2_INC,false,43#
*:*:B_ANTI_PHOTOTAXIS,5;B_RANDOM_WALK,28;IS_MOTIVATION_1_INC,true,39;IS_WANT_OBJECT,false,28;IS_WANT_OBJECT,true,87;IS_MOTIVATION_2_INC,false,43#
*:*:B_ANTI_PHOTOTAXIS,5;B_RANDOM_WALK,28;IS_MOTIVATION_1_INC,true,39;IS_WANT_OBJECT,false,28;IS_WANT_OBJECT,true,87;IS_MOTIVATION_2_INC,false,43#
*:*:B_ANTI_PHOTOTAXIS,5;B_RANDOM_WALK,28;IS_MOTIVATION_1_INC,true,39;IS_WANT_OBJECT,false,28;IS_WANT_OBJECT,true,87;IS_MOTIVATION_2_INC,false,43#
*:*:B_ANTI_PHOTOTAXIS,5;B_RANDOM_WALK,28;IS_MOTIVATION_1_INC,true,39;IS_WANT_OBJECT,false,28;IS_WANT_OBJECT,true,87;IS_MOTIVATION_2_INC,false,43#
*:*:B_ANTI_PHOTOTAXIS,5;B_RANDOM_WALK,28;IS_MOTIVATION_1_INC,true,39;IS_WANT_OBJECT,false,28;IS_WANT_OBJECT,true,87;IS_MOTIVATION_2_INC,false,43#
*:*:B_ANTI_PHOTOTAXIS,5;B_RANDOM_WALK,28;IS_MOTIVATION_1_INC,true,39;IS_WANT_OBJECT,false,28;IS_WANT_OBJECT,true,87;IS_MOTIVATION_2_INC,false,43#
*:*:B_ANTI_PHOTOTAXIS,5;B_RANDOM_WALK,28;IS_MOTIVATION_1_INC,true,39;IS_WANT_OBJECT,false,28;IS_WANT_OBJECT,true,87;IS_MOTIVATION_2_INC,false,43#
*:*:B_ANTI_PHOTOTAXIS,5;B_RANDOM_WALK,28;IS_MOTIVATION_1_INC,true,39;IS_WANT_OBJECT,false,28;IS_WANT_OBJECT,true,87;IS_MOTIVATION_2_INC,false,43#
*:*:B_ANTI_PHOTOTAXIS,5;B_RANDOM_WALK,28;IS_MOTIVATION_1_INC,true,39;IS_WANT_OBJECT,false,28;IS_WANT_OBJECT,true,87;IS_MOTIVATION_2_INC,false,43#
*:*:B_ANTI_PHOTOTAXIS,5;B_RANDOM_WALK,28;IS_MOTIVATION_1_INC,true,39;IS_WANT_OBJECT,false,28;IS_WANT_OBJECT,true,87;IS_MOTIVATION_2_INC,false,43#
*:*:B_ANTI_PHOTOTAXIS,5;B_RANDOM_WALK,28;IS_MOTIVATION_1_INC,true,39;IS_WANT_OBJECT,false,28;IS_WANT_OBJECT,true,87;IS_MOTIVATION_2_INC,false,43#
*:*:B_ANTI_PHOTOTAXIS,5;B_RANDOM_WALK,28;IS_MOTIVATION_1_INC,true,39;IS_WANT_OBJECT,false,28;IS_WANT_OBJECT,true,87;IS_MOTIVATION_2_INC,false,43#
*:*:B_ANTI_PHOTOTAXIS,5;B_RANDOM_WALK,28;IS_MOTIVATION_1_INC,true,39;IS_WANT_OBJECT,false,28;IS_WANT_OBJECT,true,87;IS_MOTIVATION_2_INC,false,43#
*:*:B_ANTI_PHOTOTAXIS,5;B_RANDOM_WALK,28;IS_MOTIVATION_1_INC,true,39;IS_WANT_OBJECT,false,28;IS_WANT_OBJECT,true,87;IS_MOTIVATION_2_INC,false,43#
*:*:B_ANTI_PHOTOTAXIS,5;B_RANDOM_WALK,28;IS_MOTIVATION_1_INC,true,39;IS_WANT_OBJECT,false,28;IS_WANT_OBJECT,true,87;IS_MOTIVATION_2_INC,false,43#
*:*:B_ANTI_PHOTOTAXIS,5;B_RANDOM_WALK,28;IS_MOTIVATION_1_INC,true,39;IS_WANT_OBJECT,false,28;IS_WANT_OBJECT,true,87;IS_MOTIVATION_2_INC,false,43#
*:*:B_ANTI_PHOTOTAXIS,5;B_RANDOM_WALK,28;IS_MOTIVATION_1_INC,true,39;IS_WANT_OBJECT,false,28;IS_WANT_OBJECT,true,87;IS_MOTIVATION_2_INC,false,43#
*:*:B_ANTI_PHOTOTAXIS,5;B_RANDOM_WALK,28;IS_MOTIVATION_1_INC,true,39;IS_WANT_OBJECT,false,28;IS_WANT_OBJECT,true,87;IS_MOTIVATION_2_INC,false,43#
*:*:B_ANTI_PHOTOTAXIS,5;B_RANDOM_WALK,28;IS_MOTIVATION_1_INC,true,39;IS_WANT_OBJECT,false,28;IS_WANT_OBJECT,true,87;IS_MOTIVATION_2_INC,false,43#
*:*:B_ANTI_PHOTOTAXIS,5;B_RANDOM_WALK,28;IS_MOTIVATION_1_INC,true,39;IS_WANT_OBJECT,false,28;IS_WANT_OBJECT,true,87;IS_MOTIVATION_2_INC,false,43#
*:*:B_ANTI_PHOTOTAXIS,5;B_RANDOM_WALK,28;IS_MOTIVATION_1_INC,true,39;IS_WANT_OBJECT,false,28;IS_WANT_OBJECT,true,87;IS_MOTIVATION_2_INC,false,43#
*:*:B_ANTI_PHOTOTAXIS,5;B_RANDOM_WALK,28;IS_MOTIVATION_1_INC,true,39;IS_WANT_OBJECT,false,28;IS_WANT_OBJECT,true,87;IS_MOTIVATION_2_INC,false,43#
*:*:B_ANTI_PHOTOTAXIS,5;B_RANDOM_WALK,28;IS_MOTIVATION_1_INC,true,39;IS_WANT_OBJECT,false,28;IS_WANT_OBJECT,true,87;IS_MOTIVATION_2_INC,false,43#
*:*:B_ANTI_PHOTOTAXIS,5;B_RANDOM_WALK,28;IS_MOTIVATION_1_INC,true,39;IS_WANT_OBJECT,false,28;IS_WANT_OBJECT,true,87;IS_MOTIVATION_2_INC,false,43#
*:*:B_ANTI_PHOTOTAXIS,5;B_RANDOM_WALK,28;IS_MOTIVATION_1_INC,true,39;IS_WANT_OBJECT,false,28;IS_WANT_OBJECT,true,87;IS_MOTIVATION_2_INC,false,43#
*:*:B_ANTI_PHOTOTAXIS,5;B_RANDOM_WALK,28;IS_MOTIVATION_1_INC,true,39;IS_WANT_OBJECT,false,28;IS_WANT_OBJECT,true,87;IS_MOTIVATION_2_INC,false,43#
*:*:B_ANTI_PHOTOTAXIS,5;B_RANDOM_WALK,28;IS_MOTIVATION_1_INC,true,39;IS_WANT_OBJECT,false,28;IS_WANT_OBJECT,true,87;IS_MOTIVATION_2_INC,false,43#
*:*:B_ANTI_PHOTOTAXIS,5;B_RANDOM_WALK,28;IS_MOTIVATION_1_INC,true,39;IS_WANT_OBJECT,false,28;IS_WANT_OBJECT,true,87;IS_MOTIVATION_2_INC,false,43#
*:*:B_ANTI_PHOTOTAXIS,5;B_RANDOM_WALK,28;IS_MOTIVATION_1_INC,true,39;IS_WANT_OBJECT,false,28;IS_WANT_OBJECT,true,87;IS_MOTIVATION_2_INC,false,43#
*:*:B_ANTI_PHOTOTAXIS,5;B_RANDOM_WALK,28;IS_MOTIVATION_1_INC,true,39;IS_WANT_OBJECT,false,28;IS_WANT_OBJECT,true,87;IS_MOTIVATION_2_INC,false,43#
*:*:B_ANTI_PHOTOTAXIS,5;B_RANDOM_WALK,28;IS_MOTIVATION_1_INC,true,39;IS_WANT_OBJECT,false,28;IS_WANT_OBJECT,true,87;IS_MOTIVATION_2_INC,false,43#
*:*:B_ANTI_PHOTOTAXIS,5;B_RANDOM_WALK,28;IS_MOTIVATION_1_INC,true,39;IS_WANT_OBJECT,false,28;IS_WANT_OBJECT,true,87;IS_MOTIVATION_2_INC,false,43#
*:*:B_ANTI_PHOTOTAXIS,5;B_RANDOM_WALK,28;IS_MOTIVATION_1_INC,true,39;IS_WANT_OBJECT,false,28;IS_WANT_OBJECT,true,87;IS_MOTIVATION_2_INC,false,43#
*:*:B_ANTI_PHOTOTAXIS,5;B_RANDOM_WALK,28;IS_MOTIVATION_1_INC,true,39;IS_WANT_OBJECT,false,28;IS_WANT_OBJECT,true,87;IS_MOTIVATION_2_INC,false,43#
*:*:B_ANTI_PHOTOTAXIS,5;B_RANDOM_WALK,28;IS_MOTIVATION_1_INC,true,39;IS_WANT_OBJECT,false,28;IS_WANT_OBJECT,true,87;IS_MOTIVATION_2_INC,false,43#
*:*:B_ANTI_PHOTOTAXIS,5;B_RANDOM_WALK,28;IS_MOTIVATION_1_INC,true,39;IS_WANT_OBJECT,false,28;IS_WANT_OBJECT,true,87;IS_MOTIVATION_2_INC,false,43#
*:*:B_ANTI_PHOTOTAXIS,5;B_RANDOM_WALK,28;IS_MOTIVATION_1_INC,true,39;IS_WANT_OBJECT,false,28;IS_WANT_OBJECT,true,87;IS_MOTIVATION_2_INC,false,43#
*:*:B_ANTI_PHOTOTAXIS,5;B_RANDOM_WALK,28;IS_MOTIVATION_1_INC,true,39;IS_WANT_OBJECT,false,28;IS_WANT_OBJECT,true,87;IS_MOTIVATION_2_INC,false,43#
*:*:B_ANTI_PHOTOTAXIS,5;B_RANDOM_WALK,28;IS_MOTIVATION_1_INC,true,39;IS_WANT_OBJECT,false,28;IS_WANT_OBJECT,true,87;IS_MOTIVATION_2_INC,false,43#
*:*:B_ANTI_PHOTOTAXIS,5;B_RANDOM_WALK,28;IS_MOTIVATION_1_INC,true,39;IS_WANT_OBJECT,false,28;IS_WANT_OBJECT,true,87;IS_MOTIVATION_2_INC,false,43#
*:*:B_ANTI_PHOTOTAXIS,5;B_RANDOM_WALK,28;IS_MOTIVATION_1_INC,true,39;IS_WANT_OBJECT,false,28;IS_WANT_OBJECT,true,87;IS_MOTIVATION_2_INC,false,43#
*:*:B_ANTI_PHOTOTAXIS,5;B_RANDOM_WALK,28;IS_MOTIVATION_1_INC,true,39;IS_WANT_OBJECT,false,28;IS_WANT_OBJECT,true,87;IS_MOTIVATION_2_INC,false,43#
*:*:B_ANTI_PHOTOTAXIS,5;B_RANDOM_WALK,28;IS_MOTIVATION_1_INC,true,39;IS_WANT_OBJECT,false,28;IS_WANT_OBJECT,true,87;IS_MOTIVATION_2_INC,false,43#
*:*:B_ANTI_PHOTOTAXIS,5;B_RANDOM_WALK,28;IS_MOTIVATION_1_INC,true,39;IS_WANT_OBJECT,false,28;IS_WANT_OBJECT,true,87;IS_MOTIVATION_2_INC,false,43#
*:*:B_ANTI_PHOTOTAXIS,5;B_RANDOM_WALK,28;IS_MOTIVATION_1_INC,true,39;IS_WANT_OBJECT,false,28;IS_WANT_OBJECT,true,87;IS_MOTIVATION_2_INC,false,43#
*:*:B_ANTI_PHOTOTAXIS,5;B_RANDOM_WALK,28;IS_MOTIVATION_1_INC,true,39;IS_WANT_OBJECT,false,28;IS_WANT_OBJECT,true,87;IS_MOTIVATION_2_INC,false,43#
*:*:B_ANTI_PHOTOTAXIS,5;B_RANDOM_WALK,28;IS_MOTIVATION_1_INC,true,39;IS_WANT_OBJECT,false,28;IS_WANT_OBJECT,true,87;IS_MOTIVATION_2_INC,false,43#
*:*:B_ANTI_PHOTOTAXIS,5;B_RANDOM_WALK,28;IS_MOTIVATION_1_INC,true,39;IS_WANT_OBJECT,false,28;IS_WANT_OBJECT,true,87;IS_MOTIVATION_2_INC,false,43#
*:*:B_ANTI_PHOTOTAXIS,5;B_RANDOM_WALK,28;IS_MOTIVATION_1_INC,true,39;IS_WANT_OBJECT,false,28;IS_WANT_OBJECT,true,87;IS_MOTIVATION_2_INC,false,43#
*:*:B_ANTI_PHOTOTAXIS,5;B_RANDOM_WALK,28;IS_MOTIVATION_1_INC,true,39;IS_WANT_OBJECT,false,28;IS_WANT_OBJECT,true,87;IS_MOTIVATION_2_INC,false,43#
*:*:B_ANTI_PHOTOTAXIS,5;B_RANDOM_WALK,28;IS_MOTIVATION_1_INC,true,39;IS_WANT_OBJECT,false,28;IS_WANT_OBJECT,true,87;IS_MOTIVATION_2_INC,false,43#
*:*:B_ANTI_PHOTOTAXIS,5;B_RANDOM_WALK,28;IS_MOTIVATION_1_INC,true,39;IS_WANT_OBJECT,false,28;IS_WANT_OBJECT,true,87;IS_MOTIVATION_2_INC,false,43#
*:*:B_ANTI_PHOTOTAXIS,5;B_RANDOM_WALK,28;IS_MOTIVATION_1_INC,true,39;IS_WANT_OBJECT,false,28;IS_WANT_OBJECT,true,87;IS_MOTIVATION_2_INC,false,43#
*:*:B_ANTI_PHOTOTAXIS,5;B_RANDOM_WALK,28;IS_MOTIVATION_1_INC,true,39;IS_WANT_OBJECT,false,28;IS_WANT_OBJECT,true,87;IS_MOTIVATION_2_INC,false,43#
*:*:B_ANTI_PHOTOTAXIS,5;B_RANDOM_WALK,28;IS_MOTIVATION_1_INC,true,39;IS_WANT_OBJECT,false,28;IS_WANT_OBJECT,true,87;IS_MOTIVATION_2_INC,false,43#
*:*:B_ANTI_PHOTOTAXIS,5;B_RANDOM_WALK,28;IS_MOTIVATION_1_INC,true,39;IS_WANT_OBJECT,false,28;IS_WANT_OBJECT,true,87;IS_MOTIVATION_2_INC,false,43#
*:*:B_ANTI_PHOTOTAXIS,5;B_RANDOM_WALK,28;IS_MOTIVATION_1_INC,true,39;IS_WANT_OBJECT,false,28;IS_WANT_OBJECT,true,87;IS_MOTIVATION_2_INC,false,43#
*:*:B_ANTI_PHOTOTAXIS,5;B_RANDOM_WALK,28;IS_MOTIVATION_1_INC,true,39;IS_WANT_OBJECT,false,28;IS_WANT_OBJECT,true,87;IS_MOTIVATION_2_INC,false,43#
*:*:B_ANTI_PHOTOTAXIS,5;B_RANDOM_WALK,28;IS_MOTIVATION_1_INC,true,39;IS_WANT_OBJECT,false,28;IS_WANT_OBJECT,true,87;IS_MOTIVATION_2_INC,false,43#
*:*:B_ANTI_PHOTOTAXIS,5;B_RANDOM_WALK,28;IS_MOTIVATION_1_INC,true,39;IS_WANT_OBJECT,false,28;IS_WANT_OBJECT,true,87;IS_MOTIVATION_2_INC,false,43#
*:*:B_ANTI_PHOTOTAXIS,5;B_RANDOM_WALK,28;IS_MOTIVATION_1_INC,true,39;IS_WANT_OBJECT,false,28;IS_WANT_OBJECT,true,87;IS_MOTIVATION_2_INC,false,43#
*:*:B_ANTI_PHOTOTAXIS,5;B_RANDOM_WALK,28;IS_MOTIVATION_1_INC,true,39;IS_WANT_OBJECT,false,28;IS_WANT_OBJECT,true,87;IS_MOTIVATION_2_INC,false,43#
*:*:B_ANTI_PHOTOTAXIS,5;B_RANDOM_WALK,28;IS_MOTIVATION_1_INC,true,39;IS_WANT_OBJECT,false,28;IS_WANT_OBJECT,true,87;IS_MOTIVATION_2_INC,false,43#
*:*:B_ANTI_PHOTOTAXIS,5;B_RANDOM_WALK,28;IS_MOTIVATION_1_INC,true,39;IS_WANT_OBJECT,false,28;IS_WANT_OBJECT,true,87;IS_MOTIVATION_2_INC,false,43#
*:*:B_ANTI_PHOTOTAXIS,5;B_RANDOM_WALK,28;IS_MOTIVATION_1_INC,true,39;IS_WANT_OBJECT,false,28;IS_WANT_OBJECT,true,87;IS_MOTIVATION_2_INC,false,43#
*:*:B_ANTI_PHOTOTAXIS,5;B_RANDOM_WALK,28;IS_MOTIVATION_1_INC,true,39;IS_WANT_OBJECT,false,28;IS_WANT_OBJECT,true,87;IS_MOTIVATION_2_INC,false,43#
*:*:B_ANTI_PHOTOTAXIS,5;B_RANDOM_WALK,28;IS_MOTIVATION_1_INC,true,39;IS_WANT_OBJECT,false,28;IS_WANT_OBJECT,true,87;IS_MOTIVATION_2_INC,false,43#
*:*:B_ANTI_PHOTOTAXIS,5;B_RANDOM_WALK,28;IS_MOTIVATION_1_INC,true,39;IS_WANT_OBJECT,false,28;IS_WANT_OBJECT,true,87;IS_MOTIVATION_2_INC,false,43#
*:*:B_ANTI_PHOTOTAXIS,5;B_RANDOM_WALK,28;IS_MOTIVATION_1_INC,true,39;IS_WANT_OBJECT,false,28;IS_WANT_OBJECT,true,87;IS_MOTIVATION_2_INC,false,43#
*:*:B_ANTI_PHOTOTAXIS,5;B_RANDOM_WALK,28;IS_MOTIVATION_1_INC,true,39;IS_WANT_OBJECT,false,28;IS_WANT_OBJECT,true,87;IS_MOTIVATION_2_INC,false,43#
*:*:B_ANTI_PHOTOTAXIS,5;B_RANDOM_WALK,28;IS_MOTIVATION_1_INC,true,39;IS_WANT_OBJECT,false,28;IS_WANT_OBJECT,true,87;IS_MOTIVATION_2_INC,false,43#
*:*:B_ANTI_PHOTOTAXIS,5;B_RANDOM_WALK,28;IS_MOTIVATION_1_INC,true,39;IS_WANT_OBJECT,false,28;IS_WANT_OBJECT,true,87;IS_MOTIVATION_2_INC,false,43#
*:*:B_ANTI_PHOTOTAXIS,5;B_RANDOM_WALK,28;IS_MOTIVATION_1_INC,true,39;IS_WANT_OBJECT,false,28;IS_WANT_OBJECT,true,87;IS_MOTIVATION_2_INC,false,43#
*:*:B_ANTI_PHOTOTAXIS,5;B_RANDOM_WALK,28;IS_MOTIVATION_1_INC,true,39;IS_WANT_OBJECT,false,28;IS_WANT_OBJECT,true,87;IS_MOTIVATION_2_INC,false,43#
*:*:B_ANTI_PHOTOTAXIS,5;B_RANDOM_WALK,28;IS_MOTIVATION_1_INC,true,39;IS_WANT_OBJECT,false,28;IS_WANT_OBJECT,true,87;IS_MOTIVATION_2_INC,false,43#
*:*:B_ANTI_PHOTOTAXIS,5;B_RANDOM_WALK,28;IS_MOTIVATION_1_INC,true,39;IS_WANT_OBJECT,false,28;IS_WANT_OBJECT,true,87;IS_MOTIVATION_2_INC,false,43#
*:*:B_ANTI_PHOTOTAXIS,5;B_RANDOM_WALK,28;IS_MOTIVATION_1_INC,true,39;IS_WANT_OBJECT,false,28;IS_WANT_OBJECT,true,87;IS_MOTIVATION_2_INC,false,43#
*:*:B_ANTI_PHOTOTAXIS,5;B_RANDOM_WALK,28;IS_MOTIVATION_1_INC,true,39;IS_WANT_OBJECT,false,28;IS_WANT_OBJECT,true,87;IS_MOTIVATION_2_INC,false,43#
*:*:B_ANTI_PHOTOTAXIS,5;B_RANDOM_WALK,28;IS_MOTIVATION_1_INC,true,39;IS_WANT_OBJECT,false,28;IS_WANT_OBJECT,true,87;IS_MOTIVATION_2_INC,false,43#
*:*:B_ANTI_PHOTOTAXIS,5;B_RANDOM_WALK,28;IS_MOTIVATION_1_INC,true,39;IS_WANT_OBJECT,false,28;IS_WANT_OBJECT,true,87;IS_MOTIVATION_2_INC,false,43#
*:*:B_ANTI_PHOTOTAXIS,5;B_RANDOM_WALK,28;IS_MOTIVATION_1_INC,true,39;IS_WANT_OBJECT,false,28;IS_WANT_OBJECT,true,87;IS_MOTIVATION_2_INC,false,43#
*:*:B_ANTI_PHOTOTAXIS,5;B_RANDOM_WALK,28;IS_MOTIVATION_1_INC,true,39;IS_WANT_OBJECT,false,28;IS_WANT_OBJECT,true,87;IS_MOTIVATION_2_INC,false,43#
*:*:B_ANTI_PHOTOTAXIS,5;B_RANDOM_WALK,28;IS_MOTIVATION_1_INC,true,39;IS_WANT_OBJECT,false,28;IS_WANT_OBJECT,true,87;IS_MOTIVATION_2_INC,false,43#
*:*:B_ANTI_PHOTOTAXIS,5;B_RANDOM_WALK,28;IS_MOTIVATION_1_INC,true,39;IS_WANT_OBJECT,false,28;IS_WANT_OBJECT,true,87;IS_MOTIVATION_2_INC,false,43#
*:*:B_ANTI_PHOTOTAXIS,5;B_RANDOM_WALK,28;IS_MOTIVATION_1_INC,true,39;IS_WANT_OBJECT,false,28;IS_WANT_OBJECT,true,87;IS_MOTIVATION_2_INC,false,43#
*:*:B_ANTI_PHOTOTAXIS,5;B_RANDOM_WALK,28;IS_MOTIVATION_1_INC,true,39;IS_WANT_OBJECT,false,28;IS_WANT_OBJECT,true,87;IS_MOTIVATION_2_INC,false,43#
*:*:B_ANTI_PHOTOTAXIS,5;B_RANDOM_WALK,28;IS_MOTIVATION_1_INC,true,39;IS_WANT_OBJECT,false,28;IS_WANT_OBJECT,true,87;IS_MOTIVATION_2_INC,false,43#
*:*:B_ANTI_PHOTOTAXIS,5;B_RANDOM_WALK,28;IS_MOTIVATION_1_INC,true,39;IS_WANT_OBJECT,false,28;IS_WANT_OBJECT,true,87;IS_MOTIVATION_2_INC,false,43#
*:*:B_ANTI_PHOTOTAXIS,5;B_RANDOM_WALK,28;IS_MOTIVATION_1_INC,true,39;IS_WANT_OBJECT,false,28;IS_WANT_OBJECT,true,87;IS_MOTIVATION_2_INC,false,43#
*:*:B_ANTI_PHOTOTAXIS,5;B_RANDOM_WALK,28;IS_MOTIVATION_1_INC,true,39;IS_WANT_OBJECT,false,28;IS_WANT_OBJECT,true,87;IS_MOTIVATION_2_INC,false,43#
*:*:B_ANTI_PHOTOTAXIS,5;B_RANDOM_WALK,28;IS_MOTIVATION_1_INC,true,39;IS_WANT_OBJECT,false,28;IS_WANT_OBJECT,true,87;IS_MOTIVATION_2_INC,false,43#
*:*:B_ANTI_PHOTOTAXIS,5;B_RANDOM_WALK,28;IS_MOTIVATION_1_INC,true,39;IS_WANT_OBJECT,false,28;IS_WANT_OBJECT,true,87;IS_MOTIVATION_2_INC,false,43#
*:*:B_ANTI_PHOTOTAXIS,5;B_RANDOM_WALK,28;IS_MOTIVATION_1_INC,true,39;IS_WANT_OBJECT,false,28;IS_WANT_OBJECT,true,87;IS_MOTIVATION_2_INC,false,43#
*:*:B_ANTI_PHOTOTAXIS,5;B_RANDOM_WALK,28;IS_MOTIVATION_1_INC,true,39;IS_WANT_OBJECT,false,28;IS_WANT_OBJECT,true,87;IS_MOTIVATION_2_INC,false,43#
*:*:B_ANTI_PHOTOTAXIS,5;B_RANDOM_WALK,28;IS_MOTIVATION_1_INC,true,39;IS_WANT_OBJECT,false,28;IS_WANT_OBJECT,true,87;IS_MOTIVATION_2_INC,false,43#
*:*:B_ANTI_PHOTOTAXIS,5;B_RANDOM_WALK,28;IS_MOTIVATION_1_INC,true,39;IS_WANT_OBJECT,false,28;IS_WANT_OBJECT,true,87;IS_MOTIVATION_2_INC,false,43#
*:*:B_ANTI_PHOTOTAXIS,5;B_RANDOM_WALK,28;IS_MOTIVATION_1_INC,true,39;IS_WANT_OBJECT,false,28;IS_WANT_OBJECT,true,87;IS_MOTIVATION_2_INC,false,43#
*:*:B_ANTI_PHOTOTAXIS,5;B_RANDOM_WALK,28;IS_MOTIVATION_1_INC,true,39;IS_WANT_OBJECT,false,28;IS_WANT_OBJECT,true,87;IS_MOTIVATION_2_INC,false,43#
*:*:B_ANTI_PHOTOTAXIS,5;B_RANDOM_WALK,28;IS_MOTIVATION_1_INC,true,39;IS_WANT_OBJECT,false,28;IS_WANT_OBJECT,true,87;IS_MOTIVATION_2_INC,false,43#
*:*:B_ANTI_PHOTOTAXIS,5;B_RANDOM_WALK,28;IS_MOTIVATION_1_INC,true,39;IS_WANT_OBJECT,false,28;IS_WANT_OBJECT,true,87;IS_MOTIVATION_2_INC,false,43#
*:*:B_ANTI_PHOTOTAXIS,5;B_RANDOM_WALK,28;IS_MOTIVATION_1_INC,true,39;IS_WANT_OBJECT,false,28;IS_WANT_OBJECT,true,87;IS_MOTIVATION_2_INC,false,43#
*:*:B_ANTI_PHOTOTAXIS,5;B_RANDOM_WALK,28;IS_MOTIVATION_1_INC,true,39;IS_WANT_OBJECT,false,28;IS_WANT_OBJECT,true,87;IS_MOTIVATION_2_INC,false,43#
*:*:B_ANTI_PHOTOTAXIS,5;B_RANDOM_WALK,28;IS_MOTIVATION_1_INC,true,39;IS_WANT_OBJECT,false,28;IS_WANT_OBJECT,true,87;IS_MOTIVATION_2_INC,false,43#
*:*:B_ANTI_PHOTOTAXIS,5;B_RANDOM_WALK,28;IS_MOTIVATION_1_INC,true,39;IS_WANT_OBJECT,false,28;IS_WANT_OBJECT,true,87;IS_MOTIVATION_2_INC,false,43#
*:*:B_ANTI_PHOTOTAXIS,5;B_RANDOM_WALK,28;IS_MOTIVATION_1_INC,true,39;IS_WANT_OBJECT,false,28;IS_WANT_OBJECT,true,87;IS_MOTIVATION_2_INC,false,43#
*:*:B_ANTI_PHOTOTAXIS,5;B_RANDOM_WALK,28;IS_MOTIVATION_1_INC,true,39;IS_WANT_OBJECT,false,28;IS_WANT_OBJECT,true,87;IS_MOTIVATION_2_INC,false,43#
*:*:B_ANTI_PHOTOTAXIS,5;B_RANDOM_WALK,28;IS_MOTIVATION_1_INC,true,39;IS_WANT_OBJECT,false,28;IS_WANT_OBJECT,true,87;IS_MOTIVATION_2_INC,false,43#
*:*:B_ANTI_PHOTOTAXIS,5;B_RANDOM_WALK,28;IS_MOTIVATION_1_INC,true,39;IS_WANT_OBJECT,false,28;IS_WANT_OBJECT,true,87;IS_MOTIVATION_2_INC,false,43#
*:*:B_ANTI_PHOTOTAXIS,5;B_RANDOM_WALK,28;IS_MOTIVATION_1_INC,true,39;IS_WANT_OBJECT,false,28;IS_WANT_OBJECT,true,87;IS_MOTIVATION_2_INC,false,43#
*:*:B_ANTI_PHOTOTAXIS,5;B_RANDOM_WALK,28;IS_MOTIVATION_1_INC,true,39;IS_WANT_OBJECT,false,28;IS_WANT_OBJECT,true,87;IS_MOTIVATION_2_INC,false,43#
*:*:B_ANTI_PHOTOTAXIS,5;B_RANDOM_WALK,28;IS_MOTIVATION_1_INC,true,39;IS_WANT_OBJECT,false,28;IS_WANT_OBJECT,true,87;IS_MOTIVATION_2_INC,false,43#
*:*:B_ANTI_PHOTOTAXIS,5;B_RANDOM_WALK,28;IS_MOTIVATION_1_INC,true,39;IS_WANT_OBJECT,false,28;IS_WANT_OBJECT,true,87;IS_MOTIVATION_2_INC,false,43#
*:*:B_ANTI_PHOTOTAXIS,5;B_RANDOM_WALK,28;IS_MOTIVATION_1_INC,true,39;IS_WANT_OBJECT,false,28;IS_WANT_OBJECT,true,87;IS_MOTIVATION_2_INC,false,43#
*:*:B_ANTI_PHOTOTAXIS,5;B_RANDOM_WALK,28;IS_MOTIVATION_1_INC,true,39;IS_WANT_OBJECT,false,28;IS_WANT_OBJECT,true,87;IS_MOTIVATION_2_INC,false,43#
*:*:B_ANTI_PHOTOTAXIS,5;B_RANDOM_WALK,28;IS_MOTIVATION_1_INC,true,39;IS_WANT_OBJECT,false,28;IS_WANT_OBJECT,true,87;IS_MOTIVATION_2_INC,false,43#
*:*:B_ANTI_PHOTOTAXIS,5;B_RANDOM_WALK,28;IS_MOTIVATION_1_INC,true,39;IS_WANT_OBJECT,false,28;IS_WANT_OBJECT,true,87;IS_MOTIVATION_2_INC,false,43#
*:*:B_ANTI_PHOTOTAXIS,5;B_RANDOM_WALK,28;IS_MOTIVATION_1_INC,true,39;IS_WANT_OBJECT,false,28;IS_WANT_OBJECT,true,87;IS_MOTIVATION_2_INC,false,43#
*:*:B_ANTI_PHOTOTAXIS,5;B_RANDOM_WALK,28;IS_MOTIVATION_1_INC,true,39;IS_WANT_OBJECT,false,28;IS_WANT_OBJECT,true,87;IS_MOTIVATION_2_INC,false,43#
*:*:B_ANTI_PHOTOTAXIS,5;B_RANDOM_WALK,28;IS_MOTIVATION_1_INC,true,39;IS_WANT_OBJECT,false,28;IS_WANT_OBJECT,true,87;IS_MOTIVATION_2_INC,false,43#
*:*:B_ANTI_PHOTOTAXIS,5;B_RANDOM_WALK,28;IS_MOTIVATION_1_INC,true,39;IS_WANT_OBJECT,false,28;IS_WANT_OBJECT,true,87;IS_MOTIVATION_2_INC,false,43#
*:*:B_ANTI_PHOTOTAXIS,5;B_RANDOM_WALK,28;IS_MOTIVATION_1_INC,true,39;IS_WANT_OBJECT,false,28;IS_WANT_OBJECT,true,87;IS_MOTIVATION_2_INC,false,43#
*:*:B_ANTI_PHOTOTAXIS,5;B_RANDOM_WALK,28;IS_MOTIVATION_1_INC,true,39;IS_WANT_OBJECT,false,28;IS_WANT_OBJECT,true,87;IS_MOTIVATION_2_INC,false,43#
*:*:B_ANTI_PHOTOTAXIS,5;B_RANDOM_WALK,28;IS_MOTIVATION_1_INC,true,39;IS_WANT_OBJECT,false,28;IS_WANT_OBJECT,true,87;IS_MOTIVATION_2_INC,false,43#
*:*:B_ANTI_PHOTOTAXIS,5;B_RANDOM_WALK,28;IS_MOTIVATION_1_INC,true,39;IS_WANT_OBJECT,false,28;IS_WANT_OBJECT,true,87;IS_MOTIVATION_2_INC,false,43#
*:*:B_ANTI_PHOTOTAXIS,5;B_RANDOM_WALK,28;IS_MOTIVATION_1_INC,true,39;IS_WANT_OBJECT,false,28;IS_WANT_OBJECT,true,87;IS_MOTIVATION_2_INC,false,43#
*:*:B_ANTI_PHOTOTAXIS,5;B_RANDOM_WALK,28;IS_MOTIVATION_1_INC,true,39;IS_WANT_OBJECT,false,28;IS_WANT_OBJECT,true,87;IS_MOTIVATION_2_INC,false,43#
*:*:B_ANTI_PHOTOTAXIS,5;B_RANDOM_WALK,28;IS_MOTIVATION_1_INC,true,39;IS_WANT_OBJECT,false,28;IS_WANT_OBJECT,true,87;IS_MOTIVATION_2_INC,false,43#
*:*:B_ANTI_PHOTOTAXIS,5;B_RANDOM_WALK,28;IS_MOTIVATION_1_INC,true,39;IS_WANT_OBJECT,false,28;IS_WANT_OBJECT,true,87;IS_MOTIVATION_2_INC,false,43#
*:*:B_ANTI_PHOTOTAXIS,5;B_RANDOM_WALK,28;IS_MOTIVATION_1_INC,true,39;IS_WANT_OBJECT,false,28;IS_WANT_OBJECT,true,87;IS_MOTIVATION_2_INC,false,43#
*:*:B_ANTI_PHOTOTAXIS,5;B_RANDOM_WALK,28;IS_MOTIVATION_1_INC,true,39;IS_WANT_OBJECT,false,28;IS_WANT_OBJECT,true,87;IS_MOTIVATION_2_INC,false,43#
*:*:B_ANTI_PHOTOTAXIS,5;B_RANDOM_WALK,28;IS_MOTIVATION_1_INC,true,39;IS_WANT_OBJECT,false,28;IS_WANT_OBJECT,true,87;IS_MOTIVATION_2_INC,false,43#
*:*:B_ANTI_PHOTOTAXIS,5;B_RANDOM_WALK,28;IS_MOTIVATION_1_INC,true,39;IS_WANT_OBJECT,false,28;IS_WANT_OBJECT,true,87;IS_MOTIVATION_2_INC,false,43#
*:*:B_ANTI_PHOTOTAXIS,5;B_RANDOM_WALK,28;IS_MOTIVATION_1_INC,true,39;IS_WANT_OBJECT,false,28;IS_WANT_OBJECT,true,87;IS_MOTIVATION_2_INC,false,43#
*:*:B_ANTI_PHOTOTAXIS,5;B_RANDOM_WALK,28;IS_MOTIVATION_1_INC,true,39;IS_WANT_OBJECT,false,28;IS_WANT_OBJECT,true,87;IS_MOTIVATION_2_INC,false,43#
*:*:B_ANTI_PHOTOTAXIS,5;B_RANDOM_WALK,28;IS_MOTIVATION_1_INC,true,39;IS_WANT_OBJECT,false,28;IS_WANT_OBJECT,true,87;IS_MOTIVATION_2_INC,false,43#
*:*:B_ANTI_PHOTOTAXIS,5;B_RANDOM_WALK,28;IS_MOTIVATION_1_INC,true,39;IS_WANT_OBJECT,false,28;IS_WANT_OBJECT,true,87;IS_MOTIVATION_2_INC,false,43#
*:*:B_ANTI_PHOTOTAXIS,5;B_RANDOM_WALK,28;IS_MOTIVATION_1_INC,true,39;IS_WANT_OBJECT,false,28;IS_WANT_OBJECT,true,87;IS_MOTIVATION_2_INC,false,43#
*:*:B_ANTI_PHOTOTAXIS,5;B_RANDOM_WALK,28;IS_MOTIVATION_1_INC,true,39;IS_WANT_OBJECT,false,28;IS_WANT_OBJECT,true,87;IS_MOTIVATION_2_INC,false,43#
*:*:B_ANTI_PHOTOTAXIS,5;B_RANDOM_WALK,28;IS_MOTIVATION_1_INC,true,39;IS_WANT_OBJECT,false,28;IS_WANT_OBJECT,true,87;IS_MOTIVATION_2_INC,false,43#
*:*:B_ANTI_PHOTOTAXIS,5;B_RANDOM_WALK,28;IS_MOTIVATION_1_INC,true,39;IS_WANT_OBJECT,false,28;IS_WANT_OBJECT,true,87;IS_MOTIVATION_2_INC,false,43#
*:*:B_ANTI_PHOTOTAXIS,5;B_RANDOM_WALK,28;IS_MOTIVATION_1_INC,true,39;IS_WANT_OBJECT,false,28;IS_WANT_OBJECT,true,87;IS_MOTIVATION_2_INC,false,43#
*:*:B_ANTI_PHOTOTAXIS,5;B_RANDOM_WALK,28;IS_MOTIVATION_1_INC,true,39;IS_WANT_OBJECT,false,28;IS_WANT_OBJECT,true,87;IS_MOTIVATION_2_INC,false,43#
*:*:B_ANTI_PHOTOTAXIS,5;B_RANDOM_WALK,28;IS_MOTIVATION_1_INC,true,39;IS_WANT_OBJECT,false,28;IS_WANT_OBJECT,true,87;IS_MOTIVATION_2_INC,false,43#
*:*:B_ANTI_PHOTOTAXIS,5;B_RANDOM_WALK,28;IS_MOTIVATION_1_INC,true,39;IS_WANT_OBJECT,false,28;IS_WANT_OBJECT,true,87;IS_MOTIVATION_2_INC,false,43#
*:*:B_ANTI_PHOTOTAXIS,5;B_RANDOM_WALK,28;IS_MOTIVATION_1_INC,true,39;IS_WANT_OBJECT,false,28;IS_WANT_OBJECT,true,87;IS_MOTIVATION_2_INC,false,43#
*:*:B_ANTI_PHOTOTAXIS,5;B_RANDOM_WALK,28;IS_MOTIVATION_1_INC,true,39;IS_WANT_OBJECT,false,28;IS_WANT_OBJECT,true,87;IS_MOTIVATION_2_INC,false,43#
*:*:B_ANTI_PHOTOTAXIS,5;B_RANDOM_WALK,28;IS_MOTIVATION_1_INC,true,39;IS_WANT_OBJECT,false,28;IS_WANT_OBJECT,true,87;IS_MOTIVATION_2_INC,false,43#
*:*:B_ANTI_PHOTOTAXIS,5;B_RANDOM_WALK,28;IS_MOTIVATION_1_INC,true,39;IS_WANT_OBJECT,false,28;IS_WANT_OBJECT,true,87;IS_MOTIVATION_2_INC,false,43#
*:*:B_ANTI_PHOTOTAXIS,5;B_RANDOM_WALK,28;IS_MOTIVATION_1_INC,true,39;IS_WANT_OBJECT,false,28;IS_WANT_OBJECT,true,87;IS_MOTIVATION_2_INC,false,43#
*:*:B_ANTI_PHOTOTAXIS,5;B_RANDOM_WALK,28;IS_MOTIVATION_1_INC,true,39;IS_WANT_OBJECT,false,28;IS_WANT_OBJECT,true,87;IS_MOTIVATION_2_INC,false,43#
*:*:B_ANTI_PHOTOTAXIS,5;B_RANDOM_WALK,28;IS_MOTIVATION_1_INC,true,39;IS_WANT_OBJECT,false,28;IS_WANT_OBJECT,true,87;IS_MOTIVATION_2_INC,false,43#
*:*:B_ANTI_PHOTOTAXIS,5;B_RANDOM_WALK,28;IS_MOTIVATION_1_INC,true,39;IS_WANT_OBJECT,false,28;IS_WANT_OBJECT,true,87;IS_MOTIVATION_2_INC,false,43#
*:*:B_ANTI_PHOTOTAXIS,5;B_RANDOM_WALK,28;IS_MOTIVATION_1_INC,true,39;IS_WANT_OBJECT,false,28;IS_WANT_OBJECT,true,87;IS_MOTIVATION_2_INC,false,43#
*:*:B_ANTI_PHOTOTAXIS,5;B_RANDOM_WALK,28;IS_MOTIVATION_1_INC,true,39;IS_WANT_OBJECT,false,28;IS_WANT_OBJECT,true,87;IS_MOTIVATION_2_INC,false,43#
*:*:B_ANTI_PHOTOTAXIS,5;B_RANDOM_WALK,28;IS_MOTIVATION_1_INC,true,39;IS_WANT_OBJECT,false,28;IS_WANT_OBJECT,true,87;IS_MOTIVATION_2_INC,false,43#
*:*:B_ANTI_PHOTOTAXIS,5;B_RANDOM_WALK,28;IS_MOTIVATION_1_INC,true,39;IS_WANT_OBJECT,false,28;IS_WANT_OBJECT,true,87;IS_MOTIVATION_2_INC,false,43#
*:*:B_ANTI_PHOTOTAXIS,5;B_RANDOM_WALK,28;IS_MOTIVATION_1_INC,true,39;IS_WANT_OBJECT,false,28;IS_WANT_OBJECT,true,87;IS_MOTIVATION_2_INC,false,43#
*:*:B_ANTI_PHOTOTAXIS,5;B_RANDOM_WALK,28;IS_MOTIVATION_1_INC,true,39;IS_WANT_OBJECT,false,28;IS_WANT_OBJECT,true,87;IS_MOTIVATION_2_INC,false,43#
*:*:B_ANTI_PHOTOTAXIS,5;B_RANDOM_WALK,28;IS_MOTIVATION_1_INC,true,39;IS_WANT_OBJECT,false,28;IS_WANT_OBJECT,true,87;IS_MOTIVATION_2_INC,false,43#
*:*:B_ANTI_PHOTOTAXIS,5;B_RANDOM_WALK,28;IS_MOTIVATION_1_INC,true,39;IS_WANT_OBJECT,false,28;IS_WANT_OBJECT,true,87;IS_MOTIVATION_2_INC,false,43#
*:*:B_ANTI_PHOTOTAXIS,5;B_RANDOM_WALK,28;IS_MOTIVATION_1_INC,true,39;IS_WANT_OBJECT,false,28;IS_WANT_OBJECT,true,87;IS_MOTIVATION_2_INC,false,43#
*:*:B_ANTI_PHOTOTAXIS,5;B_RANDOM_WALK,28;IS_MOTIVATION_1_INC,true,39;IS_WANT_OBJECT,false,28;IS_WANT_OBJECT,true,87;IS_MOTIVATION_2_INC,false,43#
*:*:B_ANTI_PHOTOTAXIS,5;B_RANDOM_WALK,28;IS_MOTIVATION_1_INC,true,39;IS_WANT_OBJECT,false,28;IS_WANT_OBJECT,true,87;IS_MOTIVATION_2_INC,false,43#
*:*:B_ANTI_PHOTOTAXIS,5;B_RANDOM_WALK,28;IS_MOTIVATION_1_INC,true,39;IS_WANT_OBJECT,false,28;IS_WANT_OBJECT,true,87;IS_MOTIVATION_2_INC,false,43#
*:*:B_ANTI_PHOTOTAXIS,5;B_RANDOM_WALK,28;IS_MOTIVATION_1_INC,true,39;IS_WANT_OBJECT,false,28;IS_WANT_OBJECT,true,87;IS_MOTIVATION_2_INC,false,43#
*:*:B_ANTI_PHOTOTAXIS,5;B_RANDOM_WALK,28;IS_MOTIVATION_1_INC,true,39;IS_WANT_OBJECT,false,28;IS_WANT_OBJECT,true,87;IS_MOTIVATION_2_INC,false,43#
*:*:B_ANTI_PHOTOTAXIS,5;B_RANDOM_WALK,28;IS_MOTIVATION_1_INC,true,39;IS_WANT_OBJECT,false,28;IS_WANT_OBJECT,true,87;IS_MOTIVATION_2_INC,false,43#
*:*:B_ANTI_PHOTOTAXIS,5;B_RANDOM_WALK,28;IS_MOTIVATION_1_INC,true,39;IS_WANT_OBJECT,false,28;IS_WANT_OBJECT,true,87;IS_MOTIVATION_2_INC,false,43#
*:*:B_ANTI_PHOTOTAXIS,5;B_RANDOM_WALK,28;IS_MOTIVATION_1_INC,true,39;IS_WANT_OBJECT,false,28;IS_WANT_OBJECT,true,87;IS_MOTIVATION_2_INC,false,43#
*:*:B_ANTI_PHOTOTAXIS,5;B_RANDOM_WALK,28;IS_MOTIVATION_1_INC,true,39;IS_WANT_OBJECT,false,28;IS_WANT_OBJECT,true,87;IS_MOTIVATION_2_INC,false,43#
*:*:B_ANTI_PHOTOTAXIS,5;B_RANDOM_WALK,28;IS_MOTIVATION_1_INC,true,39;IS_WANT_OBJECT,false,28;IS_WANT_OBJECT,true,87;IS_MOTIVATION_2_INC,false,43#
*:*:B_ANTI_PHOTOTAXIS,5;B_RANDOM_WALK,28;IS_MOTIVATION_1_INC,true,39;IS_WANT_OBJECT,false,28;IS_WANT_OBJECT,true,87;IS_MOTIVATION_2_INC,false,43#
*:*:B_ANTI_PHOTOTAXIS,5;B_RANDOM_WALK,28;IS_MOTIVATION_1_INC,true,39;IS_WANT_OBJECT,false,28;IS_WANT_OBJECT,true,87;IS_MOTIVATION_2_INC,false,43#
*:*:B_ANTI_PHOTOTAXIS,5;B_RANDOM_WALK,28;IS_MOTIVATION_1_INC,true,39;IS_WANT_OBJECT,false,28;IS_WANT_OBJECT,true,87;IS_MOTIVATION_2_INC,false,43#
*:*:B_ANTI_PHOTOTAXIS,5;B_RANDOM_WALK,28;IS_MOTIVATION_1_INC,true,39;IS_WANT_OBJECT,false,28;IS_WANT_OBJECT,true,87;IS_MOTIVATION_2_INC,false,43#
*:*:B_ANTI_PHOTOTAXIS,5;B_RANDOM_WALK,28;IS_MOTIVATION_1_INC,true,39;IS_WANT_OBJECT,false,28;IS_WANT_OBJECT,true,87;IS_MOTIVATION_2_INC,false,43#
*:*:B_ANTI_PHOTOTAXIS,5;B_RANDOM_WALK,28;IS_MOTIVATION_1_INC,true,39;IS_WANT_OBJECT,false,28;IS_WANT_OBJECT,true,87;IS_MOTIVATION_2_INC,false,43#
*:*:B_ANTI_PHOTOTAXIS,5;B_RANDOM_WALK,28;IS_MOTIVATION_1_INC,true,39;IS_WANT_OBJECT,false,28;IS_WANT_OBJECT,true,87;IS_MOTIVATION_2_INC,false,43#
*:*:B_ANTI_PHOTOTAXIS,5;B_RANDOM_WALK,28;IS_MOTIVATION_1_INC,true,39;IS_WANT_OBJECT,false,28;IS_WANT_OBJECT,true,87;IS_MOTIVATION_2_INC,false,43#
*:*:B_ANTI_PHOTOTAXIS,5;B_RANDOM_WALK,28;IS_MOTIVATION_1_INC,true,39;IS_WANT_OBJECT,false,28;IS_WANT_OBJECT,true,87;IS_MOTIVATION_2_INC,false,43#
*:*:B_ANTI_PHOTOTAXIS,5;B_RANDOM_WALK,28;IS_MOTIVATION_1_INC,true,39;IS_WANT_OBJECT,false,28;IS_WANT_OBJECT,true,87;IS_MOTIVATION_2_INC,false,43#
*:*:B_ANTI_PHOTOTAXIS,5;B_RANDOM_WALK,28;IS_MOTIVATION_1_INC,true,39;IS_WANT_OBJECT,false,28;IS_WANT_OBJECT,true,87;IS_MOTIVATION_2_INC,false,43#
*:*:B_ANTI_PHOTOTAXIS,5;B_RANDOM_WALK,28;IS_MOTIVATION_1_INC,true,39;IS_WANT_OBJECT,false,28;IS_WANT_OBJECT,true,87;IS_MOTIVATION_2_INC,false,43#
*:*:B_ANTI_PHOTOTAXIS,5;B_RANDOM_WALK,28;IS_MOTIVATION_1_INC,true,39;IS_WANT_OBJECT,false,28;IS_WANT_OBJECT,true,87;IS_MOTIVATION_2_INC,false,43#
*:*:B_ANTI_PHOTOTAXIS,5;B_RANDOM_WALK,28;IS_MOTIVATION_1_INC,true,39;IS_WANT_OBJECT,false,28;IS_WANT_OBJECT,true,87;IS_MOTIVATION_2_INC,false,43#
*:*:B_ANTI_PHOTOTAXIS,5;B_RANDOM_WALK,28;IS_MOTIVATION_1_INC,true,39;IS_WANT_OBJECT,false,28;IS_WANT_OBJECT,true,87;IS_MOTIVATION_2_INC,false,43#
*:*:B_ANTI_PHOTOTAXIS,5;B_RANDOM_WALK,28;IS_MOTIVATION_1_INC,true,39;IS_WANT_OBJECT,false,28;IS_WANT_OBJECT,true,87;IS_MOTIVATION_2_INC,false,43#
*:*:B_ANTI_PHOTOTAXIS,5;B_RANDOM_WALK,28;IS_MOTIVATION_1_INC,true,39;IS_WANT_OBJECT,false,28;IS_WANT_OBJECT,true,87;IS_MOTIVATION_2_INC,false,43#
*:*:B_ANTI_PHOTOTAXIS,5;B_RANDOM_WALK,28;IS_MOTIVATION_1_INC,true,39;IS_WANT_OBJECT,false,28;IS_WANT_OBJECT,true,87;IS_MOTIVATION_2_INC,false,43#
*:*:B_ANTI_PHOTOTAXIS,5;B_RANDOM_WALK,28;IS_MOTIVATION_1_INC,true,39;IS_WANT_OBJECT,false,28;IS_WANT_OBJECT,true,87;IS_MOTIVATION_2_INC,false,43#
*:*:B_ANTI_PHOTOTAXIS,5;B_RANDOM_WALK,28;IS_MOTIVATION_1_INC,true,39;IS_WANT_OBJECT,false,28;IS_WANT_OBJECT,true,87;IS_MOTIVATION_2_INC,false,43#
*:*:B_ANTI_PHOTOTAXIS,5;B_RANDOM_WALK,28;IS_MOTIVATION_1_INC,true,39;IS_WANT_OBJECT,false,28;IS_WANT_OBJECT,true,87;IS_MOTIVATION_2_INC,false,43#
*:*:B_ANTI_PHOTOTAXIS,5;B_RANDOM_WALK,28;IS_MOTIVATION_1_INC,true,39;IS_WANT_OBJECT,false,28;IS_WANT_OBJECT,true,87;IS_MOTIVATION_2_INC,false,43#
*:*:B_ANTI_PHOTOTAXIS,5;B_RANDOM_WALK,28;IS_MOTIVATION_1_INC,true,39;IS_WANT_OBJECT,false,28;IS_WANT_OBJECT,true,87;IS_MOTIVATION_2_INC,false,43#
*:*:B_ANTI_PHOTOTAXIS,5;B_RANDOM_WALK,28;IS_MOTIVATION_1_INC,true,39;IS_WANT_OBJECT,false,28;IS_WANT_OBJECT,true,87;IS_MOTIVATION_2_INC,false,43#
*:*:B_ANTI_PHOTOTAXIS,5;B_RANDOM_WALK,28;IS_MOTIVATION_1_INC,true,39;IS_WANT_OBJECT,false,28;IS_WANT_OBJECT,true,87;IS_MOTIVATION_2_INC,false,43#
*:*:B_ANTI_PHOTOTAXIS,5;B_RANDOM_WALK,28;IS_MOTIVATION_1_INC,true,39;IS_WANT_OBJECT,false,28;IS_WANT_OBJECT,true,87;IS_MOTIVATION_2_INC,false,43#
*:*:B_ANTI_PHOTOTAXIS,5;B_RANDOM_WALK,28;IS_MOTIVATION_1_INC,true,39;IS_WANT_OBJECT,false,28;IS_WANT_OBJECT,true,87;IS_MOTIVATION_2_INC,false,43#
*:*:B_ANTI_PHOTOTAXIS,5;B_RANDOM_WALK,28;IS_MOTIVATION_1_INC,true,39;IS_WANT_OBJECT,false,28;IS_WANT_OBJECT,true,87;IS_MOTIVATION_2_INC,false,43#
*:*:B_ANTI_PHOTOTAXIS,5;B_RANDOM_WALK,28;IS_MOTIVATION_1_INC,true,39;IS_WANT_OBJECT,false,28;IS_WANT_OBJECT,true,87;IS_MOTIVATION_2_INC,false,43#
*:*:B_ANTI_PHOTOTAXIS,5;B_RANDOM_WALK,28;IS_MOTIVATION_1_INC,true,39;IS_WANT_OBJECT,false,28;IS_WANT_OBJECT,true,87;IS_MOTIVATION_2_INC,false,43#
*:*:B_ANTI_PHOTOTAXIS,5;B_RANDOM_WALK,28;IS_MOTIVATION_1_INC,true,39;IS_WANT_OBJECT,false,28;IS_WANT_OBJECT,true,87;IS_MOTIVATION_2_INC,false,43#
*:*:B_ANTI_PHOTOTAXIS,5;B_RANDOM_WALK,28;IS_MOTIVATION_1_INC,true,39;IS_WANT_OBJECT,false,28;IS_WANT_OBJECT,true,87;IS_MOTIVATION_2_INC,false,43#
*:*:B_ANTI_PHOTOTAXIS,5;B_RANDOM_WALK,28;IS_MOTIVATION_1_INC,true,39;IS_WANT_OBJECT,false,28;IS_WANT_OBJECT,true,87;IS_MOTIVATION_2_INC,false,43#
*:*:B_ANTI_PHOTOTAXIS,5;B_RANDOM_WALK,28;IS_MOTIVATION_1_INC,true,39;IS_WANT_OBJECT,false,28;IS_WANT_OBJECT,true,87;IS_MOTIVATION_2_INC,false,43#
*:*:B_ANTI_PHOTOTAXIS,5;B_RANDOM_WALK,28;IS_MOTIVATION_1_INC,true,39;IS_WANT_OBJECT,false,28;IS_WANT_OBJECT,true,87;IS_MOTIVATION_2_INC,false,43#
*:*:B_ANTI_PHOTOTAXIS,5;B_RANDOM_WALK,28;IS_MOTIVATION_1_INC,true,39;IS_WANT_OBJECT,false,28;IS_WANT_OBJECT,true,87;IS_MOTIVATION_2_INC,false,43#
*:*:B_ANTI_PHOTOTAXIS,5;B_RANDOM_WALK,28;IS_MOTIVATION_1_INC,true,39;IS_WANT_OBJECT,false,28;IS_WANT_OBJECT,true,87;IS_MOTIVATION_2_INC,false,43#
*:*:B_ANTI_PHOTOTAXIS,5;B_RANDOM_WALK,28;IS_MOTIVATION_1_INC,true,39;IS_WANT_OBJECT,false,28;IS_WANT_OBJECT,true,87;IS_MOTIVATION_2_INC,false,43#
*:*:B_ANTI_PHOTOTAXIS,5;B_RANDOM_WALK,28;IS_MOTIVATION_1_INC,true,39;IS_WANT_OBJECT,false,28;IS_WANT_OBJECT,true,87;IS_MOTIVATION_2_INC,false,43#
*:*:B_ANTI_PHOTOTAXIS,5;B_RANDOM_WALK,28;IS_MOTIVATION_1_INC,true,39;IS_WANT_OBJECT,false,28;IS_WANT_OBJECT,true,87;IS_MOTIVATION_2_INC,false,43#
*:*:B_ANTI_PHOTOTAXIS,5;B_RANDOM_WALK,28;IS_MOTIVATION_1_INC,true,39;IS_WANT_OBJECT,false,28;IS_WANT_OBJECT,true,87;IS_MOTIVATION_2_INC,false,43#
*:*:B_ANTI_PHOTOTAXIS,5;B_RANDOM_WALK,28;IS_MOTIVATION_1_INC,true,39;IS_WANT_OBJECT,false,28;IS_WANT_OBJECT,true,87;IS_MOTIVATION_2_INC,false,43#
*:*:B_ANTI_PHOTOTAXIS,5;B_RANDOM_WALK,28;IS_MOTIVATION_1_INC,true,39;IS_WANT_OBJECT,false,28;IS_WANT_OBJECT,true,87;IS_MOTIVATION_2_INC,false,43#
*:*:B_ANTI_PHOTOTAXIS,5;B_RANDOM_WALK,28;IS_MOTIVATION_1_INC,true,39;IS_WANT_OBJECT,false,28;IS_WANT_OBJECT,true,87;IS_MOTIVATION_2_INC,false,43#
*:*:B_ANTI_PHOTOTAXIS,5;B_RANDOM_WALK,28;IS_MOTIVATION_1_INC,true,39;IS_WANT_OBJECT,false,28;IS_WANT_OBJECT,true,87;IS_MOTIVATION_2_INC,false,43#
*:*:B_ANTI_PHOTOTAXIS,5;B_RANDOM_WALK,28;IS_MOTIVATION_1_INC,true,39;IS_WANT_OBJECT,false,28;IS_WANT_OBJECT,true,87;IS_MOTIVATION_2_INC,false,43#
*:*:B_ANTI_PHOTOTAXIS,5;B_RANDOM_WALK,28;IS_MOTIVATION_1_INC,true,39;IS_WANT_OBJECT,false,28;IS_WANT_OBJECT,true,87;IS_MOTIVATION_2_INC,false,43#
*:*:B_ANTI_PHOTOTAXIS,5;B_RANDOM_WALK,28;IS_MOTIVATION_1_INC,true,39;IS_WANT_OBJECT,false,28;IS_WANT_OBJECT,true,87;IS_MOTIVATION_2_INC,false,43#
*:*:B_ANTI_PHOTOTAXIS,5;B_RANDOM_WALK,28;IS_MOTIVATION_1_INC,true,39;IS_WANT_OBJECT,false,28;IS_WANT_OBJECT,true,87;IS_MOTIVATION_2_INC,false,43#
*:*:B_ANTI_PHOTOTAXIS,5;B_RANDOM_WALK,28;IS_MOTIVATION_1_INC,true,39;IS_WANT_OBJECT,false,28;IS_WANT_OBJECT,true,87;IS_MOTIVATION_2_INC,false,43#
*:*:B_ANTI_PHOTOTAXIS,5;B_RANDOM_WALK,28;IS_MOTIVATION_1_INC,true,39;IS_WANT_OBJECT,false,28;IS_WANT_OBJECT,true,87;IS_MOTIVATION_2_INC,false,43#
*:*:B_ANTI_PHOTOTAXIS,5;B_RANDOM_WALK,28;IS_MOTIVATION_1_INC,true,39;IS_WANT_OBJECT,false,28;IS_WANT_OBJECT,true,87;IS_MOTIVATION_2_INC,false,43#
*:*:B_ANTI_PHOTOTAXIS,5;B_RANDOM_WALK,28;IS_MOTIVATION_1_INC,true,39;IS_WANT_OBJECT,false,28;IS_WANT_OBJECT,true,87;IS_MOTIVATION_2_INC,false,43#
*:*:B_ANTI_PHOTOTAXIS,5;B_RANDOM_WALK,28;IS_MOTIVATION_1_INC,true,39;IS_WANT_OBJECT,false,28;IS_WANT_OBJECT,true,87;IS_MOTIVATION_2_INC,false,43#
*:*:B_ANTI_PHOTOTAXIS,5;B_RANDOM_WALK,28;IS_MOTIVATION_1_INC,true,39;IS_WANT_OBJECT,false,28;IS_WANT_OBJECT,true,87;IS_MOTIVATION_2_INC,false,43#
*:*:B_ANTI_PHOTOTAXIS,5;B_RANDOM_WALK,28;IS_MOTIVATION_1_INC,true,39;IS_WANT_OBJECT,false,28;IS_WANT_OBJECT,true,87;IS_MOTIVATION_2_INC,false,43#
*:*:B_ANTI_PHOTOTAXIS,5;B_RANDOM_WALK,28;IS_MOTIVATION_1_INC,true,39;IS_WANT_OBJECT,false,28;IS_WANT_OBJECT,true,87;IS_MOTIVATION_2_INC,false,43#
*:*:B_ANTI_PHOTOTAXIS,5;B_RANDOM_WALK,28;IS_MOTIVATION_1_INC,true,39;IS_WANT_OBJECT,false,28;IS_WANT_OBJECT,true,87;IS_MOTIVATION_2_INC,false,43#
*:*:B_ANTI_PHOTOTAXIS,5;B_RANDOM_WALK,28;IS_MOTIVATION_1_INC,true,39;IS_WANT_OBJECT,false,28;IS_WANT_OBJECT,true,87;IS_MOTIVATION_2_INC,false,43#
*:*:B_ANTI_PHOTOTAXIS,5;B_RANDOM_WALK,28;IS_MOTIVATION_1_INC,true,39;IS_WANT_OBJECT,false,28;IS_WANT_OBJECT,true,87;IS_MOTIVATION_2_INC,false,43#
*:*:B_ANTI_PHOTOTAXIS,5;B_RANDOM_WALK,28;IS_MOTIVATION_1_INC,true,39;IS_WANT_OBJECT,false,28;IS_WANT_OBJECT,true,87;IS_MOTIVATION_2_INC,false,43#
*:*:B_ANTI_PHOTOTAXIS,5;B_RANDOM_WALK,28;IS_MOTIVATION_1_INC,true,39;IS_WANT_OBJECT,false,28;IS_WANT_OBJECT,true,87;IS_MOTIVATION_2_INC,false,43#
*:*:B_ANTI_PHOTOTAXIS,5;B_RANDOM_WALK,28;IS_MOTIVATION_1_INC,true,39;IS_WANT_OBJECT,false,28;IS_WANT_OBJECT,true,87;IS_MOTIVATION_2_INC,false,43#
*:*:B_ANTI_PHOTOTAXIS,5;B_RANDOM_WALK,28;IS_MOTIVATION_1_INC,true,39;IS_WANT_OBJECT,false,28;IS_WANT_OBJECT,true,87;IS_MOTIVATION_2_INC,false,43#
*:*:B_ANTI_PHOTOTAXIS,5;B_RANDOM_WALK,28;IS_MOTIVATION_1_INC,true,39;IS_WANT_OBJECT,false,28;IS_WANT_OBJECT,true,87;IS_MOTIVATION_2_INC,false,43#
*:*:B_ANTI_PHOTOTAXIS,5;B_RANDOM_WALK,28;IS_MOTIVATION_1_INC,true,39;IS_WANT_OBJECT,false,28;IS_WANT_OBJECT,true,87;IS_MOTIVATION_2_INC,false,43#
*:*:B_ANTI_PHOTOTAXIS,5;B_RANDOM_WALK,28;IS_MOTIVATION_1_INC,true,39;IS_WANT_OBJECT,false,28;IS_WANT_OBJECT,true,87;IS_MOTIVATION_2_INC,false,43#
*:*:B_ANTI_PHOTOTAXIS,5;B_RANDOM_WALK,28;IS_MOTIVATION_1_INC,true,39;IS_WANT_OBJECT,false,28;IS_WANT_OBJECT,true,87;IS_MOTIVATION_2_INC,false,43#
*:*:B_ANTI_PHOTOTAXIS,5;B_RANDOM_WALK,28;IS_MOTIVATION_1_INC,true,39;IS_WANT_OBJECT,false,28;IS_WANT_OBJECT,true,87;IS_MOTIVATION_2_INC,false,43#
*:*:B_ANTI_PHOTOTAXIS,5;B_RANDOM_WALK,28;IS_MOTIVATION_1_INC,true,39;IS_WANT_OBJECT,false,28;IS_WANT_OBJECT,true,87;IS_MOTIVATION_2_INC,false,43#
*:*:B_ANTI_PHOTOTAXIS,5;B_RANDOM_WALK,28;IS_MOTIVATION_1_INC,true,39;IS_WANT_OBJECT,false,28;IS_WANT_OBJECT,true,87;IS_MOTIVATION_2_INC,false,43#
*:*:B_ANTI_PHOTOTAXIS,5;B_RANDOM_WALK,28;IS_MOTIVATION_1_INC,true,39;IS_WANT_OBJECT,false,28;IS_WANT_OBJECT,true,87;IS_MOTIVATION_2_INC,false,43#
*:*:B_ANTI_PHOTOTAXIS,5;B_RANDOM_WALK,28;IS_MOTIVATION_1_INC,true,39;IS_WANT_OBJECT,false,28;IS_WANT_OBJECT,true,87;IS_MOTIVATION_2_INC,false,43#
*:*:B_ANTI_PHOTOTAXIS,5;B_RANDOM_WALK,28;IS_MOTIVATION_1_INC,true,39;IS_WANT_OBJECT,false,28;IS_WANT_OBJECT,true,87;IS_MOTIVATION_2_INC,false,43#
*:*:B_ANTI_PHOTOTAXIS,5;B_RANDOM_WALK,28;IS_MOTIVATION_1_INC,true,39;IS_WANT_OBJECT,false,28;IS_WANT_OBJECT,true,87;IS_MOTIVATION_2_INC,false,43#
*:*:B_ANTI_PHOTOTAXIS,5;B_RANDOM_WALK,28;IS_MOTIVATION_1_INC,true,39;IS_WANT_OBJECT,false,28;IS_WANT_OBJECT,true,87;IS_MOTIVATION_2_INC,false,43#
*:*:B_ANTI_PHOTOTAXIS,5;B_RANDOM_WALK,28;IS_MOTIVATION_1_INC,true,39;IS_WANT_OBJECT,false,28;IS_WANT_OBJECT,true,87;IS_MOTIVATION_2_INC,false,43#
*:*:B_ANTI_PHOTOTAXIS,5;B_RANDOM_WALK,28;IS_MOTIVATION_1_INC,true,39;IS_WANT_OBJECT,false,28;IS_WANT_OBJECT,true,87;IS_MOTIVATION_2_INC,false,43#
*:*:B_ANTI_PHOTOTAXIS,5;B_RANDOM_WALK,28;IS_MOTIVATION_1_INC,true,39;IS_WANT_OBJECT,false,28;IS_WANT_OBJECT,true,87;IS_MOTIVATION_2_INC,false,43#
*:*:B_ANTI_PHOTOTAXIS,5;B_RANDOM_WALK,28;IS_MOTIVATION_1_INC,true,39;IS_WANT_OBJECT,false,28;IS_WANT_OBJECT,true,87;IS_MOTIVATION_2_INC,false,43#
*:*:B_ANTI_PHOTOTAXIS,5;B_RANDOM_WALK,28;IS_MOTIVATION_1_INC,true,39;IS_WANT_OBJECT,false,28;IS_WANT_OBJECT,true,87;IS_MOTIVATION_2_INC,false,43#
*:*:B_ANTI_PHOTOTAXIS,5;B_RANDOM_WALK,28;IS_MOTIVATION_1_INC,true,39;IS_WANT_OBJECT,false,28;IS_WANT_OBJECT,true,87;IS_MOTIVATION_2_INC,false,43#
*:*:B_ANTI_PHOTOTAXIS,5;B_RANDOM_WALK,28;IS_MOTIVATION_1_INC,true,39;IS_WANT_OBJECT,false,28;IS_WANT_OBJECT,true,87;IS_MOTIVATION_2_INC,false,43#
*:*:B_ANTI_PHOTOTAXIS,5;B_RANDOM_WALK,28;IS_MOTIVATION_1_INC,true,39;IS_WANT_OBJECT,false,28;IS_WANT_OBJECT,true,87;IS_MOTIVATION_2_INC,false,43#
*:*:B_ANTI_PHOTOTAXIS,5;B_RANDOM_WALK,28;IS_MOTIVATION_1_INC,true,39;IS_WANT_OBJECT,false,28;IS_WANT_OBJECT,true,87;IS_MOTIVATION_2_INC,false,43#
*:*:B_ANTI_PHOTOTAXIS,5;B_RANDOM_WALK,28;IS_MOTIVATION_1_INC,true,39;IS_WANT_OBJECT,false,28;IS_WANT_OBJECT,true,87;IS_MOTIVATION_2_INC,false,43#
*:*:B_ANTI_PHOTOTAXIS,5;B_RANDOM_WALK,28;IS_MOTIVATION_1_INC,true,39;IS_WANT_OBJECT,false,28;IS_WANT_OBJECT,true,87;IS_MOTIVATION_2_INC,false,43#
*:*:B_ANTI_PHOTOTAXIS,5;B_RANDOM_WALK,28;IS_MOTIVATION_1_INC,true,39;IS_WANT_OBJECT,false,28;IS_WANT_OBJECT,true,87;IS_MOTIVATION_2_INC,false,43#
*:*:B_ANTI_PHOTOTAXIS,5;B_RANDOM_WALK,28;IS_MOTIVATION_1_INC,true,39;IS_WANT_OBJECT,false,28;IS_WANT_OBJECT,true,87;IS_MOTIVATION_2_INC,false,43#
*:*:B_ANTI_PHOTOTAXIS,5;B_RANDOM_WALK,28;IS_MOTIVATION_1_INC,true,39;IS_WANT_OBJECT,false,28;IS_WANT_OBJECT,true,87;IS_MOTIVATION_2_INC,false,43#
*:*:B_ANTI_PHOTOTAXIS,5;B_RANDOM_WALK,28;IS_MOTIVATION_1_INC,true,39;IS_WANT_OBJECT,false,28;IS_WANT_OBJECT,true,87;IS_MOTIVATION_2_INC,false,43#
*:*:B_ANTI_PHOTOTAXIS,5;B_RANDOM_WALK,28;IS_MOTIVATION_1_INC,true,39;IS_WANT_OBJECT,false,28;IS_WANT_OBJECT,true,87;IS_MOTIVATION_2_INC,false,43#
*:*:B_ANTI_PHOTOTAXIS,5;B_RANDOM_WALK,28;IS_MOTIVATION_1_INC,true,39;IS_WANT_OBJECT,false,28;IS_WANT_OBJECT,true,87;IS_MOTIVATION_2_INC,false,43#
*:*:B_ANTI_PHOTOTAXIS,5;B_RANDOM_WALK,28;IS_MOTIVATION_1_INC,true,39;IS_WANT_OBJECT,false,28;IS_WANT_OBJECT,true,87;IS_MOTIVATION_2_INC,false,43#
*:*:B_ANTI_PHOTOTAXIS,5;B_RANDOM_WALK,28;IS_MOTIVATION_1_INC,true,39;IS_WANT_OBJECT,false,28;IS_WANT_OBJECT,true,87;IS_MOTIVATION_2_INC,false,43#
*:*:B_ANTI_PHOTOTAXIS,5;B_RANDOM_WALK,28;IS_MOTIVATION_1_INC,true,39;IS_WANT_OBJECT,false,28;IS_WANT_OBJECT,true,87;IS_MOTIVATION_2_INC,false,43#
*:*:B_ANTI_PHOTOTAXIS,5;B_RANDOM_WALK,28;IS_MOTIVATION_1_INC,true,39;IS_WANT_OBJECT,false,28;IS_WANT_OBJECT,true,87;IS_MOTIVATION_2_INC,false,43#
*:*:B_ANTI_PHOTOTAXIS,5;B_RANDOM_WALK,28;IS_MOTIVATION_1_INC,true,39;IS_WANT_OBJECT,false,28;IS_WANT_OBJECT,true,87;IS_MOTIVATION_2_INC,false,43#
*:*:B_ANTI_PHOTOTAXIS,5;B_RANDOM_WALK,28;IS_MOTIVATION_1_INC,true,39;IS_WANT_OBJECT,false,28;IS_WANT_OBJECT,true,87;IS_MOTIVATION_2_INC,false,43#
*:*:B_ANTI_PHOTOTAXIS,5;B_RANDOM_WALK,28;IS_MOTIVATION_1_INC,true,39;IS_WANT_OBJECT,false,28;IS_WANT_OBJECT,true,87;IS_MOTIVATION_2_INC,false,43#
*:*:B_ANTI_PHOTOTAXIS,5;B_RANDOM_WALK,28;IS_MOTIVATION_1_INC,true,39;IS_WANT_OBJECT,false,28;IS_WANT_OBJECT,true,87;IS_MOTIVATION_2_INC,false,43#
*:*:B_ANTI_PHOTOTAXIS,5;B_RANDOM_WALK,28;IS_MOTIVATION_1_INC,true,39;IS_WANT_OBJECT,false,28;IS_WANT_OBJECT,true,87;IS_MOTIVATION_2_INC,false,43#
*:*:B_ANTI_PHOTOTAXIS,5;B_RANDOM_WALK,28;IS_MOTIVATION_1_INC,true,39;IS_WANT_OBJECT,false,28;IS_WANT_OBJECT,true,87;IS_MOTIVATION_2_INC,false,43#
*:*:B_ANTI_PHOTOTAXIS,5;B_RANDOM_WALK,28;IS_MOTIVATION_1_INC,true,39;IS_WANT_OBJECT,false,28;IS_WANT_OBJECT,true,87;IS_MOTIVATION_2_INC,false,43#
*:*:B_ANTI_PHOTOTAXIS,5;B_RANDOM_WALK,28;IS_MOTIVATION_1_INC,true,39;IS_WANT_OBJECT,false,28;IS_WANT_OBJECT,true,87;IS_MOTIVATION_2_INC,false,43#
*:*:B_ANTI_PHOTOTAXIS,5;B_RANDOM_WALK,28;IS_MOTIVATION_1_INC,true,39;IS_WANT_OBJECT,false,28;IS_WANT_OBJECT,true,87;IS_MOTIVATION_2_INC,false,43#
*:*:B_ANTI_PHOTOTAXIS,5;B_RANDOM_WALK,28;IS_MOTIVATION_1_INC,true,39;IS_WANT_OBJECT,false,28;IS_WANT_OBJECT,true,87;IS_MOTIVATION_2_INC,false,43#
*:*:B_ANTI_PHOTOTAXIS,5;B_RANDOM_WALK,28;IS_MOTIVATION_1_INC,true,39;IS_WANT_OBJECT,false,28;IS_WANT_OBJECT,true,87;IS_MOTIVATION_2_INC,false,43#
*:*:B_ANTI_PHOTOTAXIS,5;B_RANDOM_WALK,28;IS_MOTIVATION_1_INC,true,39;IS_WANT_OBJECT,false,28;IS_WANT_OBJECT,true,87;IS_MOTIVATION_2_INC,false,43#
*:*:B_ANTI_PHOTOTAXIS,5;B_RANDOM_WALK,28;IS_MOTIVATION_1_INC,true,39;IS_WANT_OBJECT,false,28;IS_WANT_OBJECT,true,87;IS_MOTIVATION_2_INC,false,43#
*:*:B_ANTI_PHOTOTAXIS,5;B_RANDOM_WALK,28;IS_MOTIVATION_1_INC,true,39;IS_WANT_OBJECT,false,28;IS_WANT_OBJECT,true,87;IS_MOTIVATION_2_INC,false,43#
*:*:B_ANTI_PHOTOTAXIS,5;B_RANDOM_WALK,28;IS_MOTIVATION_1_INC,true,39;IS_WANT_OBJECT,false,28;IS_WANT_OBJECT,true,87;IS_MOTIVATION_2_INC,false,43#
*:*:B_ANTI_PHOTOTAXIS,5;B_RANDOM_WALK,28;IS_MOTIVATION_1_INC,true,39;IS_WANT_OBJECT,false,28;IS_WANT_OBJECT,true,87;IS_MOTIVATION_2_INC,false,43#
*:*:B_ANTI_PHOTOTAXIS,5;B_RANDOM_WALK,28;IS_MOTIVATION_1_INC,true,39;IS_WANT_OBJECT,false,28;IS_WANT_OBJECT,true,87;IS_MOTIVATION_2_INC,false,43#
*:*:B_ANTI_PHOTOTAXIS,5;B_RANDOM_WALK,28;IS_MOTIVATION_1_INC,true,39;IS_WANT_OBJECT,false,28;IS_WANT_OBJECT,true,87;IS_MOTIVATION_2_INC,false,43#
*:*:B_ANTI_PHOTOTAXIS,5;B_RANDOM_WALK,28;IS_MOTIVATION_1_INC,true,39;IS_WANT_OBJECT,false,28;IS_WANT_OBJECT,true,87;IS_MOTIVATION_2_INC,false,43#
*:*:B_ANTI_PHOTOTAXIS,5;B_RANDOM_WALK,28;IS_MOTIVATION_1_INC,true,39;IS_WANT_OBJECT,false,28;IS_WANT_OBJECT,true,87;IS_MOTIVATION_2_INC,false,43#
*:*:B_ANTI_PHOTOTAXIS,5;B_RANDOM_WALK,28;IS_MOTIVATION_1_INC,true,39;IS_WANT_OBJECT,false,28;IS_WANT_OBJECT,true,87;IS_MOTIVATION_2_INC,false,43#
*:*:B_ANTI_PHOTOTAXIS,5;B_RANDOM_WALK,28;IS_MOTIVATION_1_INC,true,39;IS_WANT_OBJECT,false,28;IS_WANT_OBJECT,true,87;IS_MOTIVATION_2_INC,false,43#
*:*:B_ANTI_PHOTOTAXIS,5;B_RANDOM_WALK,28;IS_MOTIVATION_1_INC,true,39;IS_WANT_OBJECT,false,28;IS_WANT_OBJECT,true,87;IS_MOTIVATION_2_INC,false,43#
*:*:B_ANTI_PHOTOTAXIS,5;B_RANDOM_WALK,28;IS_MOTIVATION_1_INC,true,39;IS_WANT_OBJECT,false,28;IS_WANT_OBJECT,true,87;IS_MOTIVATION_2_INC,false,43#
*:*:B_ANTI_PHOTOTAXIS,5;B_RANDOM_WALK,28;IS_MOTIVATION_1_INC,true,39;IS_WANT_OBJECT,false,28;IS_WANT_OBJECT,true,87;IS_MOTIVATION_2_INC,false,43#
*:*:B_ANTI_PHOTOTAXIS,5;B_RANDOM_WALK,28;IS_MOTIVATION_1_INC,true,39;IS_WANT_OBJECT,false,28;IS_WANT_OBJECT,true,87;IS_MOTIVATION_2_INC,false,43#
*:*:B_ANTI_PHOTOTAXIS,5;B_RANDOM_WALK,28;IS_MOTIVATION_1_INC,true,39;IS_WANT_OBJECT,false,28;IS_WANT_OBJECT,true,87;IS_MOTIVATION_2_INC,false,43#
*:*:B_ANTI_PHOTOTAXIS,5;B_RANDOM_WALK,28;IS_MOTIVATION_1_INC,true,39;IS_WANT_OBJECT,false,28;IS_WANT_OBJECT,true,87;IS_MOTIVATION_2_INC,false,43#
*:*:B_ANTI_PHOTOTAXIS,5;B_RANDOM_WALK,28;IS_MOTIVATION_1_INC,true,39;IS_WANT_OBJECT,false,28;IS_WANT_OBJECT,true,87;IS_MOTIVATION_2_INC,false,43#
*:*:B_ANTI_PHOTOTAXIS,5;B_RANDOM_WALK,28;IS_MOTIVATION_1_INC,true,39;IS_WANT_OBJECT,false,28;IS_WANT_OBJECT,true,87;IS_MOTIVATION_2_INC,false,43#
*:*:B_ANTI_PHOTOTAXIS,5;B_RANDOM_WALK,28;IS_MOTIVATION_1_INC,true,39;IS_WANT_OBJECT,false,28;IS_WANT_OBJECT,true,87;IS_MOTIVATION_2_INC,false,43#
*:*:B_ANTI_PHOTOTAXIS,5;B_RANDOM_WALK,28;IS_MOTIVATION_1_INC,true,39;IS_WANT_OBJECT,false,28;IS_WANT_OBJECT,true,87;IS_MOTIVATION_2_INC,false,43#
*:*:B_ANTI_PHOTOTAXIS,5;B_RANDOM_WALK,28;IS_MOTIVATION_1_INC,true,39;IS_WANT_OBJECT,false,28;IS_WANT_OBJECT,true,87;IS_MOTIVATION_2_INC,false,43#
*:*:B_ANTI_PHOTOTAXIS,5;B_RANDOM_WALK,28;IS_MOTIVATION_1_INC,true,39;IS_WANT_OBJECT,false,28;IS_WANT_OBJECT,true,87;IS_MOTIVATION_2_INC,false,43#
