P_MOTIVATION_2_GT,true;P_HAS_OBJECT,false;*:*:B_ANTI_PHOTOTAXIS,14;IS_MOTIVATION_2_INC,false,15#*:*:IS_WANT_OBJECT,true,68;IS_DROP_OBJECT,true,3;IS_MOTIVATION_1_DEC,true,89;IS_DROP_OBJECT,false,31;B_RANDOM_WALK,99#
P_MOTIVATION_2_GT,true;P_HAS_OBJECT,false;*:*:B_ANTI_PHOTOTAXIS,14;IS_MOTIVATION_1_DEC,false,15#*:*:IS_WANT_OBJECT,true,68;IS_DROP_OBJECT,true,3;IS_MOTIVATION_1_DEC,true,89;IS_DROP_OBJECT,false,31;B_RANDOM_WALK,99#
P_MOTIVATION_2_LT,true;P_HAS_OBJECT,true;*:*:B_ANTI_PHOTOTAXIS,14;IS_MOTIVATION_2_INC,false,34#*:*:IS_WANT_OBJECT,true,59;IS_DROP_OBJECT,true,3;IS_MOTIVATION_2_DEC,true,89;IS_DROP_OBJECT,false,21;B_RANDOM_WALK,7#
P_MOTIVATION_2_LT,true;P_HAS_OBJECT,true;*:*:B_ANTI_PHOTOTAXIS,14;IS_MOTIVATION_2_INC,true,34#*:*:IS_WANT_OBJECT,true,59;IS_DROP_OBJECT,true,3;IS_MOTIVATION_2_DEC,true,89;IS_DROP_OBJECT,false,21;B_RANDOM_WALK,7#
P_MOTIVATION_2_LT,true;P_HAS_OBJECT,true;*:*:B_ANTI_PHOTOTAXIS,54;IS_MOTIVATION_2_INC,true,34#*:*:IS_WANT_OBJECT,true,59;IS_DROP_OBJECT,true,3;IS_MOTIVATION_2_DEC,true,89;IS_DROP_OBJECT,false,21;B_RANDOM_WALK,7#
P_MOTIVATION_2_LT,true;P_HAS_OBJECT,true;*:*:B_ANTI_PHOTOTAXIS,54;IS_MOTIVATION_2_INC,true,34#*:*:IS_WANT_OBJECT,true,59;IS_DROP_OBJECT,true,3;IS_MOTIVATION_2_DEC,true,89;IS_MOTIVATION_1_DEC,false,21;B_RANDOM_WALK,7#
P_MOTIVATION_2_LT,true;P_HAS_OBJECT,true;*:*:B_ANTI_PHOTOTAXIS,54;IS_MOTIVATION_2_INC,true,34#*:*:IS_WANT_OBJECT,true,59;IS_DROP_OBJECT,true,3;IS_MOTIVATION_2_DEC,true,89;IS_MOTIVATION_1_DEC,false,21;B_RANDOM_WALK,7#
P_MOTIVATION_2_LT,true;P_HAS_OBJECT,true;*:*:B_ANTI_PHOTOTAXIS,54;IS_MOTIVATION_2_INC,true,34#*:*:IS_WANT_OBJECT,true,59;IS_DROP_OBJECT,true,3;IS_MOTIVATION_2_DEC,true,89;IS_MOTIVATION_1_DEC,false,21;B_RANDOM_WALK,7#
P_MOTIVATION_2_LT,true;P_HAS_OBJECT,true;*:*:B_ANTI_PHOTOTAXIS,54;IS_MOTIVATION_2_INC,true,34#*:*:IS_WANT_OBJECT,true,59;IS_DROP_OBJECT,true,3;IS_MOTIVATION_2_DEC,true,89;IS_MOTIVATION_1_DEC,false,21;B_RANDOM_WALK,7#
P_MOTIVATION_2_LT,true;P_HAS_OBJECT,true;*:*:B_ANTI_PHOTOTAXIS,54;IS_MOTIVATION_2_INC,true,34#*:*:IS_WANT_OBJECT,true,59;IS_DROP_OBJECT,true,3;IS_MOTIVATION_2_DEC,true,89;IS_MOTIVATION_1_DEC,false,21;B_RANDOM_WALK,7#
P_MOTIVATION_2_LT,true;P_HAS_OBJECT,true;*:*:B_ANTI_PHOTOTAXIS,54;IS_MOTIVATION_2_INC,true,34#*:*:IS_WANT_OBJECT,true,59;IS_DROP_OBJECT,true,3;IS_MOTIVATION_2_DEC,true,89;IS_MOTIVATION_1_DEC,false,21;B_RANDOM_WALK,7#
P_MOTIVATION_2_LT,true;P_HAS_OBJECT,true;*:*:B_ANTI_PHOTOTAXIS,54;IS_MOTIVATION_2_INC,true,34#*:*:IS_WANT_OBJECT,true,59;IS_DROP_OBJECT,true,3;IS_MOTIVATION_2_DEC,true,89;IS_MOTIVATION_1_DEC,false,21;B_RANDOM_WALK,7#
P_MOTIVATION_2_LT,true;P_HAS_OBJECT,true;*:*:B_ANTI_PHOTOTAXIS,54;IS_MOTIVATION_2_INC,true,34#*:*:IS_WANT_OBJECT,true,59;IS_DROP_OBJECT,true,3;IS_MOTIVATION_2_DEC,true,89;IS_MOTIVATION_1_DEC,false,21;B_RANDOM_WALK,7#
P_MOTIVATION_2_LT,true;P_HAS_OBJECT,true;*:*:B_ANTI_PHOTOTAXIS,54;IS_MOTIVATION_2_INC,true,34#*:*:IS_WANT_OBJECT,true,59;IS_DROP_OBJECT,true,3;IS_MOTIVATION_2_DEC,true,89;IS_MOTIVATION_1_DEC,false,21;B_RANDOM_WALK,7#
P_MOTIVATION_2_LT,true;P_HAS_OBJECT,true;*:*:B_ANTI_PHOTOTAXIS,54;IS_MOTIVATION_2_INC,true,34#*:*:IS_WANT_OBJECT,true,59;IS_DROP_OBJECT,true,3;IS_MOTIVATION_2_DEC,true,89;IS_MOTIVATION_1_DEC,false,21;B_RANDOM_WALK,7#
P_MOTIVATION_2_LT,true;P_HAS_OBJECT,true;*:*:B_ANTI_PHOTOTAXIS,54;IS_MOTIVATION_2_INC,true,34#*:*:IS_WANT_OBJECT,true,59;IS_DROP_OBJECT,true,3;IS_MOTIVATION_2_DEC,true,89;IS_MOTIVATION_1_DEC,false,21;B_RANDOM_WALK,7#
P_MOTIVATION_2_LT,true;P_HAS_OBJECT,true;*:*:B_ANTI_PHOTOTAXIS,60;IS_MOTIVATION_2_INC,false,34#*:*:IS_WANT_OBJECT,true,95;IS_DROP_OBJECT,true,3;IS_MOTIVATION_2_DEC,true,89;IS_MOTIVATION_1_DEC,false,21;B_RANDOM_WALK,7#
P_MOTIVATION_2_LT,true;P_HAS_OBJECT,true;*:*:B_ANTI_PHOTOTAXIS,60;IS_MOTIVATION_2_INC,false,34#*:*:IS_WANT_OBJECT,true,95;IS_DROP_OBJECT,true,3;IS_MOTIVATION_2_DEC,true,89;IS_MOTIVATION_1_DEC,false,21;B_RANDOM_WALK,7#
P_MOTIVATION_2_LT,true;P_HAS_OBJECT,true;*:*:B_ANTI_PHOTOTAXIS,60;IS_MOTIVATION_2_INC,false,34#*:*:IS_WANT_OBJECT,true,95;IS_DROP_OBJECT,true,3;IS_MOTIVATION_2_DEC,true,89;IS_MOTIVATION_1_DEC,false,21;B_RANDOM_WALK,7#
P_MOTIVATION_2_LT,true;P_HAS_OBJECT,true;*:*:B_ANTI_PHOTOTAXIS,60;IS_MOTIVATION_2_INC,false,34#*:*:IS_WANT_OBJECT,true,95;IS_DROP_OBJECT,true,3;IS_MOTIVATION_2_DEC,true,89;IS_MOTIVATION_1_DEC,false,21;B_RANDOM_WALK,7#
P_MOTIVATION_2_LT,true;P_HAS_OBJECT,true;*:*:B_ANTI_PHOTOTAXIS,60;IS_MOTIVATION_2_INC,false,34#*:*:IS_WANT_OBJECT,true,95;IS_DROP_OBJECT,true,3;IS_MOTIVATION_2_DEC,true,89;IS_MOTIVATION_1_DEC,false,21;B_RANDOM_WALK,7#
P_MOTIVATION_2_LT,true;P_HAS_OBJECT,true;*:*:B_ANTI_PHOTOTAXIS,60;IS_MOTIVATION_2_INC,false,34#*:*:IS_WANT_OBJECT,true,95;IS_DROP_OBJECT,true,3;IS_MOTIVATION_2_DEC,true,89;IS_MOTIVATION_1_DEC,false,21;B_RANDOM_WALK,7#
P_MOTIVATION_2_LT,true;P_HAS_OBJECT,true;*:*:B_ANTI_PHOTOTAXIS,60;IS_MOTIVATION_2_INC,false,34#*:*:IS_WANT_OBJECT,true,95;IS_DROP_OBJECT,true,3;IS_MOTIVATION_2_DEC,true,89;IS_MOTIVATION_1_DEC,false,21;B_RANDOM_WALK,7#
P_MOTIVATION_2_LT,true;P_HAS_OBJECT,true;*:*:B_ANTI_PHOTOTAXIS,60;IS_MOTIVATION_2_INC,false,34#*:*:IS_WANT_OBJECT,true,95;IS_DROP_OBJECT,true,3;IS_MOTIVATION_2_DEC,true,89;IS_MOTIVATION_1_DEC,false,21;B_RANDOM_WALK,7#
P_MOTIVATION_2_LT,true;P_HAS_OBJECT,true;*:*:B_ANTI_PHOTOTAXIS,60;IS_MOTIVATION_2_INC,false,34#*:*:IS_WANT_OBJECT,true,95;IS_DROP_OBJECT,true,3;IS_MOTIVATION_2_DEC,true,89;IS_MOTIVATION_1_DEC,false,21;B_RANDOM_WALK,7#
P_MOTIVATION_2_LT,true;P_HAS_OBJECT,true;*:*:B_ANTI_PHOTOTAXIS,60;IS_MOTIVATION_2_INC,false,34#*:*:IS_WANT_OBJECT,true,95;IS_DROP_OBJECT,true,3;IS_MOTIVATION_2_DEC,true,89;IS_MOTIVATION_1_DEC,false,21;B_RANDOM_WALK,7#
P_MOTIVATION_2_LT,true;P_HAS_OBJECT,true;*:*:B_ANTI_PHOTOTAXIS,60;IS_MOTIVATION_2_INC,false,34#*:*:IS_WANT_OBJECT,true,95;IS_DROP_OBJECT,true,3;IS_MOTIVATION_2_DEC,true,89;IS_MOTIVATION_1_DEC,false,21;B_RANDOM_WALK,7#
P_MOTIVATION_2_LT,true;P_HAS_OBJECT,true;*:*:B_ANTI_PHOTOTAXIS,60;IS_MOTIVATION_2_INC,false,34#*:*:IS_WANT_OBJECT,true,95;IS_DROP_OBJECT,true,3;IS_MOTIVATION_2_DEC,true,89;IS_MOTIVATION_1_DEC,false,21;B_RANDOM_WALK,7#
P_MOTIVATION_2_LT,true;P_HAS_OBJECT,true;*:*:B_ANTI_PHOTOTAXIS,60;IS_MOTIVATION_2_INC,false,34#*:*:IS_WANT_OBJECT,true,95;IS_DROP_OBJECT,true,3;IS_MOTIVATION_2_DEC,true,89;IS_MOTIVATION_1_DEC,false,21;B_RANDOM_WALK,7#
P_MOTIVATION_2_LT,true;P_HAS_OBJECT,true;*:*:B_ANTI_PHOTOTAXIS,60;IS_MOTIVATION_2_INC,false,34#*:*:IS_WANT_OBJECT,true,95;IS_DROP_OBJECT,true,3;IS_MOTIVATION_2_DEC,true,89;IS_MOTIVATION_1_DEC,false,21;B_RANDOM_WALK,7#
P_MOTIVATION_2_LT,true;P_HAS_OBJECT,true;*:*:B_ANTI_PHOTOTAXIS,60;IS_MOTIVATION_2_INC,false,34#*:*:IS_WANT_OBJECT,true,95;IS_DROP_OBJECT,true,3;IS_MOTIVATION_2_DEC,true,89;IS_MOTIVATION_1_DEC,false,21;B_RANDOM_WALK,7#
P_MOTIVATION_2_LT,true;P_HAS_OBJECT,true;*:*:B_ANTI_PHOTOTAXIS,60;IS_MOTIVATION_2_INC,false,34#*:*:IS_WANT_OBJECT,true,95;IS_DROP_OBJECT,true,3;IS_MOTIVATION_2_DEC,true,89;IS_MOTIVATION_1_DEC,false,21;B_RANDOM_WALK,7#
P_MOTIVATION_2_LT,true;P_HAS_OBJECT,true;*:*:B_ANTI_PHOTOTAXIS,60;IS_MOTIVATION_2_INC,false,34#*:*:IS_WANT_OBJECT,true,95;IS_DROP_OBJECT,true,3;IS_MOTIVATION_2_DEC,true,89;IS_MOTIVATION_1_DEC,false,21;B_RANDOM_WALK,7#
P_MOTIVATION_2_LT,true;P_HAS_OBJECT,true;*:*:B_ANTI_PHOTOTAXIS,60;IS_MOTIVATION_2_INC,false,34#*:*:IS_WANT_OBJECT,true,95;IS_DROP_OBJECT,true,3;IS_MOTIVATION_2_DEC,true,89;IS_MOTIVATION_1_DEC,false,21;B_RANDOM_WALK,7#
P_MOTIVATION_2_LT,true;P_HAS_OBJECT,true;*:*:B_ANTI_PHOTOTAXIS,60;IS_MOTIVATION_2_INC,false,34#*:*:IS_WANT_OBJECT,true,95;IS_DROP_OBJECT,true,3;IS_MOTIVATION_2_DEC,true,89;IS_MOTIVATION_1_DEC,false,21;B_RANDOM_WALK,7#
P_MOTIVATION_2_LT,true;P_HAS_OBJECT,true;*:*:B_ANTI_PHOTOTAXIS,60;IS_MOTIVATION_2_INC,false,34#*:*:IS_WANT_OBJECT,true,95;IS_DROP_OBJECT,true,3;IS_MOTIVATION_2_DEC,true,89;IS_MOTIVATION_1_DEC,false,21;B_RANDOM_WALK,7#
P_MOTIVATION_2_LT,true;P_HAS_OBJECT,true;*:*:B_ANTI_PHOTOTAXIS,60;IS_MOTIVATION_2_INC,false,34#*:*:IS_WANT_OBJECT,true,95;IS_DROP_OBJECT,true,3;IS_MOTIVATION_2_DEC,true,89;IS_MOTIVATION_1_DEC,false,21;B_RANDOM_WALK,7#
P_MOTIVATION_2_LT,true;P_HAS_OBJECT,true;*:*:B_ANTI_PHOTOTAXIS,60;IS_MOTIVATION_2_INC,false,34#*:*:IS_WANT_OBJECT,true,95;IS_DROP_OBJECT,true,3;IS_MOTIVATION_2_DEC,true,89;IS_MOTIVATION_1_DEC,false,21;B_RANDOM_WALK,7#
P_MOTIVATION_2_LT,true;P_HAS_OBJECT,true;*:*:B_ANTI_PHOTOTAXIS,60;IS_MOTIVATION_2_INC,false,34#*:*:IS_WANT_OBJECT,true,95;IS_DROP_OBJECT,true,3;IS_MOTIVATION_2_DEC,true,89;IS_MOTIVATION_1_DEC,false,21;B_RANDOM_WALK,7#
P_MOTIVATION_2_LT,true;P_HAS_OBJECT,true;*:*:B_ANTI_PHOTOTAXIS,60;IS_MOTIVATION_2_INC,false,34#*:*:IS_WANT_OBJECT,true,95;IS_DROP_OBJECT,true,3;IS_MOTIVATION_2_DEC,true,89;IS_MOTIVATION_1_DEC,false,21;B_RANDOM_WALK,7#
P_MOTIVATION_2_LT,true;P_HAS_OBJECT,true;*:*:B_ANTI_PHOTOTAXIS,60;IS_MOTIVATION_2_INC,false,34#*:*:IS_WANT_OBJECT,true,95;IS_DROP_OBJECT,true,3;IS_MOTIVATION_2_DEC,true,89;IS_MOTIVATION_1_DEC,false,21;B_RANDOM_WALK,7#
P_MOTIVATION_2_LT,true;P_HAS_OBJECT,true;*:*:B_ANTI_PHOTOTAXIS,60;IS_MOTIVATION_2_INC,false,34#*:*:IS_WANT_OBJECT,true,95;IS_DROP_OBJECT,true,3;IS_MOTIVATION_2_DEC,true,89;IS_MOTIVATION_1_DEC,false,21;B_RANDOM_WALK,7#
P_MOTIVATION_2_LT,true;P_HAS_OBJECT,true;*:*:B_ANTI_PHOTOTAXIS,60;IS_MOTIVATION_2_INC,false,34#*:*:IS_WANT_OBJECT,true,95;IS_DROP_OBJECT,true,3;IS_MOTIVATION_2_DEC,true,89;IS_MOTIVATION_1_DEC,false,21;B_RANDOM_WALK,7#
P_MOTIVATION_2_LT,true;P_HAS_OBJECT,true;*:*:B_ANTI_PHOTOTAXIS,61;IS_MOTIVATION_2_INC,false,34#*:*:IS_WANT_OBJECT,true,95;IS_DROP_OBJECT,true,3;IS_MOTIVATION_2_DEC,true,89;IS_MOTIVATION_1_DEC,false,31;B_RANDOM_WALK,7#
P_MOTIVATION_2_LT,true;P_HAS_OBJECT,true;*:*:B_ANTI_PHOTOTAXIS,61;IS_MOTIVATION_2_INC,false,34#*:*:IS_WANT_OBJECT,true,95;IS_DROP_OBJECT,true,3;IS_MOTIVATION_2_DEC,true,89;IS_MOTIVATION_1_DEC,false,31;B_RANDOM_WALK,7#
P_MOTIVATION_2_LT,true;P_HAS_OBJECT,true;*:*:B_ANTI_PHOTOTAXIS,61;IS_MOTIVATION_2_INC,false,34#*:*:IS_WANT_OBJECT,true,95;IS_DROP_OBJECT,true,3;IS_MOTIVATION_2_DEC,true,89;IS_MOTIVATION_1_DEC,false,31;B_RANDOM_WALK,7#
P_MOTIVATION_2_LT,true;P_HAS_OBJECT,true;*:*:B_ANTI_PHOTOTAXIS,61;IS_MOTIVATION_2_INC,false,34#*:*:IS_WANT_OBJECT,true,95;IS_DROP_OBJECT,true,3;IS_MOTIVATION_2_DEC,true,89;IS_MOTIVATION_1_DEC,false,31;B_RANDOM_WALK,7#
P_MOTIVATION_2_LT,true;P_HAS_OBJECT,true;*:*:B_ANTI_PHOTOTAXIS,61;IS_MOTIVATION_2_INC,false,34#*:*:IS_WANT_OBJECT,true,95;IS_DROP_OBJECT,true,3;IS_MOTIVATION_2_DEC,true,89;IS_MOTIVATION_1_DEC,false,31;B_RANDOM_WALK,7#
P_MOTIVATION_2_LT,true;P_HAS_OBJECT,true;*:*:B_ANTI_PHOTOTAXIS,61;IS_MOTIVATION_2_INC,false,34#*:*:IS_WANT_OBJECT,true,95;IS_DROP_OBJECT,true,3;IS_MOTIVATION_2_DEC,true,89;IS_MOTIVATION_1_DEC,false,31;B_RANDOM_WALK,7#
P_MOTIVATION_2_LT,true;P_HAS_OBJECT,true;*:*:B_ANTI_PHOTOTAXIS,61;IS_MOTIVATION_2_INC,false,34#*:*:IS_WANT_OBJECT,true,95;IS_DROP_OBJECT,true,3;IS_MOTIVATION_2_DEC,true,89;IS_MOTIVATION_1_DEC,false,31;B_RANDOM_WALK,7#
P_MOTIVATION_2_LT,true;P_HAS_OBJECT,true;*:*:B_ANTI_PHOTOTAXIS,61;IS_MOTIVATION_2_INC,false,34#*:*:IS_WANT_OBJECT,true,95;IS_DROP_OBJECT,true,3;IS_MOTIVATION_2_DEC,true,89;IS_MOTIVATION_1_DEC,false,31;B_RANDOM_WALK,7#
P_MOTIVATION_2_LT,true;P_HAS_OBJECT,true;*:*:B_ANTI_PHOTOTAXIS,61;IS_MOTIVATION_2_INC,false,34#*:*:IS_WANT_OBJECT,true,95;IS_DROP_OBJECT,true,3;IS_MOTIVATION_2_DEC,true,89;IS_MOTIVATION_1_DEC,false,31;B_RANDOM_WALK,7#
P_MOTIVATION_2_LT,true;P_HAS_OBJECT,true;*:*:B_ANTI_PHOTOTAXIS,61;IS_MOTIVATION_2_INC,false,34#*:*:IS_WANT_OBJECT,true,95;IS_DROP_OBJECT,true,3;IS_MOTIVATION_2_DEC,true,89;IS_MOTIVATION_1_DEC,false,31;B_RANDOM_WALK,7#
P_MOTIVATION_2_LT,true;P_HAS_OBJECT,true;*:*:B_ANTI_PHOTOTAXIS,61;IS_MOTIVATION_2_INC,false,34#*:*:IS_WANT_OBJECT,true,95;IS_DROP_OBJECT,true,3;IS_MOTIVATION_2_DEC,true,89;IS_MOTIVATION_1_DEC,false,31;B_RANDOM_WALK,7#
P_MOTIVATION_2_LT,true;P_HAS_OBJECT,true;*:*:B_ANTI_PHOTOTAXIS,61;IS_MOTIVATION_2_INC,false,34#*:*:IS_WANT_OBJECT,true,95;IS_DROP_OBJECT,true,3;IS_MOTIVATION_2_DEC,true,89;IS_MOTIVATION_1_DEC,false,31;B_RANDOM_WALK,7#
P_MOTIVATION_2_LT,true;P_HAS_OBJECT,true;*:*:B_ANTI_PHOTOTAXIS,61;IS_MOTIVATION_2_INC,false,34#*:*:IS_WANT_OBJECT,true,95;IS_DROP_OBJECT,true,3;IS_MOTIVATION_2_DEC,true,89;IS_MOTIVATION_1_DEC,false,31;B_RANDOM_WALK,7#
P_MOTIVATION_2_LT,true;P_HAS_OBJECT,true;*:*:B_ANTI_PHOTOTAXIS,61;IS_MOTIVATION_2_INC,false,34#*:*:IS_WANT_OBJECT,true,95;IS_DROP_OBJECT,true,3;IS_MOTIVATION_2_DEC,true,89;IS_MOTIVATION_1_DEC,false,31;B_RANDOM_WALK,7#
P_MOTIVATION_2_LT,true;P_HAS_OBJECT,true;*:*:B_ANTI_PHOTOTAXIS,61;IS_MOTIVATION_2_INC,false,34#*:*:IS_WANT_OBJECT,true,95;IS_DROP_OBJECT,true,3;IS_MOTIVATION_2_DEC,true,89;IS_MOTIVATION_1_DEC,false,31;B_RANDOM_WALK,7#
P_MOTIVATION_2_LT,true;P_HAS_OBJECT,true;*:*:B_ANTI_PHOTOTAXIS,61;IS_MOTIVATION_2_INC,false,34#*:*:IS_WANT_OBJECT,true,95;IS_DROP_OBJECT,true,3;IS_MOTIVATION_2_DEC,true,89;IS_MOTIVATION_1_DEC,false,31;B_RANDOM_WALK,7#
P_MOTIVATION_2_LT,true;P_HAS_OBJECT,true;*:*:B_ANTI_PHOTOTAXIS,61;IS_MOTIVATION_2_INC,false,34#*:*:IS_WANT_OBJECT,true,95;IS_DROP_OBJECT,true,3;IS_MOTIVATION_2_DEC,true,89;IS_MOTIVATION_1_DEC,false,31;B_RANDOM_WALK,7#
P_MOTIVATION_2_LT,true;P_HAS_OBJECT,true;*:*:B_ANTI_PHOTOTAXIS,61;IS_MOTIVATION_2_INC,false,34#*:*:IS_WANT_OBJECT,true,95;IS_DROP_OBJECT,true,3;IS_MOTIVATION_2_DEC,true,89;IS_MOTIVATION_1_DEC,false,31;B_RANDOM_WALK,7#
P_MOTIVATION_2_LT,true;P_HAS_OBJECT,true;*:*:B_ANTI_PHOTOTAXIS,61;IS_MOTIVATION_2_INC,false,34#*:*:IS_WANT_OBJECT,true,95;IS_DROP_OBJECT,true,3;IS_MOTIVATION_2_DEC,true,89;IS_MOTIVATION_1_DEC,false,31;B_RANDOM_WALK,7#
P_MOTIVATION_2_LT,true;P_HAS_OBJECT,true;*:*:B_ANTI_PHOTOTAXIS,61;IS_MOTIVATION_2_INC,false,34#*:*:IS_WANT_OBJECT,true,95;IS_DROP_OBJECT,true,3;IS_MOTIVATION_2_DEC,true,89;IS_MOTIVATION_1_DEC,false,31;B_RANDOM_WALK,7#
P_MOTIVATION_2_LT,true;P_HAS_OBJECT,true;*:*:B_ANTI_PHOTOTAXIS,61;IS_MOTIVATION_2_INC,false,34#*:*:IS_WANT_OBJECT,true,95;IS_DROP_OBJECT,true,3;IS_MOTIVATION_2_DEC,true,89;IS_MOTIVATION_1_DEC,false,31;B_RANDOM_WALK,7#
P_MOTIVATION_2_LT,true;P_HAS_OBJECT,true;*:*:B_ANTI_PHOTOTAXIS,61;IS_MOTIVATION_2_INC,false,34#*:*:IS_WANT_OBJECT,true,95;IS_DROP_OBJECT,true,3;IS_MOTIVATION_2_DEC,true,89;IS_MOTIVATION_1_DEC,false,31;B_RANDOM_WALK,7#
P_MOTIVATION_2_LT,true;P_HAS_OBJECT,true;*:*:B_ANTI_PHOTOTAXIS,61;IS_MOTIVATION_2_INC,false,34#*:*:IS_WANT_OBJECT,true,95;IS_DROP_OBJECT,true,3;IS_MOTIVATION_2_DEC,true,89;IS_MOTIVATION_1_DEC,false,31;B_RANDOM_WALK,7#
P_MOTIVATION_2_LT,true;P_HAS_OBJECT,true;*:*:B_ANTI_PHOTOTAXIS,61;IS_MOTIVATION_2_INC,false,34#*:*:IS_WANT_OBJECT,true,95;IS_DROP_OBJECT,true,3;IS_MOTIVATION_2_DEC,true,89;IS_MOTIVATION_1_DEC,false,31;B_RANDOM_WALK,7#
P_MOTIVATION_2_LT,true;P_HAS_OBJECT,true;*:*:B_ANTI_PHOTOTAXIS,61;IS_MOTIVATION_2_INC,false,34#*:*:IS_WANT_OBJECT,true,95;IS_DROP_OBJECT,true,3;IS_MOTIVATION_2_DEC,true,89;IS_MOTIVATION_1_DEC,false,31;B_RANDOM_WALK,7#
P_MOTIVATION_2_LT,true;P_HAS_OBJECT,true;*:*:B_ANTI_PHOTOTAXIS,61;IS_MOTIVATION_2_INC,false,34#*:*:IS_WANT_OBJECT,true,95;IS_DROP_OBJECT,true,3;IS_MOTIVATION_2_DEC,true,89;IS_MOTIVATION_1_DEC,false,31;B_RANDOM_WALK,7#
P_MOTIVATION_2_LT,true;P_HAS_OBJECT,true;*:*:B_ANTI_PHOTOTAXIS,61;IS_MOTIVATION_2_INC,false,34#*:*:IS_WANT_OBJECT,true,95;IS_DROP_OBJECT,true,3;IS_MOTIVATION_2_DEC,true,89;IS_MOTIVATION_1_DEC,false,31;B_RANDOM_WALK,7#
P_MOTIVATION_2_LT,true;P_HAS_OBJECT,true;*:*:B_ANTI_PHOTOTAXIS,61;IS_MOTIVATION_2_INC,false,34#*:*:IS_WANT_OBJECT,true,95;IS_DROP_OBJECT,true,3;IS_MOTIVATION_2_DEC,true,89;IS_MOTIVATION_1_DEC,false,31;B_RANDOM_WALK,7#
P_MOTIVATION_2_LT,true;P_HAS_OBJECT,true;*:*:B_ANTI_PHOTOTAXIS,61;IS_MOTIVATION_2_INC,false,34#*:*:IS_WANT_OBJECT,true,95;IS_DROP_OBJECT,true,3;IS_MOTIVATION_2_DEC,true,89;IS_MOTIVATION_1_DEC,false,31;B_RANDOM_WALK,7#
P_MOTIVATION_2_LT,true;P_HAS_OBJECT,true;*:*:B_ANTI_PHOTOTAXIS,61;IS_MOTIVATION_2_INC,false,34#*:*:IS_WANT_OBJECT,true,95;IS_DROP_OBJECT,true,3;IS_MOTIVATION_2_DEC,true,89;IS_MOTIVATION_1_DEC,false,31;B_RANDOM_WALK,7#
P_MOTIVATION_2_LT,true;P_HAS_OBJECT,true;*:*:B_ANTI_PHOTOTAXIS,61;IS_MOTIVATION_2_INC,false,34#*:*:IS_WANT_OBJECT,true,95;IS_DROP_OBJECT,true,3;IS_MOTIVATION_2_DEC,true,89;IS_MOTIVATION_1_DEC,false,31;B_RANDOM_WALK,7#
P_MOTIVATION_2_LT,true;P_HAS_OBJECT,true;*:*:B_ANTI_PHOTOTAXIS,61;IS_MOTIVATION_2_INC,false,34#*:*:IS_WANT_OBJECT,true,95;IS_DROP_OBJECT,true,3;IS_MOTIVATION_2_DEC,true,89;IS_MOTIVATION_1_DEC,false,31;B_RANDOM_WALK,7#
P_MOTIVATION_2_LT,true;P_HAS_OBJECT,true;*:*:B_ANTI_PHOTOTAXIS,61;IS_MOTIVATION_2_INC,false,34#*:*:IS_WANT_OBJECT,true,95;IS_DROP_OBJECT,true,3;IS_MOTIVATION_2_DEC,true,89;IS_MOTIVATION_1_DEC,false,31;B_RANDOM_WALK,7#
P_MOTIVATION_2_LT,true;P_HAS_OBJECT,true;*:*:B_ANTI_PHOTOTAXIS,61;IS_MOTIVATION_2_INC,false,34#*:*:IS_WANT_OBJECT,true,95;IS_DROP_OBJECT,true,3;IS_MOTIVATION_2_DEC,true,89;IS_MOTIVATION_1_DEC,false,31;B_RANDOM_WALK,7#
P_MOTIVATION_2_LT,true;P_HAS_OBJECT,true;*:*:B_ANTI_PHOTOTAXIS,61;IS_MOTIVATION_2_INC,false,34#*:*:IS_WANT_OBJECT,true,95;IS_DROP_OBJECT,true,3;IS_MOTIVATION_2_DEC,true,89;IS_MOTIVATION_1_DEC,false,31;B_RANDOM_WALK,7#
P_MOTIVATION_2_LT,true;P_HAS_OBJECT,true;*:*:B_ANTI_PHOTOTAXIS,61;IS_MOTIVATION_2_INC,false,34#*:*:IS_WANT_OBJECT,true,95;IS_DROP_OBJECT,true,3;IS_MOTIVATION_2_DEC,true,89;IS_MOTIVATION_1_DEC,false,31;B_RANDOM_WALK,7#
P_MOTIVATION_2_LT,true;P_HAS_OBJECT,true;*:*:B_ANTI_PHOTOTAXIS,61;IS_MOTIVATION_2_INC,false,34#*:*:IS_WANT_OBJECT,true,95;IS_DROP_OBJECT,true,3;IS_MOTIVATION_2_DEC,true,89;IS_MOTIVATION_1_DEC,false,31;B_RANDOM_WALK,7#
P_MOTIVATION_2_LT,true;P_HAS_OBJECT,true;*:*:B_ANTI_PHOTOTAXIS,61;IS_MOTIVATION_2_INC,false,34#*:*:IS_WANT_OBJECT,true,95;IS_DROP_OBJECT,true,3;IS_MOTIVATION_2_DEC,true,89;IS_MOTIVATION_1_DEC,false,31;B_RANDOM_WALK,7#
P_MOTIVATION_2_LT,true;P_HAS_OBJECT,true;*:*:B_ANTI_PHOTOTAXIS,61;IS_MOTIVATION_2_INC,false,34#*:*:IS_WANT_OBJECT,true,95;IS_DROP_OBJECT,true,3;IS_MOTIVATION_2_DEC,true,89;IS_MOTIVATION_1_DEC,false,31;B_RANDOM_WALK,7#
P_MOTIVATION_2_LT,true;P_HAS_OBJECT,true;*:*:B_ANTI_PHOTOTAXIS,61;IS_MOTIVATION_2_INC,false,34#*:*:IS_WANT_OBJECT,true,95;IS_DROP_OBJECT,true,3;IS_MOTIVATION_2_DEC,true,89;IS_MOTIVATION_1_DEC,false,31;B_RANDOM_WALK,7#
P_MOTIVATION_2_LT,true;P_HAS_OBJECT,true;*:*:B_ANTI_PHOTOTAXIS,61;IS_MOTIVATION_2_INC,false,34#*:*:IS_WANT_OBJECT,true,95;IS_DROP_OBJECT,true,3;IS_MOTIVATION_2_DEC,true,89;IS_MOTIVATION_1_DEC,false,31;B_RANDOM_WALK,7#
P_MOTIVATION_2_LT,true;P_HAS_OBJECT,true;*:*:B_ANTI_PHOTOTAXIS,61;IS_MOTIVATION_2_INC,false,34#*:*:IS_WANT_OBJECT,true,95;IS_DROP_OBJECT,true,3;IS_MOTIVATION_2_DEC,true,89;IS_MOTIVATION_1_DEC,false,31;B_RANDOM_WALK,7#
P_MOTIVATION_2_LT,true;P_HAS_OBJECT,true;*:*:B_ANTI_PHOTOTAXIS,61;IS_MOTIVATION_2_INC,false,34#*:*:IS_WANT_OBJECT,true,95;IS_DROP_OBJECT,true,3;IS_MOTIVATION_2_DEC,true,89;IS_MOTIVATION_1_DEC,false,31;B_RANDOM_WALK,7#
P_MOTIVATION_2_LT,true;P_HAS_OBJECT,true;*:*:B_ANTI_PHOTOTAXIS,61;IS_MOTIVATION_2_INC,false,34#*:*:IS_WANT_OBJECT,true,95;IS_DROP_OBJECT,true,3;IS_MOTIVATION_2_DEC,true,89;IS_MOTIVATION_1_DEC,false,31;B_RANDOM_WALK,7#
P_MOTIVATION_2_LT,true;P_HAS_OBJECT,true;*:*:B_ANTI_PHOTOTAXIS,61;IS_MOTIVATION_2_INC,false,34#*:*:IS_WANT_OBJECT,true,95;IS_DROP_OBJECT,true,3;IS_MOTIVATION_2_DEC,true,89;IS_MOTIVATION_1_DEC,false,31;B_RANDOM_WALK,7#
P_MOTIVATION_2_LT,true;P_HAS_OBJECT,true;*:*:B_ANTI_PHOTOTAXIS,61;IS_MOTIVATION_2_INC,false,34#*:*:IS_WANT_OBJECT,true,95;IS_DROP_OBJECT,true,3;IS_MOTIVATION_2_DEC,true,89;IS_MOTIVATION_1_DEC,false,31;B_RANDOM_WALK,7#
P_MOTIVATION_2_LT,true;P_HAS_OBJECT,true;*:*:B_ANTI_PHOTOTAXIS,61;IS_MOTIVATION_2_INC,false,34#*:*:IS_WANT_OBJECT,true,95;IS_DROP_OBJECT,true,3;IS_MOTIVATION_2_DEC,true,89;IS_MOTIVATION_1_DEC,false,31;B_RANDOM_WALK,7#
P_MOTIVATION_2_LT,true;P_HAS_OBJECT,true;*:*:B_ANTI_PHOTOTAXIS,61;IS_MOTIVATION_2_INC,false,34#*:*:IS_WANT_OBJECT,true,95;IS_DROP_OBJECT,true,3;IS_MOTIVATION_2_DEC,true,89;IS_MOTIVATION_1_DEC,false,31;B_RANDOM_WALK,7#
P_MOTIVATION_2_LT,true;P_HAS_OBJECT,true;*:*:B_ANTI_PHOTOTAXIS,61;IS_MOTIVATION_2_INC,false,34#*:*:IS_WANT_OBJECT,true,95;IS_DROP_OBJECT,true,3;IS_MOTIVATION_2_DEC,true,89;IS_MOTIVATION_1_DEC,false,31;B_RANDOM_WALK,7#
P_MOTIVATION_2_LT,true;P_HAS_OBJECT,true;*:*:B_ANTI_PHOTOTAXIS,61;IS_MOTIVATION_2_INC,false,34#*:*:IS_WANT_OBJECT,true,95;IS_DROP_OBJECT,true,3;IS_MOTIVATION_2_DEC,true,89;IS_MOTIVATION_1_DEC,false,31;B_RANDOM_WALK,7#
P_MOTIVATION_2_LT,true;P_HAS_OBJECT,true;*:*:B_ANTI_PHOTOTAXIS,61;IS_MOTIVATION_2_INC,false,34#*:*:IS_WANT_OBJECT,true,95;IS_DROP_OBJECT,true,3;IS_MOTIVATION_2_DEC,true,89;IS_MOTIVATION_1_DEC,false,31;B_RANDOM_WALK,7#
P_MOTIVATION_2_LT,true;P_HAS_OBJECT,true;*:*:B_ANTI_PHOTOTAXIS,61;IS_MOTIVATION_2_INC,false,34#*:*:IS_WANT_OBJECT,true,95;IS_DROP_OBJECT,true,3;IS_MOTIVATION_2_DEC,true,89;IS_MOTIVATION_1_DEC,false,31;B_RANDOM_WALK,7#
P_MOTIVATION_2_LT,true;P_HAS_OBJECT,true;*:*:B_ANTI_PHOTOTAXIS,61;IS_MOTIVATION_2_INC,false,34#*:*:IS_WANT_OBJECT,true,95;IS_DROP_OBJECT,true,3;IS_MOTIVATION_2_DEC,true,89;IS_MOTIVATION_1_DEC,false,31;B_RANDOM_WALK,7#
P_MOTIVATION_2_LT,true;P_HAS_OBJECT,true;*:*:B_ANTI_PHOTOTAXIS,61;IS_MOTIVATION_2_INC,false,34#*:*:IS_WANT_OBJECT,true,95;IS_DROP_OBJECT,true,3;IS_MOTIVATION_2_DEC,true,89;IS_MOTIVATION_1_DEC,false,31;B_RANDOM_WALK,7#
P_MOTIVATION_2_LT,true;P_HAS_OBJECT,true;*:*:B_ANTI_PHOTOTAXIS,61;IS_MOTIVATION_2_INC,false,34#*:*:IS_WANT_OBJECT,true,95;IS_DROP_OBJECT,true,3;IS_MOTIVATION_2_DEC,true,89;IS_MOTIVATION_1_DEC,false,31;B_RANDOM_WALK,7#
P_MOTIVATION_2_LT,true;P_HAS_OBJECT,true;*:*:B_ANTI_PHOTOTAXIS,61;IS_MOTIVATION_2_INC,false,34#*:*:IS_WANT_OBJECT,true,95;IS_DROP_OBJECT,true,3;IS_MOTIVATION_2_DEC,true,89;IS_MOTIVATION_1_DEC,false,31;B_RANDOM_WALK,7#
P_MOTIVATION_2_LT,true;P_HAS_OBJECT,true;*:*:B_ANTI_PHOTOTAXIS,61;IS_MOTIVATION_2_INC,false,34#*:*:IS_WANT_OBJECT,true,95;IS_DROP_OBJECT,true,3;IS_MOTIVATION_2_DEC,true,89;IS_MOTIVATION_1_DEC,false,31;B_RANDOM_WALK,7#
P_MOTIVATION_2_LT,true;P_HAS_OBJECT,true;*:*:B_ANTI_PHOTOTAXIS,61;IS_MOTIVATION_2_INC,false,34#*:*:IS_WANT_OBJECT,true,95;IS_DROP_OBJECT,true,3;IS_MOTIVATION_2_DEC,true,89;IS_MOTIVATION_1_DEC,false,31;B_RANDOM_WALK,7#
P_MOTIVATION_2_LT,true;P_HAS_OBJECT,true;*:*:B_ANTI_PHOTOTAXIS,61;IS_MOTIVATION_2_INC,false,34#*:*:IS_WANT_OBJECT,true,95;IS_DROP_OBJECT,true,3;IS_MOTIVATION_2_DEC,true,89;IS_MOTIVATION_1_DEC,false,31;B_RANDOM_WALK,7#
P_MOTIVATION_2_LT,true;P_HAS_OBJECT,true;*:*:B_ANTI_PHOTOTAXIS,61;IS_MOTIVATION_2_INC,false,34#*:*:IS_WANT_OBJECT,true,95;IS_DROP_OBJECT,true,3;IS_MOTIVATION_2_DEC,true,89;IS_MOTIVATION_1_DEC,false,31;B_RANDOM_WALK,7#
P_MOTIVATION_2_LT,true;P_HAS_OBJECT,true;*:*:B_ANTI_PHOTOTAXIS,61;IS_MOTIVATION_2_INC,false,34#*:*:IS_WANT_OBJECT,true,95;IS_DROP_OBJECT,true,3;IS_MOTIVATION_2_DEC,true,89;IS_MOTIVATION_1_DEC,false,31;B_RANDOM_WALK,7#
P_MOTIVATION_2_LT,true;P_HAS_OBJECT,true;*:*:B_ANTI_PHOTOTAXIS,61;IS_MOTIVATION_2_INC,false,34#*:*:IS_WANT_OBJECT,true,95;IS_DROP_OBJECT,true,3;IS_MOTIVATION_2_DEC,true,89;IS_MOTIVATION_1_DEC,false,31;B_RANDOM_WALK,7#
P_MOTIVATION_2_LT,true;P_HAS_OBJECT,true;*:*:B_ANTI_PHOTOTAXIS,61;IS_MOTIVATION_2_INC,false,34#*:*:IS_WANT_OBJECT,true,95;IS_DROP_OBJECT,true,3;IS_MOTIVATION_2_DEC,true,89;IS_MOTIVATION_1_DEC,false,31;B_RANDOM_WALK,7#
P_MOTIVATION_2_LT,true;P_HAS_OBJECT,true;*:*:B_ANTI_PHOTOTAXIS,61;IS_MOTIVATION_2_INC,false,34#*:*:IS_WANT_OBJECT,true,95;IS_DROP_OBJECT,true,3;IS_MOTIVATION_2_DEC,true,89;IS_MOTIVATION_1_DEC,false,31;B_RANDOM_WALK,7#
P_MOTIVATION_2_LT,true;P_HAS_OBJECT,true;*:*:B_ANTI_PHOTOTAXIS,61;IS_MOTIVATION_2_INC,false,34#*:*:IS_WANT_OBJECT,true,95;IS_DROP_OBJECT,true,3;IS_MOTIVATION_2_DEC,true,89;IS_MOTIVATION_1_DEC,false,31;B_RANDOM_WALK,7#
P_MOTIVATION_2_LT,true;P_HAS_OBJECT,true;*:*:B_ANTI_PHOTOTAXIS,61;IS_MOTIVATION_2_INC,false,34#*:*:IS_WANT_OBJECT,true,95;IS_DROP_OBJECT,true,3;IS_MOTIVATION_2_DEC,true,89;IS_MOTIVATION_1_DEC,false,31;B_RANDOM_WALK,7#
P_MOTIVATION_2_LT,true;P_HAS_OBJECT,true;*:*:B_ANTI_PHOTOTAXIS,61;IS_MOTIVATION_2_INC,false,34#*:*:IS_WANT_OBJECT,true,95;IS_DROP_OBJECT,true,3;IS_MOTIVATION_2_DEC,true,89;IS_MOTIVATION_1_DEC,false,31;B_RANDOM_WALK,7#
P_MOTIVATION_2_LT,true;P_HAS_OBJECT,true;*:*:B_ANTI_PHOTOTAXIS,61;IS_MOTIVATION_2_INC,false,34#*:*:IS_WANT_OBJECT,true,95;IS_DROP_OBJECT,true,3;IS_MOTIVATION_2_DEC,true,89;IS_MOTIVATION_1_DEC,false,31;B_RANDOM_WALK,7#
P_MOTIVATION_2_LT,true;P_HAS_OBJECT,true;*:*:B_ANTI_PHOTOTAXIS,61;IS_MOTIVATION_2_INC,false,34#*:*:IS_WANT_OBJECT,true,95;IS_DROP_OBJECT,true,3;IS_MOTIVATION_2_DEC,true,89;IS_MOTIVATION_1_DEC,false,31;B_RANDOM_WALK,7#
P_MOTIVATION_2_LT,true;P_HAS_OBJECT,true;*:*:B_ANTI_PHOTOTAXIS,61;IS_MOTIVATION_2_INC,false,34#*:*:IS_WANT_OBJECT,true,95;IS_DROP_OBJECT,true,3;IS_MOTIVATION_2_DEC,true,89;IS_MOTIVATION_1_DEC,false,31;B_RANDOM_WALK,7#
P_MOTIVATION_2_LT,true;P_HAS_OBJECT,true;*:*:B_ANTI_PHOTOTAXIS,61;IS_MOTIVATION_2_INC,false,34#*:*:IS_WANT_OBJECT,true,95;IS_DROP_OBJECT,true,3;IS_MOTIVATION_2_DEC,true,89;IS_MOTIVATION_1_DEC,false,31;B_RANDOM_WALK,7#
P_MOTIVATION_2_LT,true;P_HAS_OBJECT,true;*:*:B_ANTI_PHOTOTAXIS,61;IS_MOTIVATION_2_INC,false,34#*:*:IS_WANT_OBJECT,true,95;IS_DROP_OBJECT,true,3;IS_MOTIVATION_2_DEC,true,89;IS_MOTIVATION_1_DEC,false,31;B_RANDOM_WALK,7#
P_MOTIVATION_2_LT,true;P_HAS_OBJECT,true;*:*:B_ANTI_PHOTOTAXIS,61;IS_MOTIVATION_2_INC,false,34#*:*:IS_WANT_OBJECT,true,95;IS_DROP_OBJECT,true,3;IS_MOTIVATION_2_DEC,true,89;IS_MOTIVATION_1_DEC,false,31;B_RANDOM_WALK,7#
P_MOTIVATION_2_LT,true;P_HAS_OBJECT,true;*:*:B_ANTI_PHOTOTAXIS,61;IS_MOTIVATION_2_INC,false,34#*:*:IS_WANT_OBJECT,true,95;IS_DROP_OBJECT,true,3;IS_MOTIVATION_2_DEC,true,89;IS_MOTIVATION_1_DEC,false,31;B_RANDOM_WALK,7#
P_MOTIVATION_2_LT,true;P_HAS_OBJECT,true;*:*:B_ANTI_PHOTOTAXIS,61;IS_MOTIVATION_2_INC,false,34#*:*:IS_WANT_OBJECT,true,95;IS_DROP_OBJECT,true,3;IS_MOTIVATION_2_DEC,true,89;IS_MOTIVATION_1_DEC,false,31;B_RANDOM_WALK,7#
P_MOTIVATION_2_LT,true;P_HAS_OBJECT,true;*:*:B_ANTI_PHOTOTAXIS,61;IS_MOTIVATION_2_INC,false,34#*:*:IS_WANT_OBJECT,true,95;IS_DROP_OBJECT,true,3;IS_MOTIVATION_2_DEC,true,89;IS_MOTIVATION_1_DEC,false,31;B_RANDOM_WALK,7#
P_MOTIVATION_2_LT,true;P_HAS_OBJECT,true;*:*:B_ANTI_PHOTOTAXIS,61;IS_MOTIVATION_2_INC,false,34#*:*:IS_WANT_OBJECT,true,95;IS_DROP_OBJECT,true,3;IS_MOTIVATION_2_DEC,true,89;IS_MOTIVATION_1_DEC,false,31;B_RANDOM_WALK,7#
P_MOTIVATION_2_LT,true;P_HAS_OBJECT,true;*:*:B_ANTI_PHOTOTAXIS,61;IS_MOTIVATION_2_INC,false,34#*:*:IS_WANT_OBJECT,true,95;IS_DROP_OBJECT,true,3;IS_MOTIVATION_2_DEC,true,89;IS_MOTIVATION_1_DEC,false,31;B_RANDOM_WALK,7#
P_MOTIVATION_2_LT,true;P_HAS_OBJECT,true;*:*:B_ANTI_PHOTOTAXIS,61;IS_MOTIVATION_2_INC,false,34#*:*:IS_WANT_OBJECT,true,95;IS_DROP_OBJECT,true,3;IS_MOTIVATION_2_DEC,true,89;IS_MOTIVATION_1_DEC,false,31;B_RANDOM_WALK,7#
P_MOTIVATION_2_LT,true;P_HAS_OBJECT,true;*:*:B_ANTI_PHOTOTAXIS,61;IS_MOTIVATION_2_INC,false,34#*:*:IS_WANT_OBJECT,true,95;IS_DROP_OBJECT,true,3;IS_MOTIVATION_2_DEC,true,89;IS_MOTIVATION_1_DEC,false,31;B_RANDOM_WALK,7#
P_MOTIVATION_2_LT,true;P_HAS_OBJECT,true;*:*:B_ANTI_PHOTOTAXIS,61;IS_MOTIVATION_2_INC,false,34#*:*:IS_WANT_OBJECT,true,95;IS_DROP_OBJECT,true,3;IS_MOTIVATION_2_DEC,true,89;IS_MOTIVATION_1_DEC,false,31;B_RANDOM_WALK,7#
P_MOTIVATION_2_LT,true;P_HAS_OBJECT,true;*:*:B_ANTI_PHOTOTAXIS,61;IS_MOTIVATION_2_INC,false,34#*:*:IS_WANT_OBJECT,true,95;IS_DROP_OBJECT,true,3;IS_MOTIVATION_2_DEC,true,89;IS_MOTIVATION_1_DEC,false,31;B_RANDOM_WALK,7#
P_MOTIVATION_2_LT,true;P_HAS_OBJECT,true;*:*:B_ANTI_PHOTOTAXIS,61;IS_MOTIVATION_2_INC,false,34#*:*:IS_WANT_OBJECT,true,95;IS_DROP_OBJECT,true,3;IS_MOTIVATION_2_DEC,true,89;IS_MOTIVATION_1_DEC,false,31;B_RANDOM_WALK,7#
P_MOTIVATION_2_LT,true;P_HAS_OBJECT,true;*:*:B_ANTI_PHOTOTAXIS,61;IS_MOTIVATION_2_INC,false,34#*:*:IS_WANT_OBJECT,true,95;IS_DROP_OBJECT,true,3;IS_MOTIVATION_2_DEC,true,89;IS_MOTIVATION_1_DEC,false,31;B_RANDOM_WALK,7#
P_MOTIVATION_2_LT,true;P_HAS_OBJECT,true;*:*:B_ANTI_PHOTOTAXIS,61;IS_MOTIVATION_2_INC,false,34#*:*:IS_WANT_OBJECT,true,95;IS_DROP_OBJECT,true,3;IS_MOTIVATION_2_DEC,true,89;IS_MOTIVATION_1_DEC,false,31;B_RANDOM_WALK,7#
P_MOTIVATION_2_LT,true;P_HAS_OBJECT,true;*:*:B_ANTI_PHOTOTAXIS,61;IS_MOTIVATION_2_INC,false,34#*:*:IS_WANT_OBJECT,true,95;IS_DROP_OBJECT,true,3;IS_MOTIVATION_2_DEC,true,89;IS_MOTIVATION_1_DEC,false,31;B_RANDOM_WALK,7#
P_MOTIVATION_2_LT,true;P_HAS_OBJECT,true;*:*:B_ANTI_PHOTOTAXIS,61;IS_MOTIVATION_2_INC,false,34#*:*:IS_WANT_OBJECT,true,95;IS_DROP_OBJECT,true,3;IS_MOTIVATION_2_DEC,true,89;IS_MOTIVATION_1_DEC,false,31;B_RANDOM_WALK,7#
P_MOTIVATION_2_LT,true;P_HAS_OBJECT,true;*:*:B_ANTI_PHOTOTAXIS,61;IS_MOTIVATION_2_INC,false,34#*:*:IS_WANT_OBJECT,true,95;IS_DROP_OBJECT,true,3;IS_MOTIVATION_2_DEC,true,89;IS_MOTIVATION_1_DEC,false,31;B_RANDOM_WALK,7#
P_MOTIVATION_2_LT,true;P_HAS_OBJECT,true;*:*:B_ANTI_PHOTOTAXIS,61;IS_MOTIVATION_2_INC,false,34#*:*:IS_WANT_OBJECT,true,95;IS_DROP_OBJECT,true,3;IS_MOTIVATION_2_DEC,true,89;IS_MOTIVATION_1_DEC,false,31;B_RANDOM_WALK,7#
P_MOTIVATION_2_LT,true;P_HAS_OBJECT,true;*:*:B_ANTI_PHOTOTAXIS,61;IS_MOTIVATION_2_INC,false,34#*:*:IS_WANT_OBJECT,true,95;IS_DROP_OBJECT,true,3;IS_MOTIVATION_2_DEC,true,89;IS_MOTIVATION_1_DEC,false,31;B_RANDOM_WALK,7#
P_MOTIVATION_2_LT,true;P_HAS_OBJECT,true;*:*:B_ANTI_PHOTOTAXIS,61;IS_MOTIVATION_2_INC,false,34#*:*:IS_WANT_OBJECT,true,95;IS_DROP_OBJECT,true,3;IS_MOTIVATION_2_DEC,true,89;IS_MOTIVATION_1_DEC,false,31;B_RANDOM_WALK,7#
P_MOTIVATION_2_LT,true;P_HAS_OBJECT,true;*:*:B_ANTI_PHOTOTAXIS,61;IS_MOTIVATION_2_INC,false,34#*:*:IS_WANT_OBJECT,true,95;IS_DROP_OBJECT,true,3;IS_MOTIVATION_2_DEC,true,89;IS_MOTIVATION_1_DEC,false,31;B_RANDOM_WALK,7#
P_MOTIVATION_2_LT,true;P_HAS_OBJECT,true;*:*:B_ANTI_PHOTOTAXIS,61;IS_MOTIVATION_2_INC,false,34#*:*:IS_WANT_OBJECT,true,95;IS_DROP_OBJECT,true,3;IS_MOTIVATION_2_DEC,true,89;IS_MOTIVATION_1_DEC,false,31;B_RANDOM_WALK,7#
P_MOTIVATION_2_LT,true;P_HAS_OBJECT,true;*:*:B_ANTI_PHOTOTAXIS,61;IS_MOTIVATION_2_INC,false,34#*:*:IS_WANT_OBJECT,true,95;IS_DROP_OBJECT,true,3;IS_MOTIVATION_2_DEC,true,89;IS_MOTIVATION_1_DEC,false,31;B_RANDOM_WALK,7#
P_MOTIVATION_2_LT,true;P_HAS_OBJECT,true;*:*:B_ANTI_PHOTOTAXIS,61;IS_MOTIVATION_2_INC,false,34#*:*:IS_WANT_OBJECT,true,95;IS_DROP_OBJECT,true,3;IS_MOTIVATION_2_DEC,true,89;IS_MOTIVATION_1_DEC,false,31;B_RANDOM_WALK,7#
P_MOTIVATION_2_LT,true;P_HAS_OBJECT,true;*:*:B_ANTI_PHOTOTAXIS,61;IS_MOTIVATION_2_INC,false,34#*:*:IS_WANT_OBJECT,true,95;IS_DROP_OBJECT,true,3;IS_MOTIVATION_2_DEC,true,89;IS_MOTIVATION_1_DEC,false,31;B_RANDOM_WALK,7#
P_MOTIVATION_2_LT,true;P_HAS_OBJECT,true;*:*:B_ANTI_PHOTOTAXIS,61;IS_MOTIVATION_2_INC,false,34#*:*:IS_WANT_OBJECT,true,95;IS_DROP_OBJECT,true,3;IS_MOTIVATION_2_DEC,true,89;IS_MOTIVATION_1_DEC,false,31;B_RANDOM_WALK,7#
P_MOTIVATION_2_LT,true;P_HAS_OBJECT,true;*:*:B_ANTI_PHOTOTAXIS,61;IS_MOTIVATION_2_INC,false,34#*:*:IS_WANT_OBJECT,true,95;IS_DROP_OBJECT,true,3;IS_MOTIVATION_2_DEC,true,89;IS_MOTIVATION_1_DEC,false,31;B_RANDOM_WALK,7#
P_MOTIVATION_2_LT,true;P_HAS_OBJECT,true;*:*:B_ANTI_PHOTOTAXIS,61;IS_MOTIVATION_2_INC,false,34#*:*:IS_WANT_OBJECT,true,95;IS_DROP_OBJECT,true,3;IS_MOTIVATION_2_DEC,true,89;IS_MOTIVATION_1_DEC,false,31;B_RANDOM_WALK,7#
P_MOTIVATION_2_LT,true;P_HAS_OBJECT,true;*:*:B_ANTI_PHOTOTAXIS,61;IS_MOTIVATION_2_INC,false,34#*:*:IS_WANT_OBJECT,true,95;IS_DROP_OBJECT,true,3;IS_MOTIVATION_2_DEC,true,89;IS_MOTIVATION_1_DEC,false,31;B_RANDOM_WALK,7#
P_MOTIVATION_2_LT,true;P_HAS_OBJECT,true;*:*:B_ANTI_PHOTOTAXIS,61;IS_MOTIVATION_2_INC,false,34#*:*:IS_WANT_OBJECT,true,95;IS_DROP_OBJECT,true,3;IS_MOTIVATION_2_DEC,true,89;IS_MOTIVATION_1_DEC,false,31;B_RANDOM_WALK,7#
P_MOTIVATION_2_LT,true;P_HAS_OBJECT,true;*:*:B_ANTI_PHOTOTAXIS,61;IS_MOTIVATION_2_INC,false,34#*:*:IS_WANT_OBJECT,true,95;IS_DROP_OBJECT,true,3;IS_MOTIVATION_2_DEC,true,89;IS_MOTIVATION_1_DEC,false,31;B_RANDOM_WALK,7#
P_MOTIVATION_2_LT,true;P_HAS_OBJECT,true;*:*:B_ANTI_PHOTOTAXIS,61;IS_MOTIVATION_2_INC,false,34#*:*:IS_WANT_OBJECT,true,95;IS_DROP_OBJECT,true,3;IS_MOTIVATION_2_DEC,true,89;IS_MOTIVATION_1_DEC,false,31;B_RANDOM_WALK,7#
P_MOTIVATION_2_LT,true;P_HAS_OBJECT,true;*:*:B_ANTI_PHOTOTAXIS,61;IS_MOTIVATION_2_INC,false,34#*:*:IS_WANT_OBJECT,true,95;IS_DROP_OBJECT,true,3;IS_MOTIVATION_2_DEC,true,89;IS_MOTIVATION_1_DEC,false,31;B_RANDOM_WALK,7#
P_MOTIVATION_2_LT,true;P_HAS_OBJECT,true;*:*:B_ANTI_PHOTOTAXIS,61;IS_MOTIVATION_2_INC,false,34#*:*:IS_WANT_OBJECT,true,95;IS_DROP_OBJECT,true,3;IS_MOTIVATION_2_DEC,true,89;IS_MOTIVATION_1_DEC,false,31;B_RANDOM_WALK,7#
P_MOTIVATION_2_LT,true;P_HAS_OBJECT,true;*:*:B_ANTI_PHOTOTAXIS,61;IS_MOTIVATION_2_INC,false,34#*:*:IS_WANT_OBJECT,true,95;IS_DROP_OBJECT,true,3;IS_MOTIVATION_2_DEC,true,89;IS_MOTIVATION_1_DEC,false,31;B_RANDOM_WALK,7#
P_MOTIVATION_2_LT,true;P_HAS_OBJECT,true;*:*:B_ANTI_PHOTOTAXIS,61;IS_MOTIVATION_2_INC,false,34#*:*:IS_WANT_OBJECT,true,95;IS_DROP_OBJECT,true,3;IS_MOTIVATION_2_DEC,true,89;IS_MOTIVATION_1_DEC,false,31;B_RANDOM_WALK,7#
P_MOTIVATION_2_LT,true;P_HAS_OBJECT,true;*:*:B_ANTI_PHOTOTAXIS,61;IS_MOTIVATION_2_INC,false,34#*:*:IS_WANT_OBJECT,true,95;IS_DROP_OBJECT,true,3;IS_MOTIVATION_2_DEC,true,89;IS_MOTIVATION_1_DEC,false,31;B_RANDOM_WALK,7#
P_MOTIVATION_2_LT,true;P_HAS_OBJECT,true;*:*:B_ANTI_PHOTOTAXIS,61;IS_MOTIVATION_2_INC,false,34#*:*:IS_WANT_OBJECT,true,95;IS_DROP_OBJECT,true,3;IS_MOTIVATION_2_DEC,true,89;IS_MOTIVATION_1_DEC,false,31;B_RANDOM_WALK,7#
P_MOTIVATION_2_LT,true;P_HAS_OBJECT,true;*:*:B_ANTI_PHOTOTAXIS,61;IS_MOTIVATION_2_INC,false,34#*:*:IS_WANT_OBJECT,true,95;IS_DROP_OBJECT,true,3;IS_MOTIVATION_2_DEC,true,89;IS_MOTIVATION_1_DEC,false,31;B_RANDOM_WALK,7#
P_MOTIVATION_2_LT,true;P_HAS_OBJECT,true;*:*:B_ANTI_PHOTOTAXIS,61;IS_MOTIVATION_2_INC,false,34#*:*:IS_WANT_OBJECT,true,95;IS_DROP_OBJECT,true,3;IS_MOTIVATION_2_DEC,true,89;IS_MOTIVATION_1_DEC,false,31;B_RANDOM_WALK,7#
P_MOTIVATION_2_LT,true;P_HAS_OBJECT,true;*:*:B_ANTI_PHOTOTAXIS,61;IS_MOTIVATION_2_INC,false,34#*:*:IS_WANT_OBJECT,true,95;IS_DROP_OBJECT,true,3;IS_MOTIVATION_2_DEC,true,89;IS_MOTIVATION_1_DEC,false,31;B_RANDOM_WALK,7#
P_MOTIVATION_2_LT,true;P_HAS_OBJECT,true;*:*:B_ANTI_PHOTOTAXIS,61;IS_MOTIVATION_2_INC,false,34#*:*:IS_WANT_OBJECT,true,95;IS_DROP_OBJECT,true,3;IS_MOTIVATION_2_DEC,true,89;IS_MOTIVATION_1_DEC,false,31;B_RANDOM_WALK,7#
P_MOTIVATION_2_LT,true;P_HAS_OBJECT,true;*:*:B_ANTI_PHOTOTAXIS,61;IS_MOTIVATION_2_INC,false,34#*:*:IS_WANT_OBJECT,true,95;IS_DROP_OBJECT,true,3;IS_MOTIVATION_2_DEC,true,89;IS_MOTIVATION_1_DEC,false,31;B_RANDOM_WALK,7#
P_MOTIVATION_2_LT,true;P_HAS_OBJECT,true;*:*:B_ANTI_PHOTOTAXIS,61;IS_MOTIVATION_2_INC,false,34#*:*:IS_WANT_OBJECT,true,95;IS_DROP_OBJECT,true,3;IS_MOTIVATION_2_DEC,true,89;IS_MOTIVATION_1_DEC,false,31;B_RANDOM_WALK,7#
P_MOTIVATION_2_LT,true;P_HAS_OBJECT,true;*:*:B_ANTI_PHOTOTAXIS,61;IS_MOTIVATION_2_INC,false,34#*:*:IS_WANT_OBJECT,true,95;IS_DROP_OBJECT,true,3;IS_MOTIVATION_2_DEC,true,89;IS_MOTIVATION_1_DEC,false,31;B_RANDOM_WALK,7#
P_MOTIVATION_2_LT,true;P_HAS_OBJECT,true;*:*:B_ANTI_PHOTOTAXIS,61;IS_MOTIVATION_2_INC,false,34#*:*:IS_WANT_OBJECT,true,95;IS_DROP_OBJECT,true,3;IS_MOTIVATION_2_DEC,true,89;IS_MOTIVATION_1_DEC,false,31;B_RANDOM_WALK,7#
P_MOTIVATION_2_LT,true;P_HAS_OBJECT,true;*:*:B_ANTI_PHOTOTAXIS,61;IS_MOTIVATION_2_INC,false,34#*:*:IS_WANT_OBJECT,true,95;IS_DROP_OBJECT,true,3;IS_MOTIVATION_2_DEC,true,89;IS_MOTIVATION_1_DEC,false,31;B_RANDOM_WALK,7#
P_MOTIVATION_2_LT,true;P_HAS_OBJECT,true;*:*:B_ANTI_PHOTOTAXIS,61;IS_MOTIVATION_2_INC,false,34#*:*:IS_WANT_OBJECT,true,95;IS_DROP_OBJECT,true,3;IS_MOTIVATION_2_DEC,true,89;IS_MOTIVATION_1_DEC,false,31;B_RANDOM_WALK,7#
P_MOTIVATION_2_LT,true;P_HAS_OBJECT,true;*:*:B_ANTI_PHOTOTAXIS,61;IS_MOTIVATION_2_INC,false,34#*:*:IS_WANT_OBJECT,true,95;IS_DROP_OBJECT,true,3;IS_MOTIVATION_2_DEC,true,89;IS_MOTIVATION_1_DEC,false,31;B_RANDOM_WALK,7#
P_MOTIVATION_2_LT,true;P_HAS_OBJECT,true;*:*:B_ANTI_PHOTOTAXIS,61;IS_MOTIVATION_2_INC,false,34#*:*:IS_WANT_OBJECT,true,95;IS_DROP_OBJECT,true,3;IS_MOTIVATION_2_DEC,true,89;IS_MOTIVATION_1_DEC,false,31;B_RANDOM_WALK,7#
P_MOTIVATION_2_LT,true;P_HAS_OBJECT,true;*:*:B_ANTI_PHOTOTAXIS,61;IS_MOTIVATION_2_INC,false,34#*:*:IS_WANT_OBJECT,true,95;IS_DROP_OBJECT,true,3;IS_MOTIVATION_2_DEC,true,89;IS_MOTIVATION_1_DEC,false,31;B_RANDOM_WALK,7#
P_MOTIVATION_2_LT,true;P_HAS_OBJECT,true;*:*:B_ANTI_PHOTOTAXIS,61;IS_MOTIVATION_2_INC,false,34#*:*:IS_WANT_OBJECT,true,95;IS_DROP_OBJECT,true,3;IS_MOTIVATION_2_DEC,true,89;IS_MOTIVATION_1_DEC,false,31;B_RANDOM_WALK,7#
P_MOTIVATION_2_LT,true;P_HAS_OBJECT,true;*:*:B_ANTI_PHOTOTAXIS,61;IS_MOTIVATION_2_INC,false,34#*:*:IS_WANT_OBJECT,true,95;IS_DROP_OBJECT,true,3;IS_MOTIVATION_2_DEC,true,89;IS_MOTIVATION_1_DEC,false,31;B_RANDOM_WALK,7#
P_MOTIVATION_2_LT,true;P_HAS_OBJECT,true;*:*:B_ANTI_PHOTOTAXIS,61;IS_MOTIVATION_2_INC,false,34#*:*:IS_WANT_OBJECT,true,95;IS_DROP_OBJECT,true,3;IS_MOTIVATION_2_DEC,true,89;IS_MOTIVATION_1_DEC,false,31;B_RANDOM_WALK,7#
P_MOTIVATION_2_LT,true;P_HAS_OBJECT,true;*:*:B_ANTI_PHOTOTAXIS,61;IS_MOTIVATION_2_INC,false,34#*:*:IS_WANT_OBJECT,true,95;IS_DROP_OBJECT,true,3;IS_MOTIVATION_2_DEC,true,89;IS_MOTIVATION_1_DEC,false,31;B_RANDOM_WALK,7#
P_MOTIVATION_2_LT,true;P_HAS_OBJECT,true;*:*:B_ANTI_PHOTOTAXIS,61;IS_MOTIVATION_2_INC,false,34#*:*:IS_WANT_OBJECT,true,95;IS_DROP_OBJECT,true,3;IS_MOTIVATION_2_DEC,true,89;IS_MOTIVATION_1_DEC,false,31;B_RANDOM_WALK,7#
P_MOTIVATION_2_LT,true;P_HAS_OBJECT,true;*:*:B_ANTI_PHOTOTAXIS,61;IS_MOTIVATION_2_INC,false,34#*:*:IS_WANT_OBJECT,true,95;IS_DROP_OBJECT,true,3;IS_MOTIVATION_2_DEC,true,89;IS_MOTIVATION_1_DEC,false,31;B_RANDOM_WALK,7#
P_MOTIVATION_2_LT,true;P_HAS_OBJECT,true;*:*:B_ANTI_PHOTOTAXIS,61;IS_MOTIVATION_2_INC,false,34#*:*:IS_WANT_OBJECT,true,95;IS_DROP_OBJECT,true,3;IS_MOTIVATION_2_DEC,true,89;IS_MOTIVATION_1_DEC,false,31;B_RANDOM_WALK,7#
P_MOTIVATION_2_LT,true;P_HAS_OBJECT,true;*:*:B_ANTI_PHOTOTAXIS,61;IS_MOTIVATION_2_INC,false,34#*:*:IS_WANT_OBJECT,true,95;IS_DROP_OBJECT,true,3;IS_MOTIVATION_2_DEC,true,89;IS_MOTIVATION_1_DEC,false,31;B_RANDOM_WALK,7#
P_MOTIVATION_2_LT,true;P_HAS_OBJECT,true;*:*:B_ANTI_PHOTOTAXIS,61;IS_MOTIVATION_2_INC,false,34#*:*:IS_WANT_OBJECT,true,95;IS_DROP_OBJECT,true,3;IS_MOTIVATION_2_DEC,true,89;IS_MOTIVATION_1_DEC,false,31;B_RANDOM_WALK,7#
P_MOTIVATION_2_LT,true;P_HAS_OBJECT,true;*:*:B_ANTI_PHOTOTAXIS,61;IS_MOTIVATION_2_INC,false,34#*:*:IS_WANT_OBJECT,true,95;IS_DROP_OBJECT,true,3;IS_MOTIVATION_2_DEC,true,89;IS_MOTIVATION_1_DEC,false,31;B_RANDOM_WALK,7#
P_MOTIVATION_2_LT,true;P_HAS_OBJECT,true;*:*:B_ANTI_PHOTOTAXIS,61;IS_MOTIVATION_2_INC,false,34#*:*:IS_WANT_OBJECT,true,95;IS_DROP_OBJECT,true,3;IS_MOTIVATION_2_DEC,true,89;IS_MOTIVATION_1_DEC,false,31;B_RANDOM_WALK,7#
P_MOTIVATION_2_LT,true;P_HAS_OBJECT,true;*:*:B_ANTI_PHOTOTAXIS,61;IS_MOTIVATION_2_INC,false,34#*:*:IS_WANT_OBJECT,true,95;IS_DROP_OBJECT,true,3;IS_MOTIVATION_2_DEC,true,89;IS_MOTIVATION_1_DEC,false,31;B_RANDOM_WALK,7#
P_MOTIVATION_2_LT,true;P_HAS_OBJECT,true;*:*:B_ANTI_PHOTOTAXIS,61;IS_MOTIVATION_2_INC,false,34#*:*:IS_WANT_OBJECT,true,95;IS_DROP_OBJECT,true,3;IS_MOTIVATION_2_DEC,true,89;IS_MOTIVATION_1_DEC,false,31;B_RANDOM_WALK,7#
P_MOTIVATION_2_LT,true;P_HAS_OBJECT,true;*:*:B_ANTI_PHOTOTAXIS,61;IS_MOTIVATION_2_INC,false,34#*:*:IS_WANT_OBJECT,true,95;IS_DROP_OBJECT,true,3;IS_MOTIVATION_2_DEC,true,89;IS_MOTIVATION_1_DEC,false,31;B_RANDOM_WALK,7#
P_MOTIVATION_2_LT,true;P_HAS_OBJECT,true;*:*:B_ANTI_PHOTOTAXIS,61;IS_MOTIVATION_2_INC,false,34#*:*:IS_WANT_OBJECT,true,95;IS_DROP_OBJECT,true,3;IS_MOTIVATION_2_DEC,true,89;IS_MOTIVATION_1_DEC,false,31;B_RANDOM_WALK,7#
P_MOTIVATION_2_LT,true;P_HAS_OBJECT,true;*:*:B_ANTI_PHOTOTAXIS,61;IS_MOTIVATION_2_INC,false,34#*:*:IS_WANT_OBJECT,true,95;IS_DROP_OBJECT,true,3;IS_MOTIVATION_2_DEC,true,89;IS_MOTIVATION_1_DEC,false,31;B_RANDOM_WALK,7#
P_MOTIVATION_2_LT,true;P_HAS_OBJECT,true;*:*:B_ANTI_PHOTOTAXIS,61;IS_MOTIVATION_2_INC,false,34#*:*:IS_WANT_OBJECT,true,95;IS_DROP_OBJECT,true,3;IS_MOTIVATION_2_DEC,true,89;IS_MOTIVATION_1_DEC,false,31;B_RANDOM_WALK,7#
P_MOTIVATION_2_LT,true;P_HAS_OBJECT,true;*:*:B_ANTI_PHOTOTAXIS,61;IS_MOTIVATION_2_INC,false,34#*:*:IS_WANT_OBJECT,true,95;IS_DROP_OBJECT,true,3;IS_MOTIVATION_2_DEC,true,89;IS_MOTIVATION_1_DEC,false,31;B_RANDOM_WALK,7#
P_MOTIVATION_2_LT,true;P_HAS_OBJECT,true;*:*:B_ANTI_PHOTOTAXIS,61;IS_MOTIVATION_2_INC,false,34#*:*:IS_WANT_OBJECT,true,95;IS_DROP_OBJECT,true,3;IS_MOTIVATION_2_DEC,true,89;IS_MOTIVATION_1_DEC,false,31;B_RANDOM_WALK,7#
P_MOTIVATION_2_LT,true;P_HAS_OBJECT,true;*:*:B_ANTI_PHOTOTAXIS,61;IS_MOTIVATION_2_INC,false,34#*:*:IS_WANT_OBJECT,true,95;IS_DROP_OBJECT,true,3;IS_MOTIVATION_2_DEC,true,89;IS_MOTIVATION_1_DEC,false,31;B_RANDOM_WALK,7#
P_MOTIVATION_2_LT,true;P_HAS_OBJECT,true;*:*:B_ANTI_PHOTOTAXIS,61;IS_MOTIVATION_2_INC,false,34#*:*:IS_WANT_OBJECT,true,95;IS_DROP_OBJECT,true,3;IS_MOTIVATION_2_DEC,true,89;IS_MOTIVATION_1_DEC,false,31;B_RANDOM_WALK,7#
P_MOTIVATION_2_LT,true;P_HAS_OBJECT,true;*:*:B_ANTI_PHOTOTAXIS,61;IS_MOTIVATION_2_INC,false,34#*:*:IS_WANT_OBJECT,true,95;IS_DROP_OBJECT,true,3;IS_MOTIVATION_2_DEC,true,89;IS_MOTIVATION_1_DEC,false,31;B_RANDOM_WALK,7#
P_MOTIVATION_2_LT,true;P_HAS_OBJECT,true;*:*:B_ANTI_PHOTOTAXIS,61;IS_MOTIVATION_2_INC,false,34#*:*:IS_WANT_OBJECT,true,95;IS_DROP_OBJECT,true,3;IS_MOTIVATION_2_DEC,true,89;IS_MOTIVATION_1_DEC,false,31;B_RANDOM_WALK,7#
P_MOTIVATION_2_LT,true;P_HAS_OBJECT,true;*:*:B_ANTI_PHOTOTAXIS,61;IS_MOTIVATION_2_INC,false,34#*:*:IS_WANT_OBJECT,true,95;IS_DROP_OBJECT,true,3;IS_MOTIVATION_2_DEC,true,89;IS_MOTIVATION_1_DEC,false,31;B_RANDOM_WALK,7#
P_MOTIVATION_2_LT,true;P_HAS_OBJECT,true;*:*:B_ANTI_PHOTOTAXIS,61;IS_MOTIVATION_2_INC,false,34#*:*:IS_WANT_OBJECT,true,95;IS_DROP_OBJECT,true,3;IS_MOTIVATION_2_DEC,true,89;IS_MOTIVATION_1_DEC,false,31;B_RANDOM_WALK,7#
P_MOTIVATION_2_LT,true;P_HAS_OBJECT,true;*:*:B_ANTI_PHOTOTAXIS,61;IS_MOTIVATION_2_INC,false,34#*:*:IS_WANT_OBJECT,true,95;IS_DROP_OBJECT,true,3;IS_MOTIVATION_2_DEC,true,89;IS_MOTIVATION_1_DEC,false,31;B_RANDOM_WALK,7#
P_MOTIVATION_2_LT,true;P_HAS_OBJECT,true;*:*:B_ANTI_PHOTOTAXIS,61;IS_MOTIVATION_2_INC,false,34#*:*:IS_WANT_OBJECT,true,95;IS_DROP_OBJECT,true,3;IS_MOTIVATION_2_DEC,true,89;IS_MOTIVATION_1_DEC,false,31;B_RANDOM_WALK,7#
P_MOTIVATION_2_LT,true;P_HAS_OBJECT,true;*:*:B_ANTI_PHOTOTAXIS,61;IS_MOTIVATION_2_INC,false,34#*:*:IS_WANT_OBJECT,true,95;IS_DROP_OBJECT,true,3;IS_MOTIVATION_2_DEC,true,89;IS_MOTIVATION_1_DEC,false,31;B_RANDOM_WALK,7#
P_MOTIVATION_2_LT,true;P_HAS_OBJECT,true;*:*:B_ANTI_PHOTOTAXIS,61;IS_MOTIVATION_2_INC,false,34#*:*:IS_WANT_OBJECT,true,95;IS_DROP_OBJECT,true,3;IS_MOTIVATION_2_DEC,true,89;IS_MOTIVATION_1_DEC,false,31;B_RANDOM_WALK,7#
P_MOTIVATION_2_LT,true;P_HAS_OBJECT,true;*:*:B_ANTI_PHOTOTAXIS,61;IS_MOTIVATION_2_INC,false,34#*:*:IS_WANT_OBJECT,true,95;IS_DROP_OBJECT,true,3;IS_MOTIVATION_2_DEC,true,89;IS_MOTIVATION_1_DEC,false,31;B_RANDOM_WALK,7#
P_MOTIVATION_2_LT,true;P_HAS_OBJECT,true;*:*:B_ANTI_PHOTOTAXIS,61;IS_MOTIVATION_2_INC,false,34#*:*:IS_WANT_OBJECT,true,95;IS_DROP_OBJECT,true,3;IS_MOTIVATION_2_DEC,true,89;IS_MOTIVATION_1_DEC,false,31;B_RANDOM_WALK,7#
P_MOTIVATION_2_LT,true;P_HAS_OBJECT,true;*:*:B_ANTI_PHOTOTAXIS,61;IS_MOTIVATION_2_INC,false,34#*:*:IS_WANT_OBJECT,true,95;IS_DROP_OBJECT,true,3;IS_MOTIVATION_2_DEC,true,89;IS_MOTIVATION_1_DEC,false,31;B_RANDOM_WALK,7#
P_MOTIVATION_2_LT,true;P_HAS_OBJECT,true;*:*:B_ANTI_PHOTOTAXIS,61;IS_MOTIVATION_2_INC,false,34#*:*:IS_WANT_OBJECT,true,95;IS_DROP_OBJECT,true,3;IS_MOTIVATION_2_DEC,true,89;IS_MOTIVATION_1_DEC,false,31;B_RANDOM_WALK,7#
P_MOTIVATION_2_LT,true;P_HAS_OBJECT,true;*:*:B_ANTI_PHOTOTAXIS,61;IS_MOTIVATION_2_INC,false,34#*:*:IS_WANT_OBJECT,true,95;IS_DROP_OBJECT,true,3;IS_MOTIVATION_2_DEC,true,89;IS_MOTIVATION_1_DEC,false,31;B_RANDOM_WALK,7#
P_MOTIVATION_2_LT,true;P_HAS_OBJECT,true;*:*:B_ANTI_PHOTOTAXIS,61;IS_MOTIVATION_2_INC,false,34#*:*:IS_WANT_OBJECT,true,95;IS_DROP_OBJECT,true,3;IS_MOTIVATION_2_DEC,true,89;IS_MOTIVATION_1_DEC,false,31;B_RANDOM_WALK,7#
P_MOTIVATION_2_LT,true;P_HAS_OBJECT,true;*:*:B_ANTI_PHOTOTAXIS,61;IS_MOTIVATION_2_INC,false,34#*:*:IS_WANT_OBJECT,true,95;IS_DROP_OBJECT,true,3;IS_MOTIVATION_2_DEC,true,89;IS_MOTIVATION_1_DEC,false,31;B_RANDOM_WALK,7#
P_MOTIVATION_2_LT,true;P_HAS_OBJECT,true;*:*:B_ANTI_PHOTOTAXIS,61;IS_MOTIVATION_2_INC,false,34#*:*:IS_WANT_OBJECT,true,95;IS_DROP_OBJECT,true,3;IS_MOTIVATION_2_DEC,true,89;IS_MOTIVATION_1_DEC,false,31;B_RANDOM_WALK,7#
P_MOTIVATION_2_LT,true;P_HAS_OBJECT,true;*:*:B_ANTI_PHOTOTAXIS,61;IS_MOTIVATION_2_INC,false,34#*:*:IS_WANT_OBJECT,true,95;IS_DROP_OBJECT,true,3;IS_MOTIVATION_2_DEC,true,89;IS_MOTIVATION_1_DEC,false,31;B_RANDOM_WALK,7#
P_MOTIVATION_2_LT,true;P_HAS_OBJECT,true;*:*:B_ANTI_PHOTOTAXIS,61;IS_MOTIVATION_2_INC,false,34#*:*:IS_WANT_OBJECT,true,95;IS_DROP_OBJECT,true,3;IS_MOTIVATION_2_DEC,true,89;IS_MOTIVATION_1_DEC,false,31;B_RANDOM_WALK,7#
P_MOTIVATION_2_LT,true;P_HAS_OBJECT,true;*:*:B_ANTI_PHOTOTAXIS,61;IS_MOTIVATION_2_INC,false,34#*:*:IS_WANT_OBJECT,true,95;IS_DROP_OBJECT,true,3;IS_MOTIVATION_2_DEC,true,89;IS_MOTIVATION_1_DEC,false,31;B_RANDOM_WALK,7#
P_MOTIVATION_2_LT,true;P_HAS_OBJECT,true;*:*:B_ANTI_PHOTOTAXIS,61;IS_MOTIVATION_2_INC,false,34#*:*:IS_WANT_OBJECT,true,95;IS_DROP_OBJECT,true,3;IS_MOTIVATION_2_DEC,true,89;IS_MOTIVATION_1_DEC,false,31;B_RANDOM_WALK,7#
P_MOTIVATION_2_LT,true;P_HAS_OBJECT,true;*:*:B_ANTI_PHOTOTAXIS,61;IS_MOTIVATION_2_INC,false,34#*:*:IS_WANT_OBJECT,true,95;IS_DROP_OBJECT,true,3;IS_MOTIVATION_2_DEC,true,89;IS_MOTIVATION_1_DEC,false,31;B_RANDOM_WALK,7#
P_MOTIVATION_2_LT,true;P_HAS_OBJECT,true;*:*:B_ANTI_PHOTOTAXIS,61;IS_MOTIVATION_2_INC,false,34#*:*:IS_WANT_OBJECT,true,95;IS_DROP_OBJECT,true,3;IS_MOTIVATION_2_DEC,true,89;IS_MOTIVATION_1_DEC,false,31;B_RANDOM_WALK,7#
P_MOTIVATION_2_LT,true;P_HAS_OBJECT,true;*:*:B_ANTI_PHOTOTAXIS,61;IS_MOTIVATION_2_INC,false,34#*:*:IS_WANT_OBJECT,true,95;IS_DROP_OBJECT,true,3;IS_MOTIVATION_2_DEC,true,89;IS_MOTIVATION_1_DEC,false,31;B_RANDOM_WALK,7#
P_MOTIVATION_2_LT,true;P_HAS_OBJECT,true;*:*:B_ANTI_PHOTOTAXIS,61;IS_MOTIVATION_2_INC,false,34#*:*:IS_WANT_OBJECT,true,95;IS_DROP_OBJECT,true,3;IS_MOTIVATION_2_DEC,true,89;IS_MOTIVATION_1_DEC,false,31;B_RANDOM_WALK,7#
P_MOTIVATION_2_LT,true;P_HAS_OBJECT,true;*:*:B_ANTI_PHOTOTAXIS,61;IS_MOTIVATION_2_INC,false,34#*:*:IS_WANT_OBJECT,true,95;IS_DROP_OBJECT,true,3;IS_MOTIVATION_2_DEC,true,89;IS_MOTIVATION_1_DEC,false,31;B_RANDOM_WALK,7#
P_MOTIVATION_2_LT,true;P_HAS_OBJECT,true;*:*:B_ANTI_PHOTOTAXIS,61;IS_MOTIVATION_2_INC,false,34#*:*:IS_WANT_OBJECT,true,95;IS_DROP_OBJECT,true,3;IS_MOTIVATION_2_DEC,true,89;IS_MOTIVATION_1_DEC,false,31;B_RANDOM_WALK,7#
P_MOTIVATION_2_LT,true;P_HAS_OBJECT,true;*:*:B_ANTI_PHOTOTAXIS,61;IS_MOTIVATION_2_INC,false,34#*:*:IS_WANT_OBJECT,true,95;IS_DROP_OBJECT,true,3;IS_MOTIVATION_2_DEC,true,89;IS_MOTIVATION_1_DEC,false,31;B_RANDOM_WALK,7#
P_MOTIVATION_2_LT,true;P_HAS_OBJECT,true;*:*:B_ANTI_PHOTOTAXIS,61;IS_MOTIVATION_2_INC,false,34#*:*:IS_WANT_OBJECT,true,95;IS_DROP_OBJECT,true,3;IS_MOTIVATION_2_DEC,true,89;IS_MOTIVATION_1_DEC,false,31;B_RANDOM_WALK,7#
P_MOTIVATION_2_LT,true;P_HAS_OBJECT,true;*:*:B_ANTI_PHOTOTAXIS,61;IS_MOTIVATION_2_INC,false,34#*:*:IS_WANT_OBJECT,true,95;IS_DROP_OBJECT,true,3;IS_MOTIVATION_2_DEC,true,89;IS_MOTIVATION_1_DEC,false,31;B_RANDOM_WALK,7#
P_MOTIVATION_2_LT,true;P_HAS_OBJECT,true;*:*:B_ANTI_PHOTOTAXIS,61;IS_MOTIVATION_2_INC,false,34#*:*:IS_WANT_OBJECT,true,95;IS_DROP_OBJECT,true,3;IS_MOTIVATION_2_DEC,true,89;IS_MOTIVATION_1_DEC,false,31;B_RANDOM_WALK,7#
P_MOTIVATION_2_LT,true;P_HAS_OBJECT,true;*:*:B_ANTI_PHOTOTAXIS,61;IS_MOTIVATION_2_INC,false,34#*:*:IS_WANT_OBJECT,true,95;IS_DROP_OBJECT,true,3;IS_MOTIVATION_2_DEC,true,89;IS_MOTIVATION_1_DEC,false,31;B_RANDOM_WALK,7#
P_MOTIVATION_2_LT,true;P_HAS_OBJECT,true;*:*:B_ANTI_PHOTOTAXIS,61;IS_MOTIVATION_2_INC,false,34#*:*:IS_WANT_OBJECT,true,95;IS_DROP_OBJECT,true,3;IS_MOTIVATION_2_DEC,true,89;IS_MOTIVATION_1_DEC,false,31;B_RANDOM_WALK,7#
P_MOTIVATION_2_LT,true;P_HAS_OBJECT,true;*:*:B_ANTI_PHOTOTAXIS,61;IS_MOTIVATION_2_INC,false,34#*:*:IS_WANT_OBJECT,true,95;IS_DROP_OBJECT,true,3;IS_MOTIVATION_2_DEC,true,89;IS_MOTIVATION_1_DEC,false,31;B_RANDOM_WALK,7#
P_MOTIVATION_2_LT,true;P_HAS_OBJECT,true;*:*:B_ANTI_PHOTOTAXIS,61;IS_MOTIVATION_2_INC,false,34#*:*:IS_WANT_OBJECT,true,95;IS_DROP_OBJECT,true,3;IS_MOTIVATION_2_DEC,true,89;IS_MOTIVATION_1_DEC,false,31;B_RANDOM_WALK,7#
P_MOTIVATION_2_LT,true;P_HAS_OBJECT,true;*:*:B_ANTI_PHOTOTAXIS,61;IS_MOTIVATION_2_INC,false,34#*:*:IS_WANT_OBJECT,true,95;IS_DROP_OBJECT,true,3;IS_MOTIVATION_2_DEC,true,89;IS_MOTIVATION_1_DEC,false,31;B_RANDOM_WALK,7#
P_MOTIVATION_2_LT,true;P_HAS_OBJECT,true;*:*:B_ANTI_PHOTOTAXIS,61;IS_MOTIVATION_2_INC,false,34#*:*:IS_WANT_OBJECT,true,95;IS_DROP_OBJECT,true,3;IS_MOTIVATION_2_DEC,true,89;IS_MOTIVATION_1_DEC,false,31;B_RANDOM_WALK,7#
P_MOTIVATION_2_LT,true;P_HAS_OBJECT,true;*:*:B_ANTI_PHOTOTAXIS,61;IS_MOTIVATION_2_INC,false,34#*:*:IS_WANT_OBJECT,true,95;IS_DROP_OBJECT,true,3;IS_MOTIVATION_2_DEC,true,89;IS_MOTIVATION_1_DEC,false,31;B_RANDOM_WALK,7#
P_MOTIVATION_2_LT,true;P_HAS_OBJECT,true;*:*:B_ANTI_PHOTOTAXIS,61;IS_MOTIVATION_2_INC,false,34#*:*:IS_WANT_OBJECT,true,95;IS_DROP_OBJECT,true,3;IS_MOTIVATION_2_DEC,true,89;IS_MOTIVATION_1_DEC,false,31;B_RANDOM_WALK,7#
P_MOTIVATION_2_LT,true;P_HAS_OBJECT,true;*:*:B_ANTI_PHOTOTAXIS,61;IS_MOTIVATION_2_INC,false,34#*:*:IS_WANT_OBJECT,true,95;IS_DROP_OBJECT,true,3;IS_MOTIVATION_2_DEC,true,89;IS_MOTIVATION_1_DEC,false,31;B_RANDOM_WALK,7#
P_MOTIVATION_2_LT,true;P_HAS_OBJECT,true;*:*:B_ANTI_PHOTOTAXIS,61;IS_MOTIVATION_2_INC,false,34#*:*:IS_WANT_OBJECT,true,95;IS_DROP_OBJECT,true,3;IS_MOTIVATION_2_DEC,true,89;IS_MOTIVATION_1_DEC,false,31;B_RANDOM_WALK,7#
P_MOTIVATION_2_LT,true;P_HAS_OBJECT,true;*:*:B_ANTI_PHOTOTAXIS,61;IS_MOTIVATION_2_INC,false,34#*:*:IS_WANT_OBJECT,true,95;IS_DROP_OBJECT,true,3;IS_MOTIVATION_2_DEC,true,89;IS_MOTIVATION_1_DEC,false,31;B_RANDOM_WALK,7#
P_MOTIVATION_2_LT,true;P_HAS_OBJECT,true;*:*:B_ANTI_PHOTOTAXIS,61;IS_MOTIVATION_2_INC,false,34#*:*:IS_WANT_OBJECT,true,95;IS_DROP_OBJECT,true,3;IS_MOTIVATION_2_DEC,true,89;IS_MOTIVATION_1_DEC,false,31;B_RANDOM_WALK,7#
P_MOTIVATION_2_LT,true;P_HAS_OBJECT,true;*:*:B_ANTI_PHOTOTAXIS,61;IS_MOTIVATION_2_INC,false,34#*:*:IS_WANT_OBJECT,true,95;IS_DROP_OBJECT,true,3;IS_MOTIVATION_2_DEC,true,89;IS_MOTIVATION_1_DEC,false,31;B_RANDOM_WALK,7#
P_MOTIVATION_2_LT,true;P_HAS_OBJECT,true;*:*:B_ANTI_PHOTOTAXIS,61;IS_MOTIVATION_2_INC,false,34#*:*:IS_WANT_OBJECT,true,95;IS_DROP_OBJECT,true,3;IS_MOTIVATION_2_DEC,true,89;IS_MOTIVATION_1_DEC,false,31;B_RANDOM_WALK,7#
P_MOTIVATION_2_LT,true;P_HAS_OBJECT,true;*:*:B_ANTI_PHOTOTAXIS,61;IS_MOTIVATION_2_INC,false,34#*:*:IS_WANT_OBJECT,true,95;IS_DROP_OBJECT,true,3;IS_MOTIVATION_2_DEC,true,89;IS_MOTIVATION_1_DEC,false,31;B_RANDOM_WALK,7#
P_MOTIVATION_2_LT,true;P_HAS_OBJECT,true;*:*:B_ANTI_PHOTOTAXIS,61;IS_MOTIVATION_2_INC,false,34#*:*:IS_WANT_OBJECT,true,95;IS_DROP_OBJECT,true,3;IS_MOTIVATION_2_DEC,true,89;IS_MOTIVATION_1_DEC,false,31;B_RANDOM_WALK,7#
P_MOTIVATION_2_LT,true;P_HAS_OBJECT,true;*:*:B_ANTI_PHOTOTAXIS,61;IS_MOTIVATION_2_INC,false,34#*:*:IS_WANT_OBJECT,true,95;IS_DROP_OBJECT,true,3;IS_MOTIVATION_2_DEC,true,89;IS_MOTIVATION_1_DEC,false,31;B_RANDOM_WALK,7#
P_MOTIVATION_2_LT,true;P_HAS_OBJECT,true;*:*:B_ANTI_PHOTOTAXIS,61;IS_MOTIVATION_2_INC,false,34#*:*:IS_WANT_OBJECT,true,95;IS_DROP_OBJECT,true,3;IS_MOTIVATION_2_DEC,true,89;IS_MOTIVATION_1_DEC,false,31;B_RANDOM_WALK,7#
P_MOTIVATION_2_LT,true;P_HAS_OBJECT,true;*:*:B_ANTI_PHOTOTAXIS,61;IS_MOTIVATION_2_INC,false,34#*:*:IS_WANT_OBJECT,true,95;IS_DROP_OBJECT,true,3;IS_MOTIVATION_2_DEC,true,89;IS_MOTIVATION_1_DEC,false,31;B_RANDOM_WALK,7#
P_MOTIVATION_2_LT,true;P_HAS_OBJECT,true;*:*:B_ANTI_PHOTOTAXIS,61;IS_MOTIVATION_2_INC,false,34#*:*:IS_WANT_OBJECT,true,95;IS_DROP_OBJECT,true,3;IS_MOTIVATION_2_DEC,true,89;IS_MOTIVATION_1_DEC,false,31;B_RANDOM_WALK,7#
P_MOTIVATION_2_LT,true;P_HAS_OBJECT,true;*:*:B_ANTI_PHOTOTAXIS,61;IS_MOTIVATION_2_INC,false,34#*:*:IS_WANT_OBJECT,true,95;IS_DROP_OBJECT,true,3;IS_MOTIVATION_2_DEC,true,89;IS_MOTIVATION_1_DEC,false,31;B_RANDOM_WALK,7#
P_MOTIVATION_2_LT,true;P_HAS_OBJECT,true;*:*:B_ANTI_PHOTOTAXIS,61;IS_MOTIVATION_2_INC,false,34#*:*:IS_WANT_OBJECT,true,95;IS_DROP_OBJECT,true,3;IS_MOTIVATION_2_DEC,true,89;IS_MOTIVATION_1_DEC,false,31;B_RANDOM_WALK,7#
P_MOTIVATION_2_LT,true;P_HAS_OBJECT,true;*:*:B_ANTI_PHOTOTAXIS,61;IS_MOTIVATION_2_INC,false,34#*:*:IS_WANT_OBJECT,true,95;IS_DROP_OBJECT,true,3;IS_MOTIVATION_2_DEC,true,89;IS_MOTIVATION_1_DEC,false,31;B_RANDOM_WALK,7#
P_MOTIVATION_2_LT,true;P_HAS_OBJECT,true;*:*:B_ANTI_PHOTOTAXIS,61;IS_MOTIVATION_2_INC,false,34#*:*:IS_WANT_OBJECT,true,95;IS_DROP_OBJECT,true,3;IS_MOTIVATION_2_DEC,true,89;IS_MOTIVATION_1_DEC,false,31;B_RANDOM_WALK,7#
P_MOTIVATION_2_LT,true;P_HAS_OBJECT,true;*:*:B_ANTI_PHOTOTAXIS,61;IS_MOTIVATION_2_INC,false,34#*:*:IS_WANT_OBJECT,true,95;IS_DROP_OBJECT,true,3;IS_MOTIVATION_2_DEC,true,89;IS_MOTIVATION_1_DEC,false,31;B_RANDOM_WALK,7#
P_MOTIVATION_2_LT,true;P_HAS_OBJECT,true;*:*:B_ANTI_PHOTOTAXIS,61;IS_MOTIVATION_2_INC,false,34#*:*:IS_WANT_OBJECT,true,95;IS_DROP_OBJECT,true,3;IS_MOTIVATION_2_DEC,true,89;IS_MOTIVATION_1_DEC,false,31;B_RANDOM_WALK,7#
P_MOTIVATION_2_LT,true;P_HAS_OBJECT,true;*:*:B_ANTI_PHOTOTAXIS,61;IS_MOTIVATION_2_INC,false,34#*:*:IS_WANT_OBJECT,true,95;IS_DROP_OBJECT,true,3;IS_MOTIVATION_2_DEC,true,89;IS_MOTIVATION_1_DEC,false,31;B_RANDOM_WALK,7#
P_MOTIVATION_2_LT,true;P_HAS_OBJECT,true;*:*:B_ANTI_PHOTOTAXIS,61;IS_MOTIVATION_2_INC,false,34#*:*:IS_WANT_OBJECT,true,95;IS_DROP_OBJECT,true,3;IS_MOTIVATION_2_DEC,true,89;IS_MOTIVATION_1_DEC,false,31;B_RANDOM_WALK,7#
P_MOTIVATION_2_LT,true;P_HAS_OBJECT,true;*:*:B_ANTI_PHOTOTAXIS,61;IS_MOTIVATION_2_INC,false,34#*:*:IS_WANT_OBJECT,true,95;IS_DROP_OBJECT,true,3;IS_MOTIVATION_2_DEC,true,89;IS_MOTIVATION_1_DEC,false,31;B_RANDOM_WALK,7#
P_MOTIVATION_2_LT,true;P_HAS_OBJECT,true;*:*:B_ANTI_PHOTOTAXIS,61;IS_MOTIVATION_2_INC,false,34#*:*:IS_WANT_OBJECT,true,95;IS_DROP_OBJECT,true,3;IS_MOTIVATION_2_DEC,true,89;IS_MOTIVATION_1_DEC,false,31;B_RANDOM_WALK,7#
P_MOTIVATION_2_LT,true;P_HAS_OBJECT,true;*:*:B_ANTI_PHOTOTAXIS,61;IS_MOTIVATION_2_INC,false,34#*:*:IS_WANT_OBJECT,true,95;IS_DROP_OBJECT,true,3;IS_MOTIVATION_2_DEC,true,89;IS_MOTIVATION_1_DEC,false,31;B_RANDOM_WALK,7#
P_MOTIVATION_2_LT,true;P_HAS_OBJECT,true;*:*:B_ANTI_PHOTOTAXIS,61;IS_MOTIVATION_2_INC,false,34#*:*:IS_WANT_OBJECT,true,95;IS_DROP_OBJECT,true,3;IS_MOTIVATION_2_DEC,true,89;IS_MOTIVATION_1_DEC,false,31;B_RANDOM_WALK,7#
P_MOTIVATION_2_LT,true;P_HAS_OBJECT,true;*:*:B_ANTI_PHOTOTAXIS,61;IS_MOTIVATION_2_INC,false,34#*:*:IS_WANT_OBJECT,true,95;IS_DROP_OBJECT,true,3;IS_MOTIVATION_2_DEC,true,89;IS_MOTIVATION_1_DEC,false,31;B_RANDOM_WALK,7#
P_MOTIVATION_2_LT,true;P_HAS_OBJECT,true;*:*:B_ANTI_PHOTOTAXIS,61;IS_MOTIVATION_2_INC,false,34#*:*:IS_WANT_OBJECT,true,95;IS_DROP_OBJECT,true,3;IS_MOTIVATION_2_DEC,true,89;IS_MOTIVATION_1_DEC,false,31;B_RANDOM_WALK,7#
P_MOTIVATION_2_LT,true;P_HAS_OBJECT,true;*:*:B_ANTI_PHOTOTAXIS,61;IS_MOTIVATION_2_INC,false,34#*:*:IS_WANT_OBJECT,true,95;IS_DROP_OBJECT,true,3;IS_MOTIVATION_2_DEC,true,89;IS_MOTIVATION_1_DEC,false,31;B_RANDOM_WALK,7#
P_MOTIVATION_2_LT,true;P_HAS_OBJECT,true;*:*:B_ANTI_PHOTOTAXIS,61;IS_MOTIVATION_2_INC,false,34#*:*:IS_WANT_OBJECT,true,95;IS_DROP_OBJECT,true,3;IS_MOTIVATION_2_DEC,true,89;IS_MOTIVATION_1_DEC,false,31;B_RANDOM_WALK,7#
P_MOTIVATION_2_LT,true;P_HAS_OBJECT,true;*:*:B_ANTI_PHOTOTAXIS,61;IS_MOTIVATION_2_INC,false,34#*:*:IS_WANT_OBJECT,true,95;IS_DROP_OBJECT,true,3;IS_MOTIVATION_2_DEC,true,89;IS_MOTIVATION_1_DEC,false,31;B_RANDOM_WALK,7#
P_MOTIVATION_2_LT,true;P_HAS_OBJECT,true;*:*:B_ANTI_PHOTOTAXIS,61;IS_MOTIVATION_2_INC,false,34#*:*:IS_WANT_OBJECT,true,95;IS_DROP_OBJECT,true,3;IS_MOTIVATION_2_DEC,true,89;IS_MOTIVATION_1_DEC,false,31;B_RANDOM_WALK,7#
P_MOTIVATION_2_LT,true;P_HAS_OBJECT,true;*:*:B_ANTI_PHOTOTAXIS,61;IS_MOTIVATION_2_INC,false,34#*:*:IS_WANT_OBJECT,true,95;IS_DROP_OBJECT,true,3;IS_MOTIVATION_2_DEC,true,89;IS_MOTIVATION_1_DEC,false,31;B_RANDOM_WALK,7#
P_MOTIVATION_2_LT,true;P_HAS_OBJECT,true;*:*:B_ANTI_PHOTOTAXIS,61;IS_MOTIVATION_2_INC,false,34#*:*:IS_WANT_OBJECT,true,95;IS_DROP_OBJECT,true,3;IS_MOTIVATION_2_DEC,true,89;IS_MOTIVATION_1_DEC,false,31;B_RANDOM_WALK,7#
P_MOTIVATION_2_LT,true;P_HAS_OBJECT,true;*:*:B_ANTI_PHOTOTAXIS,61;IS_MOTIVATION_2_INC,false,34#*:*:IS_WANT_OBJECT,true,95;IS_DROP_OBJECT,true,3;IS_MOTIVATION_2_DEC,true,89;IS_MOTIVATION_1_DEC,false,31;B_RANDOM_WALK,7#
P_MOTIVATION_2_LT,true;P_HAS_OBJECT,true;*:*:B_ANTI_PHOTOTAXIS,61;IS_MOTIVATION_2_INC,false,34#*:*:IS_WANT_OBJECT,true,95;IS_DROP_OBJECT,true,3;IS_MOTIVATION_2_DEC,true,89;IS_MOTIVATION_1_DEC,false,31;B_RANDOM_WALK,7#
P_MOTIVATION_2_LT,true;P_HAS_OBJECT,true;*:*:B_ANTI_PHOTOTAXIS,61;IS_MOTIVATION_2_INC,false,34#*:*:IS_WANT_OBJECT,true,95;IS_DROP_OBJECT,true,3;IS_MOTIVATION_2_DEC,true,89;IS_MOTIVATION_1_DEC,false,31;B_RANDOM_WALK,7#
P_MOTIVATION_2_LT,true;P_HAS_OBJECT,true;*:*:B_ANTI_PHOTOTAXIS,61;IS_MOTIVATION_2_INC,false,34#*:*:IS_WANT_OBJECT,true,95;IS_DROP_OBJECT,true,3;IS_MOTIVATION_2_DEC,true,89;IS_MOTIVATION_1_DEC,false,31;B_RANDOM_WALK,7#
P_MOTIVATION_2_LT,true;P_HAS_OBJECT,true;*:*:B_ANTI_PHOTOTAXIS,61;IS_MOTIVATION_2_INC,false,34#*:*:IS_WANT_OBJECT,true,95;IS_DROP_OBJECT,true,3;IS_MOTIVATION_2_DEC,true,89;IS_MOTIVATION_1_DEC,false,31;B_RANDOM_WALK,7#
P_MOTIVATION_2_LT,true;P_HAS_OBJECT,true;*:*:B_ANTI_PHOTOTAXIS,61;IS_MOTIVATION_2_INC,false,34#*:*:IS_WANT_OBJECT,true,95;IS_DROP_OBJECT,true,3;IS_MOTIVATION_2_DEC,true,89;IS_MOTIVATION_1_DEC,false,31;B_RANDOM_WALK,7#
P_MOTIVATION_2_LT,true;P_HAS_OBJECT,true;*:*:B_ANTI_PHOTOTAXIS,61;IS_MOTIVATION_2_INC,false,34#*:*:IS_WANT_OBJECT,true,95;IS_DROP_OBJECT,true,3;IS_MOTIVATION_2_DEC,true,89;IS_MOTIVATION_1_DEC,false,31;B_RANDOM_WALK,7#
P_MOTIVATION_2_LT,true;P_HAS_OBJECT,true;*:*:B_ANTI_PHOTOTAXIS,61;IS_MOTIVATION_2_INC,false,34#*:*:IS_WANT_OBJECT,true,95;IS_DROP_OBJECT,true,3;IS_MOTIVATION_2_DEC,true,89;IS_MOTIVATION_1_DEC,false,31;B_RANDOM_WALK,7#
P_MOTIVATION_2_LT,true;P_HAS_OBJECT,true;*:*:B_ANTI_PHOTOTAXIS,61;IS_MOTIVATION_2_INC,false,34#*:*:IS_WANT_OBJECT,true,95;IS_DROP_OBJECT,true,3;IS_MOTIVATION_2_DEC,true,89;IS_MOTIVATION_1_DEC,false,31;B_RANDOM_WALK,7#
P_MOTIVATION_2_LT,true;P_HAS_OBJECT,true;*:*:B_ANTI_PHOTOTAXIS,61;IS_MOTIVATION_2_INC,false,34#*:*:IS_WANT_OBJECT,true,95;IS_DROP_OBJECT,true,3;IS_MOTIVATION_2_DEC,true,89;IS_MOTIVATION_1_DEC,false,31;B_RANDOM_WALK,7#
P_MOTIVATION_2_LT,true;P_HAS_OBJECT,true;*:*:B_ANTI_PHOTOTAXIS,61;IS_MOTIVATION_2_INC,false,34#*:*:IS_WANT_OBJECT,true,95;IS_DROP_OBJECT,true,3;IS_MOTIVATION_2_DEC,true,89;IS_MOTIVATION_1_DEC,false,31;B_RANDOM_WALK,7#
P_MOTIVATION_2_LT,true;P_HAS_OBJECT,true;*:*:B_ANTI_PHOTOTAXIS,61;IS_MOTIVATION_2_INC,false,34#*:*:IS_WANT_OBJECT,true,95;IS_DROP_OBJECT,true,3;IS_MOTIVATION_2_DEC,true,89;IS_MOTIVATION_1_DEC,false,31;B_RANDOM_WALK,7#
P_MOTIVATION_2_LT,true;P_HAS_OBJECT,true;*:*:B_ANTI_PHOTOTAXIS,61;IS_MOTIVATION_2_INC,false,34#*:*:IS_WANT_OBJECT,true,95;IS_DROP_OBJECT,true,3;IS_MOTIVATION_2_DEC,true,89;IS_MOTIVATION_1_DEC,false,31;B_RANDOM_WALK,7#
P_MOTIVATION_2_LT,true;P_HAS_OBJECT,true;*:*:B_ANTI_PHOTOTAXIS,61;IS_MOTIVATION_2_INC,false,34#*:*:IS_WANT_OBJECT,true,95;IS_DROP_OBJECT,true,3;IS_MOTIVATION_2_DEC,true,89;IS_MOTIVATION_1_DEC,false,31;B_RANDOM_WALK,7#
P_MOTIVATION_2_LT,true;P_HAS_OBJECT,true;*:*:B_ANTI_PHOTOTAXIS,61;IS_MOTIVATION_2_INC,false,34#*:*:IS_WANT_OBJECT,true,95;IS_DROP_OBJECT,true,3;IS_MOTIVATION_2_DEC,true,89;IS_MOTIVATION_1_DEC,false,31;B_RANDOM_WALK,7#
P_MOTIVATION_2_LT,true;P_HAS_OBJECT,true;*:*:B_ANTI_PHOTOTAXIS,61;IS_MOTIVATION_2_INC,false,34#*:*:IS_WANT_OBJECT,true,95;IS_DROP_OBJECT,true,3;IS_MOTIVATION_2_DEC,true,89;IS_MOTIVATION_1_DEC,false,31;B_RANDOM_WALK,7#
P_MOTIVATION_2_LT,true;P_HAS_OBJECT,true;*:*:B_ANTI_PHOTOTAXIS,61;IS_MOTIVATION_2_INC,false,34#*:*:IS_WANT_OBJECT,true,95;IS_DROP_OBJECT,true,3;IS_MOTIVATION_2_DEC,true,89;IS_MOTIVATION_1_DEC,false,31;B_RANDOM_WALK,7#
P_MOTIVATION_2_LT,true;P_HAS_OBJECT,true;*:*:B_ANTI_PHOTOTAXIS,61;IS_MOTIVATION_2_INC,false,34#*:*:IS_WANT_OBJECT,true,95;IS_DROP_OBJECT,true,3;IS_MOTIVATION_2_DEC,true,89;IS_MOTIVATION_1_DEC,false,31;B_RANDOM_WALK,7#
P_MOTIVATION_2_LT,true;P_HAS_OBJECT,true;*:*:B_ANTI_PHOTOTAXIS,61;IS_MOTIVATION_2_INC,false,34#*:*:IS_WANT_OBJECT,true,95;IS_DROP_OBJECT,true,3;IS_MOTIVATION_2_DEC,true,89;IS_MOTIVATION_1_DEC,false,31;B_RANDOM_WALK,7#
P_MOTIVATION_2_LT,true;P_HAS_OBJECT,true;*:*:B_ANTI_PHOTOTAXIS,61;IS_MOTIVATION_2_INC,false,34#*:*:IS_WANT_OBJECT,true,95;IS_DROP_OBJECT,true,3;IS_MOTIVATION_2_DEC,true,89;IS_MOTIVATION_1_DEC,false,31;B_RANDOM_WALK,7#
P_MOTIVATION_2_LT,true;P_HAS_OBJECT,true;*:*:B_ANTI_PHOTOTAXIS,61;IS_MOTIVATION_2_INC,false,34#*:*:IS_WANT_OBJECT,true,95;IS_DROP_OBJECT,true,3;IS_MOTIVATION_2_DEC,true,89;IS_MOTIVATION_1_DEC,false,31;B_RANDOM_WALK,7#
P_MOTIVATION_2_LT,true;P_HAS_OBJECT,true;*:*:B_ANTI_PHOTOTAXIS,61;IS_MOTIVATION_2_INC,false,34#*:*:IS_WANT_OBJECT,true,95;IS_DROP_OBJECT,true,3;IS_MOTIVATION_2_DEC,true,89;IS_MOTIVATION_1_DEC,false,31;B_RANDOM_WALK,7#
P_MOTIVATION_2_LT,true;P_HAS_OBJECT,true;*:*:B_ANTI_PHOTOTAXIS,61;IS_MOTIVATION_2_INC,false,34#*:*:IS_WANT_OBJECT,true,95;IS_DROP_OBJECT,true,3;IS_MOTIVATION_2_DEC,true,89;IS_MOTIVATION_1_DEC,false,31;B_RANDOM_WALK,7#
P_MOTIVATION_2_LT,true;P_HAS_OBJECT,true;*:*:B_ANTI_PHOTOTAXIS,61;IS_MOTIVATION_2_INC,false,34#*:*:IS_WANT_OBJECT,true,95;IS_DROP_OBJECT,true,3;IS_MOTIVATION_2_DEC,true,89;IS_MOTIVATION_1_DEC,false,31;B_RANDOM_WALK,7#
P_MOTIVATION_2_LT,true;P_HAS_OBJECT,true;*:*:B_ANTI_PHOTOTAXIS,61;IS_MOTIVATION_2_INC,false,34#*:*:IS_WANT_OBJECT,true,95;IS_DROP_OBJECT,true,3;IS_MOTIVATION_2_DEC,true,89;IS_MOTIVATION_1_DEC,false,31;B_RANDOM_WALK,7#
P_MOTIVATION_2_LT,true;P_HAS_OBJECT,true;*:*:B_ANTI_PHOTOTAXIS,61;IS_MOTIVATION_2_INC,false,34#*:*:IS_WANT_OBJECT,true,95;IS_DROP_OBJECT,true,3;IS_MOTIVATION_2_DEC,true,89;IS_MOTIVATION_1_DEC,false,31;B_RANDOM_WALK,7#
P_MOTIVATION_2_LT,true;P_HAS_OBJECT,true;*:*:B_ANTI_PHOTOTAXIS,61;IS_MOTIVATION_2_INC,false,34#*:*:IS_WANT_OBJECT,true,95;IS_DROP_OBJECT,true,3;IS_MOTIVATION_2_DEC,true,89;IS_MOTIVATION_1_DEC,false,31;B_RANDOM_WALK,7#
P_MOTIVATION_2_LT,true;P_HAS_OBJECT,true;*:*:B_ANTI_PHOTOTAXIS,61;IS_MOTIVATION_2_INC,false,34#*:*:IS_WANT_OBJECT,true,95;IS_DROP_OBJECT,true,3;IS_MOTIVATION_2_DEC,true,89;IS_MOTIVATION_1_DEC,false,31;B_RANDOM_WALK,7#
P_MOTIVATION_2_LT,true;P_HAS_OBJECT,true;*:*:B_ANTI_PHOTOTAXIS,61;IS_MOTIVATION_2_INC,false,34#*:*:IS_WANT_OBJECT,true,95;IS_DROP_OBJECT,true,3;IS_MOTIVATION_2_DEC,true,89;IS_MOTIVATION_1_DEC,false,31;B_RANDOM_WALK,7#
P_MOTIVATION_2_LT,true;P_HAS_OBJECT,true;*:*:B_ANTI_PHOTOTAXIS,61;IS_MOTIVATION_2_INC,false,34#*:*:IS_WANT_OBJECT,true,95;IS_DROP_OBJECT,true,3;IS_MOTIVATION_2_DEC,true,89;IS_MOTIVATION_1_DEC,false,31;B_RANDOM_WALK,7#
P_MOTIVATION_2_LT,true;P_HAS_OBJECT,true;*:*:B_ANTI_PHOTOTAXIS,61;IS_MOTIVATION_2_INC,false,34#*:*:IS_WANT_OBJECT,true,95;IS_DROP_OBJECT,true,3;IS_MOTIVATION_2_DEC,true,89;IS_MOTIVATION_1_DEC,false,31;B_RANDOM_WALK,7#
P_MOTIVATION_2_LT,true;P_HAS_OBJECT,true;*:*:B_ANTI_PHOTOTAXIS,61;IS_MOTIVATION_2_INC,false,34#*:*:IS_WANT_OBJECT,true,95;IS_DROP_OBJECT,true,3;IS_MOTIVATION_2_DEC,true,89;IS_MOTIVATION_1_DEC,false,31;B_RANDOM_WALK,7#
P_MOTIVATION_2_LT,true;P_HAS_OBJECT,true;*:*:B_ANTI_PHOTOTAXIS,61;IS_MOTIVATION_2_INC,false,34#*:*:IS_WANT_OBJECT,true,95;IS_DROP_OBJECT,true,3;IS_MOTIVATION_2_DEC,true,89;IS_MOTIVATION_1_DEC,false,31;B_RANDOM_WALK,7#
P_MOTIVATION_2_LT,true;P_HAS_OBJECT,true;*:*:B_ANTI_PHOTOTAXIS,61;IS_MOTIVATION_2_INC,false,34#*:*:IS_WANT_OBJECT,true,95;IS_DROP_OBJECT,true,3;IS_MOTIVATION_2_DEC,true,89;IS_MOTIVATION_1_DEC,false,31;B_RANDOM_WALK,7#
P_MOTIVATION_2_LT,true;P_HAS_OBJECT,true;*:*:B_ANTI_PHOTOTAXIS,61;IS_MOTIVATION_2_INC,false,34#*:*:IS_WANT_OBJECT,true,95;IS_DROP_OBJECT,true,3;IS_MOTIVATION_2_DEC,true,89;IS_MOTIVATION_1_DEC,false,31;B_RANDOM_WALK,7#
P_MOTIVATION_2_LT,true;P_HAS_OBJECT,true;*:*:B_ANTI_PHOTOTAXIS,61;IS_MOTIVATION_2_INC,false,34#*:*:IS_WANT_OBJECT,true,95;IS_DROP_OBJECT,true,3;IS_MOTIVATION_2_DEC,true,89;IS_MOTIVATION_1_DEC,false,31;B_RANDOM_WALK,7#
P_MOTIVATION_2_LT,true;P_HAS_OBJECT,true;*:*:B_ANTI_PHOTOTAXIS,61;IS_MOTIVATION_2_INC,false,34#*:*:IS_WANT_OBJECT,true,95;IS_DROP_OBJECT,true,3;IS_MOTIVATION_2_DEC,true,89;IS_MOTIVATION_1_DEC,false,31;B_RANDOM_WALK,7#
P_MOTIVATION_2_LT,true;P_HAS_OBJECT,true;*:*:B_ANTI_PHOTOTAXIS,61;IS_MOTIVATION_2_INC,false,34#*:*:IS_WANT_OBJECT,true,95;IS_DROP_OBJECT,true,3;IS_MOTIVATION_2_DEC,true,89;IS_MOTIVATION_1_DEC,false,31;B_RANDOM_WALK,7#
P_MOTIVATION_2_LT,true;P_HAS_OBJECT,true;*:*:B_ANTI_PHOTOTAXIS,61;IS_MOTIVATION_2_INC,false,34#*:*:IS_WANT_OBJECT,true,95;IS_DROP_OBJECT,true,3;IS_MOTIVATION_2_DEC,true,89;IS_MOTIVATION_1_DEC,false,31;B_RANDOM_WALK,7#
P_MOTIVATION_2_LT,true;P_HAS_OBJECT,true;*:*:B_ANTI_PHOTOTAXIS,61;IS_MOTIVATION_2_INC,false,34#*:*:IS_WANT_OBJECT,true,95;IS_DROP_OBJECT,true,3;IS_MOTIVATION_2_DEC,true,89;IS_MOTIVATION_1_DEC,false,31;B_RANDOM_WALK,7#
P_MOTIVATION_2_LT,true;P_HAS_OBJECT,true;*:*:B_ANTI_PHOTOTAXIS,61;IS_MOTIVATION_2_INC,false,34#*:*:IS_WANT_OBJECT,true,95;IS_DROP_OBJECT,true,3;IS_MOTIVATION_2_DEC,true,89;IS_MOTIVATION_1_DEC,false,31;B_RANDOM_WALK,7#
P_MOTIVATION_2_LT,true;P_HAS_OBJECT,true;*:*:B_ANTI_PHOTOTAXIS,61;IS_MOTIVATION_2_INC,false,34#*:*:IS_WANT_OBJECT,true,95;IS_DROP_OBJECT,true,3;IS_MOTIVATION_2_DEC,true,89;IS_MOTIVATION_1_DEC,false,31;B_RANDOM_WALK,7#
P_MOTIVATION_2_LT,true;P_HAS_OBJECT,true;*:*:B_ANTI_PHOTOTAXIS,61;IS_MOTIVATION_2_INC,false,34#*:*:IS_WANT_OBJECT,true,95;IS_DROP_OBJECT,true,3;IS_MOTIVATION_2_DEC,true,89;IS_MOTIVATION_1_DEC,false,31;B_RANDOM_WALK,7#
P_MOTIVATION_2_LT,true;P_HAS_OBJECT,true;*:*:B_ANTI_PHOTOTAXIS,61;IS_MOTIVATION_2_INC,false,34#*:*:IS_WANT_OBJECT,true,95;IS_DROP_OBJECT,true,3;IS_MOTIVATION_2_DEC,true,89;IS_MOTIVATION_1_DEC,false,31;B_RANDOM_WALK,7#
P_MOTIVATION_2_LT,true;P_HAS_OBJECT,true;*:*:B_ANTI_PHOTOTAXIS,61;IS_MOTIVATION_2_INC,false,34#*:*:IS_WANT_OBJECT,true,95;IS_DROP_OBJECT,true,3;IS_MOTIVATION_2_DEC,true,89;IS_MOTIVATION_1_DEC,false,31;B_RANDOM_WALK,7#
P_MOTIVATION_2_LT,true;P_HAS_OBJECT,true;*:*:B_ANTI_PHOTOTAXIS,61;IS_MOTIVATION_2_INC,false,34#*:*:IS_WANT_OBJECT,true,95;IS_DROP_OBJECT,true,3;IS_MOTIVATION_2_DEC,true,89;IS_MOTIVATION_1_DEC,false,31;B_RANDOM_WALK,7#
P_MOTIVATION_2_LT,true;P_HAS_OBJECT,true;*:*:B_ANTI_PHOTOTAXIS,61;IS_MOTIVATION_2_INC,false,34#*:*:IS_WANT_OBJECT,true,95;IS_DROP_OBJECT,true,3;IS_MOTIVATION_2_DEC,true,89;IS_MOTIVATION_1_DEC,false,31;B_RANDOM_WALK,7#
P_MOTIVATION_2_LT,true;P_HAS_OBJECT,true;*:*:B_ANTI_PHOTOTAXIS,61;IS_MOTIVATION_2_INC,false,34#*:*:IS_WANT_OBJECT,true,95;IS_DROP_OBJECT,true,3;IS_MOTIVATION_2_DEC,true,89;IS_MOTIVATION_1_DEC,false,31;B_RANDOM_WALK,7#
P_MOTIVATION_2_LT,true;P_HAS_OBJECT,true;*:*:B_ANTI_PHOTOTAXIS,61;IS_MOTIVATION_2_INC,false,34#*:*:IS_WANT_OBJECT,true,95;IS_DROP_OBJECT,true,3;IS_MOTIVATION_2_DEC,true,89;IS_MOTIVATION_1_DEC,false,31;B_RANDOM_WALK,7#
P_MOTIVATION_2_LT,true;P_HAS_OBJECT,true;*:*:B_ANTI_PHOTOTAXIS,61;IS_MOTIVATION_2_INC,false,34#*:*:IS_WANT_OBJECT,true,95;IS_DROP_OBJECT,true,3;IS_MOTIVATION_2_DEC,true,89;IS_MOTIVATION_1_DEC,false,31;B_RANDOM_WALK,7#
P_MOTIVATION_2_LT,true;P_HAS_OBJECT,true;*:*:B_ANTI_PHOTOTAXIS,61;IS_MOTIVATION_2_INC,false,34#*:*:IS_WANT_OBJECT,true,95;IS_DROP_OBJECT,true,3;IS_MOTIVATION_2_DEC,true,89;IS_MOTIVATION_1_DEC,false,31;B_RANDOM_WALK,7#
P_MOTIVATION_2_LT,true;P_HAS_OBJECT,true;*:*:B_ANTI_PHOTOTAXIS,61;IS_MOTIVATION_2_INC,false,34#*:*:IS_WANT_OBJECT,true,95;IS_DROP_OBJECT,true,3;IS_MOTIVATION_2_DEC,true,89;IS_MOTIVATION_1_DEC,false,31;B_RANDOM_WALK,7#
P_MOTIVATION_2_LT,true;P_HAS_OBJECT,true;*:*:B_ANTI_PHOTOTAXIS,61;IS_MOTIVATION_2_INC,false,34#*:*:IS_WANT_OBJECT,true,95;IS_DROP_OBJECT,true,3;IS_MOTIVATION_2_DEC,true,89;IS_MOTIVATION_1_DEC,false,31;B_RANDOM_WALK,7#
P_MOTIVATION_2_LT,true;P_HAS_OBJECT,true;*:*:B_ANTI_PHOTOTAXIS,61;IS_MOTIVATION_2_INC,false,34#*:*:IS_WANT_OBJECT,true,95;IS_DROP_OBJECT,true,3;IS_MOTIVATION_2_DEC,true,89;IS_MOTIVATION_1_DEC,false,31;B_RANDOM_WALK,7#
P_MOTIVATION_2_LT,true;P_HAS_OBJECT,true;*:*:B_ANTI_PHOTOTAXIS,61;IS_MOTIVATION_2_INC,false,34#*:*:IS_WANT_OBJECT,true,95;IS_DROP_OBJECT,true,3;IS_MOTIVATION_2_DEC,true,89;IS_MOTIVATION_1_DEC,false,31;B_RANDOM_WALK,7#
P_MOTIVATION_2_LT,true;P_HAS_OBJECT,true;*:*:B_ANTI_PHOTOTAXIS,61;IS_MOTIVATION_2_INC,false,34#*:*:IS_WANT_OBJECT,true,95;IS_DROP_OBJECT,true,3;IS_MOTIVATION_2_DEC,true,89;IS_MOTIVATION_1_DEC,false,31;B_RANDOM_WALK,7#
P_MOTIVATION_2_LT,true;P_HAS_OBJECT,true;*:*:B_ANTI_PHOTOTAXIS,61;IS_MOTIVATION_2_INC,false,34#*:*:IS_WANT_OBJECT,true,95;IS_DROP_OBJECT,true,3;IS_MOTIVATION_2_DEC,true,89;IS_MOTIVATION_1_DEC,false,31;B_RANDOM_WALK,7#
P_MOTIVATION_2_LT,true;P_HAS_OBJECT,true;*:*:B_ANTI_PHOTOTAXIS,61;IS_MOTIVATION_2_INC,false,34#*:*:IS_WANT_OBJECT,true,95;IS_DROP_OBJECT,true,3;IS_MOTIVATION_2_DEC,true,89;IS_MOTIVATION_1_DEC,false,31;B_RANDOM_WALK,7#
P_MOTIVATION_2_LT,true;P_HAS_OBJECT,true;*:*:B_ANTI_PHOTOTAXIS,61;IS_MOTIVATION_2_INC,false,34#*:*:IS_WANT_OBJECT,true,95;IS_DROP_OBJECT,true,3;IS_MOTIVATION_2_DEC,true,89;IS_MOTIVATION_1_DEC,false,31;B_RANDOM_WALK,7#
P_MOTIVATION_2_LT,true;P_HAS_OBJECT,true;*:*:B_ANTI_PHOTOTAXIS,61;IS_MOTIVATION_2_INC,false,34#*:*:IS_WANT_OBJECT,true,95;IS_DROP_OBJECT,true,3;IS_MOTIVATION_2_DEC,true,89;IS_MOTIVATION_1_DEC,false,31;B_RANDOM_WALK,7#
P_MOTIVATION_2_LT,true;P_HAS_OBJECT,true;*:*:B_ANTI_PHOTOTAXIS,61;IS_MOTIVATION_2_INC,false,34#*:*:IS_WANT_OBJECT,true,95;IS_DROP_OBJECT,true,3;IS_MOTIVATION_2_DEC,true,89;IS_MOTIVATION_1_DEC,false,31;B_RANDOM_WALK,7#
P_MOTIVATION_2_LT,true;P_HAS_OBJECT,true;*:*:B_ANTI_PHOTOTAXIS,61;IS_MOTIVATION_2_INC,false,34#*:*:IS_WANT_OBJECT,true,95;IS_DROP_OBJECT,true,3;IS_MOTIVATION_2_DEC,true,89;IS_MOTIVATION_1_DEC,false,31;B_RANDOM_WALK,7#
P_MOTIVATION_2_LT,true;P_HAS_OBJECT,true;*:*:B_ANTI_PHOTOTAXIS,61;IS_MOTIVATION_2_INC,false,34#*:*:IS_WANT_OBJECT,true,95;IS_DROP_OBJECT,true,3;IS_MOTIVATION_2_DEC,true,89;IS_MOTIVATION_1_DEC,false,31;B_RANDOM_WALK,7#
P_MOTIVATION_2_LT,true;P_HAS_OBJECT,true;*:*:B_ANTI_PHOTOTAXIS,61;IS_MOTIVATION_2_INC,false,34#*:*:IS_WANT_OBJECT,true,95;IS_DROP_OBJECT,true,3;IS_MOTIVATION_2_DEC,true,89;IS_MOTIVATION_1_DEC,false,31;B_RANDOM_WALK,7#
P_MOTIVATION_2_LT,true;P_HAS_OBJECT,true;*:*:B_ANTI_PHOTOTAXIS,61;IS_MOTIVATION_2_INC,false,34#*:*:IS_WANT_OBJECT,true,95;IS_DROP_OBJECT,true,3;IS_MOTIVATION_2_DEC,true,89;IS_MOTIVATION_1_DEC,false,31;B_RANDOM_WALK,7#
P_MOTIVATION_2_LT,true;P_HAS_OBJECT,true;*:*:B_ANTI_PHOTOTAXIS,61;IS_MOTIVATION_2_INC,false,34#*:*:IS_WANT_OBJECT,true,95;IS_DROP_OBJECT,true,3;IS_MOTIVATION_2_DEC,true,89;IS_MOTIVATION_1_DEC,false,31;B_RANDOM_WALK,7#
P_MOTIVATION_2_LT,true;P_HAS_OBJECT,true;*:*:B_ANTI_PHOTOTAXIS,61;IS_MOTIVATION_2_INC,false,34#*:*:IS_WANT_OBJECT,true,95;IS_DROP_OBJECT,true,3;IS_MOTIVATION_2_DEC,true,89;IS_MOTIVATION_1_DEC,false,31;B_RANDOM_WALK,7#
P_MOTIVATION_2_LT,true;P_HAS_OBJECT,true;*:*:B_ANTI_PHOTOTAXIS,61;IS_MOTIVATION_2_INC,false,34#*:*:IS_WANT_OBJECT,true,95;IS_DROP_OBJECT,true,3;IS_MOTIVATION_2_DEC,true,89;IS_MOTIVATION_1_DEC,false,31;B_RANDOM_WALK,7#
P_MOTIVATION_2_LT,true;P_HAS_OBJECT,true;*:*:B_ANTI_PHOTOTAXIS,61;IS_MOTIVATION_2_INC,false,34#*:*:IS_WANT_OBJECT,true,95;IS_DROP_OBJECT,true,3;IS_MOTIVATION_2_DEC,true,89;IS_MOTIVATION_1_DEC,false,31;B_RANDOM_WALK,7#
P_MOTIVATION_2_LT,true;P_HAS_OBJECT,true;*:*:B_ANTI_PHOTOTAXIS,61;IS_MOTIVATION_2_INC,false,34#*:*:IS_WANT_OBJECT,true,95;IS_DROP_OBJECT,true,3;IS_MOTIVATION_2_DEC,true,89;IS_MOTIVATION_1_DEC,false,31;B_RANDOM_WALK,7#
P_MOTIVATION_2_LT,true;P_HAS_OBJECT,true;*:*:B_ANTI_PHOTOTAXIS,61;IS_MOTIVATION_2_INC,false,34#*:*:IS_WANT_OBJECT,true,95;IS_DROP_OBJECT,true,3;IS_MOTIVATION_2_DEC,true,89;IS_MOTIVATION_1_DEC,false,31;B_RANDOM_WALK,7#
P_MOTIVATION_2_LT,true;P_HAS_OBJECT,true;*:*:B_ANTI_PHOTOTAXIS,61;IS_MOTIVATION_2_INC,false,34#*:*:IS_WANT_OBJECT,true,95;IS_DROP_OBJECT,true,3;IS_MOTIVATION_2_DEC,true,89;IS_MOTIVATION_1_DEC,false,31;B_RANDOM_WALK,7#
P_MOTIVATION_2_LT,true;P_HAS_OBJECT,true;*:*:B_ANTI_PHOTOTAXIS,61;IS_MOTIVATION_2_INC,false,34#*:*:IS_WANT_OBJECT,true,95;IS_DROP_OBJECT,true,3;IS_MOTIVATION_2_DEC,true,89;IS_MOTIVATION_1_DEC,false,31;B_RANDOM_WALK,7#
P_MOTIVATION_2_LT,true;P_HAS_OBJECT,true;*:*:B_ANTI_PHOTOTAXIS,61;IS_MOTIVATION_2_INC,false,34#*:*:IS_WANT_OBJECT,true,95;IS_DROP_OBJECT,true,3;IS_MOTIVATION_2_DEC,true,89;IS_MOTIVATION_1_DEC,false,31;B_RANDOM_WALK,7#
P_MOTIVATION_2_LT,true;P_HAS_OBJECT,true;*:*:B_ANTI_PHOTOTAXIS,61;IS_MOTIVATION_2_INC,false,34#*:*:IS_WANT_OBJECT,true,95;IS_DROP_OBJECT,true,3;IS_MOTIVATION_2_DEC,true,89;IS_MOTIVATION_1_DEC,false,31;B_RANDOM_WALK,7#
P_MOTIVATION_2_LT,true;P_HAS_OBJECT,true;*:*:B_ANTI_PHOTOTAXIS,61;IS_MOTIVATION_2_INC,false,34#*:*:IS_WANT_OBJECT,true,95;IS_DROP_OBJECT,true,3;IS_MOTIVATION_2_DEC,true,89;IS_MOTIVATION_1_DEC,false,31;B_RANDOM_WALK,7#
P_MOTIVATION_2_LT,true;P_HAS_OBJECT,true;*:*:B_ANTI_PHOTOTAXIS,61;IS_MOTIVATION_2_INC,false,34#*:*:IS_WANT_OBJECT,true,95;IS_DROP_OBJECT,true,3;IS_MOTIVATION_2_DEC,true,89;IS_MOTIVATION_1_DEC,false,31;B_RANDOM_WALK,7#
P_MOTIVATION_2_LT,true;P_HAS_OBJECT,true;*:*:B_ANTI_PHOTOTAXIS,61;IS_MOTIVATION_2_INC,false,34#*:*:IS_WANT_OBJECT,true,95;IS_DROP_OBJECT,true,3;IS_MOTIVATION_2_DEC,true,89;IS_MOTIVATION_1_DEC,false,31;B_RANDOM_WALK,7#
P_MOTIVATION_2_LT,true;P_HAS_OBJECT,true;*:*:B_ANTI_PHOTOTAXIS,61;IS_MOTIVATION_2_INC,false,34#*:*:IS_WANT_OBJECT,true,95;IS_DROP_OBJECT,true,3;IS_MOTIVATION_2_DEC,true,89;IS_MOTIVATION_1_DEC,false,31;B_RANDOM_WALK,7#
P_MOTIVATION_2_LT,true;P_HAS_OBJECT,true;*:*:B_ANTI_PHOTOTAXIS,61;IS_MOTIVATION_2_INC,false,34#*:*:IS_WANT_OBJECT,true,95;IS_DROP_OBJECT,true,3;IS_MOTIVATION_2_DEC,true,89;IS_MOTIVATION_1_DEC,false,31;B_RANDOM_WALK,7#
P_MOTIVATION_2_LT,true;P_HAS_OBJECT,true;*:*:B_ANTI_PHOTOTAXIS,61;IS_MOTIVATION_2_INC,false,34#*:*:IS_WANT_OBJECT,true,95;IS_DROP_OBJECT,true,3;IS_MOTIVATION_2_DEC,true,89;IS_MOTIVATION_1_DEC,false,31;B_RANDOM_WALK,7#
P_MOTIVATION_2_LT,true;P_HAS_OBJECT,true;*:*:B_ANTI_PHOTOTAXIS,61;IS_MOTIVATION_2_INC,false,34#*:*:IS_WANT_OBJECT,true,95;IS_DROP_OBJECT,true,3;IS_MOTIVATION_2_DEC,true,89;IS_MOTIVATION_1_DEC,false,31;B_RANDOM_WALK,7#
P_MOTIVATION_2_LT,true;P_HAS_OBJECT,true;*:*:B_ANTI_PHOTOTAXIS,61;IS_MOTIVATION_2_INC,false,34#*:*:IS_WANT_OBJECT,true,95;IS_DROP_OBJECT,true,3;IS_MOTIVATION_2_DEC,true,89;IS_MOTIVATION_1_DEC,false,31;B_RANDOM_WALK,7#
P_MOTIVATION_2_LT,true;P_HAS_OBJECT,true;*:*:B_ANTI_PHOTOTAXIS,61;IS_MOTIVATION_2_INC,false,34#*:*:IS_WANT_OBJECT,true,95;IS_DROP_OBJECT,true,3;IS_MOTIVATION_2_DEC,true,89;IS_MOTIVATION_1_DEC,false,31;B_RANDOM_WALK,7#
P_MOTIVATION_2_LT,true;P_HAS_OBJECT,true;*:*:B_ANTI_PHOTOTAXIS,61;IS_MOTIVATION_2_INC,false,34#*:*:IS_WANT_OBJECT,true,95;IS_DROP_OBJECT,true,3;IS_MOTIVATION_2_DEC,true,89;IS_MOTIVATION_1_DEC,false,31;B_RANDOM_WALK,7#
P_MOTIVATION_2_LT,true;P_HAS_OBJECT,true;*:*:B_ANTI_PHOTOTAXIS,61;IS_MOTIVATION_2_INC,false,34#*:*:IS_WANT_OBJECT,true,95;IS_DROP_OBJECT,true,3;IS_MOTIVATION_2_DEC,true,89;IS_MOTIVATION_1_DEC,false,31;B_RANDOM_WALK,7#
P_MOTIVATION_2_LT,true;P_HAS_OBJECT,true;*:*:B_ANTI_PHOTOTAXIS,61;IS_MOTIVATION_2_INC,false,34#*:*:IS_WANT_OBJECT,true,95;IS_DROP_OBJECT,true,3;IS_MOTIVATION_2_DEC,true,89;IS_MOTIVATION_1_DEC,false,31;B_RANDOM_WALK,7#
P_MOTIVATION_2_LT,true;P_HAS_OBJECT,true;*:*:B_ANTI_PHOTOTAXIS,61;IS_MOTIVATION_2_INC,false,34#*:*:IS_WANT_OBJECT,true,95;IS_DROP_OBJECT,true,3;IS_MOTIVATION_2_DEC,true,89;IS_MOTIVATION_1_DEC,false,31;B_RANDOM_WALK,7#
P_MOTIVATION_2_LT,true;P_HAS_OBJECT,true;*:*:B_ANTI_PHOTOTAXIS,61;IS_MOTIVATION_2_INC,false,34#*:*:IS_WANT_OBJECT,true,95;IS_DROP_OBJECT,true,3;IS_MOTIVATION_2_DEC,true,89;IS_MOTIVATION_1_DEC,false,31;B_RANDOM_WALK,7#
P_MOTIVATION_2_LT,true;P_HAS_OBJECT,true;*:*:B_ANTI_PHOTOTAXIS,61;IS_MOTIVATION_2_INC,false,34#*:*:IS_WANT_OBJECT,true,95;IS_DROP_OBJECT,true,3;IS_MOTIVATION_2_DEC,true,89;IS_MOTIVATION_1_DEC,false,31;B_RANDOM_WALK,7#
P_MOTIVATION_2_LT,true;P_HAS_OBJECT,true;*:*:B_ANTI_PHOTOTAXIS,61;IS_MOTIVATION_2_INC,false,34#*:*:IS_WANT_OBJECT,true,95;IS_DROP_OBJECT,true,3;IS_MOTIVATION_2_DEC,true,89;IS_MOTIVATION_1_DEC,false,31;B_RANDOM_WALK,7#
P_MOTIVATION_2_LT,true;P_HAS_OBJECT,true;*:*:B_ANTI_PHOTOTAXIS,61;IS_MOTIVATION_2_INC,false,34#*:*:IS_WANT_OBJECT,true,95;IS_DROP_OBJECT,true,3;IS_MOTIVATION_2_DEC,true,89;IS_MOTIVATION_1_DEC,false,31;B_RANDOM_WALK,7#
P_MOTIVATION_2_LT,true;P_HAS_OBJECT,true;*:*:B_ANTI_PHOTOTAXIS,61;IS_MOTIVATION_2_INC,false,34#*:*:IS_WANT_OBJECT,true,95;IS_DROP_OBJECT,true,3;IS_MOTIVATION_2_DEC,true,89;IS_MOTIVATION_1_DEC,false,31;B_RANDOM_WALK,7#
P_MOTIVATION_2_LT,true;P_HAS_OBJECT,true;*:*:B_ANTI_PHOTOTAXIS,61;IS_MOTIVATION_2_INC,false,34#*:*:IS_WANT_OBJECT,true,95;IS_DROP_OBJECT,true,3;IS_MOTIVATION_2_DEC,true,89;IS_MOTIVATION_1_DEC,false,31;B_RANDOM_WALK,7#
P_MOTIVATION_2_LT,true;P_HAS_OBJECT,true;*:*:B_ANTI_PHOTOTAXIS,61;IS_MOTIVATION_2_INC,false,34#*:*:IS_WANT_OBJECT,true,95;IS_DROP_OBJECT,true,3;IS_MOTIVATION_2_DEC,true,89;IS_MOTIVATION_1_DEC,false,31;B_RANDOM_WALK,7#
P_MOTIVATION_2_LT,true;P_HAS_OBJECT,true;*:*:B_ANTI_PHOTOTAXIS,61;IS_MOTIVATION_2_INC,false,34#*:*:IS_WANT_OBJECT,true,95;IS_DROP_OBJECT,true,3;IS_MOTIVATION_2_DEC,true,89;IS_MOTIVATION_1_DEC,false,31;B_RANDOM_WALK,7#
P_MOTIVATION_2_LT,true;P_HAS_OBJECT,true;*:*:B_ANTI_PHOTOTAXIS,61;IS_MOTIVATION_2_INC,false,34#*:*:IS_WANT_OBJECT,true,95;IS_DROP_OBJECT,true,3;IS_MOTIVATION_2_DEC,true,89;IS_MOTIVATION_1_DEC,false,31;B_RANDOM_WALK,7#
P_MOTIVATION_2_LT,true;P_HAS_OBJECT,true;*:*:B_ANTI_PHOTOTAXIS,61;IS_MOTIVATION_2_INC,false,34#*:*:IS_WANT_OBJECT,true,95;IS_DROP_OBJECT,true,3;IS_MOTIVATION_2_DEC,true,89;IS_MOTIVATION_1_DEC,false,31;B_RANDOM_WALK,7#
P_MOTIVATION_2_LT,true;P_HAS_OBJECT,true;*:*:B_ANTI_PHOTOTAXIS,61;IS_MOTIVATION_2_INC,false,34#*:*:IS_WANT_OBJECT,true,95;IS_DROP_OBJECT,true,3;IS_MOTIVATION_2_DEC,true,89;IS_MOTIVATION_1_DEC,false,31;B_RANDOM_WALK,7#
P_MOTIVATION_2_LT,true;P_HAS_OBJECT,true;*:*:B_ANTI_PHOTOTAXIS,61;IS_MOTIVATION_2_INC,false,34#*:*:IS_WANT_OBJECT,true,95;IS_DROP_OBJECT,true,3;IS_MOTIVATION_2_DEC,true,89;IS_MOTIVATION_1_DEC,false,31;B_RANDOM_WALK,7#
P_MOTIVATION_2_LT,true;P_HAS_OBJECT,true;*:*:B_ANTI_PHOTOTAXIS,61;IS_MOTIVATION_2_INC,false,34#*:*:IS_WANT_OBJECT,true,95;IS_DROP_OBJECT,true,3;IS_MOTIVATION_2_DEC,true,89;IS_MOTIVATION_1_DEC,false,31;B_RANDOM_WALK,7#
P_MOTIVATION_2_LT,true;P_HAS_OBJECT,true;*:*:B_ANTI_PHOTOTAXIS,61;IS_MOTIVATION_2_INC,false,34#*:*:IS_WANT_OBJECT,true,95;IS_DROP_OBJECT,true,3;IS_MOTIVATION_2_DEC,true,89;IS_MOTIVATION_1_DEC,false,31;B_RANDOM_WALK,7#
P_MOTIVATION_2_LT,true;P_HAS_OBJECT,true;*:*:B_ANTI_PHOTOTAXIS,61;IS_MOTIVATION_2_INC,false,34#*:*:IS_WANT_OBJECT,true,95;IS_DROP_OBJECT,true,3;IS_MOTIVATION_2_DEC,true,89;IS_MOTIVATION_1_DEC,false,31;B_RANDOM_WALK,7#
P_MOTIVATION_2_LT,true;P_HAS_OBJECT,true;*:*:B_ANTI_PHOTOTAXIS,61;IS_MOTIVATION_2_INC,false,34#*:*:IS_WANT_OBJECT,true,95;IS_DROP_OBJECT,true,3;IS_MOTIVATION_2_DEC,true,89;IS_MOTIVATION_1_DEC,false,31;B_RANDOM_WALK,7#
P_MOTIVATION_2_LT,true;P_HAS_OBJECT,true;*:*:B_ANTI_PHOTOTAXIS,61;IS_MOTIVATION_2_INC,false,34#*:*:IS_WANT_OBJECT,true,95;IS_DROP_OBJECT,true,3;IS_MOTIVATION_2_DEC,true,89;IS_MOTIVATION_1_DEC,false,31;B_RANDOM_WALK,7#
P_MOTIVATION_2_LT,true;P_HAS_OBJECT,true;*:*:B_ANTI_PHOTOTAXIS,61;IS_MOTIVATION_2_INC,false,34#*:*:IS_WANT_OBJECT,true,95;IS_DROP_OBJECT,true,3;IS_MOTIVATION_2_DEC,true,89;IS_MOTIVATION_1_DEC,false,31;B_RANDOM_WALK,7#
P_MOTIVATION_2_LT,true;P_HAS_OBJECT,true;*:*:B_ANTI_PHOTOTAXIS,61;IS_MOTIVATION_2_INC,false,34#*:*:IS_WANT_OBJECT,true,95;IS_DROP_OBJECT,true,3;IS_MOTIVATION_2_DEC,true,89;IS_MOTIVATION_1_DEC,false,31;B_RANDOM_WALK,7#
P_MOTIVATION_2_LT,true;P_HAS_OBJECT,true;*:*:B_ANTI_PHOTOTAXIS,61;IS_MOTIVATION_2_INC,false,34#*:*:IS_WANT_OBJECT,true,95;IS_DROP_OBJECT,true,3;IS_MOTIVATION_2_DEC,true,89;IS_MOTIVATION_1_DEC,false,31;B_RANDOM_WALK,7#
P_MOTIVATION_2_LT,true;P_HAS_OBJECT,true;*:*:B_ANTI_PHOTOTAXIS,61;IS_MOTIVATION_2_INC,false,34#*:*:IS_WANT_OBJECT,true,95;IS_DROP_OBJECT,true,3;IS_MOTIVATION_2_DEC,true,89;IS_MOTIVATION_1_DEC,false,31;B_RANDOM_WALK,7#
P_MOTIVATION_2_LT,true;P_HAS_OBJECT,true;*:*:B_ANTI_PHOTOTAXIS,61;IS_MOTIVATION_2_INC,false,34#*:*:IS_WANT_OBJECT,true,95;IS_DROP_OBJECT,true,3;IS_MOTIVATION_2_DEC,true,89;IS_MOTIVATION_1_DEC,false,31;B_RANDOM_WALK,7#
P_MOTIVATION_2_LT,true;P_HAS_OBJECT,true;*:*:B_ANTI_PHOTOTAXIS,61;IS_MOTIVATION_2_INC,false,34#*:*:IS_WANT_OBJECT,true,95;IS_DROP_OBJECT,true,3;IS_MOTIVATION_2_DEC,true,89;IS_MOTIVATION_1_DEC,false,31;B_RANDOM_WALK,7#
P_MOTIVATION_2_LT,true;P_HAS_OBJECT,true;*:*:B_ANTI_PHOTOTAXIS,61;IS_MOTIVATION_2_INC,false,34#*:*:IS_WANT_OBJECT,true,95;IS_DROP_OBJECT,true,3;IS_MOTIVATION_2_DEC,true,89;IS_MOTIVATION_1_DEC,false,31;B_RANDOM_WALK,7#
P_MOTIVATION_2_LT,true;P_HAS_OBJECT,true;*:*:B_ANTI_PHOTOTAXIS,61;IS_MOTIVATION_2_INC,false,34#*:*:IS_WANT_OBJECT,true,95;IS_DROP_OBJECT,true,3;IS_MOTIVATION_2_DEC,true,89;IS_MOTIVATION_1_DEC,false,31;B_RANDOM_WALK,7#
P_MOTIVATION_2_LT,true;P_HAS_OBJECT,true;*:*:B_ANTI_PHOTOTAXIS,61;IS_MOTIVATION_2_INC,false,34#*:*:IS_WANT_OBJECT,true,95;IS_DROP_OBJECT,true,3;IS_MOTIVATION_2_DEC,true,89;IS_MOTIVATION_1_DEC,false,31;B_RANDOM_WALK,7#
P_MOTIVATION_2_LT,true;P_HAS_OBJECT,true;*:*:B_ANTI_PHOTOTAXIS,61;IS_MOTIVATION_2_INC,false,34#*:*:IS_WANT_OBJECT,true,95;IS_DROP_OBJECT,true,3;IS_MOTIVATION_2_DEC,true,89;IS_MOTIVATION_1_DEC,false,31;B_RANDOM_WALK,7#
P_MOTIVATION_2_LT,true;P_HAS_OBJECT,true;*:*:B_ANTI_PHOTOTAXIS,61;IS_MOTIVATION_2_INC,false,34#*:*:IS_WANT_OBJECT,true,95;IS_DROP_OBJECT,true,3;IS_MOTIVATION_2_DEC,true,89;IS_MOTIVATION_1_DEC,false,31;B_RANDOM_WALK,7#
P_MOTIVATION_2_LT,true;P_HAS_OBJECT,true;*:*:B_ANTI_PHOTOTAXIS,61;IS_MOTIVATION_2_INC,false,34#*:*:IS_WANT_OBJECT,true,95;IS_DROP_OBJECT,true,3;IS_MOTIVATION_2_DEC,true,89;IS_MOTIVATION_1_DEC,false,31;B_RANDOM_WALK,7#
P_MOTIVATION_2_LT,true;P_HAS_OBJECT,true;*:*:B_ANTI_PHOTOTAXIS,61;IS_MOTIVATION_2_INC,false,34#*:*:IS_WANT_OBJECT,true,95;IS_DROP_OBJECT,true,3;IS_MOTIVATION_2_DEC,true,89;IS_MOTIVATION_1_DEC,false,31;B_RANDOM_WALK,7#
P_MOTIVATION_2_LT,true;P_HAS_OBJECT,true;*:*:B_ANTI_PHOTOTAXIS,61;IS_MOTIVATION_2_INC,false,34#*:*:IS_WANT_OBJECT,true,95;IS_DROP_OBJECT,true,3;IS_MOTIVATION_2_DEC,true,89;IS_MOTIVATION_1_DEC,false,31;B_RANDOM_WALK,7#
P_MOTIVATION_2_LT,true;P_HAS_OBJECT,true;*:*:B_ANTI_PHOTOTAXIS,61;IS_MOTIVATION_2_INC,false,34#*:*:IS_WANT_OBJECT,true,95;IS_DROP_OBJECT,true,3;IS_MOTIVATION_2_DEC,true,89;IS_MOTIVATION_1_DEC,false,31;B_RANDOM_WALK,7#
P_MOTIVATION_2_LT,true;P_HAS_OBJECT,true;*:*:B_ANTI_PHOTOTAXIS,61;IS_MOTIVATION_2_INC,false,34#*:*:IS_WANT_OBJECT,true,95;IS_DROP_OBJECT,true,3;IS_MOTIVATION_2_DEC,true,89;IS_MOTIVATION_1_DEC,false,31;B_RANDOM_WALK,7#
P_MOTIVATION_2_LT,true;P_HAS_OBJECT,true;*:*:B_ANTI_PHOTOTAXIS,61;IS_MOTIVATION_2_INC,false,34#*:*:IS_WANT_OBJECT,true,95;IS_DROP_OBJECT,true,3;IS_MOTIVATION_2_DEC,true,89;IS_MOTIVATION_1_DEC,false,31;B_RANDOM_WALK,7#
P_MOTIVATION_2_LT,true;P_HAS_OBJECT,true;*:*:B_ANTI_PHOTOTAXIS,61;IS_MOTIVATION_2_INC,false,34#*:*:IS_WANT_OBJECT,true,95;IS_DROP_OBJECT,true,3;IS_MOTIVATION_2_DEC,true,89;IS_MOTIVATION_1_DEC,false,31;B_RANDOM_WALK,7#
P_MOTIVATION_2_LT,true;P_HAS_OBJECT,true;*:*:B_ANTI_PHOTOTAXIS,61;IS_MOTIVATION_2_INC,false,34#*:*:IS_WANT_OBJECT,true,95;IS_DROP_OBJECT,true,3;IS_MOTIVATION_2_DEC,true,89;IS_MOTIVATION_1_DEC,false,31;B_RANDOM_WALK,7#
P_MOTIVATION_2_LT,true;P_HAS_OBJECT,true;*:*:B_ANTI_PHOTOTAXIS,61;IS_MOTIVATION_2_INC,false,34#*:*:IS_WANT_OBJECT,true,95;IS_DROP_OBJECT,true,3;IS_MOTIVATION_2_DEC,true,89;IS_MOTIVATION_1_DEC,false,31;B_RANDOM_WALK,7#
P_MOTIVATION_2_LT,true;P_HAS_OBJECT,true;*:*:B_ANTI_PHOTOTAXIS,61;IS_MOTIVATION_2_INC,false,34#*:*:IS_WANT_OBJECT,true,95;IS_DROP_OBJECT,true,3;IS_MOTIVATION_2_DEC,true,89;IS_MOTIVATION_1_DEC,false,31;B_RANDOM_WALK,7#
P_MOTIVATION_2_LT,true;P_HAS_OBJECT,true;*:*:B_ANTI_PHOTOTAXIS,61;IS_MOTIVATION_2_INC,false,34#*:*:IS_WANT_OBJECT,true,95;IS_DROP_OBJECT,true,3;IS_MOTIVATION_2_DEC,true,89;IS_MOTIVATION_1_DEC,false,31;B_RANDOM_WALK,7#
P_MOTIVATION_2_LT,true;P_HAS_OBJECT,true;*:*:B_ANTI_PHOTOTAXIS,61;IS_MOTIVATION_2_INC,false,34#*:*:IS_WANT_OBJECT,true,95;IS_DROP_OBJECT,true,3;IS_MOTIVATION_2_DEC,true,89;IS_MOTIVATION_1_DEC,false,31;B_RANDOM_WALK,7#
P_MOTIVATION_2_LT,true;P_HAS_OBJECT,true;*:*:B_ANTI_PHOTOTAXIS,61;IS_MOTIVATION_2_INC,false,34#*:*:IS_WANT_OBJECT,true,95;IS_DROP_OBJECT,true,3;IS_MOTIVATION_2_DEC,true,89;IS_MOTIVATION_1_DEC,false,31;B_RANDOM_WALK,7#
P_MOTIVATION_2_LT,true;P_HAS_OBJECT,true;*:*:B_ANTI_PHOTOTAXIS,61;IS_MOTIVATION_2_INC,false,34#*:*:IS_WANT_OBJECT,true,95;IS_DROP_OBJECT,true,3;IS_MOTIVATION_2_DEC,true,89;IS_MOTIVATION_1_DEC,false,31;B_RANDOM_WALK,7#
P_MOTIVATION_2_LT,true;P_HAS_OBJECT,true;*:*:B_ANTI_PHOTOTAXIS,61;IS_MOTIVATION_2_INC,false,34#*:*:IS_WANT_OBJECT,true,95;IS_DROP_OBJECT,true,3;IS_MOTIVATION_2_DEC,true,89;IS_MOTIVATION_1_DEC,false,31;B_RANDOM_WALK,7#
P_MOTIVATION_2_LT,true;P_HAS_OBJECT,true;*:*:B_ANTI_PHOTOTAXIS,61;IS_MOTIVATION_2_INC,false,34#*:*:IS_WANT_OBJECT,true,95;IS_DROP_OBJECT,true,3;IS_MOTIVATION_2_DEC,true,89;IS_MOTIVATION_1_DEC,false,31;B_RANDOM_WALK,7#
P_MOTIVATION_2_LT,true;P_HAS_OBJECT,true;*:*:B_ANTI_PHOTOTAXIS,61;IS_MOTIVATION_2_INC,false,34#*:*:IS_WANT_OBJECT,true,95;IS_DROP_OBJECT,true,3;IS_MOTIVATION_2_DEC,true,89;IS_MOTIVATION_1_DEC,false,31;B_RANDOM_WALK,7#
P_MOTIVATION_2_LT,true;P_HAS_OBJECT,true;*:*:B_ANTI_PHOTOTAXIS,61;IS_MOTIVATION_2_INC,false,34#*:*:IS_WANT_OBJECT,true,95;IS_DROP_OBJECT,true,3;IS_MOTIVATION_2_DEC,true,89;IS_MOTIVATION_1_DEC,false,31;B_RANDOM_WALK,7#
P_MOTIVATION_2_LT,true;P_HAS_OBJECT,true;*:*:B_ANTI_PHOTOTAXIS,61;IS_MOTIVATION_2_INC,false,34#*:*:IS_WANT_OBJECT,true,95;IS_DROP_OBJECT,true,3;IS_MOTIVATION_2_DEC,true,89;IS_MOTIVATION_1_DEC,false,31;B_RANDOM_WALK,7#
P_MOTIVATION_2_LT,true;P_HAS_OBJECT,true;*:*:B_ANTI_PHOTOTAXIS,61;IS_MOTIVATION_2_INC,false,34#*:*:IS_WANT_OBJECT,true,95;IS_DROP_OBJECT,true,3;IS_MOTIVATION_2_DEC,true,89;IS_MOTIVATION_1_DEC,false,31;B_RANDOM_WALK,7#
P_MOTIVATION_2_LT,true;P_HAS_OBJECT,true;*:*:B_ANTI_PHOTOTAXIS,61;IS_MOTIVATION_2_INC,false,34#*:*:IS_WANT_OBJECT,true,95;IS_DROP_OBJECT,true,3;IS_MOTIVATION_2_DEC,true,89;IS_MOTIVATION_1_DEC,false,31;B_RANDOM_WALK,7#
P_MOTIVATION_2_LT,true;P_HAS_OBJECT,true;*:*:B_ANTI_PHOTOTAXIS,61;IS_MOTIVATION_2_INC,false,34#*:*:IS_WANT_OBJECT,true,95;IS_DROP_OBJECT,true,3;IS_MOTIVATION_2_DEC,true,89;IS_MOTIVATION_1_DEC,false,31;B_RANDOM_WALK,7#
P_MOTIVATION_2_LT,true;P_HAS_OBJECT,true;*:*:B_ANTI_PHOTOTAXIS,61;IS_MOTIVATION_2_INC,false,34#*:*:IS_WANT_OBJECT,true,95;IS_DROP_OBJECT,true,3;IS_MOTIVATION_2_DEC,true,89;IS_MOTIVATION_1_DEC,false,31;B_RANDOM_WALK,7#
P_MOTIVATION_2_LT,true;P_HAS_OBJECT,true;*:*:B_ANTI_PHOTOTAXIS,61;IS_MOTIVATION_2_INC,false,34#*:*:IS_WANT_OBJECT,true,95;IS_DROP_OBJECT,true,3;IS_MOTIVATION_2_DEC,true,89;IS_MOTIVATION_1_DEC,false,31;B_RANDOM_WALK,7#
P_MOTIVATION_2_LT,true;P_HAS_OBJECT,true;*:*:B_ANTI_PHOTOTAXIS,61;IS_MOTIVATION_2_INC,false,34#*:*:IS_WANT_OBJECT,true,95;IS_DROP_OBJECT,true,3;IS_MOTIVATION_2_DEC,true,89;IS_MOTIVATION_1_DEC,false,31;B_RANDOM_WALK,7#
P_MOTIVATION_2_LT,true;P_HAS_OBJECT,true;*:*:B_ANTI_PHOTOTAXIS,61;IS_MOTIVATION_2_INC,false,34#*:*:IS_WANT_OBJECT,true,95;IS_DROP_OBJECT,true,3;IS_MOTIVATION_2_DEC,true,89;IS_MOTIVATION_1_DEC,false,31;B_RANDOM_WALK,7#
P_MOTIVATION_2_LT,true;P_HAS_OBJECT,true;*:*:B_ANTI_PHOTOTAXIS,61;IS_MOTIVATION_2_INC,false,34#*:*:IS_WANT_OBJECT,true,95;IS_DROP_OBJECT,true,3;IS_MOTIVATION_2_DEC,true,89;IS_MOTIVATION_1_DEC,false,31;B_RANDOM_WALK,7#
P_MOTIVATION_2_LT,true;P_HAS_OBJECT,true;*:*:B_ANTI_PHOTOTAXIS,61;IS_MOTIVATION_2_INC,false,34#*:*:IS_WANT_OBJECT,true,95;IS_DROP_OBJECT,true,3;IS_MOTIVATION_2_DEC,true,89;IS_MOTIVATION_1_DEC,false,31;B_RANDOM_WALK,7#
