1.0
1.0
1.0
1.0
1.0
1.0
1.0
1.0
1.0
1.0
1.0
1.0
0.512821
0.512821
0.518668
0.518668
0.518668
0.518668
0.518668
0.518668
0.518668
0.518668
0.518668
0.518668
0.518668
0.518668
0.518668
0.518668
0.518668
0.518668
0.518668
0.518668
0.518668
0.518668
0.518668
0.518668
0.518668
0.518668
0.518668
0.518668
0.518668
0.518668
0.518668
0.518668
0.518668
0.518668
0.518668
0.518668
0.518668
0.518668
0.518668
0.518668
0.518668
0.518668
0.518668
0.518668
0.518668
0.518668
0.518668
0.518668
0.518668
0.518668
0.518668
0.662698
0.662698
0.662698
0.662698
0.662698
0.662698
0.662698
0.662698
0.662698
0.662698
0.662698
0.662698
0.662698
0.662698
0.662698
0.662698
0.662698
0.662698
0.662698
0.662698
0.662698
0.662698
0.662698
0.662698
0.662698
0.662698
0.662698
0.662698
0.662698
0.662698
0.662698
0.662698
0.662698
0.662698
0.662698
0.662698
0.662698
0.662698
0.662698
0.662698
0.662698
0.662698
0.662698
0.662698
0.662698
0.662698
0.662698
0.662698
0.662698
0.662698
0.662698
0.662698
0.662698
0.662698
0.662698
0.662698
0.662698
0.662698
0.662698
0.662698
0.662698
0.662698
0.662698
0.662698
0.662698
0.662698
0.662698
0.662698
0.662698
0.662698
0.662698
0.662698
0.662698
0.662698
0.662698
0.662698
0.662698
0.662698
0.662698
0.662698
0.662698
0.662698
0.662698
0.662698
0.662698
0.662698
0.662698
0.662698
0.662698
0.662698
0.662698
0.662698
0.662698
0.662698
0.662698
0.662698
0.662698
0.662698
0.662698
0.662698
0.662698
0.662698
0.662698
0.662698
0.662698
0.662698
0.662698
0.662698
0.662698
0.662698
0.662698
0.662698
0.662698
0.662698
0.662698
0.662698
0.662698
0.662698
0.662698
0.662698
0.662698
0.662698
0.662698
0.662698
0.662698
0.662698
0.662698
0.662698
0.662698
0.662698
0.662698
0.662698
0.662698
0.662698
0.662698
0.662698
0.662698
0.662698
0.662698
0.662698
0.662698
0.662698
0.662698
0.662698
0.662698
0.662698
0.662698
0.662698
0.662698
0.701203
0.701203
0.701203
0.701203
0.701203
0.701203
0.701203
0.701203
0.701203
0.701203
0.701203
0.701203
0.701203
0.701203
0.701203
0.701203
0.701203
0.701203
0.701203
0.701203
0.701203
0.701203
0.701203
0.701203
0.701203
0.701203
0.701203
0.701203
0.701203
0.701203
0.701203
0.701203
0.701203
0.701203
0.701203
0.701203
0.701203
0.701203
0.701203
0.701203
0.701203
0.701203
0.701203
0.701203
0.701203
0.701203
0.701203
0.701203
