*:*:IS_DROP_OBJECT,true,59;B_RANDOM_WALK,57#P_MOTIVATION_1_LT,false;*:*:IS_WANT_OBJECT,true,69#
*:*:IS_DROP_OBJECT,true,59;B_RANDOM_WALK,57#P_MOTIVATION_1_LT,false;*:*:IS_WANT_OBJECT,true,69#
*:*:IS_DROP_OBJECT,true,59;B_RANDOM_WALK,57#P_MOTIVATION_1_LT,false;*:*:IS_WANT_OBJECT,true,69#
*:*:IS_DROP_OBJECT,true,59;B_RANDOM_WALK,57#P_MOTIVATION_1_LT,false;*:*:IS_WANT_OBJECT,true,69#
*:*:IS_DROP_OBJECT,true,59;B_RANDOM_WALK,57#P_MOTIVATION_1_LT,false;*:*:IS_WANT_OBJECT,true,69#
*:*:IS_DROP_OBJECT,true,59;B_RANDOM_WALK,57#P_MOTIVATION_1_LT,false;*:*:IS_WANT_OBJECT,true,69#
*:*:IS_DROP_OBJECT,true,59;B_RANDOM_WALK,57#P_MOTIVATION_1_LT,false;*:*:IS_WANT_OBJECT,true,69#
*:*:IS_DROP_OBJECT,true,59;B_RANDOM_WALK,57#P_MOTIVATION_1_LT,false;*:*:IS_WANT_OBJECT,true,69#
*:*:IS_DROP_OBJECT,true,59;B_RANDOM_WALK,57#P_MOTIVATION_1_LT,false;*:*:IS_WANT_OBJECT,true,69#
*:*:IS_DROP_OBJECT,true,59;B_RANDOM_WALK,57#P_MOTIVATION_1_LT,false;*:*:IS_WANT_OBJECT,true,69#
*:*:IS_MOTIVATION_1_INC,false,19#*:*:IS_MOTIVATION_1_DEC,false,29;IS_WANT_OBJECT,true,80;IS_WANT_OBJECT,false,9;B_ANTI_PHOTOTAXIS,79;IS_MOTIVATION_2_DEC,false,87;B_RANDOM_WALK,93#
*:*:IS_MOTIVATION_1_INC,false,19#*:*:IS_MOTIVATION_1_DEC,false,29;IS_WANT_OBJECT,true,80;IS_WANT_OBJECT,false,9;B_ANTI_PHOTOTAXIS,79;IS_MOTIVATION_2_DEC,false,87;B_RANDOM_WALK,93#
*:*:IS_MOTIVATION_1_INC,false,19#*:*:IS_MOTIVATION_1_DEC,true,95;IS_WANT_OBJECT,true,80;IS_WANT_OBJECT,false,9;B_ANTI_PHOTOTAXIS,79;IS_DROP_OBJECT,false,87;B_RANDOM_WALK,93#
*:*:IS_MOTIVATION_1_INC,false,19#*:*:IS_MOTIVATION_1_DEC,true,95;IS_WANT_OBJECT,true,80;IS_WANT_OBJECT,false,9;B_ANTI_PHOTOTAXIS,79;IS_DROP_OBJECT,false,87;B_RANDOM_WALK,93#
*:*:IS_MOTIVATION_1_INC,false,19#*:*:IS_WANT_OBJECT,true,15;IS_WANT_OBJECT,true,80;IS_WANT_OBJECT,false,9;B_ANTI_PHOTOTAXIS,79;IS_DROP_OBJECT,false,87;B_RANDOM_WALK,93#
*:*:IS_MOTIVATION_1_INC,false,19#*:*:IS_WANT_OBJECT,true,15;IS_WANT_OBJECT,true,80;IS_WANT_OBJECT,false,9;B_ANTI_PHOTOTAXIS,79;IS_DROP_OBJECT,false,87;B_RANDOM_WALK,93#
*:*:IS_MOTIVATION_1_INC,false,19#*:*:IS_WANT_OBJECT,true,15;IS_WANT_OBJECT,true,80;IS_WANT_OBJECT,false,9;B_ANTI_PHOTOTAXIS,79;IS_DROP_OBJECT,false,87;B_RANDOM_WALK,93#
*:*:IS_MOTIVATION_1_INC,false,19#*:*:IS_WANT_OBJECT,true,15;IS_WANT_OBJECT,true,80;IS_WANT_OBJECT,false,9;B_ANTI_PHOTOTAXIS,79;IS_DROP_OBJECT,false,87;B_RANDOM_WALK,93#
*:*:IS_MOTIVATION_1_INC,false,19#*:*:IS_WANT_OBJECT,true,15;IS_WANT_OBJECT,true,80;IS_WANT_OBJECT,false,9;B_ANTI_PHOTOTAXIS,79;IS_DROP_OBJECT,false,87;B_RANDOM_WALK,93#
*:*:IS_MOTIVATION_1_INC,false,19#*:*:IS_WANT_OBJECT,true,15;IS_WANT_OBJECT,true,80;IS_WANT_OBJECT,false,9;B_ANTI_PHOTOTAXIS,79;IS_DROP_OBJECT,false,87;B_RANDOM_WALK,93#
*:*:IS_MOTIVATION_1_INC,false,19#*:*:IS_WANT_OBJECT,true,15;IS_WANT_OBJECT,true,80;IS_WANT_OBJECT,false,9;B_ANTI_PHOTOTAXIS,79;IS_DROP_OBJECT,false,87;B_RANDOM_WALK,93#
*:*:IS_MOTIVATION_1_INC,false,19#*:*:IS_WANT_OBJECT,true,15;IS_WANT_OBJECT,true,80;IS_WANT_OBJECT,false,9;B_ANTI_PHOTOTAXIS,79;IS_DROP_OBJECT,false,87;B_RANDOM_WALK,93#
*:*:IS_MOTIVATION_1_INC,false,19#*:*:IS_WANT_OBJECT,true,15;IS_WANT_OBJECT,true,80;IS_WANT_OBJECT,false,9;B_ANTI_PHOTOTAXIS,79;IS_DROP_OBJECT,false,87;B_RANDOM_WALK,93#
*:*:IS_MOTIVATION_1_INC,false,19#*:*:IS_WANT_OBJECT,true,15;IS_WANT_OBJECT,true,80;IS_WANT_OBJECT,false,9;B_ANTI_PHOTOTAXIS,79;IS_DROP_OBJECT,false,87;B_RANDOM_WALK,93#
*:*:IS_MOTIVATION_1_INC,false,19#*:*:IS_WANT_OBJECT,true,15;IS_WANT_OBJECT,true,80;IS_WANT_OBJECT,false,9;B_ANTI_PHOTOTAXIS,79;IS_DROP_OBJECT,false,87;B_RANDOM_WALK,93#
*:*:IS_MOTIVATION_1_INC,false,19#*:*:IS_WANT_OBJECT,true,15;IS_WANT_OBJECT,true,80;IS_WANT_OBJECT,false,9;B_ANTI_PHOTOTAXIS,79;IS_DROP_OBJECT,false,87;B_RANDOM_WALK,93#
*:*:IS_MOTIVATION_1_INC,false,19#*:*:IS_WANT_OBJECT,true,15;IS_WANT_OBJECT,true,80;IS_WANT_OBJECT,false,9;B_ANTI_PHOTOTAXIS,79;IS_DROP_OBJECT,false,87;B_RANDOM_WALK,93#
*:*:IS_MOTIVATION_1_INC,false,19#*:*:IS_WANT_OBJECT,true,15;IS_WANT_OBJECT,true,80;IS_WANT_OBJECT,false,9;B_ANTI_PHOTOTAXIS,79;IS_DROP_OBJECT,false,87;B_RANDOM_WALK,93#
*:*:IS_MOTIVATION_1_INC,false,19#*:*:IS_WANT_OBJECT,true,15;IS_WANT_OBJECT,true,80;IS_WANT_OBJECT,false,9;B_ANTI_PHOTOTAXIS,79;IS_DROP_OBJECT,false,87;B_RANDOM_WALK,93#
*:*:IS_MOTIVATION_1_INC,false,19#*:*:IS_WANT_OBJECT,true,15;IS_WANT_OBJECT,true,80;IS_WANT_OBJECT,false,9;B_ANTI_PHOTOTAXIS,79;IS_DROP_OBJECT,false,87;B_RANDOM_WALK,93#
*:*:IS_MOTIVATION_1_INC,false,19#*:*:IS_WANT_OBJECT,true,15;IS_WANT_OBJECT,true,80;IS_WANT_OBJECT,false,9;B_ANTI_PHOTOTAXIS,79;IS_DROP_OBJECT,false,87;B_RANDOM_WALK,93#
*:*:IS_MOTIVATION_1_INC,false,19#*:*:IS_WANT_OBJECT,true,15;IS_WANT_OBJECT,true,80;IS_WANT_OBJECT,false,9;B_ANTI_PHOTOTAXIS,79;IS_DROP_OBJECT,false,87;B_RANDOM_WALK,93#
*:*:IS_MOTIVATION_1_INC,false,19#*:*:IS_WANT_OBJECT,true,15;IS_WANT_OBJECT,true,80;IS_WANT_OBJECT,false,9;B_ANTI_PHOTOTAXIS,79;IS_DROP_OBJECT,false,87;B_RANDOM_WALK,93#
*:*:IS_MOTIVATION_1_INC,false,19#*:*:IS_WANT_OBJECT,true,15;IS_WANT_OBJECT,true,80;IS_WANT_OBJECT,false,9;B_ANTI_PHOTOTAXIS,79;IS_DROP_OBJECT,false,87;B_RANDOM_WALK,93#
*:*:IS_MOTIVATION_1_INC,false,19#*:*:IS_WANT_OBJECT,true,15;IS_WANT_OBJECT,true,80;IS_WANT_OBJECT,false,9;B_ANTI_PHOTOTAXIS,79;IS_DROP_OBJECT,false,87;B_RANDOM_WALK,93#
*:*:IS_MOTIVATION_1_INC,false,19#*:*:IS_WANT_OBJECT,true,15;IS_WANT_OBJECT,true,80;IS_WANT_OBJECT,false,9;B_ANTI_PHOTOTAXIS,79;IS_DROP_OBJECT,false,87;B_RANDOM_WALK,93#
*:*:IS_MOTIVATION_1_INC,false,19#*:*:IS_WANT_OBJECT,true,15;IS_WANT_OBJECT,true,80;IS_WANT_OBJECT,false,9;B_ANTI_PHOTOTAXIS,79;IS_DROP_OBJECT,false,87;B_RANDOM_WALK,93#
*:*:IS_MOTIVATION_1_INC,false,19#*:*:IS_WANT_OBJECT,true,15;IS_WANT_OBJECT,true,80;IS_WANT_OBJECT,false,9;B_ANTI_PHOTOTAXIS,79;IS_DROP_OBJECT,false,87;B_RANDOM_WALK,93#
*:*:IS_MOTIVATION_1_INC,false,19#*:*:IS_WANT_OBJECT,true,15;IS_WANT_OBJECT,true,80;IS_WANT_OBJECT,false,9;B_ANTI_PHOTOTAXIS,79;IS_DROP_OBJECT,false,87;B_RANDOM_WALK,93#
*:*:IS_MOTIVATION_1_INC,false,19#*:*:IS_WANT_OBJECT,true,15;IS_WANT_OBJECT,true,80;IS_WANT_OBJECT,false,9;B_ANTI_PHOTOTAXIS,79;IS_DROP_OBJECT,false,87;B_RANDOM_WALK,93#
*:*:IS_MOTIVATION_1_INC,false,19#*:*:IS_WANT_OBJECT,true,15;IS_WANT_OBJECT,true,80;IS_WANT_OBJECT,false,9;B_ANTI_PHOTOTAXIS,79;IS_DROP_OBJECT,false,87;B_RANDOM_WALK,93#
*:*:IS_MOTIVATION_1_INC,false,19#*:*:IS_WANT_OBJECT,true,15;IS_WANT_OBJECT,true,80;IS_WANT_OBJECT,false,9;B_ANTI_PHOTOTAXIS,79;IS_DROP_OBJECT,false,87;B_RANDOM_WALK,93#
*:*:IS_MOTIVATION_1_INC,false,19#*:*:IS_WANT_OBJECT,true,15;IS_WANT_OBJECT,true,80;IS_WANT_OBJECT,false,9;B_ANTI_PHOTOTAXIS,79;IS_DROP_OBJECT,false,87;B_RANDOM_WALK,93#
*:*:IS_MOTIVATION_1_INC,false,19#*:*:IS_WANT_OBJECT,true,15;IS_WANT_OBJECT,true,80;IS_WANT_OBJECT,false,9;B_ANTI_PHOTOTAXIS,79;IS_DROP_OBJECT,false,87;B_RANDOM_WALK,93#
*:*:IS_MOTIVATION_1_INC,false,19#*:*:IS_WANT_OBJECT,true,15;IS_WANT_OBJECT,true,80;IS_WANT_OBJECT,false,9;B_ANTI_PHOTOTAXIS,79;IS_DROP_OBJECT,false,87;B_RANDOM_WALK,93#
*:*:IS_MOTIVATION_1_INC,false,19#*:*:IS_WANT_OBJECT,true,15;IS_WANT_OBJECT,true,80;IS_WANT_OBJECT,false,9;B_ANTI_PHOTOTAXIS,79;IS_DROP_OBJECT,false,87;B_RANDOM_WALK,93#
*:*:IS_MOTIVATION_1_INC,false,19#*:*:IS_WANT_OBJECT,true,15;IS_WANT_OBJECT,true,80;IS_WANT_OBJECT,false,9;B_ANTI_PHOTOTAXIS,79;IS_DROP_OBJECT,false,87;B_RANDOM_WALK,93#
*:*:IS_MOTIVATION_1_INC,false,19#*:*:IS_WANT_OBJECT,true,15;IS_WANT_OBJECT,true,80;IS_WANT_OBJECT,false,9;B_ANTI_PHOTOTAXIS,79;IS_DROP_OBJECT,false,87;B_RANDOM_WALK,93#
*:*:IS_MOTIVATION_1_INC,false,19#*:*:IS_WANT_OBJECT,true,15;IS_WANT_OBJECT,true,80;IS_WANT_OBJECT,false,9;B_ANTI_PHOTOTAXIS,79;IS_DROP_OBJECT,false,87;B_RANDOM_WALK,93#
*:*:IS_MOTIVATION_1_INC,false,19#*:*:IS_WANT_OBJECT,true,15;IS_WANT_OBJECT,true,80;IS_WANT_OBJECT,false,9;B_ANTI_PHOTOTAXIS,79;IS_DROP_OBJECT,false,87;B_RANDOM_WALK,93#
*:*:IS_MOTIVATION_1_INC,false,19#*:*:IS_WANT_OBJECT,true,15;IS_WANT_OBJECT,true,80;IS_WANT_OBJECT,false,9;B_ANTI_PHOTOTAXIS,79;IS_DROP_OBJECT,false,87;B_RANDOM_WALK,93#
*:*:IS_MOTIVATION_1_INC,false,19#*:*:IS_WANT_OBJECT,true,15;IS_WANT_OBJECT,true,80;IS_WANT_OBJECT,false,9;B_ANTI_PHOTOTAXIS,79;IS_DROP_OBJECT,false,87;B_RANDOM_WALK,93#
*:*:IS_MOTIVATION_1_INC,false,19#*:*:IS_WANT_OBJECT,true,15;IS_WANT_OBJECT,true,80;IS_WANT_OBJECT,false,9;B_ANTI_PHOTOTAXIS,79;IS_DROP_OBJECT,false,87;B_RANDOM_WALK,93#
*:*:IS_MOTIVATION_1_INC,false,19#*:*:IS_WANT_OBJECT,true,15;IS_WANT_OBJECT,true,80;IS_WANT_OBJECT,false,9;B_ANTI_PHOTOTAXIS,79;IS_DROP_OBJECT,false,87;B_RANDOM_WALK,93#
*:*:IS_MOTIVATION_1_INC,false,19#*:*:IS_WANT_OBJECT,true,15;IS_WANT_OBJECT,true,80;IS_WANT_OBJECT,false,9;B_ANTI_PHOTOTAXIS,79;IS_DROP_OBJECT,false,87;B_RANDOM_WALK,93#
*:*:IS_MOTIVATION_1_INC,false,19#*:*:IS_WANT_OBJECT,true,15;IS_WANT_OBJECT,true,80;IS_WANT_OBJECT,false,9;B_ANTI_PHOTOTAXIS,79;IS_DROP_OBJECT,false,87;B_RANDOM_WALK,93#
*:*:IS_MOTIVATION_1_INC,false,19#*:*:IS_WANT_OBJECT,true,15;IS_WANT_OBJECT,true,80;IS_WANT_OBJECT,false,9;B_ANTI_PHOTOTAXIS,79;IS_DROP_OBJECT,false,87;B_RANDOM_WALK,93#
*:*:IS_MOTIVATION_1_INC,false,19#*:*:IS_WANT_OBJECT,true,15;IS_WANT_OBJECT,true,80;IS_WANT_OBJECT,false,9;B_ANTI_PHOTOTAXIS,79;IS_DROP_OBJECT,false,87;B_RANDOM_WALK,93#
*:*:IS_MOTIVATION_1_INC,false,19#*:*:IS_WANT_OBJECT,true,15;IS_WANT_OBJECT,true,80;IS_WANT_OBJECT,false,9;B_ANTI_PHOTOTAXIS,79;IS_DROP_OBJECT,false,87;B_RANDOM_WALK,93#
*:*:IS_MOTIVATION_1_INC,false,19#*:*:IS_WANT_OBJECT,true,15;IS_WANT_OBJECT,true,80;IS_WANT_OBJECT,false,9;B_ANTI_PHOTOTAXIS,79;IS_DROP_OBJECT,false,87;B_RANDOM_WALK,93#
*:*:IS_MOTIVATION_1_INC,false,19#*:*:IS_WANT_OBJECT,true,15;IS_WANT_OBJECT,true,80;IS_WANT_OBJECT,false,9;B_ANTI_PHOTOTAXIS,79;IS_DROP_OBJECT,false,87;B_RANDOM_WALK,93#
*:*:IS_MOTIVATION_1_INC,false,19#*:*:IS_WANT_OBJECT,true,15;IS_WANT_OBJECT,true,80;IS_WANT_OBJECT,false,9;B_ANTI_PHOTOTAXIS,79;IS_DROP_OBJECT,false,87;B_RANDOM_WALK,93#
*:*:IS_MOTIVATION_1_INC,false,19#*:*:IS_WANT_OBJECT,true,15;IS_WANT_OBJECT,true,80;IS_WANT_OBJECT,false,9;B_ANTI_PHOTOTAXIS,79;IS_DROP_OBJECT,false,87;B_RANDOM_WALK,93#
*:*:IS_MOTIVATION_1_INC,false,19#*:*:IS_WANT_OBJECT,true,15;IS_WANT_OBJECT,true,88;IS_WANT_OBJECT,false,9;B_ANTI_PHOTOTAXIS,79;IS_DROP_OBJECT,false,87;B_RANDOM_WALK,93#
*:*:IS_MOTIVATION_1_INC,false,19#*:*:IS_WANT_OBJECT,true,15;IS_WANT_OBJECT,true,88;IS_WANT_OBJECT,false,9;B_ANTI_PHOTOTAXIS,79;IS_DROP_OBJECT,false,87;B_RANDOM_WALK,93#
*:*:IS_MOTIVATION_1_INC,false,19#*:*:IS_WANT_OBJECT,true,15;IS_WANT_OBJECT,true,88;IS_WANT_OBJECT,false,9;B_ANTI_PHOTOTAXIS,79;IS_DROP_OBJECT,false,87;B_RANDOM_WALK,93#
*:*:IS_MOTIVATION_1_INC,false,19#*:*:IS_WANT_OBJECT,true,15;IS_WANT_OBJECT,true,88;IS_WANT_OBJECT,false,9;B_ANTI_PHOTOTAXIS,79;IS_DROP_OBJECT,false,87;B_RANDOM_WALK,93#
*:*:IS_MOTIVATION_1_INC,false,19#*:*:IS_WANT_OBJECT,true,15;IS_WANT_OBJECT,true,88;IS_WANT_OBJECT,false,9;B_ANTI_PHOTOTAXIS,79;IS_DROP_OBJECT,false,87;B_RANDOM_WALK,93#
*:*:IS_MOTIVATION_1_INC,false,19#*:*:IS_WANT_OBJECT,true,15;IS_WANT_OBJECT,true,88;IS_WANT_OBJECT,false,9;B_ANTI_PHOTOTAXIS,79;IS_DROP_OBJECT,false,87;B_RANDOM_WALK,93#
*:*:IS_MOTIVATION_1_INC,false,19#*:*:IS_WANT_OBJECT,true,15;IS_WANT_OBJECT,true,88;IS_WANT_OBJECT,false,9;B_ANTI_PHOTOTAXIS,79;IS_DROP_OBJECT,false,87;B_RANDOM_WALK,93#
*:*:IS_MOTIVATION_1_INC,false,19#*:*:IS_WANT_OBJECT,true,15;IS_WANT_OBJECT,true,88;IS_WANT_OBJECT,false,9;B_ANTI_PHOTOTAXIS,79;IS_DROP_OBJECT,false,87;B_RANDOM_WALK,93#
*:*:IS_MOTIVATION_1_INC,false,19#*:*:IS_WANT_OBJECT,true,15;IS_WANT_OBJECT,true,88;IS_WANT_OBJECT,false,9;B_ANTI_PHOTOTAXIS,79;IS_DROP_OBJECT,false,87;B_RANDOM_WALK,93#
*:*:IS_MOTIVATION_1_INC,false,19#*:*:IS_WANT_OBJECT,true,15;IS_WANT_OBJECT,true,88;IS_WANT_OBJECT,false,9;B_ANTI_PHOTOTAXIS,79;IS_DROP_OBJECT,false,87;B_RANDOM_WALK,93#
*:*:IS_MOTIVATION_1_INC,false,19#*:*:IS_WANT_OBJECT,true,15;IS_WANT_OBJECT,true,88;IS_WANT_OBJECT,false,9;B_ANTI_PHOTOTAXIS,79;IS_DROP_OBJECT,false,87;B_RANDOM_WALK,93#
*:*:IS_MOTIVATION_1_INC,false,19#*:*:IS_WANT_OBJECT,true,15;IS_WANT_OBJECT,true,88;IS_WANT_OBJECT,false,9;B_ANTI_PHOTOTAXIS,79;IS_DROP_OBJECT,false,87;B_RANDOM_WALK,93#
*:*:IS_MOTIVATION_1_INC,false,19#*:*:IS_WANT_OBJECT,true,15;IS_WANT_OBJECT,true,88;IS_WANT_OBJECT,false,9;B_ANTI_PHOTOTAXIS,79;IS_DROP_OBJECT,false,87;B_RANDOM_WALK,93#
*:*:IS_MOTIVATION_1_INC,false,19#*:*:IS_WANT_OBJECT,true,15;IS_WANT_OBJECT,true,88;IS_WANT_OBJECT,false,9;B_ANTI_PHOTOTAXIS,79;IS_DROP_OBJECT,false,87;B_RANDOM_WALK,93#
*:*:IS_MOTIVATION_1_INC,false,19#*:*:IS_WANT_OBJECT,true,15;IS_WANT_OBJECT,true,88;IS_WANT_OBJECT,false,9;B_ANTI_PHOTOTAXIS,79;IS_DROP_OBJECT,false,87;B_RANDOM_WALK,93#
*:*:IS_MOTIVATION_1_INC,false,19#*:*:IS_WANT_OBJECT,true,15;IS_WANT_OBJECT,true,88;IS_WANT_OBJECT,false,9;B_ANTI_PHOTOTAXIS,79;IS_DROP_OBJECT,false,87;B_RANDOM_WALK,93#
*:*:IS_MOTIVATION_1_INC,false,19#*:*:IS_WANT_OBJECT,true,15;IS_WANT_OBJECT,true,88;IS_WANT_OBJECT,false,9;B_ANTI_PHOTOTAXIS,79;IS_DROP_OBJECT,false,87;B_RANDOM_WALK,93#
*:*:IS_MOTIVATION_1_INC,false,19#*:*:IS_WANT_OBJECT,true,15;IS_WANT_OBJECT,true,88;IS_WANT_OBJECT,false,9;B_ANTI_PHOTOTAXIS,79;IS_DROP_OBJECT,false,87;B_RANDOM_WALK,93#
*:*:IS_MOTIVATION_1_INC,false,19#*:*:IS_WANT_OBJECT,true,15;IS_WANT_OBJECT,true,88;IS_WANT_OBJECT,false,9;B_ANTI_PHOTOTAXIS,79;IS_DROP_OBJECT,false,87;B_RANDOM_WALK,93#
*:*:IS_MOTIVATION_1_INC,false,19#*:*:IS_WANT_OBJECT,true,15;IS_WANT_OBJECT,true,88;IS_WANT_OBJECT,false,9;B_ANTI_PHOTOTAXIS,79;IS_DROP_OBJECT,false,87;B_RANDOM_WALK,93#
*:*:IS_MOTIVATION_1_INC,false,19#*:*:IS_WANT_OBJECT,true,15;IS_WANT_OBJECT,true,88;IS_WANT_OBJECT,false,9;B_ANTI_PHOTOTAXIS,79;IS_DROP_OBJECT,false,87;B_RANDOM_WALK,93#
*:*:IS_MOTIVATION_1_INC,false,19#*:*:IS_WANT_OBJECT,true,15;IS_WANT_OBJECT,true,88;IS_WANT_OBJECT,false,9;B_ANTI_PHOTOTAXIS,79;IS_DROP_OBJECT,false,87;B_RANDOM_WALK,93#
*:*:IS_MOTIVATION_1_INC,false,19#*:*:IS_WANT_OBJECT,true,15;IS_WANT_OBJECT,true,88;IS_WANT_OBJECT,false,9;B_ANTI_PHOTOTAXIS,79;IS_DROP_OBJECT,false,87;B_RANDOM_WALK,93#
*:*:IS_MOTIVATION_1_INC,false,19#*:*:IS_WANT_OBJECT,true,15;IS_WANT_OBJECT,true,88;IS_WANT_OBJECT,false,9;B_ANTI_PHOTOTAXIS,79;IS_DROP_OBJECT,false,87;B_RANDOM_WALK,93#
*:*:IS_MOTIVATION_1_INC,false,19#*:*:IS_WANT_OBJECT,true,15;IS_WANT_OBJECT,true,88;IS_WANT_OBJECT,false,9;B_ANTI_PHOTOTAXIS,79;IS_DROP_OBJECT,false,87;B_RANDOM_WALK,93#
*:*:IS_MOTIVATION_1_INC,false,19#*:*:IS_WANT_OBJECT,true,15;IS_WANT_OBJECT,true,88;IS_WANT_OBJECT,false,9;B_ANTI_PHOTOTAXIS,79;IS_DROP_OBJECT,false,87;B_RANDOM_WALK,93#
*:*:IS_MOTIVATION_1_INC,false,19#*:*:IS_WANT_OBJECT,true,15;IS_WANT_OBJECT,true,88;IS_WANT_OBJECT,false,9;B_ANTI_PHOTOTAXIS,79;IS_DROP_OBJECT,false,87;B_RANDOM_WALK,93#
*:*:IS_MOTIVATION_1_INC,false,19#*:*:IS_WANT_OBJECT,true,15;IS_WANT_OBJECT,true,88;IS_WANT_OBJECT,false,9;B_ANTI_PHOTOTAXIS,79;IS_DROP_OBJECT,false,87;B_RANDOM_WALK,93#
*:*:IS_MOTIVATION_1_INC,false,19#*:*:IS_WANT_OBJECT,true,15;IS_WANT_OBJECT,true,88;IS_WANT_OBJECT,false,9;B_ANTI_PHOTOTAXIS,79;IS_DROP_OBJECT,false,87;B_RANDOM_WALK,93#
*:*:IS_MOTIVATION_1_INC,false,19#*:*:IS_WANT_OBJECT,true,15;IS_WANT_OBJECT,true,88;IS_WANT_OBJECT,false,9;B_ANTI_PHOTOTAXIS,79;IS_DROP_OBJECT,false,87;B_RANDOM_WALK,93#
*:*:IS_MOTIVATION_1_INC,false,19#*:*:IS_WANT_OBJECT,true,15;IS_WANT_OBJECT,true,88;IS_WANT_OBJECT,false,9;B_ANTI_PHOTOTAXIS,79;IS_DROP_OBJECT,false,87;B_RANDOM_WALK,93#
*:*:IS_MOTIVATION_1_INC,false,19#*:*:IS_WANT_OBJECT,true,15;IS_WANT_OBJECT,true,88;IS_WANT_OBJECT,false,9;B_ANTI_PHOTOTAXIS,79;IS_DROP_OBJECT,false,87;B_RANDOM_WALK,93#
*:*:IS_MOTIVATION_1_INC,false,19#*:*:IS_WANT_OBJECT,true,15;IS_WANT_OBJECT,true,88;IS_WANT_OBJECT,false,9;B_ANTI_PHOTOTAXIS,79;IS_DROP_OBJECT,false,87;B_RANDOM_WALK,93#
*:*:IS_MOTIVATION_1_INC,false,19#*:*:IS_WANT_OBJECT,true,15;IS_WANT_OBJECT,true,88;IS_WANT_OBJECT,false,9;B_ANTI_PHOTOTAXIS,79;IS_DROP_OBJECT,false,87;B_RANDOM_WALK,93#
*:*:IS_MOTIVATION_1_INC,false,19#*:*:IS_WANT_OBJECT,true,15;IS_WANT_OBJECT,true,88;IS_WANT_OBJECT,false,9;B_ANTI_PHOTOTAXIS,79;IS_DROP_OBJECT,false,87;B_RANDOM_WALK,93#
*:*:IS_MOTIVATION_1_INC,false,19#*:*:IS_WANT_OBJECT,true,15;IS_WANT_OBJECT,true,88;IS_WANT_OBJECT,false,9;B_ANTI_PHOTOTAXIS,79;IS_DROP_OBJECT,false,87;B_RANDOM_WALK,93#
*:*:IS_MOTIVATION_1_INC,false,19#*:*:IS_WANT_OBJECT,true,15;IS_WANT_OBJECT,true,88;IS_WANT_OBJECT,false,9;B_ANTI_PHOTOTAXIS,79;IS_DROP_OBJECT,false,87;B_RANDOM_WALK,93#
*:*:IS_MOTIVATION_1_INC,false,19#*:*:IS_WANT_OBJECT,true,15;IS_WANT_OBJECT,true,88;IS_WANT_OBJECT,false,9;B_ANTI_PHOTOTAXIS,79;IS_DROP_OBJECT,false,87;B_RANDOM_WALK,93#
*:*:IS_MOTIVATION_1_INC,false,19#*:*:IS_WANT_OBJECT,true,15;IS_WANT_OBJECT,true,88;IS_WANT_OBJECT,false,9;B_ANTI_PHOTOTAXIS,79;IS_DROP_OBJECT,false,87;B_RANDOM_WALK,93#
*:*:IS_MOTIVATION_1_INC,false,19#*:*:IS_WANT_OBJECT,true,15;IS_WANT_OBJECT,true,88;IS_WANT_OBJECT,false,9;B_ANTI_PHOTOTAXIS,79;IS_DROP_OBJECT,false,87;B_RANDOM_WALK,93#
*:*:IS_MOTIVATION_1_INC,false,19#*:*:IS_WANT_OBJECT,true,15;IS_WANT_OBJECT,true,88;IS_WANT_OBJECT,false,9;B_ANTI_PHOTOTAXIS,79;IS_DROP_OBJECT,false,87;B_RANDOM_WALK,93#
*:*:IS_MOTIVATION_1_INC,false,19#*:*:IS_WANT_OBJECT,true,15;IS_WANT_OBJECT,true,88;IS_WANT_OBJECT,false,9;B_ANTI_PHOTOTAXIS,79;IS_DROP_OBJECT,false,87;B_RANDOM_WALK,93#
*:*:IS_MOTIVATION_1_INC,false,19#*:*:IS_WANT_OBJECT,true,15;IS_WANT_OBJECT,true,88;IS_WANT_OBJECT,false,9;B_ANTI_PHOTOTAXIS,79;IS_DROP_OBJECT,false,87;B_RANDOM_WALK,93#
*:*:IS_MOTIVATION_1_INC,false,19#*:*:IS_WANT_OBJECT,true,15;IS_WANT_OBJECT,true,88;IS_WANT_OBJECT,false,9;B_ANTI_PHOTOTAXIS,79;IS_DROP_OBJECT,false,87;B_RANDOM_WALK,93#
*:*:IS_MOTIVATION_1_INC,false,19#*:*:IS_WANT_OBJECT,true,15;IS_WANT_OBJECT,true,88;IS_WANT_OBJECT,false,9;B_ANTI_PHOTOTAXIS,79;IS_DROP_OBJECT,false,87;B_RANDOM_WALK,93#
*:*:IS_MOTIVATION_1_INC,false,19#*:*:IS_WANT_OBJECT,true,15;IS_WANT_OBJECT,true,88;IS_WANT_OBJECT,false,9;B_ANTI_PHOTOTAXIS,79;IS_DROP_OBJECT,false,87;B_RANDOM_WALK,93#
*:*:IS_MOTIVATION_1_INC,false,19#*:*:IS_WANT_OBJECT,true,15;IS_WANT_OBJECT,true,88;IS_WANT_OBJECT,false,9;B_ANTI_PHOTOTAXIS,79;IS_DROP_OBJECT,false,87;B_RANDOM_WALK,93#
*:*:IS_MOTIVATION_1_INC,false,19#*:*:IS_WANT_OBJECT,true,15;IS_WANT_OBJECT,true,88;IS_WANT_OBJECT,false,9;B_ANTI_PHOTOTAXIS,79;IS_DROP_OBJECT,false,87;B_RANDOM_WALK,93#
*:*:IS_MOTIVATION_1_INC,false,19#*:*:IS_WANT_OBJECT,true,15;IS_WANT_OBJECT,true,88;IS_WANT_OBJECT,false,9;B_ANTI_PHOTOTAXIS,79;IS_DROP_OBJECT,false,87;B_RANDOM_WALK,93#
*:*:IS_MOTIVATION_1_INC,false,19#*:*:IS_WANT_OBJECT,true,15;IS_WANT_OBJECT,true,88;IS_WANT_OBJECT,false,9;B_ANTI_PHOTOTAXIS,79;IS_DROP_OBJECT,false,87;B_RANDOM_WALK,93#
*:*:IS_MOTIVATION_1_INC,false,19#*:*:IS_WANT_OBJECT,true,15;IS_WANT_OBJECT,true,88;IS_WANT_OBJECT,false,9;B_ANTI_PHOTOTAXIS,79;IS_DROP_OBJECT,false,87;B_RANDOM_WALK,93#
*:*:IS_MOTIVATION_1_INC,false,19#*:*:IS_WANT_OBJECT,true,15;IS_WANT_OBJECT,true,88;IS_WANT_OBJECT,false,9;B_ANTI_PHOTOTAXIS,79;IS_DROP_OBJECT,false,87;B_RANDOM_WALK,93#
*:*:IS_MOTIVATION_1_INC,false,19#*:*:IS_WANT_OBJECT,true,15;IS_WANT_OBJECT,true,88;IS_WANT_OBJECT,false,9;B_ANTI_PHOTOTAXIS,79;IS_DROP_OBJECT,false,87;B_RANDOM_WALK,93#
*:*:IS_MOTIVATION_1_INC,false,19#*:*:IS_WANT_OBJECT,true,15;IS_WANT_OBJECT,true,88;IS_WANT_OBJECT,false,9;B_ANTI_PHOTOTAXIS,79;IS_DROP_OBJECT,false,87;B_RANDOM_WALK,93#
*:*:IS_MOTIVATION_1_INC,false,19#*:*:IS_WANT_OBJECT,true,15;IS_WANT_OBJECT,true,88;IS_WANT_OBJECT,false,9;B_ANTI_PHOTOTAXIS,79;IS_DROP_OBJECT,false,87;B_RANDOM_WALK,93#
*:*:IS_MOTIVATION_1_INC,false,19#*:*:IS_WANT_OBJECT,true,15;IS_WANT_OBJECT,true,88;IS_WANT_OBJECT,false,9;B_ANTI_PHOTOTAXIS,79;IS_DROP_OBJECT,false,87;B_RANDOM_WALK,93#
*:*:IS_MOTIVATION_1_INC,false,19#*:*:IS_WANT_OBJECT,true,15;IS_WANT_OBJECT,true,88;IS_WANT_OBJECT,false,9;B_ANTI_PHOTOTAXIS,79;IS_DROP_OBJECT,false,87;B_RANDOM_WALK,93#
*:*:IS_MOTIVATION_1_INC,false,19#*:*:IS_WANT_OBJECT,true,15;IS_WANT_OBJECT,true,88;IS_WANT_OBJECT,false,9;B_ANTI_PHOTOTAXIS,79;IS_DROP_OBJECT,false,87;B_RANDOM_WALK,93#
*:*:IS_MOTIVATION_1_INC,false,19#*:*:IS_WANT_OBJECT,true,15;IS_WANT_OBJECT,true,88;IS_WANT_OBJECT,false,9;B_ANTI_PHOTOTAXIS,79;IS_DROP_OBJECT,false,87;B_RANDOM_WALK,93#
*:*:IS_MOTIVATION_1_INC,false,19#*:*:IS_WANT_OBJECT,true,15;IS_WANT_OBJECT,true,88;IS_WANT_OBJECT,false,9;B_ANTI_PHOTOTAXIS,79;IS_DROP_OBJECT,false,87;B_RANDOM_WALK,93#
*:*:IS_MOTIVATION_1_INC,false,19#*:*:IS_WANT_OBJECT,true,15;IS_WANT_OBJECT,true,88;IS_WANT_OBJECT,false,9;B_ANTI_PHOTOTAXIS,79;IS_DROP_OBJECT,false,87;B_RANDOM_WALK,93#
*:*:IS_MOTIVATION_1_INC,false,19#*:*:IS_WANT_OBJECT,true,15;IS_WANT_OBJECT,true,88;IS_WANT_OBJECT,false,9;B_ANTI_PHOTOTAXIS,79;IS_DROP_OBJECT,false,87;B_RANDOM_WALK,93#
*:*:IS_MOTIVATION_1_INC,false,19#*:*:IS_WANT_OBJECT,true,15;IS_WANT_OBJECT,true,88;IS_WANT_OBJECT,false,9;B_ANTI_PHOTOTAXIS,79;IS_DROP_OBJECT,false,87;B_RANDOM_WALK,93#
*:*:IS_MOTIVATION_1_INC,false,19#*:*:IS_WANT_OBJECT,true,15;IS_WANT_OBJECT,true,88;IS_WANT_OBJECT,false,9;B_ANTI_PHOTOTAXIS,79;IS_DROP_OBJECT,false,87;B_RANDOM_WALK,93#
*:*:IS_MOTIVATION_1_INC,false,19#*:*:IS_WANT_OBJECT,true,15;IS_WANT_OBJECT,true,88;IS_WANT_OBJECT,false,9;B_ANTI_PHOTOTAXIS,79;IS_DROP_OBJECT,false,87;B_RANDOM_WALK,93#
*:*:IS_MOTIVATION_1_INC,false,19#*:*:IS_WANT_OBJECT,true,15;IS_WANT_OBJECT,true,88;IS_WANT_OBJECT,false,9;B_ANTI_PHOTOTAXIS,79;IS_DROP_OBJECT,false,87;B_RANDOM_WALK,93#
*:*:IS_MOTIVATION_1_INC,false,19#*:*:IS_WANT_OBJECT,true,15;IS_WANT_OBJECT,true,88;IS_WANT_OBJECT,false,9;B_ANTI_PHOTOTAXIS,79;IS_DROP_OBJECT,false,87;B_RANDOM_WALK,93#
*:*:IS_MOTIVATION_1_INC,false,19#*:*:IS_WANT_OBJECT,true,15;IS_WANT_OBJECT,true,88;IS_WANT_OBJECT,false,9;B_ANTI_PHOTOTAXIS,79;IS_DROP_OBJECT,false,87;B_RANDOM_WALK,93#
*:*:IS_MOTIVATION_1_INC,false,19#*:*:IS_WANT_OBJECT,true,15;IS_WANT_OBJECT,true,88;IS_WANT_OBJECT,false,9;B_ANTI_PHOTOTAXIS,79;IS_DROP_OBJECT,false,87;B_RANDOM_WALK,93#
*:*:IS_MOTIVATION_1_INC,false,19#*:*:IS_WANT_OBJECT,true,15;IS_WANT_OBJECT,true,88;IS_WANT_OBJECT,false,9;B_ANTI_PHOTOTAXIS,79;IS_DROP_OBJECT,false,87;B_RANDOM_WALK,93#
*:*:IS_MOTIVATION_1_INC,false,19#*:*:IS_WANT_OBJECT,true,15;IS_WANT_OBJECT,true,88;IS_WANT_OBJECT,false,9;B_ANTI_PHOTOTAXIS,79;IS_DROP_OBJECT,false,87;B_RANDOM_WALK,93#
*:*:IS_MOTIVATION_1_INC,false,19#*:*:IS_WANT_OBJECT,true,15;IS_WANT_OBJECT,true,88;IS_WANT_OBJECT,false,9;B_ANTI_PHOTOTAXIS,79;IS_DROP_OBJECT,false,87;B_RANDOM_WALK,93#
*:*:IS_MOTIVATION_1_INC,false,19#*:*:IS_WANT_OBJECT,true,15;IS_WANT_OBJECT,true,88;IS_WANT_OBJECT,false,9;B_ANTI_PHOTOTAXIS,79;IS_DROP_OBJECT,false,87;B_RANDOM_WALK,93#
*:*:IS_MOTIVATION_1_INC,false,19#*:*:IS_WANT_OBJECT,true,15;IS_WANT_OBJECT,true,88;IS_WANT_OBJECT,false,9;B_ANTI_PHOTOTAXIS,79;IS_DROP_OBJECT,false,87;B_RANDOM_WALK,93#
*:*:IS_MOTIVATION_1_INC,false,19#*:*:IS_WANT_OBJECT,true,15;IS_WANT_OBJECT,true,88;IS_WANT_OBJECT,false,9;B_ANTI_PHOTOTAXIS,79;IS_DROP_OBJECT,false,87;B_RANDOM_WALK,93#
*:*:IS_MOTIVATION_1_INC,false,19#*:*:IS_WANT_OBJECT,true,15;IS_WANT_OBJECT,true,88;IS_WANT_OBJECT,false,9;B_ANTI_PHOTOTAXIS,79;IS_DROP_OBJECT,false,87;B_RANDOM_WALK,93#
*:*:IS_MOTIVATION_1_INC,false,19#*:*:IS_WANT_OBJECT,true,15;IS_WANT_OBJECT,true,88;IS_WANT_OBJECT,false,9;B_ANTI_PHOTOTAXIS,79;IS_DROP_OBJECT,false,87;B_RANDOM_WALK,93#
*:*:IS_MOTIVATION_1_INC,false,19#*:*:IS_WANT_OBJECT,true,15;IS_WANT_OBJECT,true,88;IS_WANT_OBJECT,false,9;B_ANTI_PHOTOTAXIS,79;IS_DROP_OBJECT,false,87;B_RANDOM_WALK,93#
*:*:IS_MOTIVATION_1_INC,false,19#*:*:IS_WANT_OBJECT,true,15;IS_WANT_OBJECT,true,88;IS_WANT_OBJECT,false,9;B_ANTI_PHOTOTAXIS,79;IS_DROP_OBJECT,false,87;B_RANDOM_WALK,93#
*:*:IS_MOTIVATION_1_INC,false,19#*:*:IS_WANT_OBJECT,true,15;IS_WANT_OBJECT,true,88;IS_WANT_OBJECT,false,9;B_ANTI_PHOTOTAXIS,79;IS_DROP_OBJECT,false,87;B_RANDOM_WALK,93#
*:*:IS_MOTIVATION_1_INC,false,19#*:*:IS_WANT_OBJECT,true,15;IS_WANT_OBJECT,true,88;IS_WANT_OBJECT,false,9;B_ANTI_PHOTOTAXIS,79;IS_DROP_OBJECT,false,87;B_RANDOM_WALK,93#
*:*:IS_MOTIVATION_1_INC,false,19#*:*:IS_WANT_OBJECT,true,15;IS_WANT_OBJECT,true,88;IS_WANT_OBJECT,false,9;B_ANTI_PHOTOTAXIS,79;IS_DROP_OBJECT,false,87;B_RANDOM_WALK,93#
*:*:IS_MOTIVATION_1_INC,false,19#*:*:IS_WANT_OBJECT,true,15;IS_WANT_OBJECT,true,88;IS_WANT_OBJECT,false,9;B_ANTI_PHOTOTAXIS,79;IS_DROP_OBJECT,false,87;B_RANDOM_WALK,93#
*:*:IS_MOTIVATION_1_INC,false,19#*:*:IS_WANT_OBJECT,true,15;IS_WANT_OBJECT,true,88;IS_WANT_OBJECT,false,9;B_ANTI_PHOTOTAXIS,79;IS_DROP_OBJECT,false,87;B_RANDOM_WALK,93#
*:*:IS_MOTIVATION_1_INC,false,19#*:*:IS_WANT_OBJECT,true,15;IS_WANT_OBJECT,true,88;IS_WANT_OBJECT,false,9;B_ANTI_PHOTOTAXIS,79;IS_DROP_OBJECT,false,87;B_RANDOM_WALK,93#
*:*:IS_MOTIVATION_1_INC,false,19#*:*:IS_WANT_OBJECT,true,15;IS_WANT_OBJECT,true,88;IS_WANT_OBJECT,false,9;B_ANTI_PHOTOTAXIS,79;IS_DROP_OBJECT,false,87;B_RANDOM_WALK,93#
*:*:IS_MOTIVATION_1_INC,false,19#*:*:IS_WANT_OBJECT,true,15;IS_WANT_OBJECT,true,88;IS_WANT_OBJECT,false,9;B_ANTI_PHOTOTAXIS,79;IS_DROP_OBJECT,false,87;B_RANDOM_WALK,93#
*:*:IS_MOTIVATION_1_INC,false,19#*:*:IS_WANT_OBJECT,true,15;IS_WANT_OBJECT,true,88;IS_WANT_OBJECT,false,9;B_ANTI_PHOTOTAXIS,79;IS_DROP_OBJECT,false,87;B_RANDOM_WALK,93#
*:*:IS_MOTIVATION_1_INC,false,19#*:*:IS_WANT_OBJECT,true,15;IS_WANT_OBJECT,true,88;IS_WANT_OBJECT,false,9;B_ANTI_PHOTOTAXIS,79;IS_DROP_OBJECT,false,87;B_RANDOM_WALK,93#
*:*:IS_MOTIVATION_1_INC,false,19#*:*:IS_WANT_OBJECT,true,15;IS_WANT_OBJECT,true,88;IS_WANT_OBJECT,false,9;B_ANTI_PHOTOTAXIS,79;IS_DROP_OBJECT,false,87;B_RANDOM_WALK,93#
*:*:IS_MOTIVATION_1_INC,false,19#*:*:IS_WANT_OBJECT,true,15;IS_WANT_OBJECT,true,88;IS_WANT_OBJECT,false,9;B_ANTI_PHOTOTAXIS,79;IS_DROP_OBJECT,false,87;B_RANDOM_WALK,93#
*:*:IS_MOTIVATION_1_INC,false,19#*:*:IS_WANT_OBJECT,true,15;IS_WANT_OBJECT,true,88;IS_WANT_OBJECT,false,9;B_ANTI_PHOTOTAXIS,79;IS_DROP_OBJECT,false,87;B_RANDOM_WALK,93#
*:*:IS_MOTIVATION_1_INC,false,19#*:*:IS_WANT_OBJECT,true,15;IS_WANT_OBJECT,true,88;IS_WANT_OBJECT,false,9;B_ANTI_PHOTOTAXIS,79;IS_DROP_OBJECT,false,87;B_RANDOM_WALK,93#
*:*:IS_MOTIVATION_1_INC,false,19#*:*:IS_WANT_OBJECT,true,15;IS_WANT_OBJECT,true,88;IS_WANT_OBJECT,false,9;B_ANTI_PHOTOTAXIS,79;IS_DROP_OBJECT,false,87;B_RANDOM_WALK,93#
*:*:IS_MOTIVATION_1_INC,false,19#*:*:IS_WANT_OBJECT,true,15;IS_WANT_OBJECT,true,88;IS_WANT_OBJECT,false,9;B_ANTI_PHOTOTAXIS,79;IS_DROP_OBJECT,false,87;B_RANDOM_WALK,93#
*:*:IS_MOTIVATION_1_INC,false,19#*:*:IS_WANT_OBJECT,true,15;IS_WANT_OBJECT,true,88;IS_WANT_OBJECT,false,9;B_ANTI_PHOTOTAXIS,79;IS_DROP_OBJECT,false,87;B_RANDOM_WALK,93#
*:*:IS_MOTIVATION_1_INC,false,19#*:*:IS_WANT_OBJECT,true,15;IS_WANT_OBJECT,true,88;IS_WANT_OBJECT,false,9;B_ANTI_PHOTOTAXIS,79;IS_DROP_OBJECT,false,87;B_RANDOM_WALK,93#
*:*:IS_MOTIVATION_1_INC,false,19#*:*:IS_WANT_OBJECT,true,15;IS_WANT_OBJECT,true,88;IS_WANT_OBJECT,false,9;B_ANTI_PHOTOTAXIS,79;IS_DROP_OBJECT,false,87;B_RANDOM_WALK,93#
*:*:IS_MOTIVATION_1_INC,false,19#*:*:IS_WANT_OBJECT,true,15;IS_WANT_OBJECT,true,88;IS_WANT_OBJECT,false,9;B_ANTI_PHOTOTAXIS,79;IS_DROP_OBJECT,false,87;B_RANDOM_WALK,93#
*:*:IS_MOTIVATION_1_INC,false,19#*:*:IS_WANT_OBJECT,true,15;IS_WANT_OBJECT,true,88;IS_WANT_OBJECT,false,9;B_ANTI_PHOTOTAXIS,79;IS_DROP_OBJECT,false,87;B_RANDOM_WALK,93#
*:*:IS_MOTIVATION_1_INC,false,19#*:*:IS_WANT_OBJECT,true,15;IS_WANT_OBJECT,true,88;IS_WANT_OBJECT,false,9;B_ANTI_PHOTOTAXIS,79;IS_DROP_OBJECT,false,87;B_RANDOM_WALK,93#
*:*:IS_MOTIVATION_1_INC,false,19#*:*:IS_WANT_OBJECT,true,15;IS_WANT_OBJECT,true,88;IS_WANT_OBJECT,false,9;B_ANTI_PHOTOTAXIS,79;IS_DROP_OBJECT,false,87;B_RANDOM_WALK,93#
*:*:IS_MOTIVATION_1_INC,false,19#*:*:IS_WANT_OBJECT,true,15;IS_WANT_OBJECT,true,88;IS_WANT_OBJECT,false,9;B_ANTI_PHOTOTAXIS,79;IS_DROP_OBJECT,false,87;B_RANDOM_WALK,93#
*:*:IS_MOTIVATION_1_INC,false,19#*:*:IS_WANT_OBJECT,true,15;IS_WANT_OBJECT,true,88;IS_WANT_OBJECT,false,9;B_ANTI_PHOTOTAXIS,79;IS_DROP_OBJECT,false,87;B_RANDOM_WALK,93#
*:*:IS_MOTIVATION_1_INC,false,19#*:*:IS_WANT_OBJECT,true,15;IS_WANT_OBJECT,true,88;IS_WANT_OBJECT,false,9;B_ANTI_PHOTOTAXIS,79;IS_DROP_OBJECT,false,87;B_RANDOM_WALK,93#
*:*:IS_MOTIVATION_1_INC,false,19#*:*:IS_WANT_OBJECT,true,15;IS_WANT_OBJECT,true,88;IS_WANT_OBJECT,false,9;B_ANTI_PHOTOTAXIS,79;IS_DROP_OBJECT,false,87;B_RANDOM_WALK,93#
*:*:IS_MOTIVATION_1_INC,false,19#*:*:IS_WANT_OBJECT,true,15;IS_WANT_OBJECT,true,88;IS_WANT_OBJECT,false,9;B_ANTI_PHOTOTAXIS,79;IS_DROP_OBJECT,false,87;B_RANDOM_WALK,93#
*:*:IS_MOTIVATION_1_INC,false,19#*:*:IS_WANT_OBJECT,true,15;IS_WANT_OBJECT,true,88;IS_WANT_OBJECT,false,9;B_ANTI_PHOTOTAXIS,79;IS_DROP_OBJECT,false,87;B_RANDOM_WALK,93#
*:*:IS_MOTIVATION_1_INC,false,19#*:*:IS_WANT_OBJECT,true,15;IS_WANT_OBJECT,true,88;IS_WANT_OBJECT,false,9;B_ANTI_PHOTOTAXIS,79;IS_DROP_OBJECT,false,87;B_RANDOM_WALK,93#
*:*:IS_MOTIVATION_1_INC,false,19#*:*:IS_WANT_OBJECT,true,15;IS_WANT_OBJECT,true,88;IS_WANT_OBJECT,false,9;B_ANTI_PHOTOTAXIS,79;IS_DROP_OBJECT,false,87;B_RANDOM_WALK,93#
*:*:IS_MOTIVATION_1_INC,false,19#*:*:IS_WANT_OBJECT,true,15;IS_WANT_OBJECT,true,88;IS_WANT_OBJECT,false,9;B_ANTI_PHOTOTAXIS,79;IS_DROP_OBJECT,false,87;B_RANDOM_WALK,93#
*:*:IS_MOTIVATION_1_INC,false,19#*:*:IS_WANT_OBJECT,true,15;IS_WANT_OBJECT,true,88;IS_WANT_OBJECT,false,9;B_ANTI_PHOTOTAXIS,79;IS_DROP_OBJECT,false,87;B_RANDOM_WALK,93#
*:*:IS_MOTIVATION_1_INC,false,19#*:*:IS_WANT_OBJECT,true,15;IS_WANT_OBJECT,true,88;IS_WANT_OBJECT,false,9;B_ANTI_PHOTOTAXIS,79;IS_DROP_OBJECT,false,87;B_RANDOM_WALK,93#
*:*:IS_MOTIVATION_1_INC,false,19#*:*:IS_WANT_OBJECT,true,15;IS_WANT_OBJECT,true,88;IS_WANT_OBJECT,false,9;B_ANTI_PHOTOTAXIS,79;IS_DROP_OBJECT,false,87;B_RANDOM_WALK,93#
*:*:IS_MOTIVATION_1_INC,false,19#*:*:IS_WANT_OBJECT,true,15;IS_WANT_OBJECT,true,88;IS_WANT_OBJECT,false,9;B_ANTI_PHOTOTAXIS,79;IS_DROP_OBJECT,false,87;B_RANDOM_WALK,93#
*:*:IS_MOTIVATION_1_INC,false,19#*:*:IS_WANT_OBJECT,true,15;IS_WANT_OBJECT,true,88;IS_WANT_OBJECT,false,9;B_ANTI_PHOTOTAXIS,79;IS_DROP_OBJECT,false,87;B_RANDOM_WALK,93#
*:*:IS_MOTIVATION_1_INC,false,19#*:*:IS_WANT_OBJECT,true,15;IS_WANT_OBJECT,true,88;IS_WANT_OBJECT,false,9;B_ANTI_PHOTOTAXIS,79;IS_DROP_OBJECT,false,87;B_RANDOM_WALK,93#
*:*:IS_MOTIVATION_1_INC,false,19#*:*:IS_WANT_OBJECT,true,15;IS_WANT_OBJECT,true,88;IS_WANT_OBJECT,false,9;B_ANTI_PHOTOTAXIS,79;IS_DROP_OBJECT,false,87;B_RANDOM_WALK,93#
*:*:IS_MOTIVATION_1_INC,false,19#*:*:IS_WANT_OBJECT,true,15;IS_WANT_OBJECT,true,88;IS_WANT_OBJECT,false,9;B_ANTI_PHOTOTAXIS,79;IS_DROP_OBJECT,false,87;B_RANDOM_WALK,93#
*:*:IS_MOTIVATION_1_INC,false,19#*:*:IS_WANT_OBJECT,true,15;IS_WANT_OBJECT,true,88;IS_WANT_OBJECT,false,9;B_ANTI_PHOTOTAXIS,79;IS_DROP_OBJECT,false,87;B_RANDOM_WALK,93#
*:*:IS_MOTIVATION_1_INC,false,19#*:*:IS_WANT_OBJECT,true,15;IS_WANT_OBJECT,true,88;IS_WANT_OBJECT,false,9;B_ANTI_PHOTOTAXIS,79;IS_DROP_OBJECT,false,87;B_RANDOM_WALK,93#
*:*:IS_MOTIVATION_1_INC,false,19#*:*:IS_WANT_OBJECT,true,15;IS_WANT_OBJECT,true,88;IS_WANT_OBJECT,false,9;B_ANTI_PHOTOTAXIS,79;IS_DROP_OBJECT,false,87;B_RANDOM_WALK,93#
*:*:IS_MOTIVATION_1_INC,false,19#*:*:IS_WANT_OBJECT,true,15;IS_WANT_OBJECT,true,88;IS_WANT_OBJECT,false,9;B_ANTI_PHOTOTAXIS,79;IS_DROP_OBJECT,false,87;B_RANDOM_WALK,93#
*:*:IS_MOTIVATION_1_INC,false,19#*:*:IS_WANT_OBJECT,true,15;IS_WANT_OBJECT,true,88;IS_WANT_OBJECT,false,9;B_ANTI_PHOTOTAXIS,79;IS_DROP_OBJECT,false,87;B_RANDOM_WALK,93#
*:*:IS_MOTIVATION_1_INC,false,19#*:*:IS_WANT_OBJECT,true,15;IS_WANT_OBJECT,true,88;IS_WANT_OBJECT,false,9;B_ANTI_PHOTOTAXIS,79;IS_DROP_OBJECT,false,87;B_RANDOM_WALK,93#
*:*:IS_MOTIVATION_1_INC,false,19#*:*:IS_WANT_OBJECT,true,15;IS_WANT_OBJECT,true,88;IS_WANT_OBJECT,false,9;B_ANTI_PHOTOTAXIS,79;IS_DROP_OBJECT,false,87;B_RANDOM_WALK,93#
*:*:IS_MOTIVATION_1_INC,false,19#*:*:IS_WANT_OBJECT,true,15;IS_WANT_OBJECT,true,88;IS_WANT_OBJECT,false,9;B_ANTI_PHOTOTAXIS,79;IS_DROP_OBJECT,false,87;B_RANDOM_WALK,93#
*:*:IS_MOTIVATION_1_INC,false,19#*:*:IS_WANT_OBJECT,true,15;IS_WANT_OBJECT,true,88;IS_WANT_OBJECT,false,9;B_ANTI_PHOTOTAXIS,79;IS_DROP_OBJECT,false,87;B_RANDOM_WALK,93#
*:*:IS_MOTIVATION_1_INC,false,19#*:*:IS_WANT_OBJECT,true,15;IS_WANT_OBJECT,true,88;IS_WANT_OBJECT,false,9;B_ANTI_PHOTOTAXIS,79;IS_DROP_OBJECT,false,87;B_RANDOM_WALK,93#
*:*:IS_MOTIVATION_1_INC,false,19#*:*:IS_WANT_OBJECT,true,15;IS_WANT_OBJECT,true,88;IS_WANT_OBJECT,false,9;B_ANTI_PHOTOTAXIS,79;IS_DROP_OBJECT,false,87;B_RANDOM_WALK,93#
*:*:IS_MOTIVATION_1_INC,false,19#*:*:IS_WANT_OBJECT,true,15;IS_WANT_OBJECT,true,88;IS_WANT_OBJECT,false,9;B_ANTI_PHOTOTAXIS,79;IS_DROP_OBJECT,false,87;B_RANDOM_WALK,93#
*:*:IS_MOTIVATION_1_INC,false,19#*:*:IS_WANT_OBJECT,true,15;IS_WANT_OBJECT,true,88;IS_WANT_OBJECT,false,9;B_ANTI_PHOTOTAXIS,79;IS_DROP_OBJECT,false,87;B_RANDOM_WALK,93#
*:*:IS_MOTIVATION_1_INC,false,19#*:*:IS_WANT_OBJECT,true,15;IS_WANT_OBJECT,true,88;IS_WANT_OBJECT,false,9;B_ANTI_PHOTOTAXIS,79;IS_DROP_OBJECT,false,87;B_RANDOM_WALK,93#
*:*:IS_MOTIVATION_1_INC,false,19#*:*:IS_WANT_OBJECT,true,15;IS_WANT_OBJECT,true,88;IS_WANT_OBJECT,false,9;B_ANTI_PHOTOTAXIS,79;IS_DROP_OBJECT,false,87;B_RANDOM_WALK,93#
*:*:IS_MOTIVATION_1_INC,false,19#*:*:IS_WANT_OBJECT,true,15;IS_WANT_OBJECT,true,88;IS_WANT_OBJECT,false,9;B_ANTI_PHOTOTAXIS,79;IS_DROP_OBJECT,false,87;B_RANDOM_WALK,93#
*:*:IS_MOTIVATION_1_INC,false,19#*:*:IS_WANT_OBJECT,true,15;IS_WANT_OBJECT,true,88;IS_WANT_OBJECT,false,9;B_ANTI_PHOTOTAXIS,79;IS_DROP_OBJECT,false,87;B_RANDOM_WALK,93#
*:*:IS_MOTIVATION_1_INC,false,19#*:*:IS_WANT_OBJECT,true,15;IS_WANT_OBJECT,true,88;IS_WANT_OBJECT,false,9;B_ANTI_PHOTOTAXIS,79;IS_DROP_OBJECT,false,87;B_RANDOM_WALK,93#
*:*:IS_MOTIVATION_1_INC,false,19#*:*:IS_WANT_OBJECT,true,15;IS_WANT_OBJECT,true,88;IS_WANT_OBJECT,false,9;B_ANTI_PHOTOTAXIS,79;IS_DROP_OBJECT,false,87;B_RANDOM_WALK,93#
*:*:IS_MOTIVATION_1_INC,false,19#*:*:IS_WANT_OBJECT,true,15;IS_WANT_OBJECT,true,88;IS_WANT_OBJECT,false,9;B_ANTI_PHOTOTAXIS,79;IS_DROP_OBJECT,false,87;B_RANDOM_WALK,93#
*:*:IS_MOTIVATION_1_INC,false,19#*:*:IS_WANT_OBJECT,true,15;IS_WANT_OBJECT,true,88;IS_WANT_OBJECT,false,9;B_ANTI_PHOTOTAXIS,79;IS_DROP_OBJECT,false,87;B_RANDOM_WALK,93#
*:*:IS_MOTIVATION_1_INC,false,19#*:*:IS_WANT_OBJECT,true,15;IS_WANT_OBJECT,true,88;IS_WANT_OBJECT,false,9;B_ANTI_PHOTOTAXIS,79;IS_DROP_OBJECT,false,87;B_RANDOM_WALK,93#
*:*:IS_MOTIVATION_1_INC,false,19#*:*:IS_WANT_OBJECT,true,15;IS_WANT_OBJECT,true,88;IS_WANT_OBJECT,false,9;B_ANTI_PHOTOTAXIS,79;IS_DROP_OBJECT,false,87;B_RANDOM_WALK,93#
*:*:IS_MOTIVATION_1_INC,false,19#*:*:IS_WANT_OBJECT,true,15;IS_WANT_OBJECT,true,88;IS_WANT_OBJECT,false,9;B_ANTI_PHOTOTAXIS,79;IS_DROP_OBJECT,false,87;B_RANDOM_WALK,93#
*:*:IS_MOTIVATION_1_INC,false,19#*:*:IS_WANT_OBJECT,true,15;IS_WANT_OBJECT,true,88;IS_WANT_OBJECT,false,9;B_ANTI_PHOTOTAXIS,79;IS_DROP_OBJECT,false,87;B_RANDOM_WALK,93#
*:*:IS_MOTIVATION_1_INC,false,19#*:*:IS_WANT_OBJECT,true,15;IS_WANT_OBJECT,true,88;IS_WANT_OBJECT,false,9;B_ANTI_PHOTOTAXIS,79;IS_DROP_OBJECT,false,87;B_RANDOM_WALK,93#
*:*:IS_MOTIVATION_1_INC,false,19#*:*:IS_WANT_OBJECT,true,15;IS_WANT_OBJECT,true,88;IS_WANT_OBJECT,false,9;B_ANTI_PHOTOTAXIS,79;IS_DROP_OBJECT,false,87;B_RANDOM_WALK,93#
*:*:IS_MOTIVATION_1_INC,false,19#*:*:IS_WANT_OBJECT,true,15;IS_WANT_OBJECT,true,88;IS_WANT_OBJECT,false,9;B_ANTI_PHOTOTAXIS,79;IS_DROP_OBJECT,false,87;B_RANDOM_WALK,93#
*:*:IS_MOTIVATION_1_INC,false,19#*:*:IS_WANT_OBJECT,true,15;IS_WANT_OBJECT,true,88;IS_WANT_OBJECT,false,9;B_ANTI_PHOTOTAXIS,79;IS_DROP_OBJECT,false,87;B_RANDOM_WALK,93#
*:*:IS_MOTIVATION_1_INC,false,19#*:*:IS_WANT_OBJECT,true,15;IS_WANT_OBJECT,true,88;IS_WANT_OBJECT,false,9;B_ANTI_PHOTOTAXIS,79;IS_DROP_OBJECT,false,87;B_RANDOM_WALK,93#
*:*:IS_MOTIVATION_1_INC,false,19#*:*:IS_WANT_OBJECT,false,15;IS_WANT_OBJECT,true,88;IS_WANT_OBJECT,false,9;IS_WANT_OBJECT,false,9;B_ANTI_PHOTOTAXIS,79;IS_DROP_OBJECT,false,87;B_RANDOM_WALK,93#
*:*:IS_MOTIVATION_1_INC,false,19#*:*:IS_WANT_OBJECT,false,15;IS_WANT_OBJECT,true,88;IS_WANT_OBJECT,false,9;IS_WANT_OBJECT,false,9;B_ANTI_PHOTOTAXIS,79;IS_DROP_OBJECT,false,87;B_RANDOM_WALK,93#
*:*:IS_MOTIVATION_1_INC,false,19#*:*:IS_WANT_OBJECT,false,15;IS_WANT_OBJECT,true,88;IS_WANT_OBJECT,false,9;IS_WANT_OBJECT,false,9;B_ANTI_PHOTOTAXIS,79;IS_DROP_OBJECT,false,87;B_RANDOM_WALK,93#
*:*:IS_MOTIVATION_1_INC,false,19#*:*:IS_WANT_OBJECT,false,15;IS_WANT_OBJECT,true,88;IS_WANT_OBJECT,false,9;IS_WANT_OBJECT,false,9;B_ANTI_PHOTOTAXIS,79;IS_DROP_OBJECT,false,87;B_RANDOM_WALK,93#
*:*:IS_MOTIVATION_1_INC,false,19#*:*:IS_WANT_OBJECT,false,15;IS_WANT_OBJECT,true,88;IS_WANT_OBJECT,false,9;IS_WANT_OBJECT,false,9;B_ANTI_PHOTOTAXIS,79;IS_DROP_OBJECT,false,87;B_RANDOM_WALK,93#
*:*:IS_MOTIVATION_1_INC,false,19#*:*:IS_WANT_OBJECT,false,15;IS_WANT_OBJECT,true,88;IS_WANT_OBJECT,false,9;IS_WANT_OBJECT,false,9;B_ANTI_PHOTOTAXIS,79;IS_DROP_OBJECT,false,87;B_RANDOM_WALK,93#
*:*:IS_MOTIVATION_1_INC,false,19#*:*:IS_WANT_OBJECT,false,15;IS_WANT_OBJECT,true,88;IS_WANT_OBJECT,false,9;IS_WANT_OBJECT,false,9;B_ANTI_PHOTOTAXIS,79;IS_DROP_OBJECT,false,87;B_RANDOM_WALK,93#
*:*:IS_MOTIVATION_1_INC,false,19#*:*:IS_WANT_OBJECT,false,15;IS_WANT_OBJECT,true,88;IS_WANT_OBJECT,false,9;IS_WANT_OBJECT,false,9;B_ANTI_PHOTOTAXIS,79;IS_DROP_OBJECT,false,87;B_RANDOM_WALK,93#
*:*:IS_MOTIVATION_1_INC,false,19#*:*:IS_WANT_OBJECT,false,15;IS_WANT_OBJECT,true,88;IS_WANT_OBJECT,false,9;IS_WANT_OBJECT,false,9;B_ANTI_PHOTOTAXIS,79;IS_DROP_OBJECT,false,87;B_RANDOM_WALK,93#
*:*:IS_MOTIVATION_1_INC,false,19#*:*:IS_WANT_OBJECT,false,15;IS_WANT_OBJECT,true,88;IS_WANT_OBJECT,false,9;IS_WANT_OBJECT,false,9;B_ANTI_PHOTOTAXIS,79;IS_DROP_OBJECT,false,87;B_RANDOM_WALK,93#
*:*:IS_MOTIVATION_1_INC,false,19#*:*:IS_WANT_OBJECT,false,15;IS_WANT_OBJECT,true,88;IS_WANT_OBJECT,false,9;IS_WANT_OBJECT,false,9;B_ANTI_PHOTOTAXIS,79;IS_DROP_OBJECT,false,87;B_RANDOM_WALK,93#
*:*:IS_MOTIVATION_1_INC,false,19#*:*:IS_WANT_OBJECT,false,15;IS_WANT_OBJECT,true,88;IS_WANT_OBJECT,false,9;IS_WANT_OBJECT,false,9;B_ANTI_PHOTOTAXIS,79;IS_DROP_OBJECT,false,87;B_RANDOM_WALK,93#
*:*:IS_MOTIVATION_1_INC,false,19#*:*:IS_WANT_OBJECT,false,15;IS_WANT_OBJECT,true,88;IS_WANT_OBJECT,false,9;IS_WANT_OBJECT,false,9;B_ANTI_PHOTOTAXIS,79;IS_DROP_OBJECT,false,87;B_RANDOM_WALK,93#
*:*:IS_MOTIVATION_1_INC,false,19#*:*:IS_WANT_OBJECT,false,15;IS_WANT_OBJECT,true,88;IS_WANT_OBJECT,false,9;IS_WANT_OBJECT,false,9;B_ANTI_PHOTOTAXIS,79;IS_DROP_OBJECT,false,87;B_RANDOM_WALK,93#
*:*:IS_MOTIVATION_1_INC,false,19#*:*:IS_WANT_OBJECT,false,15;IS_WANT_OBJECT,true,88;IS_WANT_OBJECT,false,9;IS_WANT_OBJECT,false,9;B_ANTI_PHOTOTAXIS,79;IS_DROP_OBJECT,false,87;B_RANDOM_WALK,93#
*:*:IS_MOTIVATION_1_INC,false,19#*:*:IS_WANT_OBJECT,false,15;IS_WANT_OBJECT,true,88;IS_WANT_OBJECT,false,9;IS_WANT_OBJECT,false,9;B_ANTI_PHOTOTAXIS,79;IS_DROP_OBJECT,false,87;B_RANDOM_WALK,93#
*:*:IS_MOTIVATION_1_INC,false,19#*:*:IS_WANT_OBJECT,false,15;IS_WANT_OBJECT,true,88;IS_WANT_OBJECT,false,9;IS_WANT_OBJECT,false,9;B_ANTI_PHOTOTAXIS,79;IS_DROP_OBJECT,false,87;B_RANDOM_WALK,93#
*:*:IS_MOTIVATION_1_INC,false,19#*:*:IS_WANT_OBJECT,false,15;IS_WANT_OBJECT,true,88;IS_WANT_OBJECT,false,9;IS_WANT_OBJECT,false,9;B_ANTI_PHOTOTAXIS,79;IS_DROP_OBJECT,false,87;B_RANDOM_WALK,93#
*:*:IS_MOTIVATION_1_INC,false,19#*:*:IS_WANT_OBJECT,false,15;IS_WANT_OBJECT,true,88;IS_WANT_OBJECT,false,9;IS_WANT_OBJECT,false,9;B_ANTI_PHOTOTAXIS,79;IS_DROP_OBJECT,false,87;B_RANDOM_WALK,93#
*:*:IS_MOTIVATION_1_INC,false,19#*:*:IS_WANT_OBJECT,false,15;IS_WANT_OBJECT,true,88;IS_WANT_OBJECT,false,9;IS_WANT_OBJECT,false,9;B_ANTI_PHOTOTAXIS,79;IS_DROP_OBJECT,false,87;B_RANDOM_WALK,93#
*:*:IS_MOTIVATION_1_INC,false,19#*:*:IS_WANT_OBJECT,false,15;IS_WANT_OBJECT,true,88;IS_WANT_OBJECT,false,9;IS_WANT_OBJECT,false,9;B_ANTI_PHOTOTAXIS,79;IS_DROP_OBJECT,false,87;B_RANDOM_WALK,93#
*:*:IS_MOTIVATION_1_INC,false,19#*:*:IS_WANT_OBJECT,false,15;IS_WANT_OBJECT,true,88;IS_WANT_OBJECT,false,9;IS_WANT_OBJECT,false,9;B_ANTI_PHOTOTAXIS,79;IS_DROP_OBJECT,false,87;B_RANDOM_WALK,93#
*:*:IS_MOTIVATION_1_INC,false,19#*:*:IS_WANT_OBJECT,false,15;IS_WANT_OBJECT,true,88;IS_WANT_OBJECT,false,9;IS_WANT_OBJECT,false,9;B_ANTI_PHOTOTAXIS,79;IS_DROP_OBJECT,false,87;B_RANDOM_WALK,93#
*:*:IS_MOTIVATION_1_INC,false,19#*:*:IS_WANT_OBJECT,false,15;IS_WANT_OBJECT,true,88;IS_WANT_OBJECT,false,9;IS_WANT_OBJECT,false,9;B_ANTI_PHOTOTAXIS,79;IS_DROP_OBJECT,false,87;B_RANDOM_WALK,93#
*:*:IS_MOTIVATION_1_INC,false,19#*:*:IS_WANT_OBJECT,false,15;IS_WANT_OBJECT,true,88;IS_WANT_OBJECT,false,9;IS_WANT_OBJECT,false,9;B_ANTI_PHOTOTAXIS,79;IS_DROP_OBJECT,false,87;B_RANDOM_WALK,93#
*:*:IS_MOTIVATION_1_INC,false,19#*:*:IS_WANT_OBJECT,false,15;IS_WANT_OBJECT,true,88;IS_WANT_OBJECT,false,9;IS_WANT_OBJECT,false,9;B_ANTI_PHOTOTAXIS,79;IS_DROP_OBJECT,false,87;B_RANDOM_WALK,93#
*:*:IS_MOTIVATION_1_INC,false,19#*:*:IS_WANT_OBJECT,false,15;IS_WANT_OBJECT,true,88;IS_WANT_OBJECT,false,9;IS_WANT_OBJECT,false,9;B_ANTI_PHOTOTAXIS,79;IS_DROP_OBJECT,false,87;B_RANDOM_WALK,93#
*:*:IS_MOTIVATION_1_INC,false,19#*:*:IS_WANT_OBJECT,false,15;IS_WANT_OBJECT,true,88;IS_WANT_OBJECT,false,9;IS_WANT_OBJECT,false,9;B_ANTI_PHOTOTAXIS,79;IS_DROP_OBJECT,false,87;B_RANDOM_WALK,93#
*:*:IS_MOTIVATION_1_INC,false,19#*:*:IS_WANT_OBJECT,false,15;IS_WANT_OBJECT,true,88;IS_WANT_OBJECT,false,9;IS_WANT_OBJECT,false,9;B_ANTI_PHOTOTAXIS,79;IS_DROP_OBJECT,false,87;B_RANDOM_WALK,93#
*:*:IS_MOTIVATION_1_INC,false,19#*:*:IS_WANT_OBJECT,false,15;IS_WANT_OBJECT,true,88;IS_WANT_OBJECT,false,9;IS_WANT_OBJECT,false,9;B_ANTI_PHOTOTAXIS,79;IS_DROP_OBJECT,false,87;B_RANDOM_WALK,93#
*:*:IS_MOTIVATION_1_INC,false,19#*:*:IS_WANT_OBJECT,false,15;IS_WANT_OBJECT,true,88;IS_WANT_OBJECT,false,9;IS_WANT_OBJECT,false,9;B_ANTI_PHOTOTAXIS,79;IS_DROP_OBJECT,false,87;B_RANDOM_WALK,93#
*:*:IS_MOTIVATION_1_INC,false,19#*:*:IS_WANT_OBJECT,false,15;IS_WANT_OBJECT,true,88;IS_WANT_OBJECT,false,9;IS_WANT_OBJECT,false,9;B_ANTI_PHOTOTAXIS,79;IS_DROP_OBJECT,false,87;B_RANDOM_WALK,93#
*:*:IS_MOTIVATION_1_INC,false,19#*:*:IS_WANT_OBJECT,false,15;IS_WANT_OBJECT,true,88;IS_WANT_OBJECT,false,9;IS_WANT_OBJECT,false,9;B_ANTI_PHOTOTAXIS,79;IS_DROP_OBJECT,false,87;B_RANDOM_WALK,93#
*:*:IS_MOTIVATION_1_INC,false,19#*:*:IS_WANT_OBJECT,false,15;IS_WANT_OBJECT,true,88;IS_WANT_OBJECT,false,9;IS_WANT_OBJECT,false,9;B_ANTI_PHOTOTAXIS,79;IS_DROP_OBJECT,false,87;B_RANDOM_WALK,93#
*:*:IS_MOTIVATION_1_INC,false,19#*:*:IS_WANT_OBJECT,false,15;IS_WANT_OBJECT,true,88;IS_WANT_OBJECT,false,9;IS_WANT_OBJECT,false,9;B_ANTI_PHOTOTAXIS,79;IS_DROP_OBJECT,false,87;B_RANDOM_WALK,93#
*:*:IS_MOTIVATION_1_INC,false,19#*:*:IS_WANT_OBJECT,false,15;IS_WANT_OBJECT,true,88;IS_WANT_OBJECT,false,9;IS_WANT_OBJECT,false,9;B_ANTI_PHOTOTAXIS,79;IS_DROP_OBJECT,false,87;B_RANDOM_WALK,93#
*:*:IS_MOTIVATION_1_INC,false,19#*:*:IS_WANT_OBJECT,false,15;IS_WANT_OBJECT,true,88;IS_WANT_OBJECT,false,9;IS_WANT_OBJECT,false,9;B_ANTI_PHOTOTAXIS,79;IS_DROP_OBJECT,false,87;B_RANDOM_WALK,93#
*:*:IS_MOTIVATION_1_INC,false,19#*:*:IS_WANT_OBJECT,false,15;IS_WANT_OBJECT,true,88;IS_WANT_OBJECT,false,9;IS_WANT_OBJECT,false,9;B_ANTI_PHOTOTAXIS,79;IS_DROP_OBJECT,false,87;B_RANDOM_WALK,93#
*:*:IS_MOTIVATION_1_INC,false,19#*:*:IS_WANT_OBJECT,false,15;IS_WANT_OBJECT,true,88;IS_WANT_OBJECT,false,9;IS_WANT_OBJECT,false,9;B_ANTI_PHOTOTAXIS,79;IS_DROP_OBJECT,false,87;B_RANDOM_WALK,93#
*:*:IS_MOTIVATION_1_INC,false,19#*:*:IS_WANT_OBJECT,false,15;IS_WANT_OBJECT,true,88;IS_WANT_OBJECT,false,9;IS_WANT_OBJECT,false,9;B_ANTI_PHOTOTAXIS,79;IS_DROP_OBJECT,false,87;B_RANDOM_WALK,93#
*:*:IS_MOTIVATION_1_INC,false,19#*:*:IS_WANT_OBJECT,false,15;IS_WANT_OBJECT,true,88;IS_WANT_OBJECT,false,9;IS_WANT_OBJECT,false,9;B_ANTI_PHOTOTAXIS,79;IS_DROP_OBJECT,false,87;B_RANDOM_WALK,93#
*:*:IS_MOTIVATION_1_INC,false,19#*:*:IS_WANT_OBJECT,false,15;IS_WANT_OBJECT,true,88;IS_WANT_OBJECT,false,9;IS_WANT_OBJECT,false,9;B_ANTI_PHOTOTAXIS,79;IS_DROP_OBJECT,false,87;B_RANDOM_WALK,93#
*:*:IS_MOTIVATION_1_INC,false,19#*:*:IS_WANT_OBJECT,false,15;IS_WANT_OBJECT,true,88;IS_WANT_OBJECT,false,9;IS_WANT_OBJECT,false,9;B_ANTI_PHOTOTAXIS,79;IS_DROP_OBJECT,false,87;B_RANDOM_WALK,93#
*:*:IS_MOTIVATION_1_INC,false,19#*:*:IS_WANT_OBJECT,false,15;IS_WANT_OBJECT,true,88;IS_WANT_OBJECT,false,9;IS_WANT_OBJECT,false,9;B_ANTI_PHOTOTAXIS,79;IS_DROP_OBJECT,false,87;B_RANDOM_WALK,93#
*:*:IS_MOTIVATION_1_INC,false,19#*:*:IS_WANT_OBJECT,false,15;IS_WANT_OBJECT,true,88;IS_WANT_OBJECT,false,9;IS_WANT_OBJECT,false,9;B_ANTI_PHOTOTAXIS,79;IS_DROP_OBJECT,false,87;B_RANDOM_WALK,93#
*:*:IS_MOTIVATION_1_INC,false,19#*:*:IS_WANT_OBJECT,false,15;IS_WANT_OBJECT,true,88;IS_WANT_OBJECT,false,9;IS_WANT_OBJECT,false,9;B_ANTI_PHOTOTAXIS,79;IS_DROP_OBJECT,false,87;B_RANDOM_WALK,93#
*:*:IS_MOTIVATION_1_INC,false,19#*:*:IS_WANT_OBJECT,false,15;IS_WANT_OBJECT,true,88;IS_WANT_OBJECT,false,9;IS_WANT_OBJECT,false,9;B_ANTI_PHOTOTAXIS,79;IS_DROP_OBJECT,false,87;B_RANDOM_WALK,93#
*:*:IS_MOTIVATION_1_INC,false,19#*:*:IS_WANT_OBJECT,false,15;IS_WANT_OBJECT,true,88;IS_WANT_OBJECT,false,9;IS_WANT_OBJECT,false,9;B_ANTI_PHOTOTAXIS,79;IS_DROP_OBJECT,false,87;B_RANDOM_WALK,93#
