1.0
1.0
1.0
1.0
1.0
1.0
1.0
1.0
1.0
1.0
1.0
1.0
0.910948
0.910948
0.910948
1.0
1.0
1.0
1.0
1.0
1.0
1.0
1.0
1.0
1.0
1.0
1.0
1.0
1.0
1.0
1.0
1.0
1.0
1.0
1.0
1.0
0.94656
0.94656
0.94656
0.94656
0.94656
0.94656
0.94656
0.954767
0.954767
1.0
0.954541
0.954541
0.954541
0.954541
0.954541
0.954541
0.954541
0.954541
0.954541
0.954541
0.934048
0.934048
0.934048
1.0
1.0
0.965668
1.0
0.965668
1.0
0.965668
0.943082
0.943082
0.943082
0.970238
0.943082
0.970238
0.943082
0.970238
0.943082
0.970238
0.943082
0.970238
0.943082
0.970238
0.943082
0.970238
0.943082
0.783069
0.783069
0.783069
0.783069
0.818237
0.818237
0.818237
0.818237
0.818237
0.818237
0.818237
0.728718
0.728718
0.728718
0.728718
0.728718
0.728718
0.728718
0.728718
0.728718
0.728718
0.728718
0.728718
0.728718
0.728718
0.728718
0.728718
0.728718
0.728718
0.728718
0.728718
0.728718
0.728718
0.728718
0.728718
0.728718
0.728718
0.728718
0.728718
0.728718
0.728718
0.728718
0.728718
0.728718
0.728718
0.728718
0.728718
0.728718
0.728718
0.728718
0.728718
0.728718
0.728718
0.728718
0.728718
0.728718
0.728718
0.728718
0.728718
0.728718
0.728718
0.73946
0.953916
0.953916
0.953916
0.953916
0.953916
0.953916
0.953916
0.953916
0.978907
0.978907
0.978907
0.978907
0.939854
0.939854
0.939854
0.939854
0.939854
0.939854
0.939854
0.939854
0.939854
0.939854
0.939854
0.939854
0.939854
0.939854
0.939854
0.939854
0.939854
0.939854
0.939854
0.939854
0.980172
0.980172
0.980172
0.980172
0.980172
0.980172
0.980172
0.980172
0.980172
0.980172
0.980172
0.980172
0.980172
0.980172
0.980172
0.980172
0.980172
0.980172
0.980172
0.980172
0.980172
0.980172
0.980172
0.980172
0.980172
0.980172
0.980172
0.980172
0.980172
0.980172
0.980172
0.980172
0.980172
0.980172
0.980172
0.980172
0.980172
0.980172
0.980172
0.980172
0.980172
0.980172
0.980172
0.980172
0.980172
0.980172
0.980172
0.980172
0.980172
0.980172
0.980172
0.980172
0.980172
0.980172
0.980172
0.980172
0.980172
0.980172
0.980172
0.980172
0.980172
0.980172
0.980172
0.980172
0.980172
0.980172
0.980172
0.980172
0.980172
0.980172
0.980172
0.980172
0.980172
0.980172
0.980172
0.980172
0.980172
0.980172
0.980172
0.980172
0.980172
0.980172
0.980172
