P_MOTIVATION_2_GT,false;P_MOTIVATION_2_GT,false;*:*:B_PHOTOTAXIS,1#
P_MOTIVATION_1_GT,false;P_ON_SLOPE,true;*:*:B_PHOTOTAXIS,5#
P_MOTIVATION_2_GT,false;P_MOTIVATION_2_GT,false;*:*:B_PHOTOTAXIS,1#
P_MOTIVATION_1_GT,false;P_ON_SLOPE,true;*:*:B_PHOTOTAXIS,5#
P_MOTIVATION_2_GT,false;P_MOTIVATION_2_GT,false;*:*:B_PHOTOTAXIS,1#
P_MOTIVATION_1_GT,false;P_ON_SLOPE,true;*:*:B_PHOTOTAXIS,5#
P_MOTIVATION_2_GT,false;P_MOTIVATION_2_GT,false;*:*:B_PHOTOTAXIS,1#
P_MOTIVATION_1_GT,false;P_ON_SLOPE,true;*:*:B_PHOTOTAXIS,5#
P_MOTIVATION_2_GT,false;P_MOTIVATION_2_GT,false;*:*:B_PHOTOTAXIS,1#
P_MOTIVATION_1_GT,false;P_ON_SLOPE,true;*:*:B_PHOTOTAXIS,5#
P_MOTIVATION_2_GT,false;P_MOTIVATION_2_GT,false;*:*:B_PHOTOTAXIS,1#
P_MOTIVATION_1_GT,false;P_ON_SLOPE,true;*:*:B_PHOTOTAXIS,5#
P_MOTIVATION_2_GT,false;P_MOTIVATION_2_GT,false;*:*:B_PHOTOTAXIS,1#
P_MOTIVATION_1_GT,false;P_ON_SLOPE,true;*:*:B_PHOTOTAXIS,5#
P_MOTIVATION_2_GT,false;P_MOTIVATION_2_GT,false;*:*:B_PHOTOTAXIS,1#
P_MOTIVATION_1_GT,false;P_ON_SLOPE,true;*:*:B_PHOTOTAXIS,5#
P_MOTIVATION_2_GT,false;P_MOTIVATION_2_GT,false;*:*:B_PHOTOTAXIS,1#
P_MOTIVATION_1_GT,false;P_ON_SLOPE,true;*:*:B_PHOTOTAXIS,5#
P_MOTIVATION_2_GT,false;P_MOTIVATION_2_GT,false;*:*:B_PHOTOTAXIS,1#
P_MOTIVATION_1_GT,false;P_ON_SLOPE,true;*:*:B_PHOTOTAXIS,5#
P_MOTIVATION_2_GT,false;P_MOTIVATION_2_GT,false;*:*:B_PHOTOTAXIS,1#
P_MOTIVATION_1_GT,false;P_ON_SLOPE,true;*:*:B_PHOTOTAXIS,5#
P_MOTIVATION_2_GT,false;P_MOTIVATION_2_GT,false;*:*:B_PHOTOTAXIS,1#
P_MOTIVATION_1_GT,false;P_ON_SLOPE,true;*:*:B_PHOTOTAXIS,5#
P_MOTIVATION_2_GT,false;P_MOTIVATION_2_GT,false;*:*:B_PHOTOTAXIS,1#
P_MOTIVATION_1_GT,false;P_ON_SLOPE,true;*:*:B_PHOTOTAXIS,5#
P_MOTIVATION_2_GT,false;P_MOTIVATION_2_GT,false;*:*:B_PHOTOTAXIS,1#
P_MOTIVATION_1_GT,false;P_ON_SLOPE,true;*:*:B_PHOTOTAXIS,5#
P_MOTIVATION_2_GT,false;P_MOTIVATION_2_GT,false;*:*:B_PHOTOTAXIS,1#
P_MOTIVATION_1_GT,false;P_ON_SLOPE,true;*:*:B_PHOTOTAXIS,5#
P_MOTIVATION_2_GT,false;P_MOTIVATION_2_GT,false;*:*:B_PHOTOTAXIS,1#
P_MOTIVATION_1_GT,false;P_ON_SLOPE,true;*:*:B_PHOTOTAXIS,5#
P_MOTIVATION_2_GT,false;P_MOTIVATION_2_GT,false;*:*:B_PHOTOTAXIS,1#
P_MOTIVATION_1_GT,false;P_ON_SLOPE,true;*:*:B_PHOTOTAXIS,5#
P_MOTIVATION_2_GT,false;P_MOTIVATION_2_GT,false;*:*:B_PHOTOTAXIS,1#
*:*:B_ANTI_PHOTOTAXIS,6;B_RANDOM_WALK,79;IS_DROP_OBJECT,false,1;IS_WANT_OBJECT,false,90;IS_DROP_OBJECT,true,87;IS_WANT_OBJECT,true,62#
*:*:B_ANTI_PHOTOTAXIS,6;B_RANDOM_WALK,79;IS_DROP_OBJECT,false,47;IS_WANT_OBJECT,false,90;IS_MOTIVATION_1_INC,true,87;IS_WANT_OBJECT,true,91;B_ANTI_PHOTOTAXIS,3#
*:*:B_ANTI_PHOTOTAXIS,18;B_RANDOM_WALK,79;IS_DROP_OBJECT,true,47;IS_MOTIVATION_1_DEC,false,90;IS_MOTIVATION_1_INC,true,87;IS_WANT_OBJECT,true,91#
*:*:B_ANTI_PHOTOTAXIS,18;B_RANDOM_WALK,79;IS_DROP_OBJECT,true,47;IS_MOTIVATION_1_DEC,false,90;IS_MOTIVATION_1_INC,true,87;IS_WANT_OBJECT,true,91#P_MOTIVATION_1_GT,false;P_MOTIVATION_1_GT,true;*:B_PHOTOTAXIS;B_ANTI_PHOTOTAXIS;*:IS_WANT_OBJECT,false,90;IS_DROP_OBJECT,true,87;IS_MOTIVATION_1_DEC,true,33#
*:*:B_ANTI_PHOTOTAXIS,18;B_RANDOM_WALK,79;IS_DROP_OBJECT,true,46;IS_MOTIVATION_1_DEC,false,90;IS_MOTIVATION_1_INC,true,87;IS_WANT_OBJECT,true,91#
*:*:B_ANTI_PHOTOTAXIS,18;B_RANDOM_WALK,79;IS_DROP_OBJECT,true,46;IS_MOTIVATION_1_DEC,false,90;IS_MOTIVATION_1_INC,true,87;IS_WANT_OBJECT,true,91#
*:*:B_ANTI_PHOTOTAXIS,18;B_RANDOM_WALK,79;IS_DROP_OBJECT,true,46;IS_MOTIVATION_1_DEC,false,90;IS_MOTIVATION_1_INC,true,87;IS_WANT_OBJECT,true,91#
*:*:B_ANTI_PHOTOTAXIS,18;B_RANDOM_WALK,79;IS_DROP_OBJECT,true,46;IS_MOTIVATION_1_DEC,false,90;IS_MOTIVATION_1_INC,true,87;IS_WANT_OBJECT,true,91#
*:*:B_ANTI_PHOTOTAXIS,18;B_RANDOM_WALK,79;IS_DROP_OBJECT,true,46;IS_MOTIVATION_1_DEC,false,90;IS_MOTIVATION_1_INC,true,87;IS_WANT_OBJECT,true,91#
*:*:B_ANTI_PHOTOTAXIS,18;B_RANDOM_WALK,79;IS_DROP_OBJECT,true,46;IS_MOTIVATION_1_DEC,false,90;IS_MOTIVATION_1_INC,true,87;IS_WANT_OBJECT,true,91#
*:*:B_ANTI_PHOTOTAXIS,18;B_RANDOM_WALK,79;IS_DROP_OBJECT,true,46;IS_MOTIVATION_1_DEC,false,90;IS_MOTIVATION_1_INC,true,87;IS_WANT_OBJECT,true,91#
*:*:B_ANTI_PHOTOTAXIS,18;B_RANDOM_WALK,79;IS_DROP_OBJECT,true,46;IS_MOTIVATION_1_DEC,false,90;IS_MOTIVATION_1_INC,true,87;IS_WANT_OBJECT,true,91#
*:*:B_ANTI_PHOTOTAXIS,18;B_RANDOM_WALK,79;IS_DROP_OBJECT,true,46;IS_MOTIVATION_1_DEC,false,90;IS_MOTIVATION_1_INC,true,87;IS_WANT_OBJECT,true,91#
*:*:B_ANTI_PHOTOTAXIS,18;B_RANDOM_WALK,79;IS_DROP_OBJECT,true,46;IS_MOTIVATION_1_DEC,false,90;IS_MOTIVATION_1_INC,true,87;IS_WANT_OBJECT,true,91#
*:*:B_ANTI_PHOTOTAXIS,18;B_RANDOM_WALK,79;IS_DROP_OBJECT,true,46;IS_MOTIVATION_1_DEC,false,90;IS_MOTIVATION_1_INC,true,87;IS_WANT_OBJECT,true,91#
*:*:B_ANTI_PHOTOTAXIS,18;B_RANDOM_WALK,79;IS_DROP_OBJECT,true,46;IS_MOTIVATION_1_DEC,false,90;IS_MOTIVATION_1_INC,true,87;IS_WANT_OBJECT,true,91#
*:*:B_ANTI_PHOTOTAXIS,36;B_RANDOM_WALK,79;IS_DROP_OBJECT,true,46;IS_MOTIVATION_1_DEC,false,90;IS_MOTIVATION_1_INC,true,87;IS_WANT_OBJECT,true,91#P_MOTIVATION_1_GT,false;P_ON_CACHE,true;*:B_PHOTOTAXIS;B_ANTI_PHOTOTAXIS;*:B_RANDOM_WALK,52;IS_MOTIVATION_2_INC,false,97#*:*:B_RANDOM_WALK,6#
*:*:B_ANTI_PHOTOTAXIS,36;B_RANDOM_WALK,79;IS_DROP_OBJECT,true,46;IS_MOTIVATION_1_DEC,false,90;IS_MOTIVATION_1_INC,true,87;IS_WANT_OBJECT,true,91#P_MOTIVATION_1_GT,false;P_ON_CACHE,true;*:B_PHOTOTAXIS;B_ANTI_PHOTOTAXIS;*:B_RANDOM_WALK,52;IS_MOTIVATION_2_INC,false,97#*:*:B_RANDOM_WALK,6#
*:*:B_ANTI_PHOTOTAXIS,36;B_RANDOM_WALK,79;IS_DROP_OBJECT,true,46;IS_MOTIVATION_1_DEC,false,90;IS_MOTIVATION_1_INC,true,87;IS_WANT_OBJECT,true,91#P_MOTIVATION_1_GT,false;P_ON_CACHE,true;*:B_PHOTOTAXIS;B_ANTI_PHOTOTAXIS;*:B_RANDOM_WALK,52;IS_MOTIVATION_2_INC,false,97#*:*:B_RANDOM_WALK,6#
*:*:B_ANTI_PHOTOTAXIS,36;B_RANDOM_WALK,79;IS_DROP_OBJECT,true,46;IS_MOTIVATION_1_DEC,false,90;IS_MOTIVATION_1_INC,true,87;IS_WANT_OBJECT,true,91#P_MOTIVATION_1_GT,false;P_ON_CACHE,true;*:B_PHOTOTAXIS;B_ANTI_PHOTOTAXIS;*:B_RANDOM_WALK,52;IS_MOTIVATION_2_INC,false,97#*:*:B_RANDOM_WALK,6#
*:*:B_ANTI_PHOTOTAXIS,36;B_RANDOM_WALK,79;IS_DROP_OBJECT,true,46;IS_MOTIVATION_1_DEC,false,90;IS_MOTIVATION_1_INC,true,87;IS_WANT_OBJECT,true,91#P_MOTIVATION_1_GT,false;P_ON_CACHE,true;*:B_PHOTOTAXIS;B_ANTI_PHOTOTAXIS;*:B_RANDOM_WALK,52;IS_MOTIVATION_2_INC,false,97#*:*:B_RANDOM_WALK,6#
*:*:B_ANTI_PHOTOTAXIS,36;B_RANDOM_WALK,79;IS_DROP_OBJECT,true,46;IS_MOTIVATION_1_DEC,false,90;IS_MOTIVATION_1_INC,true,87;IS_WANT_OBJECT,true,91#P_MOTIVATION_1_GT,false;P_ON_CACHE,true;*:B_PHOTOTAXIS;B_ANTI_PHOTOTAXIS;*:B_RANDOM_WALK,52;IS_MOTIVATION_2_INC,false,97#*:*:B_RANDOM_WALK,6#
*:*:B_ANTI_PHOTOTAXIS,36;B_RANDOM_WALK,79;IS_DROP_OBJECT,true,46;IS_MOTIVATION_1_DEC,false,90;IS_MOTIVATION_1_INC,true,87;IS_WANT_OBJECT,true,91#P_MOTIVATION_1_GT,false;P_ON_CACHE,true;*:B_PHOTOTAXIS;B_ANTI_PHOTOTAXIS;*:B_RANDOM_WALK,52;IS_MOTIVATION_2_INC,false,97#*:*:B_RANDOM_WALK,6#
*:*:B_ANTI_PHOTOTAXIS,36;B_RANDOM_WALK,79;IS_DROP_OBJECT,true,46;IS_MOTIVATION_1_DEC,false,90;IS_MOTIVATION_1_INC,true,87;IS_WANT_OBJECT,true,91#P_MOTIVATION_1_GT,false;P_ON_CACHE,true;*:B_PHOTOTAXIS;B_ANTI_PHOTOTAXIS;*:B_RANDOM_WALK,52;IS_MOTIVATION_2_INC,false,97#*:*:B_RANDOM_WALK,6#
*:*:B_ANTI_PHOTOTAXIS,36;B_RANDOM_WALK,79;IS_DROP_OBJECT,true,46;IS_MOTIVATION_1_DEC,false,90;IS_MOTIVATION_1_INC,true,87;IS_WANT_OBJECT,true,91#P_MOTIVATION_1_GT,false;P_ON_CACHE,true;*:B_PHOTOTAXIS;B_ANTI_PHOTOTAXIS;*:B_RANDOM_WALK,52;IS_MOTIVATION_2_INC,false,97#*:*:B_RANDOM_WALK,6#
*:*:B_ANTI_PHOTOTAXIS,36;B_RANDOM_WALK,79;IS_DROP_OBJECT,true,46;IS_MOTIVATION_1_DEC,false,90;IS_MOTIVATION_1_INC,true,87;IS_WANT_OBJECT,true,91#P_MOTIVATION_1_GT,false;P_ON_CACHE,true;*:B_PHOTOTAXIS;B_ANTI_PHOTOTAXIS;*:B_RANDOM_WALK,52;IS_MOTIVATION_2_INC,false,97#*:*:B_RANDOM_WALK,6#
*:*:B_ANTI_PHOTOTAXIS,32;B_RANDOM_WALK,79;IS_DROP_OBJECT,true,46;IS_MOTIVATION_1_DEC,false,61;IS_MOTIVATION_1_INC,true,87;IS_WANT_OBJECT,true,91#P_MOTIVATION_1_GT,false;P_ON_CACHE,false;*:B_PHOTOTAXIS;B_ANTI_PHOTOTAXIS;*:IS_MOTIVATION_2_DEC,false,90;IS_DROP_OBJECT,true,78#P_HAS_OBJECT,true;*:*:B_ANTI_PHOTOTAXIS,94#
*:*:B_ANTI_PHOTOTAXIS,32;B_RANDOM_WALK,79;IS_DROP_OBJECT,true,46;IS_DROP_OBJECT,false,61;IS_MOTIVATION_1_INC,true,87;IS_WANT_OBJECT,true,91#P_MOTIVATION_1_GT,true;P_ON_CACHE,false;*:B_PHOTOTAXIS;B_ANTI_PHOTOTAXIS;*:IS_MOTIVATION_2_DEC,false,90;IS_DROP_OBJECT,true,78#P_HAS_OBJECT,true;*:*:B_ANTI_PHOTOTAXIS,94#
*:*:B_ANTI_PHOTOTAXIS,32;B_RANDOM_WALK,79;IS_DROP_OBJECT,true,46;IS_DROP_OBJECT,false,61;IS_MOTIVATION_1_INC,true,87;IS_WANT_OBJECT,true,91#P_MOTIVATION_1_GT,true;P_ON_CACHE,false;*:B_PHOTOTAXIS;B_ANTI_PHOTOTAXIS;*:IS_MOTIVATION_2_DEC,false,90;IS_DROP_OBJECT,true,78#P_HAS_OBJECT,true;*:*:B_ANTI_PHOTOTAXIS,94#
*:*:B_ANTI_PHOTOTAXIS,32;B_RANDOM_WALK,79;IS_DROP_OBJECT,true,46;IS_DROP_OBJECT,false,61;IS_MOTIVATION_1_INC,true,87;IS_WANT_OBJECT,true,91#P_MOTIVATION_1_GT,true;P_ON_CACHE,false;*:B_PHOTOTAXIS;B_ANTI_PHOTOTAXIS;*:IS_MOTIVATION_2_DEC,false,90;IS_DROP_OBJECT,true,78#P_HAS_OBJECT,true;*:*:B_ANTI_PHOTOTAXIS,94#
*:*:IS_WANT_OBJECT,false,40;IS_DROP_OBJECT,false,92;B_PHOTOTAXIS,38;B_RANDOM_WALK,49;IS_MOTIVATION_2_INC,true,89;IS_MOTIVATION_2_DEC,true,28;IS_MOTIVATION_1_DEC,false,51#P_ON_NEST,false;P_HAS_OBJECT,true;*:*:B_ANTI_PHOTOTAXIS,94#*:B_PHOTOTAXIS;*:B_PHOTOTAXIS,66;B_PHOTOTAXIS,3;B_RANDOM_WALK,6;B_RANDOM_WALK,79;IS_MOTIVATION_1_DEC,false,47;B_RANDOM_WALK,52;IS_MOTIVATION_2_INC,false,97#
*:*:IS_WANT_OBJECT,false,40;IS_DROP_OBJECT,false,92;B_PHOTOTAXIS,38;B_RANDOM_WALK,49;IS_MOTIVATION_2_INC,true,89;IS_MOTIVATION_2_DEC,true,28;IS_MOTIVATION_1_DEC,false,51#P_ON_NEST,false;P_HAS_OBJECT,true;*:*:B_ANTI_PHOTOTAXIS,94#*:B_PHOTOTAXIS;*:B_PHOTOTAXIS,66;B_PHOTOTAXIS,3;B_RANDOM_WALK,3;B_RANDOM_WALK,79;IS_MOTIVATION_1_DEC,false,47;B_RANDOM_WALK,52;B_PHOTOTAXIS,3#
*:*:IS_WANT_OBJECT,false,40;IS_DROP_OBJECT,false,92;B_PHOTOTAXIS,38;B_RANDOM_WALK,90;IS_MOTIVATION_2_INC,true,89;IS_MOTIVATION_2_INC,true,23;IS_MOTIVATION_1_DEC,false,51#P_ON_NEST,false;P_HAS_OBJECT,true;*:*:B_ANTI_PHOTOTAXIS,94#
*:*:IS_WANT_OBJECT,false,40;IS_DROP_OBJECT,false,92;B_PHOTOTAXIS,38;B_RANDOM_WALK,90;IS_MOTIVATION_2_INC,true,89;IS_MOTIVATION_2_INC,true,23;IS_MOTIVATION_1_DEC,false,51#P_ON_NEST,false;P_HAS_OBJECT,true;*:*:B_ANTI_PHOTOTAXIS,94#
*:*:IS_WANT_OBJECT,false,40;IS_DROP_OBJECT,false,92;B_PHOTOTAXIS,38;B_RANDOM_WALK,90;IS_MOTIVATION_2_INC,true,89;IS_MOTIVATION_2_INC,true,23;IS_MOTIVATION_1_DEC,false,51#P_ON_NEST,false;P_HAS_OBJECT,true;*:*:B_ANTI_PHOTOTAXIS,94#
*:*:IS_WANT_OBJECT,false,40;IS_DROP_OBJECT,false,92;B_PHOTOTAXIS,38;B_RANDOM_WALK,90;IS_MOTIVATION_2_INC,true,89;IS_MOTIVATION_2_INC,true,23;IS_MOTIVATION_1_DEC,false,51#P_ON_NEST,false;P_HAS_OBJECT,true;*:*:B_ANTI_PHOTOTAXIS,94#
*:*:IS_WANT_OBJECT,false,40;IS_DROP_OBJECT,false,92;B_PHOTOTAXIS,38;B_RANDOM_WALK,90;IS_MOTIVATION_2_INC,true,89;IS_MOTIVATION_2_INC,true,23;IS_MOTIVATION_1_DEC,false,51#P_ON_NEST,false;P_HAS_OBJECT,true;*:*:B_ANTI_PHOTOTAXIS,94#
*:*:IS_WANT_OBJECT,false,40;IS_DROP_OBJECT,false,92;B_PHOTOTAXIS,38;B_RANDOM_WALK,90;IS_MOTIVATION_2_INC,true,89;IS_MOTIVATION_2_INC,true,23;IS_MOTIVATION_1_INC,true,51#P_ON_NEST,false;P_HAS_OBJECT,true;*:*:B_ANTI_PHOTOTAXIS,94#
*:*:IS_WANT_OBJECT,false,40;IS_DROP_OBJECT,false,92;B_PHOTOTAXIS,38;B_RANDOM_WALK,90;IS_MOTIVATION_1_DEC,false,89#*:*:IS_MOTIVATION_1_DEC,false,51#P_ON_NEST,false;P_HAS_OBJECT,true;*:*:B_ANTI_PHOTOTAXIS,94#
*:*:IS_WANT_OBJECT,false,40;IS_DROP_OBJECT,false,92;B_PHOTOTAXIS,38;B_RANDOM_WALK,90;IS_MOTIVATION_1_DEC,false,89#*:*:IS_MOTIVATION_1_DEC,true,51#P_ON_NEST,false;P_HAS_OBJECT,true;*:*:B_ANTI_PHOTOTAXIS,94#
*:*:IS_WANT_OBJECT,false,40;IS_DROP_OBJECT,false,92;B_PHOTOTAXIS,38;B_RANDOM_WALK,90;IS_MOTIVATION_1_DEC,false,89#*:*:IS_MOTIVATION_1_DEC,true,51#P_ON_NEST,false;P_HAS_OBJECT,true;*:*:B_ANTI_PHOTOTAXIS,94#
*:*:IS_WANT_OBJECT,false,40;IS_DROP_OBJECT,false,92;B_PHOTOTAXIS,38;B_RANDOM_WALK,90;IS_MOTIVATION_1_DEC,false,89#*:*:IS_MOTIVATION_1_DEC,true,51#P_ON_NEST,false;P_HAS_OBJECT,true;*:*:B_ANTI_PHOTOTAXIS,94#
*:*:IS_WANT_OBJECT,false,27;IS_DROP_OBJECT,false,92;B_PHOTOTAXIS,38;B_RANDOM_WALK,90;IS_MOTIVATION_1_DEC,false,89#*:*:IS_MOTIVATION_2_DEC,false,51#P_ON_NEST,false;P_HAS_OBJECT,true;*:*:B_ANTI_PHOTOTAXIS,94#
*:*:IS_WANT_OBJECT,false,27;IS_DROP_OBJECT,false,92;B_PHOTOTAXIS,38;B_RANDOM_WALK,90;IS_MOTIVATION_1_DEC,false,89#*:*:IS_MOTIVATION_2_DEC,false,51#P_ON_NEST,false;P_HAS_OBJECT,true;*:*:B_ANTI_PHOTOTAXIS,94#
*:*:IS_WANT_OBJECT,false,27;IS_DROP_OBJECT,false,92;B_PHOTOTAXIS,38;B_RANDOM_WALK,90;IS_MOTIVATION_1_DEC,false,89#*:*:IS_MOTIVATION_2_DEC,false,51#P_ON_NEST,false;P_HAS_OBJECT,true;*:*:B_ANTI_PHOTOTAXIS,94#
*:*:IS_WANT_OBJECT,false,27;IS_DROP_OBJECT,false,92;B_PHOTOTAXIS,38;B_RANDOM_WALK,90;IS_MOTIVATION_1_DEC,false,89#*:*:IS_MOTIVATION_2_DEC,false,51#P_ON_NEST,false;P_HAS_OBJECT,true;*:*:B_ANTI_PHOTOTAXIS,94#
*:*:IS_WANT_OBJECT,false,27;IS_DROP_OBJECT,false,92;B_PHOTOTAXIS,38;B_RANDOM_WALK,90;IS_MOTIVATION_1_DEC,false,89#*:*:IS_MOTIVATION_2_DEC,false,51#P_ON_NEST,false;P_HAS_OBJECT,true;*:*:B_ANTI_PHOTOTAXIS,94#
*:*:IS_WANT_OBJECT,false,27;IS_DROP_OBJECT,false,92;B_PHOTOTAXIS,38;B_RANDOM_WALK,90;IS_MOTIVATION_1_DEC,false,89#*:*:IS_MOTIVATION_2_DEC,false,51#P_ON_NEST,false;P_HAS_OBJECT,true;*:*:B_ANTI_PHOTOTAXIS,94#
*:*:IS_WANT_OBJECT,false,27;IS_DROP_OBJECT,false,92;B_PHOTOTAXIS,38;B_RANDOM_WALK,90;IS_MOTIVATION_1_DEC,false,89#*:*:IS_MOTIVATION_2_DEC,false,51#P_ON_NEST,false;P_HAS_OBJECT,true;*:*:B_ANTI_PHOTOTAXIS,94#
*:*:IS_WANT_OBJECT,false,27;IS_DROP_OBJECT,false,92;B_PHOTOTAXIS,38;B_RANDOM_WALK,90;IS_MOTIVATION_1_DEC,false,89#*:*:IS_MOTIVATION_2_DEC,false,51#P_ON_NEST,false;P_HAS_OBJECT,true;*:*:B_ANTI_PHOTOTAXIS,94#
*:*:IS_WANT_OBJECT,false,27;IS_DROP_OBJECT,false,92;B_PHOTOTAXIS,38;B_RANDOM_WALK,90;IS_MOTIVATION_1_DEC,false,89#*:*:IS_MOTIVATION_2_DEC,false,51#P_ON_NEST,false;P_HAS_OBJECT,true;*:*:B_ANTI_PHOTOTAXIS,94#
*:*:IS_WANT_OBJECT,false,27;IS_DROP_OBJECT,false,92;B_PHOTOTAXIS,38;B_RANDOM_WALK,90;IS_MOTIVATION_1_DEC,false,89#*:*:IS_MOTIVATION_2_DEC,false,51#P_ON_NEST,false;P_HAS_OBJECT,true;*:*:B_ANTI_PHOTOTAXIS,94#
*:*:IS_WANT_OBJECT,false,27;IS_DROP_OBJECT,false,92;B_PHOTOTAXIS,38;B_RANDOM_WALK,90;IS_MOTIVATION_1_DEC,false,89#*:*:IS_MOTIVATION_2_DEC,false,51#P_ON_NEST,false;P_HAS_OBJECT,true;*:*:B_ANTI_PHOTOTAXIS,94#
*:*:IS_WANT_OBJECT,false,27;IS_DROP_OBJECT,false,92;B_PHOTOTAXIS,38;B_RANDOM_WALK,90;IS_MOTIVATION_1_DEC,false,89#*:*:IS_MOTIVATION_2_DEC,false,51#P_ON_NEST,false;P_HAS_OBJECT,true;*:*:B_ANTI_PHOTOTAXIS,94#
*:*:IS_WANT_OBJECT,false,27;IS_DROP_OBJECT,false,92;B_PHOTOTAXIS,38;B_RANDOM_WALK,90;IS_MOTIVATION_1_DEC,false,89#*:*:IS_MOTIVATION_2_DEC,false,51#P_ON_NEST,false;P_HAS_OBJECT,true;*:*:B_ANTI_PHOTOTAXIS,94#
*:*:IS_WANT_OBJECT,false,27;IS_DROP_OBJECT,false,92;B_PHOTOTAXIS,38;B_RANDOM_WALK,90;IS_MOTIVATION_1_DEC,false,89#*:*:IS_MOTIVATION_2_DEC,false,51#P_ON_NEST,false;P_HAS_OBJECT,true;*:*:B_ANTI_PHOTOTAXIS,94#
*:*:IS_WANT_OBJECT,false,27;IS_DROP_OBJECT,false,92;B_PHOTOTAXIS,38;B_RANDOM_WALK,90;IS_MOTIVATION_1_DEC,false,89#*:*:IS_MOTIVATION_2_DEC,false,51#P_ON_NEST,false;P_HAS_OBJECT,true;*:*:B_ANTI_PHOTOTAXIS,94#
*:*:IS_WANT_OBJECT,false,27;IS_DROP_OBJECT,false,92;B_PHOTOTAXIS,38;B_RANDOM_WALK,90;IS_MOTIVATION_1_DEC,false,89#*:*:IS_MOTIVATION_2_DEC,false,51#P_ON_NEST,false;P_HAS_OBJECT,true;*:*:B_ANTI_PHOTOTAXIS,94#
*:*:IS_WANT_OBJECT,false,27;IS_DROP_OBJECT,false,92;B_PHOTOTAXIS,38;B_RANDOM_WALK,90;IS_MOTIVATION_1_DEC,false,89#*:*:IS_MOTIVATION_2_DEC,false,51#P_ON_NEST,false;P_HAS_OBJECT,true;*:*:B_ANTI_PHOTOTAXIS,94#
*:*:IS_WANT_OBJECT,false,27;IS_DROP_OBJECT,false,92;B_PHOTOTAXIS,38;B_RANDOM_WALK,90;IS_MOTIVATION_1_DEC,false,89#*:*:IS_MOTIVATION_2_DEC,false,51#P_ON_NEST,false;P_HAS_OBJECT,true;*:*:B_ANTI_PHOTOTAXIS,94#
*:*:IS_WANT_OBJECT,false,27;IS_DROP_OBJECT,false,92;B_PHOTOTAXIS,38;B_RANDOM_WALK,90;IS_MOTIVATION_1_DEC,false,89#*:*:IS_MOTIVATION_2_DEC,false,51#P_ON_NEST,false;P_HAS_OBJECT,true;*:*:B_ANTI_PHOTOTAXIS,94#
*:*:IS_WANT_OBJECT,false,27;IS_DROP_OBJECT,false,92;B_PHOTOTAXIS,38;B_RANDOM_WALK,90;IS_MOTIVATION_1_DEC,false,89#*:*:IS_MOTIVATION_2_DEC,false,51#P_ON_NEST,false;P_HAS_OBJECT,true;*:*:B_ANTI_PHOTOTAXIS,94#
*:*:IS_WANT_OBJECT,false,27;IS_DROP_OBJECT,false,92;B_PHOTOTAXIS,38;B_RANDOM_WALK,90;IS_MOTIVATION_1_DEC,false,89#*:*:IS_MOTIVATION_2_DEC,false,51#P_ON_NEST,false;P_HAS_OBJECT,true;*:*:B_ANTI_PHOTOTAXIS,94#
*:*:IS_WANT_OBJECT,false,27;IS_DROP_OBJECT,false,92;B_PHOTOTAXIS,38;B_RANDOM_WALK,90;IS_MOTIVATION_1_DEC,false,89#*:*:IS_MOTIVATION_2_DEC,false,51#P_ON_NEST,false;P_HAS_OBJECT,true;*:*:B_ANTI_PHOTOTAXIS,94#
*:*:IS_WANT_OBJECT,false,27;IS_DROP_OBJECT,false,92;B_PHOTOTAXIS,38;B_RANDOM_WALK,90;IS_MOTIVATION_1_DEC,false,89#*:*:IS_MOTIVATION_2_DEC,false,51#P_ON_NEST,false;P_HAS_OBJECT,true;*:*:B_ANTI_PHOTOTAXIS,94#
*:*:IS_WANT_OBJECT,false,27;IS_DROP_OBJECT,false,92;B_PHOTOTAXIS,38;B_RANDOM_WALK,90;IS_MOTIVATION_1_DEC,false,89#*:*:IS_MOTIVATION_2_DEC,false,51#P_ON_NEST,false;P_HAS_OBJECT,true;*:*:B_ANTI_PHOTOTAXIS,94#
*:*:IS_WANT_OBJECT,false,27;IS_DROP_OBJECT,false,92;B_PHOTOTAXIS,38;B_RANDOM_WALK,90;IS_MOTIVATION_1_DEC,false,89#*:*:IS_MOTIVATION_2_DEC,false,51#P_ON_NEST,false;P_HAS_OBJECT,true;*:*:B_ANTI_PHOTOTAXIS,94#
*:*:IS_WANT_OBJECT,false,27;IS_DROP_OBJECT,false,92;B_PHOTOTAXIS,38;B_RANDOM_WALK,90;IS_MOTIVATION_1_DEC,false,89#*:*:IS_MOTIVATION_2_DEC,false,51#P_ON_NEST,false;P_HAS_OBJECT,true;*:*:B_ANTI_PHOTOTAXIS,94#
*:*:IS_WANT_OBJECT,false,27;IS_DROP_OBJECT,false,92;B_PHOTOTAXIS,38;B_RANDOM_WALK,90;IS_MOTIVATION_1_DEC,false,89#*:*:IS_MOTIVATION_2_DEC,false,51#P_ON_NEST,false;P_HAS_OBJECT,true;*:*:B_ANTI_PHOTOTAXIS,94#
*:*:IS_WANT_OBJECT,false,27;IS_DROP_OBJECT,false,92;B_PHOTOTAXIS,38;B_RANDOM_WALK,90;IS_MOTIVATION_1_DEC,false,89#*:*:IS_MOTIVATION_2_DEC,false,51#P_ON_NEST,false;P_HAS_OBJECT,true;*:*:B_ANTI_PHOTOTAXIS,94#
*:*:IS_WANT_OBJECT,false,27;IS_DROP_OBJECT,false,92;B_PHOTOTAXIS,38;B_RANDOM_WALK,90;IS_MOTIVATION_1_DEC,false,89#*:*:IS_MOTIVATION_2_DEC,false,51#P_ON_NEST,false;P_HAS_OBJECT,true;*:*:B_ANTI_PHOTOTAXIS,94#
*:*:IS_WANT_OBJECT,false,27;IS_DROP_OBJECT,false,92;B_PHOTOTAXIS,38;B_RANDOM_WALK,90;IS_MOTIVATION_1_DEC,false,89#*:*:IS_MOTIVATION_2_DEC,false,51#P_ON_NEST,false;P_HAS_OBJECT,true;*:*:B_ANTI_PHOTOTAXIS,94#
*:*:IS_WANT_OBJECT,false,27;IS_DROP_OBJECT,false,92;B_PHOTOTAXIS,38;B_RANDOM_WALK,90;IS_MOTIVATION_1_DEC,false,89#*:*:IS_MOTIVATION_2_DEC,false,51#P_ON_NEST,false;P_HAS_OBJECT,true;*:*:B_ANTI_PHOTOTAXIS,94#
*:*:IS_WANT_OBJECT,false,27;IS_DROP_OBJECT,false,92;B_PHOTOTAXIS,38;B_RANDOM_WALK,90;IS_MOTIVATION_1_DEC,false,89#*:*:IS_MOTIVATION_2_DEC,false,51#P_ON_NEST,false;P_HAS_OBJECT,true;*:*:B_ANTI_PHOTOTAXIS,94#
*:*:IS_WANT_OBJECT,false,27;IS_DROP_OBJECT,false,92;B_PHOTOTAXIS,38;B_RANDOM_WALK,90;IS_MOTIVATION_1_DEC,false,89#*:*:IS_MOTIVATION_2_DEC,false,51#P_ON_NEST,false;P_HAS_OBJECT,true;*:*:B_ANTI_PHOTOTAXIS,94#
*:*:IS_WANT_OBJECT,false,27;IS_DROP_OBJECT,false,92;B_PHOTOTAXIS,38;B_RANDOM_WALK,90;IS_MOTIVATION_1_DEC,false,89#*:*:IS_MOTIVATION_2_DEC,false,51#P_ON_NEST,false;P_HAS_OBJECT,true;*:*:B_ANTI_PHOTOTAXIS,94#
*:*:IS_WANT_OBJECT,false,27;IS_DROP_OBJECT,false,92;B_PHOTOTAXIS,38;B_RANDOM_WALK,90;IS_MOTIVATION_1_DEC,false,89#*:*:IS_MOTIVATION_2_DEC,false,51#P_ON_NEST,false;P_HAS_OBJECT,true;*:*:B_ANTI_PHOTOTAXIS,94#
*:*:IS_WANT_OBJECT,false,27;IS_DROP_OBJECT,false,92;B_PHOTOTAXIS,38;B_RANDOM_WALK,90;IS_MOTIVATION_1_DEC,false,89#*:*:IS_MOTIVATION_2_DEC,false,51#P_ON_NEST,false;P_HAS_OBJECT,true;*:*:B_ANTI_PHOTOTAXIS,94#
*:*:IS_WANT_OBJECT,false,27;IS_DROP_OBJECT,false,92;B_PHOTOTAXIS,38;B_RANDOM_WALK,90;IS_MOTIVATION_1_DEC,false,89#*:*:IS_MOTIVATION_2_DEC,false,51#P_ON_NEST,false;P_HAS_OBJECT,true;*:*:B_ANTI_PHOTOTAXIS,94#
*:*:IS_WANT_OBJECT,false,27;IS_DROP_OBJECT,false,92;B_PHOTOTAXIS,38;B_RANDOM_WALK,90;IS_MOTIVATION_1_DEC,false,89#*:*:IS_MOTIVATION_2_DEC,false,51#P_ON_NEST,false;P_HAS_OBJECT,true;*:*:B_ANTI_PHOTOTAXIS,94#
*:*:IS_WANT_OBJECT,false,27;IS_DROP_OBJECT,false,92;B_PHOTOTAXIS,38;B_RANDOM_WALK,90;IS_MOTIVATION_1_DEC,false,89#*:*:IS_MOTIVATION_2_DEC,false,51#P_ON_NEST,false;P_HAS_OBJECT,true;*:*:B_ANTI_PHOTOTAXIS,94#
*:*:IS_WANT_OBJECT,false,27;IS_DROP_OBJECT,false,92;B_PHOTOTAXIS,38;B_RANDOM_WALK,90;IS_MOTIVATION_1_DEC,false,89#*:*:IS_MOTIVATION_2_DEC,false,51#P_ON_NEST,false;P_HAS_OBJECT,true;*:*:B_ANTI_PHOTOTAXIS,94#
*:*:IS_WANT_OBJECT,false,27;IS_DROP_OBJECT,false,92;B_PHOTOTAXIS,38;B_RANDOM_WALK,90;IS_MOTIVATION_1_DEC,false,89#*:*:IS_MOTIVATION_2_DEC,false,51#P_ON_NEST,false;P_HAS_OBJECT,true;*:*:B_ANTI_PHOTOTAXIS,94#
*:*:IS_WANT_OBJECT,false,27;IS_DROP_OBJECT,false,92;B_PHOTOTAXIS,38;B_RANDOM_WALK,90;IS_MOTIVATION_1_DEC,false,89#*:*:IS_MOTIVATION_2_DEC,false,51#P_ON_NEST,false;P_HAS_OBJECT,true;*:*:B_ANTI_PHOTOTAXIS,94#
*:*:IS_WANT_OBJECT,false,27;IS_DROP_OBJECT,false,92;B_PHOTOTAXIS,38;B_RANDOM_WALK,90;IS_MOTIVATION_1_DEC,false,89#*:*:IS_MOTIVATION_2_DEC,false,51#P_ON_NEST,false;P_HAS_OBJECT,true;*:*:B_ANTI_PHOTOTAXIS,94#
*:*:IS_WANT_OBJECT,false,27;IS_DROP_OBJECT,false,92;B_PHOTOTAXIS,38;B_RANDOM_WALK,90;IS_MOTIVATION_1_DEC,false,89#*:*:IS_MOTIVATION_2_DEC,false,51#P_ON_NEST,false;P_HAS_OBJECT,true;*:*:B_ANTI_PHOTOTAXIS,94#
*:*:IS_WANT_OBJECT,false,27;IS_DROP_OBJECT,false,92;B_PHOTOTAXIS,38;B_RANDOM_WALK,90;IS_MOTIVATION_1_DEC,false,89#*:*:IS_MOTIVATION_2_DEC,false,51#P_ON_NEST,false;P_HAS_OBJECT,true;*:*:B_ANTI_PHOTOTAXIS,94#
*:*:IS_WANT_OBJECT,false,27;IS_DROP_OBJECT,false,92;B_PHOTOTAXIS,38;B_RANDOM_WALK,90;IS_MOTIVATION_1_DEC,false,89#*:*:IS_MOTIVATION_2_DEC,false,51#P_ON_NEST,false;P_HAS_OBJECT,true;*:*:B_ANTI_PHOTOTAXIS,94#
*:*:IS_WANT_OBJECT,false,27;IS_DROP_OBJECT,false,92;B_PHOTOTAXIS,38;B_RANDOM_WALK,90;IS_MOTIVATION_1_DEC,false,89#*:*:IS_MOTIVATION_2_DEC,false,51#P_ON_NEST,false;P_HAS_OBJECT,true;*:*:B_ANTI_PHOTOTAXIS,94#
*:*:IS_WANT_OBJECT,false,27;IS_DROP_OBJECT,false,92;B_PHOTOTAXIS,38;B_RANDOM_WALK,90;IS_MOTIVATION_1_DEC,false,89#*:*:IS_MOTIVATION_2_DEC,false,51#P_ON_NEST,false;P_HAS_OBJECT,true;*:*:B_ANTI_PHOTOTAXIS,94#
*:*:IS_WANT_OBJECT,false,27;IS_DROP_OBJECT,false,92;B_PHOTOTAXIS,38;B_RANDOM_WALK,90;IS_MOTIVATION_1_DEC,false,89#*:*:IS_MOTIVATION_2_DEC,false,51#P_ON_NEST,false;P_HAS_OBJECT,true;*:*:B_ANTI_PHOTOTAXIS,94#
*:*:IS_WANT_OBJECT,false,27;IS_DROP_OBJECT,false,92;B_PHOTOTAXIS,38;B_RANDOM_WALK,90;IS_MOTIVATION_1_DEC,false,89#*:*:IS_MOTIVATION_2_DEC,false,51#P_ON_NEST,false;P_HAS_OBJECT,true;*:*:B_ANTI_PHOTOTAXIS,94#
*:*:IS_WANT_OBJECT,false,27;IS_DROP_OBJECT,false,92;B_PHOTOTAXIS,38;B_RANDOM_WALK,90;IS_MOTIVATION_1_DEC,false,89#*:*:IS_MOTIVATION_2_DEC,false,51#P_ON_NEST,false;P_HAS_OBJECT,true;*:*:B_ANTI_PHOTOTAXIS,94#
*:*:IS_WANT_OBJECT,false,27;IS_DROP_OBJECT,false,92;B_PHOTOTAXIS,38;B_RANDOM_WALK,90;IS_MOTIVATION_1_DEC,false,89#*:*:IS_MOTIVATION_2_DEC,false,51#P_ON_NEST,false;P_HAS_OBJECT,true;*:*:B_ANTI_PHOTOTAXIS,94#
*:*:IS_WANT_OBJECT,false,27;IS_DROP_OBJECT,false,92;B_PHOTOTAXIS,38;B_RANDOM_WALK,90;IS_MOTIVATION_1_DEC,false,89#*:*:IS_MOTIVATION_2_DEC,false,51#P_ON_NEST,false;P_HAS_OBJECT,true;*:*:B_ANTI_PHOTOTAXIS,94#
*:*:IS_WANT_OBJECT,false,27;IS_DROP_OBJECT,false,92;B_PHOTOTAXIS,38;B_RANDOM_WALK,90;IS_MOTIVATION_1_DEC,false,89#*:*:IS_MOTIVATION_2_DEC,false,51#P_ON_NEST,false;P_HAS_OBJECT,true;*:*:B_ANTI_PHOTOTAXIS,94#
*:*:IS_WANT_OBJECT,false,27;IS_DROP_OBJECT,false,92;B_PHOTOTAXIS,38;B_RANDOM_WALK,90;IS_MOTIVATION_1_DEC,false,89#*:*:IS_MOTIVATION_2_DEC,false,51#P_ON_NEST,false;P_HAS_OBJECT,true;*:*:B_ANTI_PHOTOTAXIS,94#
*:*:IS_WANT_OBJECT,false,27;IS_DROP_OBJECT,false,92;B_PHOTOTAXIS,38;B_RANDOM_WALK,90;IS_MOTIVATION_1_DEC,false,89#*:*:IS_MOTIVATION_2_DEC,false,51#P_ON_NEST,false;P_HAS_OBJECT,true;*:*:B_ANTI_PHOTOTAXIS,94#
*:*:IS_WANT_OBJECT,false,27;IS_DROP_OBJECT,false,92;B_PHOTOTAXIS,38;B_RANDOM_WALK,90;IS_MOTIVATION_1_DEC,false,89#*:*:IS_MOTIVATION_2_DEC,false,51#P_ON_NEST,false;P_HAS_OBJECT,true;*:*:B_ANTI_PHOTOTAXIS,94#
*:*:IS_WANT_OBJECT,false,27;IS_DROP_OBJECT,false,92;B_PHOTOTAXIS,38;B_RANDOM_WALK,90;IS_MOTIVATION_1_DEC,false,89#*:*:IS_MOTIVATION_2_DEC,false,51#P_ON_NEST,false;P_HAS_OBJECT,true;*:*:B_ANTI_PHOTOTAXIS,94#
*:*:IS_WANT_OBJECT,false,27;IS_DROP_OBJECT,false,92;B_PHOTOTAXIS,38;B_RANDOM_WALK,90;IS_MOTIVATION_1_DEC,false,89#*:*:IS_MOTIVATION_2_DEC,false,51#P_ON_NEST,false;P_HAS_OBJECT,true;*:*:B_ANTI_PHOTOTAXIS,94#
*:*:IS_WANT_OBJECT,false,27;IS_DROP_OBJECT,false,92;B_PHOTOTAXIS,38;B_RANDOM_WALK,90;IS_MOTIVATION_1_DEC,false,89#*:*:IS_MOTIVATION_2_DEC,false,51#P_ON_NEST,false;P_HAS_OBJECT,true;*:*:B_ANTI_PHOTOTAXIS,94#
*:*:IS_WANT_OBJECT,false,27;IS_DROP_OBJECT,false,92;B_PHOTOTAXIS,38;B_RANDOM_WALK,90;IS_MOTIVATION_1_DEC,false,89#*:*:IS_MOTIVATION_2_DEC,false,51#P_ON_NEST,false;P_HAS_OBJECT,true;*:*:B_ANTI_PHOTOTAXIS,94#
*:*:IS_WANT_OBJECT,false,27;IS_DROP_OBJECT,false,92;B_PHOTOTAXIS,38;B_RANDOM_WALK,90;IS_MOTIVATION_1_DEC,false,89#*:*:IS_MOTIVATION_2_DEC,false,51#P_ON_NEST,false;P_HAS_OBJECT,true;*:*:B_ANTI_PHOTOTAXIS,94#
*:*:IS_WANT_OBJECT,false,27;IS_DROP_OBJECT,false,92;B_PHOTOTAXIS,38;B_RANDOM_WALK,90;IS_MOTIVATION_1_DEC,false,89#*:*:IS_MOTIVATION_2_DEC,false,51#P_ON_NEST,false;P_HAS_OBJECT,true;*:*:B_ANTI_PHOTOTAXIS,94#
*:*:IS_WANT_OBJECT,false,27;IS_DROP_OBJECT,false,92;B_PHOTOTAXIS,38;B_RANDOM_WALK,90;IS_MOTIVATION_1_DEC,false,89#*:*:IS_MOTIVATION_2_DEC,false,51#P_ON_NEST,false;P_HAS_OBJECT,true;*:*:B_ANTI_PHOTOTAXIS,94#
*:*:IS_WANT_OBJECT,false,27;IS_DROP_OBJECT,false,92;B_PHOTOTAXIS,38;B_RANDOM_WALK,90;IS_MOTIVATION_1_DEC,false,89#*:*:IS_MOTIVATION_2_DEC,false,51#P_ON_NEST,false;P_HAS_OBJECT,true;*:*:B_ANTI_PHOTOTAXIS,94#
*:*:IS_WANT_OBJECT,false,27;IS_DROP_OBJECT,false,92;B_PHOTOTAXIS,38;B_RANDOM_WALK,90;IS_MOTIVATION_1_DEC,false,89#*:*:IS_MOTIVATION_2_DEC,false,51#P_ON_NEST,false;P_HAS_OBJECT,true;*:*:B_ANTI_PHOTOTAXIS,94#
*:*:IS_WANT_OBJECT,false,27;IS_DROP_OBJECT,false,92;B_PHOTOTAXIS,38;B_RANDOM_WALK,90;IS_MOTIVATION_1_DEC,false,89#*:*:IS_MOTIVATION_2_DEC,false,51#P_ON_NEST,false;P_HAS_OBJECT,true;*:*:B_ANTI_PHOTOTAXIS,94#
*:*:IS_WANT_OBJECT,false,27;IS_DROP_OBJECT,false,92;B_PHOTOTAXIS,38;B_RANDOM_WALK,90;IS_MOTIVATION_1_DEC,false,89#*:*:IS_MOTIVATION_2_DEC,false,51#P_ON_NEST,false;P_HAS_OBJECT,true;*:*:B_ANTI_PHOTOTAXIS,94#
*:*:IS_WANT_OBJECT,false,27;IS_DROP_OBJECT,false,92;B_PHOTOTAXIS,38;B_RANDOM_WALK,90;IS_MOTIVATION_1_DEC,false,89#*:*:IS_MOTIVATION_2_DEC,false,51#P_ON_NEST,false;P_HAS_OBJECT,true;*:*:B_ANTI_PHOTOTAXIS,94#
*:*:IS_WANT_OBJECT,false,27;IS_DROP_OBJECT,false,92;B_PHOTOTAXIS,38;B_RANDOM_WALK,90;IS_MOTIVATION_1_DEC,false,89#*:*:IS_MOTIVATION_2_DEC,false,51#P_ON_NEST,false;P_HAS_OBJECT,true;*:*:B_ANTI_PHOTOTAXIS,94#
*:*:IS_WANT_OBJECT,false,27;IS_DROP_OBJECT,false,92;B_PHOTOTAXIS,38;B_RANDOM_WALK,90;IS_MOTIVATION_1_DEC,false,89#*:*:IS_MOTIVATION_2_DEC,false,51#P_ON_NEST,false;P_HAS_OBJECT,true;*:*:B_ANTI_PHOTOTAXIS,94#
*:*:IS_WANT_OBJECT,false,27;IS_DROP_OBJECT,false,92;B_PHOTOTAXIS,38;B_RANDOM_WALK,90;IS_MOTIVATION_1_DEC,false,89#*:*:IS_MOTIVATION_2_DEC,false,51#P_ON_NEST,false;P_HAS_OBJECT,true;*:*:B_ANTI_PHOTOTAXIS,94#
*:*:IS_WANT_OBJECT,false,27;IS_DROP_OBJECT,false,92;B_PHOTOTAXIS,38;B_RANDOM_WALK,90;IS_MOTIVATION_1_DEC,false,89#*:*:IS_MOTIVATION_2_DEC,false,51#P_ON_NEST,false;P_HAS_OBJECT,true;*:*:B_ANTI_PHOTOTAXIS,94#
*:*:IS_WANT_OBJECT,false,27;IS_DROP_OBJECT,false,92;B_PHOTOTAXIS,38;B_RANDOM_WALK,90;IS_MOTIVATION_1_DEC,false,89#*:*:IS_MOTIVATION_2_DEC,false,51#P_ON_NEST,false;P_HAS_OBJECT,true;*:*:B_ANTI_PHOTOTAXIS,94#
*:*:IS_WANT_OBJECT,false,27;IS_DROP_OBJECT,false,92;B_PHOTOTAXIS,38;B_RANDOM_WALK,90;IS_MOTIVATION_1_DEC,false,89#*:*:IS_MOTIVATION_2_DEC,false,51#P_ON_NEST,false;P_HAS_OBJECT,true;*:*:B_ANTI_PHOTOTAXIS,94#
*:*:IS_WANT_OBJECT,false,27;IS_DROP_OBJECT,false,92;B_PHOTOTAXIS,38;B_RANDOM_WALK,90;IS_MOTIVATION_1_DEC,false,89#*:*:IS_MOTIVATION_2_DEC,false,51#P_ON_NEST,false;P_HAS_OBJECT,true;*:*:B_ANTI_PHOTOTAXIS,94#
*:*:IS_WANT_OBJECT,false,27;IS_DROP_OBJECT,false,92;B_PHOTOTAXIS,38;B_RANDOM_WALK,90;IS_MOTIVATION_1_DEC,false,89#*:*:IS_MOTIVATION_2_DEC,false,51#P_ON_NEST,false;P_HAS_OBJECT,true;*:*:B_ANTI_PHOTOTAXIS,94#
*:*:IS_WANT_OBJECT,false,27;IS_DROP_OBJECT,false,92;B_PHOTOTAXIS,38;B_RANDOM_WALK,90;IS_MOTIVATION_1_DEC,false,89#*:*:IS_MOTIVATION_2_DEC,false,51#P_ON_NEST,false;P_HAS_OBJECT,true;*:*:B_ANTI_PHOTOTAXIS,94#
*:*:IS_WANT_OBJECT,false,27;IS_DROP_OBJECT,false,92;B_PHOTOTAXIS,38;B_RANDOM_WALK,90;IS_MOTIVATION_1_DEC,false,89#*:*:IS_MOTIVATION_2_DEC,false,51#P_ON_NEST,false;P_HAS_OBJECT,true;*:*:B_ANTI_PHOTOTAXIS,94#
*:*:IS_WANT_OBJECT,false,27;IS_DROP_OBJECT,false,92;B_PHOTOTAXIS,38;B_RANDOM_WALK,90;IS_MOTIVATION_1_DEC,false,89#*:*:IS_MOTIVATION_2_DEC,false,51#P_ON_NEST,false;P_HAS_OBJECT,true;*:*:B_ANTI_PHOTOTAXIS,94#
*:*:IS_WANT_OBJECT,false,27;IS_DROP_OBJECT,false,92;B_PHOTOTAXIS,38;B_RANDOM_WALK,90;IS_MOTIVATION_1_DEC,false,89#*:*:IS_MOTIVATION_2_DEC,false,51#P_ON_NEST,false;P_HAS_OBJECT,true;*:*:B_ANTI_PHOTOTAXIS,94#
*:*:IS_WANT_OBJECT,false,27;IS_DROP_OBJECT,false,92;B_PHOTOTAXIS,38;B_RANDOM_WALK,90;IS_MOTIVATION_1_DEC,false,89#*:*:IS_MOTIVATION_2_DEC,false,51#P_ON_NEST,false;P_HAS_OBJECT,true;*:*:B_ANTI_PHOTOTAXIS,94#
*:*:IS_WANT_OBJECT,false,27;IS_DROP_OBJECT,false,92;B_PHOTOTAXIS,38;B_RANDOM_WALK,90;IS_MOTIVATION_1_DEC,false,89#*:*:IS_MOTIVATION_2_DEC,false,51#P_ON_NEST,false;P_HAS_OBJECT,true;*:*:B_ANTI_PHOTOTAXIS,94#
*:*:IS_WANT_OBJECT,false,27;IS_DROP_OBJECT,false,92;B_PHOTOTAXIS,38;B_RANDOM_WALK,90;IS_MOTIVATION_1_DEC,false,89#*:*:IS_MOTIVATION_2_DEC,false,51#P_ON_NEST,false;P_HAS_OBJECT,true;*:*:B_ANTI_PHOTOTAXIS,94#
*:*:IS_WANT_OBJECT,false,27;IS_DROP_OBJECT,false,92;B_PHOTOTAXIS,38;B_RANDOM_WALK,90;IS_MOTIVATION_1_DEC,false,89#*:*:IS_MOTIVATION_2_DEC,false,51#P_ON_NEST,false;P_HAS_OBJECT,true;*:*:B_ANTI_PHOTOTAXIS,94#
*:*:IS_WANT_OBJECT,false,27;IS_DROP_OBJECT,false,92;B_PHOTOTAXIS,38;B_RANDOM_WALK,90;IS_MOTIVATION_1_DEC,false,89#*:*:IS_MOTIVATION_2_DEC,false,51#P_ON_NEST,false;P_HAS_OBJECT,true;*:*:B_ANTI_PHOTOTAXIS,94#
*:*:IS_WANT_OBJECT,false,27;IS_DROP_OBJECT,false,92;B_PHOTOTAXIS,38;B_RANDOM_WALK,90;IS_MOTIVATION_1_DEC,false,89#*:*:IS_MOTIVATION_2_DEC,false,51#P_ON_NEST,false;P_HAS_OBJECT,true;*:*:B_ANTI_PHOTOTAXIS,94#
*:*:IS_WANT_OBJECT,false,27;IS_DROP_OBJECT,false,92;B_PHOTOTAXIS,38;B_RANDOM_WALK,90;IS_MOTIVATION_1_DEC,false,89#*:*:IS_MOTIVATION_2_DEC,false,51#P_ON_NEST,false;P_HAS_OBJECT,true;*:*:B_ANTI_PHOTOTAXIS,94#
*:*:IS_WANT_OBJECT,false,27;IS_DROP_OBJECT,false,92;B_PHOTOTAXIS,38;B_RANDOM_WALK,90;IS_MOTIVATION_1_DEC,false,89#*:*:IS_MOTIVATION_2_DEC,false,51#P_ON_NEST,false;P_HAS_OBJECT,true;*:*:B_ANTI_PHOTOTAXIS,94#
*:*:IS_WANT_OBJECT,false,27;IS_DROP_OBJECT,false,92;B_PHOTOTAXIS,38;B_RANDOM_WALK,90;IS_MOTIVATION_1_DEC,false,89#*:*:IS_MOTIVATION_2_DEC,false,51#P_ON_NEST,false;P_HAS_OBJECT,true;*:*:B_ANTI_PHOTOTAXIS,94#
*:*:IS_WANT_OBJECT,false,27;IS_DROP_OBJECT,false,92;B_PHOTOTAXIS,38;B_RANDOM_WALK,90;IS_MOTIVATION_1_DEC,false,89#*:*:IS_MOTIVATION_2_DEC,false,51#P_ON_NEST,false;P_HAS_OBJECT,true;*:*:B_ANTI_PHOTOTAXIS,94#
*:*:IS_WANT_OBJECT,false,27;IS_DROP_OBJECT,false,92;B_PHOTOTAXIS,38;B_RANDOM_WALK,90;IS_MOTIVATION_1_DEC,false,89#*:*:IS_MOTIVATION_2_DEC,false,51#P_ON_NEST,false;P_HAS_OBJECT,true;*:*:B_ANTI_PHOTOTAXIS,94#
*:*:IS_WANT_OBJECT,false,27;IS_DROP_OBJECT,false,92;B_PHOTOTAXIS,38;B_RANDOM_WALK,90;IS_MOTIVATION_1_DEC,false,89#*:*:IS_MOTIVATION_2_DEC,false,51#P_ON_NEST,false;P_HAS_OBJECT,true;*:*:B_ANTI_PHOTOTAXIS,94#
*:*:IS_WANT_OBJECT,false,27;IS_DROP_OBJECT,false,92;B_PHOTOTAXIS,38;B_RANDOM_WALK,90;IS_MOTIVATION_1_DEC,false,89#*:*:IS_MOTIVATION_2_DEC,false,51#P_ON_NEST,false;P_HAS_OBJECT,true;*:*:B_ANTI_PHOTOTAXIS,94#
*:*:IS_WANT_OBJECT,false,27;IS_DROP_OBJECT,false,92;B_PHOTOTAXIS,38;B_RANDOM_WALK,90;IS_MOTIVATION_1_DEC,false,89#*:*:IS_MOTIVATION_2_DEC,false,51#P_ON_NEST,false;P_HAS_OBJECT,true;*:*:B_ANTI_PHOTOTAXIS,94#
*:*:IS_WANT_OBJECT,false,27;IS_DROP_OBJECT,false,92;B_PHOTOTAXIS,38;B_RANDOM_WALK,90;IS_MOTIVATION_1_DEC,false,89#*:*:IS_MOTIVATION_2_DEC,false,51#P_ON_NEST,false;P_HAS_OBJECT,true;*:*:B_ANTI_PHOTOTAXIS,94#
*:*:IS_WANT_OBJECT,false,27;IS_DROP_OBJECT,false,92;B_PHOTOTAXIS,38;B_RANDOM_WALK,90;IS_MOTIVATION_1_DEC,false,89#*:*:IS_MOTIVATION_2_DEC,false,51#P_ON_NEST,false;P_HAS_OBJECT,true;*:*:B_ANTI_PHOTOTAXIS,94#
*:*:IS_WANT_OBJECT,false,27;IS_DROP_OBJECT,false,92;B_PHOTOTAXIS,38;B_RANDOM_WALK,90;IS_MOTIVATION_1_DEC,false,89#*:*:IS_MOTIVATION_2_DEC,false,51#P_ON_NEST,false;P_HAS_OBJECT,true;*:*:B_ANTI_PHOTOTAXIS,94#
*:*:IS_WANT_OBJECT,false,27;IS_DROP_OBJECT,false,92;B_PHOTOTAXIS,38;B_RANDOM_WALK,90;IS_MOTIVATION_1_DEC,false,89#*:*:IS_MOTIVATION_2_DEC,false,51#P_ON_NEST,false;P_HAS_OBJECT,true;*:*:B_ANTI_PHOTOTAXIS,94#
*:*:IS_WANT_OBJECT,false,27;IS_DROP_OBJECT,false,92;B_PHOTOTAXIS,38;B_RANDOM_WALK,90;IS_MOTIVATION_1_DEC,false,89#*:*:IS_MOTIVATION_2_DEC,false,51#P_ON_NEST,false;P_HAS_OBJECT,true;*:*:B_ANTI_PHOTOTAXIS,94#
*:*:IS_WANT_OBJECT,false,27;IS_DROP_OBJECT,false,92;B_PHOTOTAXIS,38;B_RANDOM_WALK,90;IS_MOTIVATION_1_DEC,false,89#*:*:IS_MOTIVATION_2_DEC,false,51#P_ON_NEST,false;P_HAS_OBJECT,true;*:*:B_ANTI_PHOTOTAXIS,94#
*:*:IS_WANT_OBJECT,false,27;IS_DROP_OBJECT,false,92;B_PHOTOTAXIS,38;B_RANDOM_WALK,90;IS_MOTIVATION_1_DEC,false,89#*:*:IS_MOTIVATION_2_DEC,false,51#P_ON_NEST,false;P_HAS_OBJECT,true;*:*:B_ANTI_PHOTOTAXIS,94#
*:*:IS_WANT_OBJECT,false,27;IS_DROP_OBJECT,false,92;B_PHOTOTAXIS,38;B_RANDOM_WALK,90;IS_MOTIVATION_1_DEC,false,89#*:*:IS_MOTIVATION_2_DEC,false,51#P_ON_NEST,false;P_HAS_OBJECT,true;*:*:B_ANTI_PHOTOTAXIS,94#
*:*:IS_WANT_OBJECT,false,27;IS_DROP_OBJECT,false,92;B_PHOTOTAXIS,38;B_RANDOM_WALK,90;IS_MOTIVATION_1_DEC,false,89#*:*:IS_MOTIVATION_2_DEC,false,51#P_ON_NEST,false;P_HAS_OBJECT,true;*:*:B_ANTI_PHOTOTAXIS,94#
*:*:IS_WANT_OBJECT,false,27;IS_DROP_OBJECT,false,92;B_PHOTOTAXIS,38;B_RANDOM_WALK,90;IS_MOTIVATION_1_DEC,false,89#*:*:IS_MOTIVATION_2_DEC,false,51#P_ON_NEST,false;P_HAS_OBJECT,true;*:*:B_ANTI_PHOTOTAXIS,94#
*:*:IS_WANT_OBJECT,false,27;IS_DROP_OBJECT,false,92;B_PHOTOTAXIS,38;B_RANDOM_WALK,90;IS_MOTIVATION_1_DEC,false,89#*:*:IS_MOTIVATION_2_DEC,false,51#P_ON_NEST,false;P_HAS_OBJECT,true;*:*:B_ANTI_PHOTOTAXIS,94#
*:*:IS_WANT_OBJECT,false,27;IS_DROP_OBJECT,false,92;B_PHOTOTAXIS,38;B_RANDOM_WALK,90;IS_MOTIVATION_1_DEC,false,89#*:*:IS_MOTIVATION_2_DEC,false,51#P_ON_NEST,false;P_HAS_OBJECT,true;*:*:B_ANTI_PHOTOTAXIS,94#
*:*:IS_WANT_OBJECT,false,27;IS_DROP_OBJECT,false,92;B_PHOTOTAXIS,38;B_RANDOM_WALK,90;IS_MOTIVATION_1_DEC,false,89#*:*:IS_MOTIVATION_2_DEC,false,51#P_ON_NEST,false;P_HAS_OBJECT,true;*:*:B_ANTI_PHOTOTAXIS,94#
*:*:IS_WANT_OBJECT,false,27;IS_DROP_OBJECT,false,92;B_PHOTOTAXIS,38;B_RANDOM_WALK,90;IS_MOTIVATION_1_DEC,false,89#*:*:IS_MOTIVATION_2_DEC,false,51#P_ON_NEST,false;P_HAS_OBJECT,true;*:*:B_ANTI_PHOTOTAXIS,94#
*:*:IS_WANT_OBJECT,false,27;IS_DROP_OBJECT,false,92;B_PHOTOTAXIS,38;B_RANDOM_WALK,90;IS_MOTIVATION_1_DEC,false,89#*:*:IS_MOTIVATION_2_DEC,false,51#P_ON_NEST,false;P_HAS_OBJECT,true;*:*:B_ANTI_PHOTOTAXIS,94#
*:*:IS_WANT_OBJECT,false,27;IS_DROP_OBJECT,false,92;B_PHOTOTAXIS,38;B_RANDOM_WALK,90;IS_MOTIVATION_1_DEC,false,89#*:*:IS_MOTIVATION_2_DEC,false,51#P_ON_NEST,false;P_HAS_OBJECT,true;*:*:B_ANTI_PHOTOTAXIS,94#
*:*:IS_WANT_OBJECT,false,27;IS_DROP_OBJECT,false,92;B_PHOTOTAXIS,38;B_RANDOM_WALK,90;IS_MOTIVATION_1_DEC,false,89#*:*:IS_MOTIVATION_2_DEC,false,51#P_ON_NEST,false;P_HAS_OBJECT,true;*:*:B_ANTI_PHOTOTAXIS,94#
*:*:IS_WANT_OBJECT,false,27;IS_DROP_OBJECT,false,92;B_PHOTOTAXIS,38;B_RANDOM_WALK,90;IS_MOTIVATION_1_DEC,false,89#*:*:IS_MOTIVATION_2_DEC,false,51#P_ON_NEST,false;P_HAS_OBJECT,true;*:*:B_ANTI_PHOTOTAXIS,94#
*:*:IS_WANT_OBJECT,false,27;IS_DROP_OBJECT,false,92;B_PHOTOTAXIS,38;B_RANDOM_WALK,90;IS_MOTIVATION_1_DEC,false,89#*:*:IS_MOTIVATION_2_DEC,false,51#P_ON_NEST,false;P_HAS_OBJECT,true;*:*:B_ANTI_PHOTOTAXIS,94#
*:*:IS_WANT_OBJECT,false,27;IS_DROP_OBJECT,false,92;B_PHOTOTAXIS,38;B_RANDOM_WALK,90;IS_MOTIVATION_1_DEC,false,89#*:*:IS_MOTIVATION_2_DEC,false,51#P_ON_NEST,false;P_HAS_OBJECT,true;*:*:B_ANTI_PHOTOTAXIS,94#
*:*:IS_WANT_OBJECT,false,27;IS_DROP_OBJECT,false,92;B_PHOTOTAXIS,38;B_RANDOM_WALK,90;IS_MOTIVATION_1_DEC,false,89#*:*:IS_MOTIVATION_2_DEC,false,51#P_ON_NEST,false;P_HAS_OBJECT,true;*:*:B_ANTI_PHOTOTAXIS,94#
*:*:IS_WANT_OBJECT,false,27;IS_DROP_OBJECT,false,92;B_PHOTOTAXIS,38;B_RANDOM_WALK,90;IS_MOTIVATION_1_DEC,false,89#*:*:IS_MOTIVATION_2_DEC,false,51#P_ON_NEST,false;P_HAS_OBJECT,true;*:*:B_ANTI_PHOTOTAXIS,94#
*:*:IS_WANT_OBJECT,false,27;IS_DROP_OBJECT,false,92;B_PHOTOTAXIS,62;B_RANDOM_WALK,90;IS_MOTIVATION_1_DEC,false,89#*:*:IS_MOTIVATION_2_INC,false,51#P_ON_NEST,false;P_HAS_OBJECT,true;*:*:B_ANTI_PHOTOTAXIS,94#
*:*:IS_WANT_OBJECT,false,27;IS_DROP_OBJECT,false,92;B_PHOTOTAXIS,62;B_RANDOM_WALK,90;IS_MOTIVATION_1_DEC,false,89#*:*:IS_MOTIVATION_2_INC,false,51#P_ON_NEST,false;P_HAS_OBJECT,true;*:*:B_ANTI_PHOTOTAXIS,94#
*:*:IS_WANT_OBJECT,false,27;IS_DROP_OBJECT,false,92;B_PHOTOTAXIS,62;B_RANDOM_WALK,90;IS_MOTIVATION_1_DEC,false,89#*:*:IS_MOTIVATION_2_INC,false,51#P_ON_NEST,false;P_HAS_OBJECT,true;*:*:B_ANTI_PHOTOTAXIS,94#
*:*:IS_WANT_OBJECT,false,27;IS_DROP_OBJECT,false,92;B_PHOTOTAXIS,62;B_RANDOM_WALK,90;IS_MOTIVATION_1_DEC,false,89#*:*:IS_MOTIVATION_2_INC,false,51#P_ON_NEST,false;P_HAS_OBJECT,true;*:*:B_ANTI_PHOTOTAXIS,94#
*:*:IS_WANT_OBJECT,false,27;IS_DROP_OBJECT,false,92;B_PHOTOTAXIS,62;B_RANDOM_WALK,90;IS_MOTIVATION_1_DEC,false,89#*:*:IS_MOTIVATION_2_INC,false,51#P_ON_NEST,false;P_HAS_OBJECT,true;*:*:B_ANTI_PHOTOTAXIS,94#
*:*:IS_WANT_OBJECT,false,27;IS_DROP_OBJECT,false,92;B_PHOTOTAXIS,62;B_RANDOM_WALK,90;IS_MOTIVATION_1_DEC,false,89#*:*:IS_MOTIVATION_2_INC,false,51#P_ON_NEST,false;P_HAS_OBJECT,true;*:*:B_ANTI_PHOTOTAXIS,94#
*:*:IS_WANT_OBJECT,false,27;IS_DROP_OBJECT,false,92;B_PHOTOTAXIS,62;B_RANDOM_WALK,90;IS_MOTIVATION_1_DEC,false,89#*:*:IS_MOTIVATION_2_INC,false,51#P_ON_NEST,false;P_HAS_OBJECT,true;*:*:B_ANTI_PHOTOTAXIS,94#
*:*:IS_WANT_OBJECT,false,27;IS_DROP_OBJECT,false,92;B_PHOTOTAXIS,62;B_RANDOM_WALK,90;IS_MOTIVATION_1_DEC,false,89#*:*:IS_MOTIVATION_2_INC,false,51#P_ON_NEST,false;P_HAS_OBJECT,true;*:*:B_ANTI_PHOTOTAXIS,94#
*:*:IS_WANT_OBJECT,false,27;IS_DROP_OBJECT,false,92;B_PHOTOTAXIS,62;B_RANDOM_WALK,90;IS_MOTIVATION_1_DEC,false,89#*:*:IS_MOTIVATION_2_INC,false,51#P_ON_NEST,false;P_HAS_OBJECT,true;*:*:B_ANTI_PHOTOTAXIS,94#
*:*:IS_WANT_OBJECT,false,27;IS_DROP_OBJECT,false,92;B_PHOTOTAXIS,62;B_RANDOM_WALK,90;IS_MOTIVATION_1_DEC,false,89#*:*:IS_MOTIVATION_2_INC,false,51#P_ON_NEST,false;P_HAS_OBJECT,true;*:*:B_ANTI_PHOTOTAXIS,94#
*:*:IS_WANT_OBJECT,false,27;IS_DROP_OBJECT,false,92;B_PHOTOTAXIS,62;B_RANDOM_WALK,90;IS_MOTIVATION_1_DEC,false,89#*:*:IS_MOTIVATION_2_INC,false,51#P_ON_NEST,false;P_HAS_OBJECT,true;*:*:B_ANTI_PHOTOTAXIS,94#
*:*:IS_WANT_OBJECT,false,27;IS_DROP_OBJECT,false,92;B_PHOTOTAXIS,62;B_RANDOM_WALK,90;IS_MOTIVATION_1_DEC,false,89#*:*:IS_MOTIVATION_2_INC,false,51#P_ON_NEST,false;P_HAS_OBJECT,true;*:*:B_ANTI_PHOTOTAXIS,94#
*:*:IS_WANT_OBJECT,false,27;IS_DROP_OBJECT,false,92;B_PHOTOTAXIS,62;B_RANDOM_WALK,90;IS_MOTIVATION_1_DEC,false,89#*:*:IS_MOTIVATION_2_INC,false,51#P_ON_NEST,false;P_HAS_OBJECT,true;*:*:B_ANTI_PHOTOTAXIS,94#
*:*:IS_WANT_OBJECT,false,27;IS_DROP_OBJECT,false,92;B_PHOTOTAXIS,62;B_RANDOM_WALK,90;IS_MOTIVATION_1_DEC,false,89#*:*:IS_MOTIVATION_2_INC,false,51#P_ON_NEST,false;P_HAS_OBJECT,true;*:*:B_ANTI_PHOTOTAXIS,94#
*:*:IS_WANT_OBJECT,false,27;IS_DROP_OBJECT,false,92;B_PHOTOTAXIS,62;B_RANDOM_WALK,90;IS_MOTIVATION_1_DEC,false,89#*:*:IS_MOTIVATION_2_INC,false,51#P_ON_NEST,false;P_HAS_OBJECT,true;*:*:B_ANTI_PHOTOTAXIS,94#
*:*:IS_WANT_OBJECT,false,27;IS_DROP_OBJECT,false,92;B_PHOTOTAXIS,62;B_RANDOM_WALK,90;IS_MOTIVATION_1_DEC,false,89#*:*:IS_MOTIVATION_2_INC,false,51#P_ON_NEST,false;P_HAS_OBJECT,true;*:*:B_ANTI_PHOTOTAXIS,94#
*:*:IS_WANT_OBJECT,false,27;IS_DROP_OBJECT,false,92;B_PHOTOTAXIS,62;B_RANDOM_WALK,90;IS_MOTIVATION_1_DEC,false,89#*:*:IS_MOTIVATION_2_INC,false,51#P_ON_NEST,false;P_HAS_OBJECT,true;*:*:B_ANTI_PHOTOTAXIS,94#
*:*:IS_WANT_OBJECT,false,27;IS_DROP_OBJECT,false,92;B_PHOTOTAXIS,62;B_RANDOM_WALK,90;IS_MOTIVATION_1_DEC,false,89#*:*:IS_MOTIVATION_2_INC,false,51#P_ON_NEST,false;P_HAS_OBJECT,true;*:*:B_ANTI_PHOTOTAXIS,94#
*:*:IS_WANT_OBJECT,false,27;IS_DROP_OBJECT,false,92;B_PHOTOTAXIS,62;B_RANDOM_WALK,90;IS_MOTIVATION_1_DEC,false,89#*:*:IS_MOTIVATION_2_INC,false,51#P_ON_NEST,false;P_HAS_OBJECT,true;*:*:B_ANTI_PHOTOTAXIS,94#
*:*:IS_WANT_OBJECT,false,27;IS_DROP_OBJECT,false,92;B_PHOTOTAXIS,62;B_RANDOM_WALK,90;IS_MOTIVATION_1_DEC,false,89#*:*:IS_MOTIVATION_2_INC,false,51#P_ON_NEST,false;P_HAS_OBJECT,true;*:*:B_ANTI_PHOTOTAXIS,94#
*:*:IS_WANT_OBJECT,false,27;IS_DROP_OBJECT,false,92;B_PHOTOTAXIS,62;B_RANDOM_WALK,90;IS_MOTIVATION_1_DEC,false,89#*:*:IS_MOTIVATION_2_INC,false,51#P_ON_NEST,false;P_HAS_OBJECT,true;*:*:B_ANTI_PHOTOTAXIS,94#
*:*:IS_WANT_OBJECT,false,27;IS_DROP_OBJECT,false,92;B_PHOTOTAXIS,62;B_RANDOM_WALK,90;IS_MOTIVATION_1_DEC,false,89#*:*:IS_MOTIVATION_2_INC,false,51#P_ON_NEST,false;P_HAS_OBJECT,true;*:*:B_ANTI_PHOTOTAXIS,94#
*:*:IS_WANT_OBJECT,false,27;IS_DROP_OBJECT,false,92;B_PHOTOTAXIS,62;B_RANDOM_WALK,90;IS_MOTIVATION_1_DEC,false,89#*:*:IS_MOTIVATION_2_INC,false,51#P_ON_NEST,false;P_HAS_OBJECT,true;*:*:B_ANTI_PHOTOTAXIS,94#
*:*:IS_WANT_OBJECT,false,27;IS_DROP_OBJECT,false,92;B_PHOTOTAXIS,62;B_RANDOM_WALK,90;IS_MOTIVATION_1_DEC,false,89#*:*:IS_MOTIVATION_2_INC,false,51#P_ON_NEST,false;P_HAS_OBJECT,true;*:*:B_ANTI_PHOTOTAXIS,94#
*:*:IS_WANT_OBJECT,false,27;IS_DROP_OBJECT,false,92;B_PHOTOTAXIS,62;B_RANDOM_WALK,90;IS_MOTIVATION_1_DEC,false,89#*:*:IS_MOTIVATION_2_INC,false,51#P_ON_NEST,false;P_HAS_OBJECT,true;*:*:B_ANTI_PHOTOTAXIS,94#
*:*:IS_WANT_OBJECT,false,27;IS_DROP_OBJECT,false,92;B_PHOTOTAXIS,62;B_RANDOM_WALK,90;IS_MOTIVATION_1_DEC,false,89#*:*:IS_MOTIVATION_2_INC,false,51#P_ON_NEST,false;P_HAS_OBJECT,true;*:*:B_ANTI_PHOTOTAXIS,94#
*:*:IS_WANT_OBJECT,false,27;IS_DROP_OBJECT,false,92;B_PHOTOTAXIS,62;B_RANDOM_WALK,90;IS_MOTIVATION_1_DEC,false,89#*:*:IS_MOTIVATION_2_INC,false,51#P_ON_NEST,false;P_HAS_OBJECT,true;*:*:B_ANTI_PHOTOTAXIS,94#
*:*:IS_WANT_OBJECT,false,27;IS_DROP_OBJECT,false,92;B_PHOTOTAXIS,62;B_RANDOM_WALK,90;IS_MOTIVATION_1_DEC,false,89#*:*:IS_MOTIVATION_2_INC,false,51#P_ON_NEST,false;P_HAS_OBJECT,true;*:*:B_ANTI_PHOTOTAXIS,94#
*:*:IS_WANT_OBJECT,false,27;IS_DROP_OBJECT,false,92;B_PHOTOTAXIS,62;B_RANDOM_WALK,90;IS_MOTIVATION_1_DEC,false,89#*:*:IS_MOTIVATION_2_INC,false,51#P_ON_NEST,false;P_HAS_OBJECT,true;*:*:B_ANTI_PHOTOTAXIS,94#
*:*:IS_WANT_OBJECT,false,27;IS_DROP_OBJECT,false,92;B_PHOTOTAXIS,62;B_RANDOM_WALK,90;IS_MOTIVATION_1_DEC,false,89#*:*:IS_MOTIVATION_2_INC,false,51#P_ON_NEST,false;P_HAS_OBJECT,true;*:*:B_ANTI_PHOTOTAXIS,94#
*:*:IS_WANT_OBJECT,false,27;IS_DROP_OBJECT,false,92;B_PHOTOTAXIS,62;B_RANDOM_WALK,90;IS_MOTIVATION_1_DEC,false,89#*:*:IS_MOTIVATION_2_INC,false,51#P_ON_NEST,false;P_HAS_OBJECT,true;*:*:B_ANTI_PHOTOTAXIS,94#
*:*:IS_WANT_OBJECT,false,27;IS_DROP_OBJECT,false,92;B_PHOTOTAXIS,62;B_RANDOM_WALK,90;IS_MOTIVATION_1_DEC,false,89#*:*:IS_MOTIVATION_2_INC,false,51#P_ON_NEST,false;P_HAS_OBJECT,true;*:*:B_ANTI_PHOTOTAXIS,94#
*:*:IS_WANT_OBJECT,false,27;IS_DROP_OBJECT,false,92;B_PHOTOTAXIS,62;B_RANDOM_WALK,90;IS_MOTIVATION_1_DEC,false,89#*:*:IS_MOTIVATION_2_INC,false,51#P_ON_NEST,false;P_HAS_OBJECT,true;*:*:B_ANTI_PHOTOTAXIS,94#
*:*:IS_WANT_OBJECT,false,27;IS_DROP_OBJECT,false,92;B_PHOTOTAXIS,62;B_RANDOM_WALK,90;IS_MOTIVATION_1_DEC,false,89#*:*:IS_MOTIVATION_2_INC,false,51#P_ON_NEST,false;P_HAS_OBJECT,true;*:*:B_ANTI_PHOTOTAXIS,94#
*:*:IS_WANT_OBJECT,false,27;IS_DROP_OBJECT,false,92;B_PHOTOTAXIS,62;B_RANDOM_WALK,90;IS_MOTIVATION_1_DEC,false,89#*:*:IS_MOTIVATION_2_INC,false,51#P_ON_NEST,false;P_HAS_OBJECT,true;*:*:B_ANTI_PHOTOTAXIS,94#
*:*:IS_WANT_OBJECT,false,27;IS_DROP_OBJECT,false,92;B_PHOTOTAXIS,62;B_RANDOM_WALK,90;IS_MOTIVATION_1_DEC,false,89#*:*:IS_MOTIVATION_2_INC,false,51#P_ON_NEST,false;P_HAS_OBJECT,true;*:*:B_ANTI_PHOTOTAXIS,94#
*:*:IS_WANT_OBJECT,false,27;IS_DROP_OBJECT,false,92;B_PHOTOTAXIS,62;B_RANDOM_WALK,90;IS_MOTIVATION_1_DEC,false,89#*:*:IS_MOTIVATION_2_INC,false,51#P_ON_NEST,false;P_HAS_OBJECT,true;*:*:B_ANTI_PHOTOTAXIS,94#
*:*:IS_WANT_OBJECT,false,27;IS_DROP_OBJECT,false,92;B_PHOTOTAXIS,62;B_RANDOM_WALK,90;IS_MOTIVATION_1_DEC,false,89#*:*:IS_MOTIVATION_2_INC,false,51#P_ON_NEST,false;P_HAS_OBJECT,true;*:*:B_ANTI_PHOTOTAXIS,94#
*:*:IS_WANT_OBJECT,false,27;IS_DROP_OBJECT,false,92;B_PHOTOTAXIS,62;B_RANDOM_WALK,90;IS_MOTIVATION_1_DEC,false,89#*:*:IS_MOTIVATION_2_INC,false,51#P_ON_NEST,false;P_HAS_OBJECT,true;*:*:B_ANTI_PHOTOTAXIS,94#
*:*:IS_WANT_OBJECT,false,27;IS_DROP_OBJECT,false,92;B_PHOTOTAXIS,62;B_RANDOM_WALK,90;IS_MOTIVATION_1_DEC,false,89#*:*:IS_MOTIVATION_2_INC,false,51#P_ON_NEST,false;P_HAS_OBJECT,true;*:*:B_ANTI_PHOTOTAXIS,94#
*:*:IS_WANT_OBJECT,false,27;IS_DROP_OBJECT,false,92;B_PHOTOTAXIS,62;B_RANDOM_WALK,90;IS_MOTIVATION_1_DEC,false,89#*:*:IS_MOTIVATION_2_INC,false,51#P_ON_NEST,false;P_HAS_OBJECT,true;*:*:B_ANTI_PHOTOTAXIS,94#
*:*:IS_WANT_OBJECT,false,27;IS_DROP_OBJECT,false,92;B_PHOTOTAXIS,62;B_RANDOM_WALK,90;IS_MOTIVATION_1_DEC,false,89#*:*:IS_MOTIVATION_2_INC,false,51#P_ON_NEST,false;P_HAS_OBJECT,true;*:*:B_ANTI_PHOTOTAXIS,94#
*:*:IS_WANT_OBJECT,false,27;IS_DROP_OBJECT,false,92;B_PHOTOTAXIS,62;B_RANDOM_WALK,90;IS_MOTIVATION_1_DEC,false,89#*:*:IS_MOTIVATION_2_INC,false,51#P_ON_NEST,false;P_HAS_OBJECT,true;*:*:B_ANTI_PHOTOTAXIS,94#
*:*:IS_WANT_OBJECT,false,27;IS_DROP_OBJECT,false,92;B_PHOTOTAXIS,62;B_RANDOM_WALK,90;IS_MOTIVATION_1_DEC,false,89#*:*:IS_MOTIVATION_2_INC,false,51#P_ON_NEST,false;P_HAS_OBJECT,true;*:*:B_ANTI_PHOTOTAXIS,94#
*:*:IS_WANT_OBJECT,false,27;IS_DROP_OBJECT,false,92;B_PHOTOTAXIS,62;B_RANDOM_WALK,90;IS_MOTIVATION_1_DEC,false,89#*:*:IS_MOTIVATION_2_INC,false,51#P_ON_NEST,false;P_HAS_OBJECT,true;*:*:B_ANTI_PHOTOTAXIS,94#
*:*:IS_WANT_OBJECT,false,27;IS_DROP_OBJECT,false,92;B_PHOTOTAXIS,62;B_RANDOM_WALK,90;IS_MOTIVATION_1_DEC,false,89#*:*:IS_MOTIVATION_2_INC,false,51#P_ON_NEST,false;P_HAS_OBJECT,true;*:*:B_ANTI_PHOTOTAXIS,94#
*:*:IS_WANT_OBJECT,false,27;IS_DROP_OBJECT,false,92;B_PHOTOTAXIS,62;B_RANDOM_WALK,90;IS_MOTIVATION_1_DEC,false,89#*:*:IS_MOTIVATION_2_INC,false,51#P_ON_NEST,false;P_HAS_OBJECT,true;*:*:B_ANTI_PHOTOTAXIS,94#
*:*:IS_WANT_OBJECT,false,27;IS_DROP_OBJECT,false,92;B_PHOTOTAXIS,62;B_RANDOM_WALK,90;IS_MOTIVATION_1_DEC,false,89#*:*:IS_MOTIVATION_2_INC,false,51#P_ON_NEST,false;P_HAS_OBJECT,true;*:*:B_ANTI_PHOTOTAXIS,94#
*:*:IS_WANT_OBJECT,false,27;IS_DROP_OBJECT,false,92;B_PHOTOTAXIS,62;B_RANDOM_WALK,90;IS_MOTIVATION_1_DEC,false,89#*:*:IS_MOTIVATION_2_INC,false,51#P_ON_NEST,false;P_HAS_OBJECT,true;*:*:B_ANTI_PHOTOTAXIS,94#
*:*:IS_WANT_OBJECT,false,27;IS_DROP_OBJECT,false,92;B_PHOTOTAXIS,62;B_RANDOM_WALK,90;IS_MOTIVATION_1_DEC,false,89#*:*:IS_MOTIVATION_2_INC,false,51#P_ON_NEST,false;P_HAS_OBJECT,true;*:*:B_ANTI_PHOTOTAXIS,94#
*:*:IS_WANT_OBJECT,false,27;IS_DROP_OBJECT,false,92;B_PHOTOTAXIS,62;B_RANDOM_WALK,90;IS_MOTIVATION_1_DEC,false,89#*:*:IS_MOTIVATION_2_INC,false,51#P_ON_NEST,false;P_HAS_OBJECT,true;*:*:B_ANTI_PHOTOTAXIS,94#
*:*:IS_WANT_OBJECT,false,27;IS_DROP_OBJECT,false,92;B_PHOTOTAXIS,62;B_RANDOM_WALK,90;IS_MOTIVATION_1_DEC,false,89#*:*:IS_MOTIVATION_2_INC,false,51#P_ON_NEST,false;P_HAS_OBJECT,true;*:*:B_ANTI_PHOTOTAXIS,94#
*:*:IS_WANT_OBJECT,false,27;IS_DROP_OBJECT,false,92;B_PHOTOTAXIS,62;B_RANDOM_WALK,90;IS_MOTIVATION_1_DEC,false,89#*:*:IS_MOTIVATION_2_INC,false,51#P_ON_NEST,false;P_HAS_OBJECT,true;*:*:B_ANTI_PHOTOTAXIS,94#
*:*:IS_WANT_OBJECT,false,27;IS_DROP_OBJECT,false,92;B_PHOTOTAXIS,62;B_RANDOM_WALK,90;IS_MOTIVATION_1_DEC,false,89#*:*:IS_MOTIVATION_2_INC,false,51#P_ON_NEST,false;P_HAS_OBJECT,true;*:*:B_ANTI_PHOTOTAXIS,94#
*:*:IS_WANT_OBJECT,false,27;IS_DROP_OBJECT,false,92;B_PHOTOTAXIS,62;B_RANDOM_WALK,90;IS_MOTIVATION_1_DEC,false,89#*:*:IS_MOTIVATION_2_INC,false,51#P_ON_NEST,false;P_HAS_OBJECT,true;*:*:B_ANTI_PHOTOTAXIS,94#
*:*:IS_WANT_OBJECT,false,27;IS_DROP_OBJECT,false,92;B_PHOTOTAXIS,62;B_RANDOM_WALK,90;IS_MOTIVATION_1_DEC,false,89#*:*:IS_MOTIVATION_2_INC,false,51#P_ON_NEST,false;P_HAS_OBJECT,true;*:*:B_ANTI_PHOTOTAXIS,94#
*:*:IS_WANT_OBJECT,false,41;IS_DROP_OBJECT,false,97;B_PHOTOTAXIS,62;B_RANDOM_WALK,90;IS_MOTIVATION_1_DEC,false,21#*:*:IS_MOTIVATION_2_INC,false,51#P_ON_NEST,false;P_HAS_OBJECT,true;*:*:B_ANTI_PHOTOTAXIS,94#
*:*:IS_WANT_OBJECT,false,41;IS_DROP_OBJECT,false,97;B_PHOTOTAXIS,62;B_RANDOM_WALK,90;IS_MOTIVATION_1_DEC,false,21#*:*:IS_MOTIVATION_2_INC,false,51#P_ON_NEST,false;P_HAS_OBJECT,true;*:*:B_ANTI_PHOTOTAXIS,94#
*:*:IS_WANT_OBJECT,false,41;IS_DROP_OBJECT,false,97;B_PHOTOTAXIS,62;B_RANDOM_WALK,90;IS_MOTIVATION_1_DEC,false,21#*:*:IS_MOTIVATION_2_INC,false,51#P_ON_NEST,false;P_HAS_OBJECT,true;*:*:B_ANTI_PHOTOTAXIS,94#
*:*:IS_WANT_OBJECT,false,41;IS_DROP_OBJECT,false,97;B_PHOTOTAXIS,62;B_RANDOM_WALK,90;IS_MOTIVATION_1_DEC,false,21#*:*:IS_MOTIVATION_2_INC,false,51#P_ON_NEST,false;P_HAS_OBJECT,true;*:*:B_ANTI_PHOTOTAXIS,94#
*:*:IS_WANT_OBJECT,false,41;IS_DROP_OBJECT,false,97;B_PHOTOTAXIS,62;B_RANDOM_WALK,90;IS_MOTIVATION_1_DEC,false,21#*:*:IS_MOTIVATION_2_INC,false,51#P_ON_NEST,false;P_HAS_OBJECT,true;*:*:B_ANTI_PHOTOTAXIS,94#
*:*:IS_WANT_OBJECT,false,41;IS_DROP_OBJECT,false,97;B_PHOTOTAXIS,62;B_RANDOM_WALK,90;IS_MOTIVATION_1_DEC,false,21#*:*:IS_MOTIVATION_2_INC,false,51#P_ON_NEST,false;P_HAS_OBJECT,true;*:*:B_ANTI_PHOTOTAXIS,94#
*:*:IS_WANT_OBJECT,false,41;IS_DROP_OBJECT,false,97;B_PHOTOTAXIS,62;B_RANDOM_WALK,90;IS_MOTIVATION_1_DEC,false,21#*:*:IS_MOTIVATION_2_INC,false,51#P_ON_NEST,false;P_HAS_OBJECT,true;*:*:B_ANTI_PHOTOTAXIS,94#
*:*:IS_WANT_OBJECT,false,41;IS_DROP_OBJECT,false,97;B_PHOTOTAXIS,62;B_RANDOM_WALK,90;IS_MOTIVATION_1_DEC,false,21#*:*:IS_MOTIVATION_2_INC,false,51#P_ON_NEST,false;P_HAS_OBJECT,true;*:*:B_ANTI_PHOTOTAXIS,94#
*:*:IS_WANT_OBJECT,false,41;IS_DROP_OBJECT,false,97;B_PHOTOTAXIS,62;B_RANDOM_WALK,90;IS_MOTIVATION_1_DEC,false,21#*:*:IS_MOTIVATION_2_INC,false,51#P_ON_NEST,false;P_HAS_OBJECT,true;*:*:B_ANTI_PHOTOTAXIS,94#
*:*:IS_WANT_OBJECT,false,41;IS_DROP_OBJECT,false,97;B_PHOTOTAXIS,62;B_RANDOM_WALK,90;IS_MOTIVATION_1_DEC,false,21#*:*:IS_MOTIVATION_2_INC,false,51#P_ON_NEST,false;P_HAS_OBJECT,true;*:*:B_ANTI_PHOTOTAXIS,94#
*:*:IS_WANT_OBJECT,false,41;IS_DROP_OBJECT,false,97;B_PHOTOTAXIS,62;B_RANDOM_WALK,90;IS_MOTIVATION_1_DEC,false,21#*:*:IS_MOTIVATION_2_INC,false,51#P_ON_NEST,false;P_HAS_OBJECT,true;*:*:B_ANTI_PHOTOTAXIS,94#
*:*:IS_WANT_OBJECT,false,41;IS_DROP_OBJECT,false,97;B_PHOTOTAXIS,62;B_RANDOM_WALK,90;IS_MOTIVATION_1_DEC,false,21#*:*:IS_MOTIVATION_2_INC,false,51#P_ON_NEST,false;P_HAS_OBJECT,true;*:*:B_ANTI_PHOTOTAXIS,94#
*:*:IS_WANT_OBJECT,false,41;IS_DROP_OBJECT,false,97;B_PHOTOTAXIS,62;B_RANDOM_WALK,90;IS_MOTIVATION_1_DEC,false,21#*:*:IS_MOTIVATION_2_INC,false,51#P_ON_NEST,false;P_HAS_OBJECT,true;*:*:B_ANTI_PHOTOTAXIS,94#
*:*:IS_WANT_OBJECT,false,41;IS_DROP_OBJECT,false,97;B_PHOTOTAXIS,62;B_RANDOM_WALK,90;IS_MOTIVATION_1_DEC,false,21#*:*:IS_MOTIVATION_2_INC,false,51#P_ON_NEST,false;P_HAS_OBJECT,true;*:*:B_ANTI_PHOTOTAXIS,94#
*:*:IS_WANT_OBJECT,false,41;IS_DROP_OBJECT,false,97;B_PHOTOTAXIS,62;B_RANDOM_WALK,90;IS_MOTIVATION_1_DEC,false,21#*:*:IS_MOTIVATION_2_INC,false,51#P_ON_NEST,false;P_HAS_OBJECT,true;*:*:B_ANTI_PHOTOTAXIS,94#
*:*:IS_WANT_OBJECT,false,41;IS_DROP_OBJECT,false,97;B_PHOTOTAXIS,62;B_RANDOM_WALK,90;IS_MOTIVATION_1_DEC,false,21#*:*:IS_MOTIVATION_2_INC,false,51#P_ON_NEST,false;P_HAS_OBJECT,true;*:*:B_ANTI_PHOTOTAXIS,94#
*:*:IS_WANT_OBJECT,false,41;IS_DROP_OBJECT,false,97;B_PHOTOTAXIS,62;B_RANDOM_WALK,90;IS_MOTIVATION_1_DEC,false,21#*:*:IS_MOTIVATION_2_INC,false,51#P_ON_NEST,false;P_HAS_OBJECT,true;*:*:B_ANTI_PHOTOTAXIS,94#
*:*:IS_WANT_OBJECT,false,41;IS_DROP_OBJECT,false,97;B_PHOTOTAXIS,62;B_RANDOM_WALK,90;IS_MOTIVATION_1_DEC,false,21#*:*:IS_MOTIVATION_2_INC,false,51#P_ON_NEST,false;P_HAS_OBJECT,true;*:*:B_ANTI_PHOTOTAXIS,94#
*:*:IS_WANT_OBJECT,false,41;IS_DROP_OBJECT,false,97;B_PHOTOTAXIS,62;B_RANDOM_WALK,90;IS_MOTIVATION_1_DEC,false,21#*:*:IS_MOTIVATION_2_INC,false,51#P_ON_NEST,false;P_HAS_OBJECT,true;*:*:B_ANTI_PHOTOTAXIS,94#
*:*:IS_WANT_OBJECT,false,41;IS_DROP_OBJECT,false,97;B_PHOTOTAXIS,62;B_RANDOM_WALK,90;IS_MOTIVATION_1_DEC,false,21#*:*:IS_MOTIVATION_2_INC,false,51#P_ON_NEST,false;P_HAS_OBJECT,true;*:*:B_ANTI_PHOTOTAXIS,94#
*:*:IS_WANT_OBJECT,false,41;IS_DROP_OBJECT,false,97;B_PHOTOTAXIS,62;B_RANDOM_WALK,90;IS_MOTIVATION_1_DEC,false,21#*:*:IS_MOTIVATION_2_INC,false,51#P_ON_NEST,false;P_HAS_OBJECT,true;*:*:B_ANTI_PHOTOTAXIS,94#
*:*:IS_WANT_OBJECT,false,41;IS_DROP_OBJECT,false,97;B_PHOTOTAXIS,62;B_RANDOM_WALK,90;IS_MOTIVATION_1_DEC,false,21#*:*:IS_MOTIVATION_2_INC,false,51#P_ON_NEST,false;P_HAS_OBJECT,true;*:*:B_ANTI_PHOTOTAXIS,94#
*:*:IS_WANT_OBJECT,false,41;IS_DROP_OBJECT,false,97;B_PHOTOTAXIS,62;B_RANDOM_WALK,90;IS_MOTIVATION_1_DEC,false,21#*:*:IS_MOTIVATION_2_INC,false,51#P_ON_NEST,false;P_HAS_OBJECT,true;*:*:B_ANTI_PHOTOTAXIS,94#
*:*:IS_WANT_OBJECT,false,41;IS_DROP_OBJECT,false,97;B_PHOTOTAXIS,62;B_RANDOM_WALK,90;IS_MOTIVATION_1_DEC,false,21#*:*:IS_MOTIVATION_2_INC,false,51#P_ON_NEST,false;P_HAS_OBJECT,true;*:*:B_ANTI_PHOTOTAXIS,94#
*:*:IS_WANT_OBJECT,false,41;IS_DROP_OBJECT,false,97;B_PHOTOTAXIS,62;B_RANDOM_WALK,90;IS_MOTIVATION_1_DEC,false,21#*:*:IS_MOTIVATION_2_INC,false,51#P_ON_NEST,false;P_HAS_OBJECT,true;*:*:B_ANTI_PHOTOTAXIS,94#
*:*:IS_WANT_OBJECT,false,41;IS_DROP_OBJECT,false,97;B_PHOTOTAXIS,62;B_RANDOM_WALK,90;IS_MOTIVATION_1_DEC,false,21#*:*:IS_MOTIVATION_2_INC,false,51#P_ON_NEST,false;P_HAS_OBJECT,true;*:*:B_ANTI_PHOTOTAXIS,94#
*:*:IS_WANT_OBJECT,false,41;IS_DROP_OBJECT,false,97;B_PHOTOTAXIS,62;B_RANDOM_WALK,90;IS_MOTIVATION_1_DEC,false,21#*:*:IS_MOTIVATION_2_INC,false,51#P_ON_NEST,false;P_HAS_OBJECT,true;*:*:B_ANTI_PHOTOTAXIS,94#
*:*:IS_WANT_OBJECT,false,41;IS_DROP_OBJECT,false,97;B_PHOTOTAXIS,62;B_RANDOM_WALK,90;IS_MOTIVATION_1_DEC,false,21#*:*:IS_MOTIVATION_2_INC,false,51#P_ON_NEST,false;P_HAS_OBJECT,true;*:*:B_ANTI_PHOTOTAXIS,94#
*:*:IS_WANT_OBJECT,false,41;IS_DROP_OBJECT,false,97;B_PHOTOTAXIS,62;B_RANDOM_WALK,90;IS_MOTIVATION_1_DEC,false,21#*:*:IS_MOTIVATION_2_INC,false,51#P_ON_NEST,false;P_HAS_OBJECT,true;*:*:B_ANTI_PHOTOTAXIS,94#
*:*:IS_WANT_OBJECT,false,41;IS_DROP_OBJECT,false,97;B_PHOTOTAXIS,62;B_RANDOM_WALK,90;IS_MOTIVATION_1_DEC,false,21#*:*:IS_MOTIVATION_2_INC,false,51#P_ON_NEST,false;P_HAS_OBJECT,true;*:*:B_ANTI_PHOTOTAXIS,94#
*:*:IS_WANT_OBJECT,false,41;IS_DROP_OBJECT,false,97;B_PHOTOTAXIS,62;B_RANDOM_WALK,90;IS_MOTIVATION_1_DEC,false,21#*:*:IS_MOTIVATION_2_INC,false,51#P_ON_NEST,false;P_HAS_OBJECT,true;*:*:B_ANTI_PHOTOTAXIS,94#
*:*:IS_WANT_OBJECT,false,41;IS_DROP_OBJECT,false,97;B_PHOTOTAXIS,62;B_RANDOM_WALK,90;IS_MOTIVATION_1_DEC,false,21#*:*:IS_MOTIVATION_2_INC,false,51#P_ON_NEST,false;P_HAS_OBJECT,true;*:*:B_ANTI_PHOTOTAXIS,94#
*:*:IS_WANT_OBJECT,false,41;IS_DROP_OBJECT,false,97;B_PHOTOTAXIS,62;B_RANDOM_WALK,90;IS_MOTIVATION_1_DEC,false,21#*:*:IS_MOTIVATION_2_INC,false,51#P_ON_NEST,false;P_HAS_OBJECT,true;*:*:B_ANTI_PHOTOTAXIS,94#
*:*:IS_WANT_OBJECT,false,41;IS_DROP_OBJECT,false,97;B_PHOTOTAXIS,62;B_RANDOM_WALK,90;IS_MOTIVATION_1_DEC,false,21#*:*:IS_MOTIVATION_2_INC,false,51#P_ON_NEST,false;P_HAS_OBJECT,true;*:*:B_ANTI_PHOTOTAXIS,94#
*:*:IS_WANT_OBJECT,false,41;IS_DROP_OBJECT,false,97;B_PHOTOTAXIS,62;B_RANDOM_WALK,90;IS_MOTIVATION_1_DEC,false,21#*:*:IS_MOTIVATION_2_INC,false,51#P_ON_NEST,false;P_HAS_OBJECT,true;*:*:B_ANTI_PHOTOTAXIS,94#
*:*:IS_WANT_OBJECT,false,41;IS_DROP_OBJECT,false,97;B_PHOTOTAXIS,62;B_RANDOM_WALK,90;IS_MOTIVATION_1_DEC,false,21#*:*:IS_MOTIVATION_2_INC,false,51#P_ON_NEST,false;P_HAS_OBJECT,true;*:*:B_ANTI_PHOTOTAXIS,94#
*:*:IS_WANT_OBJECT,false,41;IS_DROP_OBJECT,false,97;B_PHOTOTAXIS,62;B_RANDOM_WALK,90;IS_MOTIVATION_1_DEC,false,21#*:*:IS_MOTIVATION_2_INC,false,51#P_ON_NEST,false;P_HAS_OBJECT,true;*:*:B_ANTI_PHOTOTAXIS,94#
*:*:IS_WANT_OBJECT,false,41;IS_DROP_OBJECT,false,97;B_PHOTOTAXIS,62;B_RANDOM_WALK,90;IS_MOTIVATION_1_DEC,false,21#*:*:IS_MOTIVATION_2_INC,false,51#P_ON_NEST,false;P_HAS_OBJECT,true;*:*:B_ANTI_PHOTOTAXIS,94#
*:*:IS_WANT_OBJECT,false,41;IS_DROP_OBJECT,false,97;B_PHOTOTAXIS,62;B_RANDOM_WALK,90;IS_MOTIVATION_1_DEC,false,21#*:*:IS_MOTIVATION_2_INC,false,51#P_ON_NEST,false;P_HAS_OBJECT,true;*:*:B_ANTI_PHOTOTAXIS,94#
*:*:IS_WANT_OBJECT,false,41;IS_DROP_OBJECT,false,97;B_PHOTOTAXIS,62;B_RANDOM_WALK,90;IS_MOTIVATION_1_DEC,false,21#*:*:IS_MOTIVATION_2_INC,false,51#P_ON_NEST,false;P_HAS_OBJECT,true;*:*:B_ANTI_PHOTOTAXIS,94#
*:*:IS_WANT_OBJECT,false,41;IS_DROP_OBJECT,false,97;B_PHOTOTAXIS,62;B_RANDOM_WALK,90;IS_MOTIVATION_1_DEC,false,21#*:*:IS_MOTIVATION_2_INC,false,51#P_ON_NEST,false;P_HAS_OBJECT,true;*:*:B_ANTI_PHOTOTAXIS,94#
*:*:IS_WANT_OBJECT,false,41;IS_DROP_OBJECT,false,97;B_PHOTOTAXIS,62;B_RANDOM_WALK,90;IS_MOTIVATION_1_DEC,false,21#*:*:IS_MOTIVATION_2_INC,false,51#P_ON_NEST,false;P_HAS_OBJECT,true;*:*:B_ANTI_PHOTOTAXIS,94#
*:*:IS_WANT_OBJECT,false,41;IS_DROP_OBJECT,false,97;B_PHOTOTAXIS,62;B_RANDOM_WALK,90;IS_MOTIVATION_1_DEC,false,21#*:*:IS_MOTIVATION_2_INC,false,51#P_ON_NEST,false;P_HAS_OBJECT,true;*:*:B_ANTI_PHOTOTAXIS,94#
*:*:IS_WANT_OBJECT,false,41;IS_DROP_OBJECT,false,97;B_PHOTOTAXIS,62;B_RANDOM_WALK,90;IS_MOTIVATION_1_DEC,false,21#*:*:IS_MOTIVATION_2_INC,false,51#P_ON_NEST,false;P_HAS_OBJECT,true;*:*:B_ANTI_PHOTOTAXIS,94#
*:*:IS_WANT_OBJECT,false,41;IS_DROP_OBJECT,false,97;B_PHOTOTAXIS,62;B_RANDOM_WALK,90;IS_MOTIVATION_1_DEC,false,21#*:*:IS_MOTIVATION_2_INC,false,51#P_ON_NEST,false;P_HAS_OBJECT,true;*:*:B_ANTI_PHOTOTAXIS,94#
*:*:IS_WANT_OBJECT,false,41;IS_DROP_OBJECT,false,97;B_PHOTOTAXIS,62;B_RANDOM_WALK,90;IS_MOTIVATION_1_DEC,false,21#*:*:IS_MOTIVATION_2_INC,false,51#P_ON_NEST,false;P_HAS_OBJECT,true;*:*:B_ANTI_PHOTOTAXIS,94#
*:*:IS_WANT_OBJECT,false,41;IS_DROP_OBJECT,false,97;B_PHOTOTAXIS,62;B_RANDOM_WALK,90;IS_MOTIVATION_1_DEC,false,21#*:*:IS_MOTIVATION_2_INC,false,51#P_ON_NEST,false;P_HAS_OBJECT,true;*:*:B_ANTI_PHOTOTAXIS,94#
*:*:IS_WANT_OBJECT,false,41;IS_DROP_OBJECT,false,97;B_PHOTOTAXIS,62;B_RANDOM_WALK,90;IS_MOTIVATION_1_DEC,false,21#*:*:IS_MOTIVATION_2_INC,false,51#P_ON_NEST,false;P_HAS_OBJECT,true;*:*:B_ANTI_PHOTOTAXIS,94#
*:*:IS_WANT_OBJECT,false,41;IS_DROP_OBJECT,false,97;B_PHOTOTAXIS,62;B_RANDOM_WALK,90;IS_MOTIVATION_1_DEC,false,21#*:*:IS_MOTIVATION_2_INC,false,51#P_ON_NEST,false;P_HAS_OBJECT,true;*:*:B_ANTI_PHOTOTAXIS,94#
*:*:IS_WANT_OBJECT,false,41;IS_DROP_OBJECT,false,97;B_PHOTOTAXIS,62;B_RANDOM_WALK,90;IS_MOTIVATION_1_DEC,false,21#*:*:IS_MOTIVATION_2_INC,false,51#P_ON_NEST,false;P_HAS_OBJECT,true;*:*:B_ANTI_PHOTOTAXIS,94#
*:*:IS_WANT_OBJECT,false,41;IS_DROP_OBJECT,false,97;B_PHOTOTAXIS,62;B_RANDOM_WALK,90;IS_MOTIVATION_1_DEC,false,21#*:*:IS_MOTIVATION_2_INC,false,51#P_ON_NEST,false;P_HAS_OBJECT,true;*:*:B_ANTI_PHOTOTAXIS,94#
*:*:IS_WANT_OBJECT,false,41;IS_DROP_OBJECT,false,97;B_PHOTOTAXIS,62;B_RANDOM_WALK,90;IS_MOTIVATION_1_DEC,false,21#*:*:IS_MOTIVATION_2_INC,false,51#P_ON_NEST,false;P_HAS_OBJECT,true;*:*:B_ANTI_PHOTOTAXIS,94#
*:*:IS_WANT_OBJECT,false,41;IS_DROP_OBJECT,false,97;B_PHOTOTAXIS,62;B_RANDOM_WALK,90;IS_MOTIVATION_1_DEC,false,21#*:*:IS_MOTIVATION_2_INC,false,51#P_ON_NEST,false;P_HAS_OBJECT,true;*:*:B_ANTI_PHOTOTAXIS,94#
*:*:IS_WANT_OBJECT,false,41;IS_DROP_OBJECT,false,97;B_PHOTOTAXIS,62;B_RANDOM_WALK,90;IS_MOTIVATION_1_DEC,false,21#*:*:IS_MOTIVATION_2_INC,false,51#P_ON_NEST,false;P_HAS_OBJECT,true;*:*:B_ANTI_PHOTOTAXIS,94#
*:*:IS_WANT_OBJECT,false,41;IS_DROP_OBJECT,false,97;B_PHOTOTAXIS,62;B_RANDOM_WALK,90;IS_MOTIVATION_1_DEC,false,21#*:*:IS_MOTIVATION_2_INC,false,51#P_ON_NEST,false;P_HAS_OBJECT,true;*:*:B_ANTI_PHOTOTAXIS,94#
*:*:IS_WANT_OBJECT,false,41;IS_DROP_OBJECT,false,97;B_PHOTOTAXIS,62;B_RANDOM_WALK,90;IS_MOTIVATION_1_DEC,false,21#*:*:IS_MOTIVATION_2_INC,false,51#P_ON_NEST,false;P_HAS_OBJECT,true;*:*:B_ANTI_PHOTOTAXIS,94#
*:*:IS_WANT_OBJECT,false,41;IS_DROP_OBJECT,false,97;B_PHOTOTAXIS,62;B_RANDOM_WALK,90;IS_MOTIVATION_1_DEC,false,21#*:*:IS_MOTIVATION_2_INC,false,51#P_ON_NEST,false;P_HAS_OBJECT,true;*:*:B_ANTI_PHOTOTAXIS,94#
*:*:IS_WANT_OBJECT,false,41;IS_DROP_OBJECT,false,97;B_PHOTOTAXIS,62;B_RANDOM_WALK,90;IS_MOTIVATION_1_DEC,false,21#*:*:IS_MOTIVATION_2_INC,false,51#P_ON_NEST,false;P_HAS_OBJECT,true;*:*:B_ANTI_PHOTOTAXIS,94#
*:*:IS_WANT_OBJECT,false,41;IS_DROP_OBJECT,false,97;B_PHOTOTAXIS,62;B_RANDOM_WALK,90;IS_MOTIVATION_1_DEC,false,21#*:*:IS_MOTIVATION_2_INC,false,51#P_ON_NEST,false;P_HAS_OBJECT,true;*:*:B_ANTI_PHOTOTAXIS,94#
*:*:IS_WANT_OBJECT,false,41;IS_DROP_OBJECT,false,97;B_PHOTOTAXIS,62;B_RANDOM_WALK,90;IS_MOTIVATION_1_DEC,false,21#*:*:IS_MOTIVATION_2_INC,false,51#P_ON_NEST,false;P_HAS_OBJECT,true;*:*:B_ANTI_PHOTOTAXIS,94#
*:*:IS_WANT_OBJECT,false,41;IS_DROP_OBJECT,false,97;B_PHOTOTAXIS,62;B_RANDOM_WALK,90;IS_MOTIVATION_1_DEC,false,21#*:*:IS_MOTIVATION_2_INC,false,51#P_ON_NEST,false;P_HAS_OBJECT,true;*:*:B_ANTI_PHOTOTAXIS,94#
*:*:IS_WANT_OBJECT,false,41;IS_DROP_OBJECT,false,97;B_PHOTOTAXIS,62;B_RANDOM_WALK,90;IS_MOTIVATION_1_DEC,false,21#*:*:IS_MOTIVATION_2_INC,false,51#P_ON_NEST,false;P_HAS_OBJECT,true;*:*:B_ANTI_PHOTOTAXIS,94#
*:*:IS_WANT_OBJECT,false,41;IS_DROP_OBJECT,false,97;B_PHOTOTAXIS,62;B_RANDOM_WALK,90;IS_MOTIVATION_1_DEC,false,21#*:*:IS_MOTIVATION_2_INC,false,51#P_ON_NEST,false;P_HAS_OBJECT,true;*:*:B_ANTI_PHOTOTAXIS,94#
*:*:IS_WANT_OBJECT,false,41;IS_DROP_OBJECT,false,97;B_PHOTOTAXIS,62;B_RANDOM_WALK,90;IS_MOTIVATION_1_DEC,false,21#*:*:IS_MOTIVATION_2_INC,false,51#P_ON_NEST,false;P_HAS_OBJECT,true;*:*:B_ANTI_PHOTOTAXIS,94#
*:*:IS_WANT_OBJECT,false,41;IS_DROP_OBJECT,false,97;B_PHOTOTAXIS,62;B_RANDOM_WALK,90;IS_MOTIVATION_1_DEC,false,21#*:*:IS_MOTIVATION_2_INC,false,51#P_ON_NEST,false;P_HAS_OBJECT,true;*:*:B_ANTI_PHOTOTAXIS,94#
*:*:IS_WANT_OBJECT,false,41;IS_DROP_OBJECT,false,97;B_PHOTOTAXIS,62;B_RANDOM_WALK,90;IS_MOTIVATION_1_DEC,false,21#*:*:IS_MOTIVATION_2_INC,false,51#P_ON_NEST,false;P_HAS_OBJECT,true;*:*:B_ANTI_PHOTOTAXIS,94#
*:*:IS_WANT_OBJECT,false,41;IS_DROP_OBJECT,false,97;B_PHOTOTAXIS,62;B_RANDOM_WALK,90;IS_MOTIVATION_1_DEC,false,21#*:*:IS_MOTIVATION_2_INC,false,51#P_ON_NEST,false;P_HAS_OBJECT,true;*:*:B_ANTI_PHOTOTAXIS,94#
*:*:IS_WANT_OBJECT,false,41;IS_DROP_OBJECT,false,97;B_PHOTOTAXIS,62;B_RANDOM_WALK,90;IS_MOTIVATION_1_DEC,false,21#*:*:IS_MOTIVATION_2_INC,false,51#P_ON_NEST,false;P_HAS_OBJECT,true;*:*:B_ANTI_PHOTOTAXIS,94#
*:*:IS_WANT_OBJECT,false,41;IS_DROP_OBJECT,false,97;B_PHOTOTAXIS,62;B_RANDOM_WALK,90;IS_MOTIVATION_1_DEC,false,21#*:*:IS_MOTIVATION_2_INC,false,51#P_ON_NEST,false;P_HAS_OBJECT,true;*:*:B_ANTI_PHOTOTAXIS,94#
*:*:IS_WANT_OBJECT,false,41;IS_DROP_OBJECT,false,97;B_PHOTOTAXIS,62;B_RANDOM_WALK,90;IS_MOTIVATION_1_DEC,false,21#*:*:IS_MOTIVATION_2_INC,false,51#P_ON_NEST,false;P_HAS_OBJECT,true;*:*:B_ANTI_PHOTOTAXIS,94#
*:*:IS_WANT_OBJECT,false,41;IS_DROP_OBJECT,false,97;B_PHOTOTAXIS,62;B_RANDOM_WALK,90;IS_MOTIVATION_1_DEC,false,21#*:*:IS_MOTIVATION_2_INC,false,51#P_ON_NEST,false;P_HAS_OBJECT,true;*:*:B_ANTI_PHOTOTAXIS,94#
*:*:IS_WANT_OBJECT,false,41;IS_DROP_OBJECT,false,97;B_PHOTOTAXIS,62;B_RANDOM_WALK,90;IS_MOTIVATION_1_DEC,false,21#*:*:IS_MOTIVATION_2_INC,false,51#P_ON_NEST,false;P_HAS_OBJECT,true;*:*:B_ANTI_PHOTOTAXIS,94#
*:*:IS_WANT_OBJECT,false,41;IS_DROP_OBJECT,false,97;B_PHOTOTAXIS,62;B_RANDOM_WALK,90;IS_MOTIVATION_1_DEC,false,21#*:*:IS_MOTIVATION_2_INC,false,51#P_ON_NEST,false;P_HAS_OBJECT,true;*:*:B_ANTI_PHOTOTAXIS,94#
*:*:IS_WANT_OBJECT,false,41;IS_DROP_OBJECT,false,97;B_PHOTOTAXIS,62;B_RANDOM_WALK,90;IS_MOTIVATION_1_DEC,false,21#*:*:IS_MOTIVATION_2_INC,false,51#P_ON_NEST,false;P_HAS_OBJECT,true;*:*:B_ANTI_PHOTOTAXIS,94#
*:*:IS_WANT_OBJECT,false,41;IS_DROP_OBJECT,false,97;B_PHOTOTAXIS,62;B_RANDOM_WALK,90;IS_MOTIVATION_1_DEC,false,21#*:*:IS_MOTIVATION_2_INC,false,51#P_ON_NEST,false;P_HAS_OBJECT,true;*:*:B_ANTI_PHOTOTAXIS,94#
*:*:IS_WANT_OBJECT,false,41;IS_DROP_OBJECT,false,97;B_PHOTOTAXIS,62;B_RANDOM_WALK,90;IS_MOTIVATION_1_DEC,false,21#*:*:IS_MOTIVATION_2_INC,false,51#P_ON_NEST,false;P_HAS_OBJECT,true;*:*:B_ANTI_PHOTOTAXIS,94#
*:*:IS_WANT_OBJECT,false,41;IS_DROP_OBJECT,false,97;B_PHOTOTAXIS,62;B_RANDOM_WALK,90;IS_MOTIVATION_1_DEC,false,21#*:*:IS_MOTIVATION_2_INC,false,51#P_ON_NEST,false;P_HAS_OBJECT,true;*:*:B_ANTI_PHOTOTAXIS,94#
*:*:IS_WANT_OBJECT,false,41;IS_DROP_OBJECT,false,97;B_PHOTOTAXIS,62;B_RANDOM_WALK,90;IS_MOTIVATION_1_DEC,false,21#*:*:IS_MOTIVATION_2_INC,false,51#P_ON_NEST,false;P_HAS_OBJECT,true;*:*:B_ANTI_PHOTOTAXIS,94#
*:*:IS_WANT_OBJECT,false,41;IS_DROP_OBJECT,false,97;B_PHOTOTAXIS,62;B_RANDOM_WALK,90;IS_MOTIVATION_1_DEC,false,21#*:*:IS_MOTIVATION_2_INC,false,51#P_ON_NEST,false;P_HAS_OBJECT,true;*:*:B_ANTI_PHOTOTAXIS,94#
*:*:IS_WANT_OBJECT,false,41;IS_DROP_OBJECT,false,97;B_PHOTOTAXIS,62;B_RANDOM_WALK,90;IS_MOTIVATION_1_DEC,false,21#*:*:IS_MOTIVATION_2_INC,false,51#P_ON_NEST,false;P_HAS_OBJECT,true;*:*:B_ANTI_PHOTOTAXIS,94#
*:*:IS_WANT_OBJECT,false,41;IS_DROP_OBJECT,false,97;B_PHOTOTAXIS,62;B_RANDOM_WALK,90;IS_MOTIVATION_1_DEC,false,21#*:*:IS_MOTIVATION_2_INC,false,51#P_ON_NEST,false;P_HAS_OBJECT,true;*:*:B_ANTI_PHOTOTAXIS,94#
*:*:IS_WANT_OBJECT,false,41;IS_DROP_OBJECT,false,97;B_PHOTOTAXIS,62;B_RANDOM_WALK,90;IS_MOTIVATION_1_DEC,false,21#*:*:IS_MOTIVATION_2_INC,false,51#P_ON_NEST,false;P_HAS_OBJECT,true;*:*:B_ANTI_PHOTOTAXIS,94#
*:*:IS_WANT_OBJECT,false,41;IS_DROP_OBJECT,false,97;B_PHOTOTAXIS,62;B_RANDOM_WALK,90;IS_MOTIVATION_1_DEC,false,21#*:*:IS_MOTIVATION_2_INC,false,51#P_ON_NEST,false;P_HAS_OBJECT,true;*:*:B_ANTI_PHOTOTAXIS,94#
*:*:IS_WANT_OBJECT,false,41;IS_DROP_OBJECT,false,97;B_PHOTOTAXIS,62;B_RANDOM_WALK,90;IS_MOTIVATION_1_DEC,false,21#*:*:IS_MOTIVATION_2_INC,false,51#P_ON_NEST,false;P_HAS_OBJECT,true;*:*:B_ANTI_PHOTOTAXIS,94#
*:*:IS_WANT_OBJECT,false,41;IS_DROP_OBJECT,false,97;B_PHOTOTAXIS,62;B_RANDOM_WALK,90;IS_MOTIVATION_1_DEC,false,21#*:*:IS_MOTIVATION_2_INC,false,51#P_ON_NEST,false;P_HAS_OBJECT,true;*:*:B_ANTI_PHOTOTAXIS,94#
*:*:IS_WANT_OBJECT,false,41;IS_DROP_OBJECT,false,97;B_PHOTOTAXIS,62;B_RANDOM_WALK,90;IS_MOTIVATION_1_DEC,false,21#*:*:IS_MOTIVATION_2_INC,false,51#P_ON_NEST,false;P_HAS_OBJECT,true;*:*:B_ANTI_PHOTOTAXIS,94#
*:*:IS_WANT_OBJECT,false,41;IS_DROP_OBJECT,false,97;B_PHOTOTAXIS,62;B_RANDOM_WALK,90;IS_MOTIVATION_1_DEC,false,21#*:*:IS_MOTIVATION_2_INC,false,51#P_ON_NEST,false;P_HAS_OBJECT,true;*:*:B_ANTI_PHOTOTAXIS,94#
*:*:IS_WANT_OBJECT,false,41;IS_DROP_OBJECT,false,97;B_PHOTOTAXIS,62;B_RANDOM_WALK,90;IS_MOTIVATION_1_DEC,false,21#*:*:IS_MOTIVATION_2_INC,false,51#P_ON_NEST,false;P_HAS_OBJECT,true;*:*:B_ANTI_PHOTOTAXIS,94#
*:*:IS_WANT_OBJECT,false,41;IS_DROP_OBJECT,false,97;B_PHOTOTAXIS,62;B_RANDOM_WALK,90;IS_MOTIVATION_1_DEC,false,21#*:*:IS_MOTIVATION_2_INC,false,51#P_ON_NEST,false;P_HAS_OBJECT,true;*:*:B_ANTI_PHOTOTAXIS,94#
*:*:IS_WANT_OBJECT,false,41;IS_DROP_OBJECT,false,97;B_PHOTOTAXIS,62;B_RANDOM_WALK,90;IS_MOTIVATION_1_DEC,false,21#*:*:IS_MOTIVATION_2_INC,false,51#P_ON_NEST,false;P_HAS_OBJECT,true;*:*:B_ANTI_PHOTOTAXIS,94#
*:*:IS_WANT_OBJECT,false,41;IS_DROP_OBJECT,false,97;B_PHOTOTAXIS,62;B_RANDOM_WALK,90;IS_MOTIVATION_1_DEC,false,21#*:*:IS_MOTIVATION_2_INC,false,51#P_ON_NEST,false;P_HAS_OBJECT,true;*:*:B_ANTI_PHOTOTAXIS,94#
*:*:IS_WANT_OBJECT,false,41;IS_DROP_OBJECT,false,97;B_PHOTOTAXIS,62;B_RANDOM_WALK,90;IS_MOTIVATION_1_DEC,false,21#*:*:IS_MOTIVATION_2_INC,false,51#P_ON_NEST,false;P_HAS_OBJECT,true;*:*:B_ANTI_PHOTOTAXIS,94#
*:*:IS_WANT_OBJECT,false,41;IS_DROP_OBJECT,false,97;B_PHOTOTAXIS,62;B_RANDOM_WALK,90;IS_MOTIVATION_1_DEC,false,21#*:*:IS_MOTIVATION_2_INC,false,51#P_ON_NEST,false;P_HAS_OBJECT,true;*:*:B_ANTI_PHOTOTAXIS,94#
*:*:IS_WANT_OBJECT,false,41;IS_DROP_OBJECT,false,97;B_PHOTOTAXIS,62;B_RANDOM_WALK,90;IS_MOTIVATION_1_DEC,false,21#*:*:IS_MOTIVATION_2_INC,false,51#P_ON_NEST,false;P_HAS_OBJECT,true;*:*:B_ANTI_PHOTOTAXIS,94#
*:*:IS_WANT_OBJECT,false,41;IS_DROP_OBJECT,false,97;B_PHOTOTAXIS,62;B_RANDOM_WALK,90;IS_MOTIVATION_1_DEC,false,21#*:*:IS_MOTIVATION_2_INC,false,51#P_ON_NEST,false;P_HAS_OBJECT,true;*:*:B_ANTI_PHOTOTAXIS,94#
*:*:IS_WANT_OBJECT,false,41;IS_DROP_OBJECT,false,97;B_PHOTOTAXIS,62;B_RANDOM_WALK,90;IS_MOTIVATION_1_DEC,false,21#*:*:IS_MOTIVATION_2_INC,false,51#P_ON_NEST,false;P_HAS_OBJECT,true;*:*:B_ANTI_PHOTOTAXIS,94#
*:*:IS_WANT_OBJECT,false,41;IS_DROP_OBJECT,false,97;B_PHOTOTAXIS,62;B_RANDOM_WALK,90;IS_MOTIVATION_1_DEC,false,21#*:*:IS_MOTIVATION_2_INC,false,51#P_ON_NEST,false;P_HAS_OBJECT,true;*:*:B_ANTI_PHOTOTAXIS,94#
*:*:IS_WANT_OBJECT,false,41;IS_DROP_OBJECT,false,97;B_PHOTOTAXIS,62;B_RANDOM_WALK,90;IS_MOTIVATION_1_DEC,false,21#*:*:IS_MOTIVATION_2_INC,false,51#P_ON_NEST,false;P_HAS_OBJECT,true;*:*:B_ANTI_PHOTOTAXIS,94#
*:*:IS_WANT_OBJECT,false,41;IS_DROP_OBJECT,false,97;B_PHOTOTAXIS,62;B_RANDOM_WALK,90;IS_MOTIVATION_1_DEC,false,21#*:*:IS_MOTIVATION_2_INC,false,51#P_ON_NEST,false;P_HAS_OBJECT,true;*:*:B_ANTI_PHOTOTAXIS,94#
*:*:IS_WANT_OBJECT,false,41;IS_DROP_OBJECT,false,97;B_PHOTOTAXIS,62;B_RANDOM_WALK,90;IS_MOTIVATION_1_DEC,false,21#*:*:IS_MOTIVATION_2_INC,false,51#P_ON_NEST,false;P_HAS_OBJECT,true;*:*:B_ANTI_PHOTOTAXIS,94#
*:*:IS_WANT_OBJECT,false,41;IS_DROP_OBJECT,false,97;B_PHOTOTAXIS,62;B_RANDOM_WALK,90;IS_MOTIVATION_1_DEC,false,21#*:*:IS_MOTIVATION_2_INC,false,51#P_ON_NEST,false;P_HAS_OBJECT,true;*:*:B_ANTI_PHOTOTAXIS,94#
*:*:IS_WANT_OBJECT,false,41;IS_DROP_OBJECT,false,97;B_PHOTOTAXIS,62;B_RANDOM_WALK,90;IS_MOTIVATION_1_DEC,false,21#*:*:IS_MOTIVATION_2_INC,false,51#P_ON_NEST,false;P_HAS_OBJECT,true;*:*:B_ANTI_PHOTOTAXIS,94#
*:*:IS_WANT_OBJECT,false,41;IS_DROP_OBJECT,false,97;B_PHOTOTAXIS,62;B_RANDOM_WALK,90;IS_MOTIVATION_1_DEC,false,21#*:*:IS_MOTIVATION_2_INC,false,51#P_ON_NEST,false;P_HAS_OBJECT,true;*:*:B_ANTI_PHOTOTAXIS,94#
*:*:IS_WANT_OBJECT,false,41;IS_DROP_OBJECT,false,97;B_PHOTOTAXIS,62;B_RANDOM_WALK,90;IS_MOTIVATION_1_DEC,false,21#*:*:IS_MOTIVATION_2_INC,false,51#P_ON_NEST,false;P_HAS_OBJECT,true;*:*:B_ANTI_PHOTOTAXIS,94#
*:*:IS_WANT_OBJECT,false,41;IS_DROP_OBJECT,false,97;B_PHOTOTAXIS,62;B_RANDOM_WALK,90;IS_MOTIVATION_1_DEC,false,21#*:*:IS_MOTIVATION_2_INC,false,51#P_ON_NEST,false;P_HAS_OBJECT,true;*:*:B_ANTI_PHOTOTAXIS,94#
*:*:IS_WANT_OBJECT,false,41;IS_DROP_OBJECT,false,97;B_PHOTOTAXIS,62;B_RANDOM_WALK,90;IS_MOTIVATION_1_DEC,false,21#*:*:IS_MOTIVATION_2_INC,false,51#P_ON_NEST,false;P_HAS_OBJECT,true;*:*:B_ANTI_PHOTOTAXIS,94#
*:*:IS_WANT_OBJECT,false,41;IS_DROP_OBJECT,false,97;B_PHOTOTAXIS,62;B_RANDOM_WALK,90;IS_MOTIVATION_1_DEC,false,21#*:*:IS_MOTIVATION_2_INC,false,51#P_ON_NEST,false;P_HAS_OBJECT,true;*:*:B_ANTI_PHOTOTAXIS,94#
*:*:IS_WANT_OBJECT,false,41;IS_DROP_OBJECT,false,97;B_PHOTOTAXIS,62;B_RANDOM_WALK,90;IS_MOTIVATION_1_DEC,false,21#*:*:IS_MOTIVATION_2_INC,false,51#P_ON_NEST,false;P_HAS_OBJECT,true;*:*:B_ANTI_PHOTOTAXIS,94#
*:*:IS_WANT_OBJECT,false,41;IS_DROP_OBJECT,false,97;B_PHOTOTAXIS,62;B_RANDOM_WALK,90;IS_MOTIVATION_1_DEC,false,21#*:*:IS_MOTIVATION_2_INC,false,51#P_ON_NEST,false;P_HAS_OBJECT,true;*:*:B_ANTI_PHOTOTAXIS,94#
*:*:IS_WANT_OBJECT,false,41;IS_DROP_OBJECT,false,97;B_PHOTOTAXIS,62;B_RANDOM_WALK,90;IS_MOTIVATION_1_DEC,false,21#*:*:IS_MOTIVATION_2_INC,false,51#P_ON_NEST,false;P_HAS_OBJECT,true;*:*:B_ANTI_PHOTOTAXIS,94#
*:*:IS_WANT_OBJECT,false,41;IS_DROP_OBJECT,false,97;B_PHOTOTAXIS,62;B_RANDOM_WALK,90;IS_MOTIVATION_1_DEC,false,21#*:*:IS_MOTIVATION_2_INC,false,51#P_ON_NEST,false;P_HAS_OBJECT,true;*:*:B_ANTI_PHOTOTAXIS,94#
*:*:IS_WANT_OBJECT,false,41;IS_DROP_OBJECT,false,97;B_PHOTOTAXIS,62;B_RANDOM_WALK,90;IS_MOTIVATION_1_DEC,false,21#*:*:IS_MOTIVATION_2_INC,false,51#P_ON_NEST,false;P_HAS_OBJECT,true;*:*:B_ANTI_PHOTOTAXIS,94#
*:*:IS_WANT_OBJECT,false,41;IS_DROP_OBJECT,false,97;B_PHOTOTAXIS,62;B_RANDOM_WALK,90;IS_MOTIVATION_1_DEC,false,21#*:*:IS_MOTIVATION_2_INC,false,51#P_ON_NEST,false;P_HAS_OBJECT,true;*:*:B_ANTI_PHOTOTAXIS,94#
*:*:IS_WANT_OBJECT,false,41;IS_DROP_OBJECT,false,97;B_PHOTOTAXIS,62;B_RANDOM_WALK,90;IS_MOTIVATION_1_DEC,false,21#*:*:IS_MOTIVATION_2_INC,false,51#P_ON_NEST,false;P_HAS_OBJECT,true;*:*:B_ANTI_PHOTOTAXIS,94#
*:*:IS_WANT_OBJECT,false,41;IS_DROP_OBJECT,false,97;B_PHOTOTAXIS,62;B_RANDOM_WALK,90;IS_MOTIVATION_1_DEC,false,21#*:*:IS_MOTIVATION_2_INC,false,51#P_ON_NEST,false;P_HAS_OBJECT,true;*:*:B_ANTI_PHOTOTAXIS,94#
*:*:IS_WANT_OBJECT,false,41;IS_DROP_OBJECT,false,97;B_PHOTOTAXIS,62;B_RANDOM_WALK,90;IS_MOTIVATION_1_DEC,false,21#*:*:IS_MOTIVATION_2_INC,false,51#P_ON_NEST,false;P_HAS_OBJECT,true;*:*:B_ANTI_PHOTOTAXIS,94#
*:*:IS_WANT_OBJECT,false,41;IS_DROP_OBJECT,false,97;B_PHOTOTAXIS,62;B_RANDOM_WALK,90;IS_MOTIVATION_1_DEC,false,21#*:*:IS_MOTIVATION_2_INC,false,51#P_ON_NEST,false;P_HAS_OBJECT,true;*:*:B_ANTI_PHOTOTAXIS,94#
*:*:IS_WANT_OBJECT,false,41;IS_DROP_OBJECT,false,97;B_PHOTOTAXIS,62;B_RANDOM_WALK,90;IS_MOTIVATION_1_DEC,false,21#*:*:IS_MOTIVATION_2_INC,false,51#P_ON_NEST,false;P_HAS_OBJECT,true;*:*:B_ANTI_PHOTOTAXIS,94#
*:*:IS_WANT_OBJECT,false,41;IS_DROP_OBJECT,false,97;B_PHOTOTAXIS,62;B_RANDOM_WALK,90;IS_MOTIVATION_1_DEC,false,21#*:*:IS_MOTIVATION_2_INC,false,51#P_ON_NEST,false;P_HAS_OBJECT,true;*:*:B_ANTI_PHOTOTAXIS,94#
*:*:IS_WANT_OBJECT,false,41;IS_DROP_OBJECT,false,97;B_PHOTOTAXIS,62;B_RANDOM_WALK,90;IS_MOTIVATION_1_DEC,false,21#*:*:IS_MOTIVATION_2_INC,false,51#P_ON_NEST,false;P_HAS_OBJECT,true;*:*:B_ANTI_PHOTOTAXIS,94#
*:*:IS_WANT_OBJECT,false,41;IS_DROP_OBJECT,false,97;B_PHOTOTAXIS,62;B_RANDOM_WALK,90;IS_MOTIVATION_1_DEC,false,21#*:*:IS_MOTIVATION_2_INC,false,51#P_ON_NEST,false;P_HAS_OBJECT,true;*:*:B_ANTI_PHOTOTAXIS,94#
*:*:IS_WANT_OBJECT,false,41;IS_DROP_OBJECT,false,97;B_PHOTOTAXIS,62;B_RANDOM_WALK,90;IS_MOTIVATION_1_DEC,false,21#*:*:IS_MOTIVATION_2_INC,false,51#P_ON_NEST,false;P_HAS_OBJECT,true;*:*:B_ANTI_PHOTOTAXIS,94#
*:*:IS_WANT_OBJECT,false,41;IS_DROP_OBJECT,false,97;B_PHOTOTAXIS,62;B_RANDOM_WALK,90;IS_MOTIVATION_1_DEC,false,21#*:*:IS_MOTIVATION_2_INC,false,51#P_ON_NEST,false;P_HAS_OBJECT,true;*:*:B_ANTI_PHOTOTAXIS,94#
*:*:IS_WANT_OBJECT,false,41;IS_DROP_OBJECT,false,97;B_PHOTOTAXIS,62;B_RANDOM_WALK,90;IS_MOTIVATION_1_DEC,false,21#*:*:IS_MOTIVATION_2_INC,false,51#P_ON_NEST,false;P_HAS_OBJECT,true;*:*:B_ANTI_PHOTOTAXIS,94#
*:*:IS_WANT_OBJECT,false,41;IS_DROP_OBJECT,false,97;B_PHOTOTAXIS,62;B_RANDOM_WALK,90;IS_MOTIVATION_1_DEC,false,21#*:*:IS_MOTIVATION_2_INC,false,51#P_ON_NEST,false;P_HAS_OBJECT,true;*:*:B_ANTI_PHOTOTAXIS,94#
*:*:IS_WANT_OBJECT,false,41;IS_DROP_OBJECT,false,97;B_PHOTOTAXIS,62;B_RANDOM_WALK,90;IS_MOTIVATION_1_DEC,false,21#*:*:IS_MOTIVATION_2_INC,false,51#P_ON_NEST,false;P_HAS_OBJECT,true;*:*:B_ANTI_PHOTOTAXIS,94#
*:*:IS_WANT_OBJECT,false,41;IS_DROP_OBJECT,false,97;B_PHOTOTAXIS,62;B_RANDOM_WALK,90;IS_MOTIVATION_1_DEC,false,21#*:*:IS_MOTIVATION_2_INC,false,51#P_ON_NEST,false;P_HAS_OBJECT,true;*:*:B_ANTI_PHOTOTAXIS,94#
*:*:IS_WANT_OBJECT,false,41;IS_DROP_OBJECT,false,97;B_PHOTOTAXIS,62;B_RANDOM_WALK,90;IS_MOTIVATION_1_DEC,false,21#*:*:IS_MOTIVATION_2_INC,false,51#P_ON_NEST,false;P_HAS_OBJECT,true;*:*:B_ANTI_PHOTOTAXIS,94#
*:*:IS_WANT_OBJECT,false,41;IS_DROP_OBJECT,false,97;B_PHOTOTAXIS,62;B_RANDOM_WALK,90;IS_MOTIVATION_1_DEC,false,21#*:*:IS_MOTIVATION_2_INC,false,51#P_ON_NEST,false;P_HAS_OBJECT,true;*:*:B_ANTI_PHOTOTAXIS,94#
*:*:IS_WANT_OBJECT,false,41;IS_DROP_OBJECT,false,97;B_PHOTOTAXIS,62;B_RANDOM_WALK,90;IS_MOTIVATION_1_DEC,false,21#*:*:IS_MOTIVATION_2_INC,false,51#P_ON_NEST,false;P_HAS_OBJECT,true;*:*:B_ANTI_PHOTOTAXIS,94#
*:*:IS_WANT_OBJECT,false,41;IS_DROP_OBJECT,false,97;B_PHOTOTAXIS,62;B_RANDOM_WALK,90;IS_MOTIVATION_1_DEC,false,21#*:*:IS_MOTIVATION_2_INC,false,51#P_ON_NEST,false;P_HAS_OBJECT,true;*:*:B_ANTI_PHOTOTAXIS,94#
*:*:IS_WANT_OBJECT,false,41;IS_DROP_OBJECT,false,97;B_PHOTOTAXIS,62;B_RANDOM_WALK,90;IS_MOTIVATION_1_DEC,false,21#*:*:IS_MOTIVATION_2_INC,false,51#P_ON_NEST,false;P_HAS_OBJECT,true;*:*:B_ANTI_PHOTOTAXIS,94#
*:*:IS_WANT_OBJECT,false,41;IS_DROP_OBJECT,false,97;B_PHOTOTAXIS,62;B_RANDOM_WALK,90;IS_MOTIVATION_1_DEC,false,21#*:*:IS_MOTIVATION_2_INC,false,51#P_ON_NEST,false;P_HAS_OBJECT,true;*:*:B_ANTI_PHOTOTAXIS,94#
*:*:IS_WANT_OBJECT,false,41;IS_DROP_OBJECT,false,97;B_PHOTOTAXIS,62;B_RANDOM_WALK,90;IS_MOTIVATION_1_DEC,false,21#*:*:IS_MOTIVATION_2_INC,false,51#P_ON_NEST,false;P_HAS_OBJECT,true;*:*:B_ANTI_PHOTOTAXIS,94#
*:*:IS_WANT_OBJECT,false,41;IS_DROP_OBJECT,false,97;B_PHOTOTAXIS,62;B_RANDOM_WALK,90;IS_MOTIVATION_1_DEC,false,21#*:*:IS_MOTIVATION_2_INC,false,51#P_ON_NEST,false;P_HAS_OBJECT,true;*:*:B_ANTI_PHOTOTAXIS,94#
*:*:IS_WANT_OBJECT,false,41;IS_DROP_OBJECT,false,97;B_PHOTOTAXIS,62;B_RANDOM_WALK,90;IS_MOTIVATION_1_DEC,false,21#*:*:IS_MOTIVATION_2_INC,false,51#P_ON_NEST,false;P_HAS_OBJECT,true;*:*:B_ANTI_PHOTOTAXIS,94#
*:*:IS_WANT_OBJECT,false,41;IS_DROP_OBJECT,false,97;B_PHOTOTAXIS,62;B_RANDOM_WALK,90;IS_MOTIVATION_1_DEC,false,21#*:*:IS_MOTIVATION_2_INC,false,51#P_ON_NEST,false;P_HAS_OBJECT,true;*:*:B_ANTI_PHOTOTAXIS,94#
*:*:IS_WANT_OBJECT,false,41;IS_DROP_OBJECT,false,97;B_PHOTOTAXIS,62;B_RANDOM_WALK,90;IS_MOTIVATION_1_DEC,false,21#*:*:IS_MOTIVATION_2_INC,false,51#P_ON_NEST,false;P_HAS_OBJECT,true;*:*:B_ANTI_PHOTOTAXIS,94#
*:*:IS_WANT_OBJECT,false,41;IS_DROP_OBJECT,false,97;B_PHOTOTAXIS,62;B_RANDOM_WALK,90;IS_MOTIVATION_1_DEC,false,21#*:*:IS_MOTIVATION_2_INC,false,51#P_ON_NEST,false;P_HAS_OBJECT,true;*:*:B_ANTI_PHOTOTAXIS,94#
*:*:IS_WANT_OBJECT,false,41;IS_DROP_OBJECT,false,97;B_PHOTOTAXIS,62;B_RANDOM_WALK,90;IS_MOTIVATION_1_DEC,false,21#*:*:IS_MOTIVATION_2_INC,false,51#P_ON_NEST,false;P_HAS_OBJECT,true;*:*:B_ANTI_PHOTOTAXIS,94#
*:*:IS_WANT_OBJECT,false,41;IS_DROP_OBJECT,false,97;B_PHOTOTAXIS,62;B_RANDOM_WALK,90;IS_MOTIVATION_1_DEC,false,21#*:*:IS_MOTIVATION_2_INC,false,51#P_ON_NEST,false;P_HAS_OBJECT,true;*:*:B_ANTI_PHOTOTAXIS,94#
*:*:IS_WANT_OBJECT,false,41;IS_DROP_OBJECT,false,97;B_PHOTOTAXIS,62;B_RANDOM_WALK,90;IS_MOTIVATION_1_DEC,false,21#*:*:IS_MOTIVATION_2_INC,false,51#P_ON_NEST,false;P_HAS_OBJECT,true;*:*:B_ANTI_PHOTOTAXIS,94#
*:*:IS_WANT_OBJECT,false,41;IS_DROP_OBJECT,false,97;B_PHOTOTAXIS,62;B_RANDOM_WALK,90;IS_MOTIVATION_1_DEC,false,21#*:*:IS_MOTIVATION_2_INC,false,51#P_ON_NEST,false;P_HAS_OBJECT,true;*:*:B_ANTI_PHOTOTAXIS,94#
*:*:IS_WANT_OBJECT,false,41;IS_DROP_OBJECT,false,97;B_PHOTOTAXIS,62;B_RANDOM_WALK,90;IS_MOTIVATION_1_DEC,false,21#*:*:IS_MOTIVATION_2_INC,false,51#P_ON_NEST,false;P_HAS_OBJECT,true;*:*:B_ANTI_PHOTOTAXIS,94#
*:*:IS_WANT_OBJECT,false,41;IS_DROP_OBJECT,false,97;B_PHOTOTAXIS,62;B_RANDOM_WALK,90;IS_MOTIVATION_1_DEC,false,21#*:*:IS_MOTIVATION_2_INC,false,51#P_ON_NEST,false;P_HAS_OBJECT,true;*:*:B_ANTI_PHOTOTAXIS,94#
*:*:IS_WANT_OBJECT,false,41;IS_DROP_OBJECT,false,97;B_PHOTOTAXIS,62;B_RANDOM_WALK,90;IS_MOTIVATION_1_DEC,false,21#*:*:IS_MOTIVATION_2_INC,false,51#P_ON_NEST,false;P_HAS_OBJECT,true;*:*:B_ANTI_PHOTOTAXIS,94#
*:*:IS_WANT_OBJECT,false,41;IS_DROP_OBJECT,false,97;B_PHOTOTAXIS,62;B_RANDOM_WALK,90;IS_MOTIVATION_1_DEC,false,21#*:*:IS_MOTIVATION_2_INC,false,51#P_ON_NEST,false;P_HAS_OBJECT,true;*:*:B_ANTI_PHOTOTAXIS,94#
*:*:IS_WANT_OBJECT,false,41;IS_DROP_OBJECT,false,97;B_PHOTOTAXIS,62;B_RANDOM_WALK,90;IS_MOTIVATION_1_DEC,false,21#*:*:IS_MOTIVATION_2_INC,false,51#P_ON_NEST,false;P_HAS_OBJECT,true;*:*:B_ANTI_PHOTOTAXIS,94#
*:*:IS_WANT_OBJECT,false,41;IS_DROP_OBJECT,false,97;B_PHOTOTAXIS,62;B_RANDOM_WALK,90;IS_MOTIVATION_1_DEC,false,21#*:*:IS_MOTIVATION_2_INC,false,51#P_ON_NEST,false;P_HAS_OBJECT,true;*:*:B_ANTI_PHOTOTAXIS,94#
*:*:IS_WANT_OBJECT,false,41;IS_DROP_OBJECT,false,97;B_PHOTOTAXIS,62;B_RANDOM_WALK,90;IS_MOTIVATION_1_DEC,false,21#*:*:IS_MOTIVATION_2_INC,false,51#P_ON_NEST,false;P_HAS_OBJECT,true;*:*:B_ANTI_PHOTOTAXIS,94#
