*:*:IS_DROP_OBJECT,true,59;B_RANDOM_WALK,57#P_MOTIVATION_1_LT,false;*:*:IS_WANT_OBJECT,true,69#
*:*:IS_DROP_OBJECT,true,59;B_RANDOM_WALK,57#P_MOTIVATION_1_LT,false;*:*:IS_WANT_OBJECT,true,69#
*:*:IS_DROP_OBJECT,true,59;B_RANDOM_WALK,57#P_MOTIVATION_1_LT,false;*:*:IS_WANT_OBJECT,true,69#
*:*:IS_DROP_OBJECT,true,59;B_RANDOM_WALK,57#P_MOTIVATION_1_LT,false;*:*:IS_WANT_OBJECT,true,69#
*:*:IS_DROP_OBJECT,true,59;B_RANDOM_WALK,57#P_MOTIVATION_1_LT,false;*:*:IS_WANT_OBJECT,true,69#
*:*:B_RANDOM_WALK,81;IS_DROP_OBJECT,false,87;IS_MOTIVATION_2_INC,true,31;IS_WANT_OBJECT,false,4#
*:*:B_RANDOM_WALK,81;B_RANDOM_WALK,81;IS_DROP_OBJECT,false,87;IS_MOTIVATION_2_INC,true,31;IS_WANT_OBJECT,false,4#
*:*:B_RANDOM_WALK,81;B_RANDOM_WALK,81;IS_DROP_OBJECT,false,87;IS_MOTIVATION_2_INC,true,31;IS_WANT_OBJECT,false,4#
*:*:B_RANDOM_WALK,81;B_RANDOM_WALK,68;IS_DROP_OBJECT,false,87;IS_MOTIVATION_2_INC,true,31;IS_WANT_OBJECT,false,4#
*:*:IS_MOTIVATION_2_DEC,true,67;IS_MOTIVATION_1_INC,true,52;B_ANTI_PHOTOTAXIS,94;B_RANDOM_WALK,90;B_RANDOM_WALK,78;IS_DROP_OBJECT,false,3;B_RANDOM_WALK,81;B_RANDOM_WALK,81;IS_DROP_OBJECT,false,87;IS_MOTIVATION_2_INC,true,31;IS_WANT_OBJECT,false,4#
*:*:IS_MOTIVATION_2_DEC,true,67;IS_MOTIVATION_1_INC,true,52;B_ANTI_PHOTOTAXIS,54;B_RANDOM_WALK,90;B_RANDOM_WALK,78;IS_DROP_OBJECT,false,3;B_RANDOM_WALK,81;B_RANDOM_WALK,81;IS_DROP_OBJECT,false,87;IS_MOTIVATION_2_INC,true,31;IS_WANT_OBJECT,false,4#
*:*:IS_MOTIVATION_2_DEC,true,67;IS_MOTIVATION_1_INC,true,52;B_ANTI_PHOTOTAXIS,94;B_RANDOM_WALK,90;B_RANDOM_WALK,78;IS_MOTIVATION_2_DEC,false,3;B_ANTI_PHOTOTAXIS,81;B_RANDOM_WALK,81;IS_DROP_OBJECT,false,87;IS_MOTIVATION_2_INC,true,31;IS_WANT_OBJECT,false,4#
*:*:IS_MOTIVATION_2_DEC,true,67;IS_MOTIVATION_1_INC,true,66;B_ANTI_PHOTOTAXIS,94;B_RANDOM_WALK,90;B_RANDOM_WALK,78;IS_MOTIVATION_2_DEC,false,3;B_ANTI_PHOTOTAXIS,81;B_RANDOM_WALK,81;IS_DROP_OBJECT,false,87;IS_MOTIVATION_2_INC,true,31;IS_WANT_OBJECT,false,4#
*:*:IS_MOTIVATION_2_DEC,true,67;IS_MOTIVATION_1_INC,true,13;B_ANTI_PHOTOTAXIS,94;B_RANDOM_WALK,90;B_RANDOM_WALK,78;IS_MOTIVATION_2_DEC,true,3;B_ANTI_PHOTOTAXIS,81;B_RANDOM_WALK,81;IS_DROP_OBJECT,false,87;IS_MOTIVATION_2_INC,true,31;IS_WANT_OBJECT,false,4#
*:*:IS_MOTIVATION_2_DEC,true,67;IS_MOTIVATION_1_INC,true,66;B_ANTI_PHOTOTAXIS,94;B_RANDOM_WALK,90;B_RANDOM_WALK,78;IS_MOTIVATION_2_DEC,false,3;B_ANTI_PHOTOTAXIS,81;B_RANDOM_WALK,81;IS_DROP_OBJECT,false,87;IS_MOTIVATION_2_INC,true,31;IS_WANT_OBJECT,false,4#
*:*:IS_MOTIVATION_2_DEC,true,67;IS_MOTIVATION_1_INC,true,13;B_ANTI_PHOTOTAXIS,94;B_RANDOM_WALK,90;B_RANDOM_WALK,78;IS_MOTIVATION_2_DEC,true,3;B_ANTI_PHOTOTAXIS,81;B_RANDOM_WALK,81;IS_DROP_OBJECT,false,87;IS_MOTIVATION_2_INC,true,31;IS_WANT_OBJECT,false,4#
*:*:IS_MOTIVATION_2_DEC,true,67;IS_MOTIVATION_1_INC,true,66;B_ANTI_PHOTOTAXIS,94;B_RANDOM_WALK,90;B_RANDOM_WALK,78;IS_MOTIVATION_2_DEC,false,3;B_ANTI_PHOTOTAXIS,81;B_RANDOM_WALK,81;IS_DROP_OBJECT,false,87;IS_MOTIVATION_2_INC,true,31;IS_WANT_OBJECT,false,4#
*:*:IS_MOTIVATION_2_DEC,true,67;IS_MOTIVATION_1_INC,true,13;B_ANTI_PHOTOTAXIS,94;B_RANDOM_WALK,90;B_RANDOM_WALK,78;IS_MOTIVATION_2_DEC,true,3;B_ANTI_PHOTOTAXIS,81;B_RANDOM_WALK,81;IS_DROP_OBJECT,false,87;IS_MOTIVATION_2_INC,true,31;IS_WANT_OBJECT,false,4#
*:*:IS_MOTIVATION_2_DEC,true,67;IS_MOTIVATION_1_INC,true,66;B_ANTI_PHOTOTAXIS,94;B_RANDOM_WALK,90;B_RANDOM_WALK,78;IS_MOTIVATION_2_DEC,false,3;B_ANTI_PHOTOTAXIS,81;B_RANDOM_WALK,81;IS_DROP_OBJECT,false,87;IS_MOTIVATION_2_INC,true,31;IS_WANT_OBJECT,false,4#
*:*:IS_MOTIVATION_2_DEC,true,67;IS_MOTIVATION_1_INC,true,13;B_ANTI_PHOTOTAXIS,94;B_RANDOM_WALK,90;B_RANDOM_WALK,78;IS_MOTIVATION_2_DEC,true,3;B_ANTI_PHOTOTAXIS,81;B_RANDOM_WALK,81;IS_DROP_OBJECT,false,87;IS_MOTIVATION_2_INC,true,31;IS_WANT_OBJECT,false,4#
*:*:IS_MOTIVATION_2_DEC,true,67;IS_MOTIVATION_1_INC,true,66;B_ANTI_PHOTOTAXIS,94;B_RANDOM_WALK,90;B_RANDOM_WALK,78;IS_MOTIVATION_2_DEC,false,3;B_ANTI_PHOTOTAXIS,81;B_RANDOM_WALK,81;IS_DROP_OBJECT,false,87;IS_MOTIVATION_2_INC,true,31;IS_WANT_OBJECT,false,4#
*:*:IS_MOTIVATION_2_DEC,true,67;IS_MOTIVATION_1_INC,true,13;B_ANTI_PHOTOTAXIS,94;B_RANDOM_WALK,90;B_RANDOM_WALK,78;IS_MOTIVATION_2_DEC,true,3;B_ANTI_PHOTOTAXIS,81;B_RANDOM_WALK,81;IS_DROP_OBJECT,false,87;IS_MOTIVATION_2_INC,true,31;IS_WANT_OBJECT,false,4#
*:*:IS_MOTIVATION_2_DEC,true,67;IS_MOTIVATION_1_INC,true,66;B_ANTI_PHOTOTAXIS,94;B_RANDOM_WALK,90;B_RANDOM_WALK,78;IS_MOTIVATION_2_DEC,false,3;B_ANTI_PHOTOTAXIS,81;B_RANDOM_WALK,81;IS_DROP_OBJECT,false,87;IS_MOTIVATION_2_INC,true,31;IS_WANT_OBJECT,false,4#
*:*:IS_MOTIVATION_2_DEC,true,67;IS_MOTIVATION_1_INC,true,13;B_ANTI_PHOTOTAXIS,94;B_RANDOM_WALK,90;B_RANDOM_WALK,78;IS_MOTIVATION_2_DEC,true,3;B_ANTI_PHOTOTAXIS,81;B_RANDOM_WALK,81;IS_DROP_OBJECT,false,87;IS_MOTIVATION_2_INC,true,31;IS_WANT_OBJECT,false,4#
*:*:IS_MOTIVATION_2_DEC,true,67;IS_MOTIVATION_1_INC,true,66;B_ANTI_PHOTOTAXIS,94;B_RANDOM_WALK,90;B_RANDOM_WALK,78;IS_MOTIVATION_2_DEC,false,3;B_ANTI_PHOTOTAXIS,81;B_RANDOM_WALK,81;IS_DROP_OBJECT,false,87;IS_MOTIVATION_2_INC,true,31;IS_WANT_OBJECT,false,4#
*:*:IS_MOTIVATION_2_DEC,true,67;IS_MOTIVATION_1_INC,true,13;B_ANTI_PHOTOTAXIS,94;B_RANDOM_WALK,90;B_RANDOM_WALK,78;IS_MOTIVATION_2_DEC,true,3;B_ANTI_PHOTOTAXIS,81;B_RANDOM_WALK,81;IS_DROP_OBJECT,false,87;IS_MOTIVATION_2_INC,true,31;IS_WANT_OBJECT,false,4#
*:*:IS_MOTIVATION_2_DEC,true,67;IS_MOTIVATION_1_INC,true,66;B_ANTI_PHOTOTAXIS,94;B_RANDOM_WALK,90;B_RANDOM_WALK,78;IS_MOTIVATION_2_DEC,false,3;B_ANTI_PHOTOTAXIS,81;B_RANDOM_WALK,81;IS_DROP_OBJECT,false,87;IS_MOTIVATION_2_INC,true,31;IS_WANT_OBJECT,false,4#
*:*:IS_MOTIVATION_2_DEC,true,67;IS_MOTIVATION_1_INC,true,13;B_ANTI_PHOTOTAXIS,94;B_RANDOM_WALK,90;B_RANDOM_WALK,78;IS_MOTIVATION_2_DEC,true,3;B_ANTI_PHOTOTAXIS,81;B_RANDOM_WALK,81;IS_DROP_OBJECT,false,87;IS_MOTIVATION_2_INC,true,31;IS_WANT_OBJECT,false,4#
*:*:IS_MOTIVATION_2_DEC,true,67;IS_MOTIVATION_1_INC,true,66;B_ANTI_PHOTOTAXIS,94;B_RANDOM_WALK,90;B_RANDOM_WALK,78;IS_MOTIVATION_2_DEC,false,3;B_ANTI_PHOTOTAXIS,81;B_RANDOM_WALK,81;IS_DROP_OBJECT,false,87;IS_MOTIVATION_2_INC,true,31;IS_WANT_OBJECT,false,4#
*:*:IS_MOTIVATION_2_DEC,true,67;IS_MOTIVATION_1_INC,true,13;B_ANTI_PHOTOTAXIS,94;B_RANDOM_WALK,90;B_RANDOM_WALK,78;IS_MOTIVATION_2_DEC,true,3;B_ANTI_PHOTOTAXIS,81;B_RANDOM_WALK,81;IS_DROP_OBJECT,false,87;IS_MOTIVATION_2_INC,true,31;IS_WANT_OBJECT,false,4#
*:*:IS_MOTIVATION_2_DEC,true,67;IS_MOTIVATION_1_INC,true,66;B_ANTI_PHOTOTAXIS,94;B_RANDOM_WALK,90;B_RANDOM_WALK,78;IS_MOTIVATION_2_DEC,false,3;B_ANTI_PHOTOTAXIS,81;B_RANDOM_WALK,81;IS_DROP_OBJECT,false,87;IS_MOTIVATION_2_INC,true,31;IS_WANT_OBJECT,false,4#
*:*:IS_MOTIVATION_2_DEC,true,67;IS_MOTIVATION_1_INC,true,13;B_ANTI_PHOTOTAXIS,94;B_RANDOM_WALK,90;B_RANDOM_WALK,78;IS_MOTIVATION_2_DEC,true,3;B_ANTI_PHOTOTAXIS,81;B_RANDOM_WALK,81;IS_DROP_OBJECT,false,87;IS_MOTIVATION_2_INC,true,31;IS_WANT_OBJECT,false,4#
*:*:IS_MOTIVATION_2_DEC,true,67;IS_MOTIVATION_1_INC,true,66;B_ANTI_PHOTOTAXIS,94;B_RANDOM_WALK,90;B_RANDOM_WALK,78;IS_MOTIVATION_2_DEC,false,3;B_ANTI_PHOTOTAXIS,81;B_RANDOM_WALK,81;IS_DROP_OBJECT,false,87;IS_MOTIVATION_2_INC,true,31;IS_WANT_OBJECT,false,4#
*:*:IS_MOTIVATION_2_DEC,true,67;IS_MOTIVATION_1_INC,true,13;B_ANTI_PHOTOTAXIS,94;B_RANDOM_WALK,90;B_RANDOM_WALK,78;IS_MOTIVATION_2_DEC,true,3;B_ANTI_PHOTOTAXIS,81;B_RANDOM_WALK,81;IS_DROP_OBJECT,false,87;IS_MOTIVATION_2_INC,true,31;IS_WANT_OBJECT,false,4#
*:*:IS_MOTIVATION_2_DEC,true,67;IS_MOTIVATION_1_INC,true,66;B_ANTI_PHOTOTAXIS,94;B_RANDOM_WALK,90;B_RANDOM_WALK,78;IS_MOTIVATION_2_DEC,false,3;B_ANTI_PHOTOTAXIS,81;B_RANDOM_WALK,81;IS_DROP_OBJECT,false,87;IS_MOTIVATION_2_INC,true,31;IS_WANT_OBJECT,false,4#
*:*:IS_MOTIVATION_2_DEC,true,67;IS_MOTIVATION_1_INC,true,13;B_ANTI_PHOTOTAXIS,94;B_RANDOM_WALK,90;B_RANDOM_WALK,78;IS_MOTIVATION_2_DEC,true,3;B_ANTI_PHOTOTAXIS,81;B_RANDOM_WALK,81;IS_DROP_OBJECT,false,87;IS_MOTIVATION_2_INC,true,31;IS_WANT_OBJECT,false,4#
*:*:IS_MOTIVATION_2_DEC,true,67;IS_MOTIVATION_1_INC,true,66;B_ANTI_PHOTOTAXIS,94;B_RANDOM_WALK,90;B_RANDOM_WALK,78;IS_MOTIVATION_2_DEC,false,3;B_ANTI_PHOTOTAXIS,81;B_RANDOM_WALK,81;IS_DROP_OBJECT,false,87;IS_MOTIVATION_2_INC,true,31;IS_WANT_OBJECT,false,4#
*:*:IS_MOTIVATION_2_DEC,true,67;IS_MOTIVATION_1_INC,true,13;B_ANTI_PHOTOTAXIS,94;B_RANDOM_WALK,90;B_RANDOM_WALK,78;IS_MOTIVATION_2_DEC,true,3;B_ANTI_PHOTOTAXIS,81;B_RANDOM_WALK,81;IS_DROP_OBJECT,false,87;IS_MOTIVATION_2_INC,true,31;IS_WANT_OBJECT,false,4#
*:*:IS_MOTIVATION_2_DEC,true,67;IS_MOTIVATION_1_INC,true,66;B_ANTI_PHOTOTAXIS,94;B_RANDOM_WALK,90;B_RANDOM_WALK,78;IS_MOTIVATION_2_DEC,false,3;B_ANTI_PHOTOTAXIS,81;B_RANDOM_WALK,81;IS_DROP_OBJECT,false,87;IS_MOTIVATION_2_INC,true,31;IS_WANT_OBJECT,false,4#
*:*:IS_MOTIVATION_2_DEC,true,67;IS_MOTIVATION_1_INC,true,13;B_ANTI_PHOTOTAXIS,94;B_RANDOM_WALK,90;B_RANDOM_WALK,78;IS_MOTIVATION_2_DEC,true,3;B_ANTI_PHOTOTAXIS,81;B_RANDOM_WALK,81;IS_DROP_OBJECT,false,87;IS_MOTIVATION_2_INC,true,31;IS_WANT_OBJECT,false,4#
*:*:IS_MOTIVATION_2_DEC,true,67;IS_MOTIVATION_1_INC,true,66;B_ANTI_PHOTOTAXIS,94;B_RANDOM_WALK,90;B_RANDOM_WALK,78;IS_MOTIVATION_2_DEC,false,3;B_ANTI_PHOTOTAXIS,81;B_RANDOM_WALK,81;IS_DROP_OBJECT,false,87;IS_MOTIVATION_2_INC,true,31;IS_WANT_OBJECT,false,4#
*:*:IS_MOTIVATION_2_DEC,true,67;IS_WANT_OBJECT,true,66;B_PHOTOTAXIS,94;B_RANDOM_WALK,90;B_RANDOM_WALK,78;IS_MOTIVATION_2_DEC,true,3;B_ANTI_PHOTOTAXIS,81;B_RANDOM_WALK,81;IS_DROP_OBJECT,false,27;IS_MOTIVATION_2_DEC,true,31;IS_WANT_OBJECT,false,4#
*:*:IS_MOTIVATION_2_DEC,true,67;IS_WANT_OBJECT,true,66;B_PHOTOTAXIS,94;B_RANDOM_WALK,90;B_RANDOM_WALK,78;IS_MOTIVATION_2_DEC,true,3;B_ANTI_PHOTOTAXIS,81;B_RANDOM_WALK,81;IS_DROP_OBJECT,false,27;IS_MOTIVATION_2_DEC,true,31;IS_WANT_OBJECT,false,4#
*:*:IS_MOTIVATION_1_INC,true,67;IS_WANT_OBJECT,true,66;B_PHOTOTAXIS,94;B_RANDOM_WALK,90;B_RANDOM_WALK,78;IS_MOTIVATION_2_DEC,true,3;B_ANTI_PHOTOTAXIS,81;B_RANDOM_WALK,81;IS_DROP_OBJECT,false,27;IS_MOTIVATION_2_DEC,true,31;IS_WANT_OBJECT,false,4#
*:*:IS_MOTIVATION_2_DEC,true,67;IS_WANT_OBJECT,true,66;B_PHOTOTAXIS,94;B_RANDOM_WALK,90;B_RANDOM_WALK,78;IS_MOTIVATION_2_DEC,true,3;B_ANTI_PHOTOTAXIS,81;B_RANDOM_WALK,81;IS_DROP_OBJECT,false,27;IS_MOTIVATION_2_DEC,true,31;IS_WANT_OBJECT,false,4#
*:*:IS_MOTIVATION_1_INC,true,67;IS_WANT_OBJECT,true,66;B_PHOTOTAXIS,94;B_RANDOM_WALK,90;B_RANDOM_WALK,78;IS_MOTIVATION_2_DEC,true,3;B_ANTI_PHOTOTAXIS,81;B_RANDOM_WALK,81;IS_DROP_OBJECT,false,27;IS_MOTIVATION_2_DEC,true,31;IS_WANT_OBJECT,false,4#
*:*:IS_MOTIVATION_2_DEC,true,67;IS_WANT_OBJECT,true,66;B_PHOTOTAXIS,94;B_RANDOM_WALK,90;B_RANDOM_WALK,78;IS_MOTIVATION_2_DEC,true,3;B_ANTI_PHOTOTAXIS,81;B_RANDOM_WALK,81;IS_DROP_OBJECT,false,27;IS_MOTIVATION_2_DEC,true,31;IS_WANT_OBJECT,false,4#
*:*:IS_MOTIVATION_1_INC,true,67;IS_WANT_OBJECT,true,66;B_PHOTOTAXIS,94;B_RANDOM_WALK,90;B_RANDOM_WALK,78;IS_MOTIVATION_2_DEC,true,3;B_ANTI_PHOTOTAXIS,81;B_RANDOM_WALK,81;IS_DROP_OBJECT,false,27;IS_MOTIVATION_2_DEC,true,31;IS_WANT_OBJECT,false,4#
*:*:IS_MOTIVATION_2_DEC,true,67;IS_WANT_OBJECT,true,66;B_PHOTOTAXIS,94;B_RANDOM_WALK,90;B_RANDOM_WALK,78;IS_MOTIVATION_2_DEC,true,3;B_ANTI_PHOTOTAXIS,81;B_RANDOM_WALK,81;IS_DROP_OBJECT,false,27;IS_MOTIVATION_2_DEC,true,31;IS_WANT_OBJECT,false,4#
*:*:IS_MOTIVATION_1_INC,true,67;IS_WANT_OBJECT,true,66;B_PHOTOTAXIS,94;B_RANDOM_WALK,90;B_RANDOM_WALK,78;IS_MOTIVATION_2_DEC,true,3;B_ANTI_PHOTOTAXIS,81;B_RANDOM_WALK,81;IS_DROP_OBJECT,false,27;IS_MOTIVATION_2_DEC,true,31;IS_WANT_OBJECT,false,4#
*:*:IS_MOTIVATION_2_DEC,true,67;IS_WANT_OBJECT,true,66;B_PHOTOTAXIS,94;B_RANDOM_WALK,90;B_RANDOM_WALK,78;IS_MOTIVATION_2_DEC,true,3;B_ANTI_PHOTOTAXIS,81;B_RANDOM_WALK,81;IS_DROP_OBJECT,false,27;IS_MOTIVATION_2_DEC,true,31;IS_WANT_OBJECT,false,4#
*:*:IS_MOTIVATION_1_INC,true,67;IS_WANT_OBJECT,true,66;B_PHOTOTAXIS,94;B_RANDOM_WALK,90;B_RANDOM_WALK,78;IS_MOTIVATION_2_DEC,true,3;B_ANTI_PHOTOTAXIS,81;B_RANDOM_WALK,81;IS_DROP_OBJECT,false,27;IS_MOTIVATION_2_DEC,true,31;IS_WANT_OBJECT,false,4#
*:*:IS_MOTIVATION_2_DEC,true,67;IS_WANT_OBJECT,true,66;B_PHOTOTAXIS,94;B_RANDOM_WALK,90;B_RANDOM_WALK,78;IS_MOTIVATION_2_DEC,true,3;B_ANTI_PHOTOTAXIS,81;B_RANDOM_WALK,81;IS_DROP_OBJECT,false,27;IS_MOTIVATION_2_DEC,true,31;IS_WANT_OBJECT,false,4#
*:*:IS_MOTIVATION_1_INC,true,67;IS_WANT_OBJECT,true,66;B_PHOTOTAXIS,94;B_RANDOM_WALK,90;B_RANDOM_WALK,78;IS_MOTIVATION_2_DEC,true,3;B_ANTI_PHOTOTAXIS,81;B_RANDOM_WALK,81;IS_DROP_OBJECT,false,27;IS_MOTIVATION_2_DEC,true,31;IS_WANT_OBJECT,false,4#
*:*:IS_MOTIVATION_1_DEC,true,67;IS_WANT_OBJECT,true,93;B_PHOTOTAXIS,94;B_RANDOM_WALK,90;B_RANDOM_WALK,78;IS_MOTIVATION_2_DEC,true,3;B_ANTI_PHOTOTAXIS,81;B_RANDOM_WALK,81;IS_DROP_OBJECT,false,0;IS_MOTIVATION_2_DEC,true,31;IS_WANT_OBJECT,false,4#
*:*:IS_MOTIVATION_1_DEC,true,67;IS_WANT_OBJECT,true,93;B_PHOTOTAXIS,94;B_RANDOM_WALK,90;B_RANDOM_WALK,78;IS_MOTIVATION_2_DEC,true,3;B_ANTI_PHOTOTAXIS,81;B_RANDOM_WALK,81;IS_DROP_OBJECT,false,0;IS_MOTIVATION_2_DEC,true,31;IS_WANT_OBJECT,false,4#
*:*:IS_MOTIVATION_1_DEC,true,67;IS_WANT_OBJECT,true,93;B_PHOTOTAXIS,94;B_RANDOM_WALK,90;B_RANDOM_WALK,78;IS_MOTIVATION_2_DEC,true,3;B_ANTI_PHOTOTAXIS,81;B_RANDOM_WALK,81;IS_DROP_OBJECT,false,0;IS_MOTIVATION_2_DEC,true,31;IS_WANT_OBJECT,false,4#
*:*:IS_MOTIVATION_1_DEC,true,67;IS_WANT_OBJECT,true,93;B_PHOTOTAXIS,94;B_RANDOM_WALK,90;B_RANDOM_WALK,78;IS_MOTIVATION_2_DEC,true,3;B_ANTI_PHOTOTAXIS,81;B_RANDOM_WALK,81;IS_DROP_OBJECT,false,0;IS_MOTIVATION_2_DEC,true,31;IS_WANT_OBJECT,false,4#
*:*:IS_MOTIVATION_1_DEC,true,67;IS_WANT_OBJECT,true,93;B_PHOTOTAXIS,94;B_RANDOM_WALK,90;B_RANDOM_WALK,78;IS_MOTIVATION_2_DEC,true,3;B_ANTI_PHOTOTAXIS,81;B_RANDOM_WALK,81;IS_DROP_OBJECT,false,0;IS_MOTIVATION_2_DEC,true,31;IS_WANT_OBJECT,false,4#
*:*:IS_MOTIVATION_1_DEC,true,67;IS_WANT_OBJECT,true,93;B_PHOTOTAXIS,94;B_RANDOM_WALK,90;B_RANDOM_WALK,78;IS_MOTIVATION_2_DEC,true,3;B_ANTI_PHOTOTAXIS,81;B_RANDOM_WALK,81;IS_DROP_OBJECT,false,0;IS_MOTIVATION_2_DEC,true,31;IS_WANT_OBJECT,false,4#
*:*:IS_MOTIVATION_1_DEC,true,67;IS_WANT_OBJECT,true,93;B_PHOTOTAXIS,94;B_RANDOM_WALK,90;B_RANDOM_WALK,78;IS_MOTIVATION_2_DEC,true,3;B_ANTI_PHOTOTAXIS,81;B_RANDOM_WALK,81;IS_DROP_OBJECT,false,0;IS_MOTIVATION_2_DEC,true,31;IS_WANT_OBJECT,false,4#
*:*:IS_MOTIVATION_1_DEC,true,67;IS_WANT_OBJECT,true,93;B_PHOTOTAXIS,94;B_RANDOM_WALK,90;B_RANDOM_WALK,78;IS_MOTIVATION_2_DEC,true,3;B_ANTI_PHOTOTAXIS,81;B_RANDOM_WALK,81;IS_DROP_OBJECT,false,0;IS_MOTIVATION_2_DEC,true,31;IS_WANT_OBJECT,false,4#
*:*:IS_MOTIVATION_1_DEC,true,67;IS_WANT_OBJECT,true,93;B_PHOTOTAXIS,94;B_RANDOM_WALK,90;B_RANDOM_WALK,78;IS_MOTIVATION_2_DEC,true,3;B_ANTI_PHOTOTAXIS,81;B_RANDOM_WALK,81;IS_DROP_OBJECT,false,84;IS_MOTIVATION_2_DEC,true,31;IS_WANT_OBJECT,false,4#
*:*:IS_MOTIVATION_1_DEC,true,67;IS_WANT_OBJECT,true,93;B_PHOTOTAXIS,94;B_RANDOM_WALK,90;B_RANDOM_WALK,78;IS_MOTIVATION_2_DEC,true,3;B_ANTI_PHOTOTAXIS,81;B_RANDOM_WALK,81;IS_DROP_OBJECT,false,84;IS_MOTIVATION_2_DEC,true,36;IS_WANT_OBJECT,false,4#
*:*:IS_MOTIVATION_1_DEC,true,67;IS_WANT_OBJECT,true,93;B_PHOTOTAXIS,94;B_RANDOM_WALK,90;B_RANDOM_WALK,78;IS_MOTIVATION_2_DEC,true,3;B_ANTI_PHOTOTAXIS,81;B_RANDOM_WALK,81;IS_DROP_OBJECT,false,84;IS_MOTIVATION_2_DEC,true,36;IS_WANT_OBJECT,false,4#
*:*:IS_MOTIVATION_1_DEC,true,67;IS_WANT_OBJECT,true,93;B_PHOTOTAXIS,94;B_RANDOM_WALK,90;B_RANDOM_WALK,78;IS_MOTIVATION_2_DEC,true,3;B_ANTI_PHOTOTAXIS,81;B_RANDOM_WALK,81;IS_DROP_OBJECT,false,84;IS_MOTIVATION_2_DEC,true,36;IS_WANT_OBJECT,false,4#
*:*:IS_MOTIVATION_1_DEC,true,67;IS_WANT_OBJECT,true,93;B_PHOTOTAXIS,94;B_RANDOM_WALK,90;B_RANDOM_WALK,78;IS_MOTIVATION_2_DEC,true,3;B_ANTI_PHOTOTAXIS,81;B_RANDOM_WALK,81;IS_DROP_OBJECT,false,84;IS_MOTIVATION_2_DEC,true,36;IS_WANT_OBJECT,false,4#
*:*:IS_MOTIVATION_1_DEC,true,67;IS_WANT_OBJECT,true,93;B_PHOTOTAXIS,94;B_RANDOM_WALK,90;B_RANDOM_WALK,78;IS_MOTIVATION_2_DEC,true,3;B_ANTI_PHOTOTAXIS,81;B_RANDOM_WALK,81;IS_DROP_OBJECT,false,84;IS_MOTIVATION_2_DEC,true,36;IS_WANT_OBJECT,false,4#
*:*:IS_MOTIVATION_1_DEC,true,67;IS_WANT_OBJECT,true,93;B_PHOTOTAXIS,94;B_RANDOM_WALK,90;B_RANDOM_WALK,78;IS_MOTIVATION_2_DEC,true,3;B_ANTI_PHOTOTAXIS,81;B_RANDOM_WALK,81;IS_DROP_OBJECT,false,84;IS_MOTIVATION_2_DEC,true,36;IS_WANT_OBJECT,false,4#
*:*:IS_MOTIVATION_1_DEC,true,67;IS_WANT_OBJECT,true,93;B_PHOTOTAXIS,94;B_RANDOM_WALK,90;B_RANDOM_WALK,78;IS_MOTIVATION_2_DEC,true,3;B_ANTI_PHOTOTAXIS,81;B_RANDOM_WALK,81;IS_DROP_OBJECT,false,84;IS_MOTIVATION_2_DEC,true,36;IS_WANT_OBJECT,false,4#
*:*:IS_MOTIVATION_1_DEC,true,67;IS_WANT_OBJECT,true,93;B_PHOTOTAXIS,94;B_RANDOM_WALK,90;B_RANDOM_WALK,78;IS_MOTIVATION_2_DEC,true,3;B_ANTI_PHOTOTAXIS,81;B_RANDOM_WALK,81;IS_DROP_OBJECT,false,84;IS_MOTIVATION_2_DEC,true,36;IS_WANT_OBJECT,false,4#
*:*:IS_MOTIVATION_1_DEC,true,67;IS_WANT_OBJECT,true,93;B_PHOTOTAXIS,94;B_RANDOM_WALK,90;B_RANDOM_WALK,78;IS_MOTIVATION_2_DEC,true,3;B_ANTI_PHOTOTAXIS,81;B_RANDOM_WALK,81;IS_DROP_OBJECT,false,84;IS_MOTIVATION_2_DEC,true,36;IS_WANT_OBJECT,false,4#
*:*:IS_MOTIVATION_1_DEC,true,67;IS_WANT_OBJECT,true,93;B_PHOTOTAXIS,94;B_RANDOM_WALK,90;B_RANDOM_WALK,78;IS_MOTIVATION_2_DEC,true,3;B_ANTI_PHOTOTAXIS,81;B_RANDOM_WALK,81;IS_DROP_OBJECT,false,84;IS_MOTIVATION_2_DEC,true,36;IS_WANT_OBJECT,false,4#
*:*:IS_MOTIVATION_1_DEC,true,67;IS_WANT_OBJECT,true,93;B_PHOTOTAXIS,94;B_RANDOM_WALK,90;B_RANDOM_WALK,78;IS_MOTIVATION_2_DEC,true,3;B_ANTI_PHOTOTAXIS,81;B_RANDOM_WALK,81;IS_DROP_OBJECT,false,84;IS_MOTIVATION_2_DEC,true,36;IS_WANT_OBJECT,false,4#
*:*:IS_MOTIVATION_1_DEC,true,67;IS_WANT_OBJECT,true,93;B_PHOTOTAXIS,94;B_RANDOM_WALK,90;B_RANDOM_WALK,78;IS_MOTIVATION_2_DEC,true,3;B_ANTI_PHOTOTAXIS,81;B_RANDOM_WALK,81;IS_DROP_OBJECT,false,84;IS_MOTIVATION_2_DEC,true,36;IS_WANT_OBJECT,false,4#
*:*:IS_MOTIVATION_1_DEC,true,67;IS_WANT_OBJECT,true,93;B_PHOTOTAXIS,94;B_RANDOM_WALK,90;B_RANDOM_WALK,78;IS_MOTIVATION_2_DEC,true,3;B_ANTI_PHOTOTAXIS,81;B_RANDOM_WALK,81;IS_DROP_OBJECT,false,84;IS_MOTIVATION_2_DEC,true,36;IS_WANT_OBJECT,false,4#
*:*:IS_MOTIVATION_1_DEC,true,67;IS_WANT_OBJECT,true,93;B_PHOTOTAXIS,94;B_RANDOM_WALK,90;B_RANDOM_WALK,78;IS_MOTIVATION_2_DEC,true,3;B_ANTI_PHOTOTAXIS,81;B_RANDOM_WALK,81;IS_DROP_OBJECT,false,84;IS_MOTIVATION_2_DEC,true,36;IS_WANT_OBJECT,false,4#
*:*:IS_MOTIVATION_1_DEC,true,67;IS_WANT_OBJECT,true,93;B_PHOTOTAXIS,94;B_RANDOM_WALK,90;B_RANDOM_WALK,78;IS_MOTIVATION_2_DEC,true,3;B_ANTI_PHOTOTAXIS,81;B_RANDOM_WALK,81;IS_DROP_OBJECT,false,84;IS_MOTIVATION_2_DEC,true,36;IS_WANT_OBJECT,false,4#
*:*:IS_MOTIVATION_1_DEC,true,67;IS_WANT_OBJECT,true,93;B_PHOTOTAXIS,94;B_RANDOM_WALK,90;B_RANDOM_WALK,78;IS_MOTIVATION_2_DEC,true,3;B_ANTI_PHOTOTAXIS,81;B_RANDOM_WALK,81;IS_DROP_OBJECT,false,84;IS_MOTIVATION_2_DEC,true,36;IS_WANT_OBJECT,false,4#
*:*:IS_MOTIVATION_1_DEC,true,67;IS_WANT_OBJECT,true,93;B_PHOTOTAXIS,94;B_RANDOM_WALK,90;B_RANDOM_WALK,78;IS_MOTIVATION_2_DEC,true,3;B_ANTI_PHOTOTAXIS,81;B_RANDOM_WALK,81;IS_DROP_OBJECT,false,84;IS_MOTIVATION_2_DEC,true,36;IS_WANT_OBJECT,false,4#
*:*:IS_MOTIVATION_1_DEC,true,67;IS_WANT_OBJECT,true,93;B_PHOTOTAXIS,94;B_RANDOM_WALK,90;B_RANDOM_WALK,78;IS_MOTIVATION_2_DEC,true,3;B_ANTI_PHOTOTAXIS,81;B_RANDOM_WALK,81;IS_DROP_OBJECT,false,84;IS_MOTIVATION_2_DEC,true,36;IS_WANT_OBJECT,false,4#
*:*:IS_MOTIVATION_1_DEC,true,67;IS_WANT_OBJECT,true,93;B_PHOTOTAXIS,94;B_RANDOM_WALK,90;B_RANDOM_WALK,78;IS_MOTIVATION_2_DEC,true,3;B_ANTI_PHOTOTAXIS,81;B_RANDOM_WALK,81;IS_DROP_OBJECT,false,84;IS_MOTIVATION_2_DEC,true,36;IS_WANT_OBJECT,false,4#
*:*:IS_MOTIVATION_1_DEC,true,67;IS_WANT_OBJECT,true,93;B_PHOTOTAXIS,94;B_RANDOM_WALK,90;B_RANDOM_WALK,78;IS_MOTIVATION_2_DEC,true,3;B_ANTI_PHOTOTAXIS,81;B_RANDOM_WALK,81;IS_DROP_OBJECT,false,84;IS_MOTIVATION_2_DEC,true,36;IS_WANT_OBJECT,false,4#
*:*:IS_MOTIVATION_1_DEC,true,67;IS_WANT_OBJECT,true,93;B_PHOTOTAXIS,94;B_RANDOM_WALK,90;B_RANDOM_WALK,78;IS_MOTIVATION_2_DEC,true,3;B_ANTI_PHOTOTAXIS,81;B_RANDOM_WALK,81;IS_DROP_OBJECT,false,84;IS_MOTIVATION_2_DEC,true,36;IS_WANT_OBJECT,false,4#
*:*:IS_MOTIVATION_1_DEC,true,67;IS_WANT_OBJECT,true,93;B_PHOTOTAXIS,94;B_RANDOM_WALK,90;B_RANDOM_WALK,78;IS_MOTIVATION_2_DEC,true,3;B_ANTI_PHOTOTAXIS,81;B_RANDOM_WALK,81;IS_DROP_OBJECT,false,84;IS_MOTIVATION_2_DEC,true,36;IS_WANT_OBJECT,false,4#
*:*:IS_MOTIVATION_1_DEC,true,67;IS_WANT_OBJECT,true,93;B_PHOTOTAXIS,94;B_RANDOM_WALK,90;B_RANDOM_WALK,78;IS_MOTIVATION_2_DEC,true,3;B_ANTI_PHOTOTAXIS,81;B_RANDOM_WALK,81;IS_DROP_OBJECT,false,84;IS_MOTIVATION_2_DEC,true,36;IS_WANT_OBJECT,false,4#
*:*:IS_MOTIVATION_1_DEC,true,67;IS_WANT_OBJECT,true,93;B_PHOTOTAXIS,94;B_RANDOM_WALK,90;B_RANDOM_WALK,78;IS_MOTIVATION_2_DEC,true,3;B_ANTI_PHOTOTAXIS,81;B_RANDOM_WALK,81;IS_DROP_OBJECT,false,84;IS_MOTIVATION_2_DEC,true,36;IS_WANT_OBJECT,false,4#
*:*:IS_MOTIVATION_1_DEC,true,67;IS_WANT_OBJECT,true,93;B_PHOTOTAXIS,94;B_RANDOM_WALK,90;B_RANDOM_WALK,78;IS_MOTIVATION_2_DEC,true,3;B_ANTI_PHOTOTAXIS,81;B_RANDOM_WALK,81;IS_DROP_OBJECT,false,84;IS_MOTIVATION_2_DEC,true,36;IS_WANT_OBJECT,false,4#
*:*:IS_MOTIVATION_1_DEC,true,67;IS_WANT_OBJECT,true,93;B_PHOTOTAXIS,94;B_RANDOM_WALK,90;B_RANDOM_WALK,78;IS_MOTIVATION_2_DEC,true,3;B_ANTI_PHOTOTAXIS,81;B_RANDOM_WALK,81;IS_DROP_OBJECT,false,84;IS_MOTIVATION_2_DEC,true,36;IS_WANT_OBJECT,false,4#
*:*:IS_MOTIVATION_1_DEC,true,67;IS_WANT_OBJECT,true,93;B_PHOTOTAXIS,94;B_RANDOM_WALK,90;B_RANDOM_WALK,78;IS_MOTIVATION_2_DEC,true,3;B_ANTI_PHOTOTAXIS,81;B_RANDOM_WALK,81;IS_DROP_OBJECT,false,84;IS_MOTIVATION_2_DEC,true,36;IS_WANT_OBJECT,false,4#
*:*:IS_MOTIVATION_1_DEC,true,67;IS_WANT_OBJECT,true,93;B_PHOTOTAXIS,94;B_RANDOM_WALK,90;B_RANDOM_WALK,78;IS_MOTIVATION_2_DEC,true,3;B_ANTI_PHOTOTAXIS,81;B_RANDOM_WALK,81;IS_DROP_OBJECT,false,84;IS_MOTIVATION_2_DEC,true,36;IS_WANT_OBJECT,false,4#
*:*:IS_MOTIVATION_1_DEC,true,67;IS_WANT_OBJECT,true,93;B_PHOTOTAXIS,94;B_RANDOM_WALK,90;B_RANDOM_WALK,78;IS_MOTIVATION_2_DEC,true,3;B_ANTI_PHOTOTAXIS,81;B_RANDOM_WALK,81;IS_DROP_OBJECT,false,84;IS_MOTIVATION_2_DEC,true,36;IS_WANT_OBJECT,false,4#
*:*:IS_MOTIVATION_1_DEC,true,67;IS_WANT_OBJECT,true,93;B_PHOTOTAXIS,94;B_RANDOM_WALK,90;B_RANDOM_WALK,78;IS_MOTIVATION_2_DEC,true,3;B_ANTI_PHOTOTAXIS,81;B_RANDOM_WALK,81;IS_DROP_OBJECT,false,84;IS_MOTIVATION_2_DEC,true,36;IS_WANT_OBJECT,false,4#
*:*:IS_MOTIVATION_1_DEC,true,67;IS_WANT_OBJECT,true,93;B_PHOTOTAXIS,94;B_RANDOM_WALK,90;B_RANDOM_WALK,78;IS_MOTIVATION_2_DEC,true,3;B_ANTI_PHOTOTAXIS,81;B_RANDOM_WALK,81;IS_DROP_OBJECT,false,84;IS_MOTIVATION_2_DEC,true,36;IS_WANT_OBJECT,false,4#
*:*:IS_MOTIVATION_1_DEC,true,67;IS_WANT_OBJECT,true,93;B_PHOTOTAXIS,94;B_RANDOM_WALK,90;B_RANDOM_WALK,78;IS_MOTIVATION_2_DEC,true,3;B_ANTI_PHOTOTAXIS,81;B_RANDOM_WALK,81;IS_DROP_OBJECT,false,84;IS_MOTIVATION_2_DEC,true,36;IS_WANT_OBJECT,false,4#
*:*:IS_MOTIVATION_1_DEC,true,67;IS_WANT_OBJECT,true,93;B_PHOTOTAXIS,94;B_RANDOM_WALK,90;B_RANDOM_WALK,78;IS_MOTIVATION_2_DEC,true,3;B_ANTI_PHOTOTAXIS,81;B_RANDOM_WALK,81;IS_DROP_OBJECT,false,84;IS_MOTIVATION_2_DEC,true,36;IS_WANT_OBJECT,false,4#
*:*:IS_MOTIVATION_1_DEC,true,67;IS_WANT_OBJECT,true,93;B_PHOTOTAXIS,94;B_RANDOM_WALK,90;B_RANDOM_WALK,78;IS_MOTIVATION_2_DEC,true,3;B_ANTI_PHOTOTAXIS,81;B_RANDOM_WALK,81;IS_DROP_OBJECT,false,84;IS_MOTIVATION_2_DEC,true,36;IS_WANT_OBJECT,false,4#
*:*:IS_MOTIVATION_1_DEC,true,67;IS_WANT_OBJECT,true,93;B_PHOTOTAXIS,94;B_RANDOM_WALK,90;B_RANDOM_WALK,78;IS_MOTIVATION_2_DEC,true,3;B_ANTI_PHOTOTAXIS,81;B_RANDOM_WALK,81;IS_DROP_OBJECT,false,84;IS_MOTIVATION_2_DEC,true,36;IS_WANT_OBJECT,false,4#
*:*:IS_MOTIVATION_1_DEC,true,67;IS_WANT_OBJECT,true,93;B_PHOTOTAXIS,94;B_RANDOM_WALK,90;B_RANDOM_WALK,78;IS_MOTIVATION_2_DEC,true,3;B_ANTI_PHOTOTAXIS,81;B_RANDOM_WALK,81;IS_DROP_OBJECT,false,84;IS_MOTIVATION_2_DEC,true,36;IS_WANT_OBJECT,false,4#
*:*:IS_MOTIVATION_1_DEC,true,67;IS_WANT_OBJECT,true,93;B_PHOTOTAXIS,94;B_RANDOM_WALK,90;B_RANDOM_WALK,78;IS_MOTIVATION_2_DEC,true,3;B_ANTI_PHOTOTAXIS,81;B_RANDOM_WALK,81;IS_DROP_OBJECT,false,84;IS_MOTIVATION_2_DEC,true,36;IS_WANT_OBJECT,false,4#
*:*:IS_MOTIVATION_1_DEC,true,67;IS_WANT_OBJECT,true,93;B_PHOTOTAXIS,94;B_RANDOM_WALK,90;B_RANDOM_WALK,78;IS_MOTIVATION_2_DEC,true,3;B_ANTI_PHOTOTAXIS,81;B_RANDOM_WALK,81;IS_DROP_OBJECT,false,84;IS_MOTIVATION_2_DEC,true,36;IS_WANT_OBJECT,false,4#
*:*:IS_MOTIVATION_1_DEC,true,67;IS_WANT_OBJECT,true,93;B_PHOTOTAXIS,94;B_RANDOM_WALK,90;B_RANDOM_WALK,78;IS_MOTIVATION_2_DEC,true,3;B_ANTI_PHOTOTAXIS,81;B_RANDOM_WALK,81;IS_DROP_OBJECT,false,84;IS_MOTIVATION_2_DEC,true,36;IS_WANT_OBJECT,false,4#
*:*:IS_MOTIVATION_1_DEC,true,67;IS_WANT_OBJECT,true,93;B_PHOTOTAXIS,94;B_RANDOM_WALK,90;B_RANDOM_WALK,78;IS_MOTIVATION_2_DEC,true,3;B_ANTI_PHOTOTAXIS,81;B_RANDOM_WALK,81;IS_DROP_OBJECT,false,84;IS_MOTIVATION_2_DEC,true,36;IS_WANT_OBJECT,false,4#
*:*:IS_MOTIVATION_1_DEC,true,67;IS_WANT_OBJECT,true,93;B_PHOTOTAXIS,94;B_RANDOM_WALK,90;B_RANDOM_WALK,78;IS_MOTIVATION_2_DEC,true,3;B_ANTI_PHOTOTAXIS,81;B_RANDOM_WALK,81;IS_DROP_OBJECT,false,84;IS_MOTIVATION_2_DEC,true,36;IS_WANT_OBJECT,false,4#
*:*:IS_MOTIVATION_1_DEC,true,67;IS_WANT_OBJECT,true,93;B_PHOTOTAXIS,94;B_RANDOM_WALK,90;B_RANDOM_WALK,78;IS_MOTIVATION_2_DEC,true,3;B_ANTI_PHOTOTAXIS,81;B_RANDOM_WALK,81;IS_DROP_OBJECT,false,84;IS_MOTIVATION_2_DEC,true,36;IS_WANT_OBJECT,false,4#
*:*:IS_MOTIVATION_1_DEC,true,67;IS_WANT_OBJECT,true,93;B_PHOTOTAXIS,94;B_RANDOM_WALK,90;B_RANDOM_WALK,78;IS_MOTIVATION_2_DEC,true,3;B_ANTI_PHOTOTAXIS,81;B_RANDOM_WALK,81;IS_DROP_OBJECT,false,84;IS_MOTIVATION_2_DEC,true,36;IS_WANT_OBJECT,false,4#
*:*:IS_MOTIVATION_1_DEC,true,67;IS_WANT_OBJECT,true,93;B_PHOTOTAXIS,94;B_RANDOM_WALK,90;B_RANDOM_WALK,78;IS_MOTIVATION_2_DEC,true,3;B_ANTI_PHOTOTAXIS,81;B_RANDOM_WALK,81;IS_DROP_OBJECT,false,84;IS_MOTIVATION_2_DEC,true,36;IS_WANT_OBJECT,false,4#
*:*:IS_MOTIVATION_1_DEC,true,67;IS_WANT_OBJECT,true,93;B_PHOTOTAXIS,94;B_RANDOM_WALK,90;B_RANDOM_WALK,78;IS_MOTIVATION_2_DEC,true,3;B_ANTI_PHOTOTAXIS,81;B_RANDOM_WALK,81;IS_DROP_OBJECT,false,84;IS_MOTIVATION_2_DEC,true,36;IS_WANT_OBJECT,false,4#
*:*:IS_MOTIVATION_1_DEC,true,67;IS_WANT_OBJECT,true,93;B_PHOTOTAXIS,94;B_RANDOM_WALK,90;B_RANDOM_WALK,78;IS_MOTIVATION_2_DEC,true,3;B_ANTI_PHOTOTAXIS,81;B_RANDOM_WALK,81;IS_DROP_OBJECT,false,84;IS_MOTIVATION_2_DEC,true,36;IS_WANT_OBJECT,false,4#
*:*:IS_MOTIVATION_1_DEC,true,67;IS_WANT_OBJECT,true,93;B_PHOTOTAXIS,94;B_RANDOM_WALK,90;B_RANDOM_WALK,78;IS_MOTIVATION_2_DEC,true,3;B_ANTI_PHOTOTAXIS,81;B_RANDOM_WALK,81;IS_DROP_OBJECT,false,84;IS_MOTIVATION_2_DEC,true,36;IS_WANT_OBJECT,false,4#
*:*:IS_MOTIVATION_1_DEC,true,67;IS_WANT_OBJECT,true,93;B_PHOTOTAXIS,94;B_RANDOM_WALK,90;B_RANDOM_WALK,78;IS_MOTIVATION_2_DEC,true,3;B_ANTI_PHOTOTAXIS,81;B_RANDOM_WALK,81;IS_DROP_OBJECT,false,84;IS_MOTIVATION_2_DEC,true,36;IS_WANT_OBJECT,false,4#
*:*:IS_MOTIVATION_1_DEC,true,67;IS_WANT_OBJECT,true,93;B_PHOTOTAXIS,94;B_RANDOM_WALK,90;B_RANDOM_WALK,78;IS_MOTIVATION_2_DEC,true,3;B_ANTI_PHOTOTAXIS,81;B_RANDOM_WALK,81;IS_DROP_OBJECT,false,84;IS_MOTIVATION_2_DEC,true,36;IS_WANT_OBJECT,false,4#
*:*:IS_MOTIVATION_1_DEC,true,67;IS_WANT_OBJECT,true,93;B_PHOTOTAXIS,94;B_RANDOM_WALK,90;B_RANDOM_WALK,78;IS_MOTIVATION_2_DEC,true,3;B_ANTI_PHOTOTAXIS,81;B_RANDOM_WALK,81;IS_DROP_OBJECT,false,84;IS_MOTIVATION_2_DEC,true,36;IS_WANT_OBJECT,false,4#
*:*:IS_MOTIVATION_1_DEC,true,67;IS_WANT_OBJECT,true,93;B_PHOTOTAXIS,94;B_RANDOM_WALK,90;B_RANDOM_WALK,78;IS_MOTIVATION_2_DEC,true,3;B_ANTI_PHOTOTAXIS,81;B_RANDOM_WALK,81;IS_DROP_OBJECT,false,84;IS_MOTIVATION_2_DEC,true,36;IS_WANT_OBJECT,false,4#
*:*:IS_MOTIVATION_1_DEC,true,67;IS_WANT_OBJECT,true,93;B_PHOTOTAXIS,94;B_RANDOM_WALK,90;B_RANDOM_WALK,78;IS_MOTIVATION_2_DEC,true,3;B_ANTI_PHOTOTAXIS,81;B_RANDOM_WALK,81;IS_DROP_OBJECT,false,84;IS_MOTIVATION_2_DEC,true,36;IS_WANT_OBJECT,false,4#
*:*:IS_MOTIVATION_1_DEC,true,67;IS_WANT_OBJECT,true,93;B_PHOTOTAXIS,94;B_RANDOM_WALK,90;B_RANDOM_WALK,78;IS_MOTIVATION_2_DEC,true,3;B_ANTI_PHOTOTAXIS,81;B_RANDOM_WALK,81;IS_DROP_OBJECT,false,84;IS_MOTIVATION_2_DEC,true,36;IS_WANT_OBJECT,false,4#
*:*:IS_MOTIVATION_1_DEC,true,67;IS_WANT_OBJECT,true,93;B_PHOTOTAXIS,94;B_RANDOM_WALK,90;B_RANDOM_WALK,78;IS_MOTIVATION_2_DEC,true,3;B_ANTI_PHOTOTAXIS,81;B_RANDOM_WALK,81;IS_DROP_OBJECT,false,84;IS_MOTIVATION_2_DEC,true,36;IS_WANT_OBJECT,false,4#
*:*:IS_MOTIVATION_1_DEC,true,67;IS_WANT_OBJECT,true,93;B_PHOTOTAXIS,94;B_RANDOM_WALK,90;B_RANDOM_WALK,78;IS_MOTIVATION_2_DEC,true,3;B_ANTI_PHOTOTAXIS,81;B_RANDOM_WALK,81;IS_DROP_OBJECT,false,84;IS_MOTIVATION_2_DEC,true,36;IS_WANT_OBJECT,false,4#
*:*:IS_MOTIVATION_1_DEC,true,67;IS_WANT_OBJECT,true,93;B_PHOTOTAXIS,94;B_RANDOM_WALK,90;B_RANDOM_WALK,78;IS_MOTIVATION_2_DEC,true,3;B_ANTI_PHOTOTAXIS,81;B_RANDOM_WALK,81;IS_DROP_OBJECT,false,84;IS_MOTIVATION_2_DEC,true,36;IS_WANT_OBJECT,false,4#
*:*:IS_MOTIVATION_1_DEC,true,67;IS_WANT_OBJECT,true,93;B_PHOTOTAXIS,94;B_RANDOM_WALK,90;B_RANDOM_WALK,78;IS_MOTIVATION_2_DEC,true,3;B_ANTI_PHOTOTAXIS,81;B_RANDOM_WALK,81;IS_DROP_OBJECT,false,84;IS_MOTIVATION_2_DEC,true,36;IS_WANT_OBJECT,false,4#
*:*:IS_MOTIVATION_1_DEC,true,67;IS_WANT_OBJECT,true,93;B_PHOTOTAXIS,94;B_RANDOM_WALK,90;B_RANDOM_WALK,78;IS_MOTIVATION_2_DEC,true,3;B_ANTI_PHOTOTAXIS,81;B_RANDOM_WALK,81;IS_DROP_OBJECT,false,84;IS_MOTIVATION_2_DEC,true,36;IS_WANT_OBJECT,false,4#
*:*:IS_MOTIVATION_1_DEC,true,67;IS_WANT_OBJECT,true,93;B_PHOTOTAXIS,94;B_RANDOM_WALK,90;B_RANDOM_WALK,78;IS_MOTIVATION_2_DEC,true,3;B_ANTI_PHOTOTAXIS,81;B_RANDOM_WALK,81;IS_DROP_OBJECT,false,84;IS_MOTIVATION_2_DEC,true,36;IS_WANT_OBJECT,false,4#
*:*:IS_MOTIVATION_1_DEC,true,67;IS_WANT_OBJECT,true,93;B_PHOTOTAXIS,94;B_RANDOM_WALK,90;B_RANDOM_WALK,78;IS_MOTIVATION_2_DEC,true,3;B_ANTI_PHOTOTAXIS,81;B_RANDOM_WALK,81;IS_DROP_OBJECT,false,84;IS_MOTIVATION_2_DEC,true,36;IS_WANT_OBJECT,false,4#
*:*:IS_MOTIVATION_1_DEC,true,67;IS_WANT_OBJECT,true,93;B_PHOTOTAXIS,94;B_RANDOM_WALK,90;B_RANDOM_WALK,78;IS_MOTIVATION_2_DEC,true,3;B_ANTI_PHOTOTAXIS,81;B_RANDOM_WALK,81;IS_DROP_OBJECT,false,84;IS_MOTIVATION_2_DEC,true,36;IS_WANT_OBJECT,false,4#
*:*:IS_MOTIVATION_1_DEC,true,67;IS_WANT_OBJECT,true,93;B_PHOTOTAXIS,94;B_RANDOM_WALK,90;B_RANDOM_WALK,78;IS_MOTIVATION_2_DEC,true,3;B_ANTI_PHOTOTAXIS,81;B_RANDOM_WALK,81;IS_DROP_OBJECT,false,84;IS_MOTIVATION_2_DEC,true,36;IS_WANT_OBJECT,false,4#
*:*:IS_MOTIVATION_1_DEC,true,67;IS_WANT_OBJECT,true,93;B_PHOTOTAXIS,94;B_RANDOM_WALK,90;B_RANDOM_WALK,78;IS_MOTIVATION_2_DEC,true,3;B_ANTI_PHOTOTAXIS,81;B_RANDOM_WALK,81;IS_DROP_OBJECT,false,84;IS_MOTIVATION_2_DEC,true,36;IS_WANT_OBJECT,false,4#
*:*:IS_MOTIVATION_1_DEC,true,67;IS_WANT_OBJECT,true,93;B_PHOTOTAXIS,94;B_RANDOM_WALK,90;B_RANDOM_WALK,78;IS_MOTIVATION_2_DEC,true,3;B_ANTI_PHOTOTAXIS,81;B_RANDOM_WALK,81;IS_DROP_OBJECT,false,84;IS_MOTIVATION_2_DEC,true,36;IS_WANT_OBJECT,false,4#
*:*:IS_MOTIVATION_1_DEC,true,67;IS_WANT_OBJECT,true,93;B_PHOTOTAXIS,94;B_RANDOM_WALK,90;B_RANDOM_WALK,78;IS_MOTIVATION_2_DEC,true,3;B_ANTI_PHOTOTAXIS,81;B_RANDOM_WALK,81;IS_DROP_OBJECT,false,84;IS_MOTIVATION_2_DEC,true,36;IS_WANT_OBJECT,false,4#
*:*:IS_MOTIVATION_1_DEC,true,67;IS_WANT_OBJECT,true,93;B_PHOTOTAXIS,94;B_RANDOM_WALK,90;B_RANDOM_WALK,78;IS_MOTIVATION_2_DEC,true,3;B_ANTI_PHOTOTAXIS,81;B_RANDOM_WALK,81;IS_DROP_OBJECT,false,84;IS_MOTIVATION_2_DEC,true,36;IS_WANT_OBJECT,false,4#
*:*:IS_MOTIVATION_1_DEC,true,67;IS_WANT_OBJECT,true,93;B_PHOTOTAXIS,94;B_RANDOM_WALK,90;B_RANDOM_WALK,78;IS_MOTIVATION_2_DEC,true,3;B_ANTI_PHOTOTAXIS,81;B_RANDOM_WALK,81;IS_DROP_OBJECT,false,84;IS_MOTIVATION_2_DEC,true,36;IS_WANT_OBJECT,false,4#
*:*:IS_MOTIVATION_1_DEC,true,67;IS_WANT_OBJECT,true,93;B_PHOTOTAXIS,94;B_RANDOM_WALK,90;B_RANDOM_WALK,78;IS_MOTIVATION_2_DEC,true,3;B_ANTI_PHOTOTAXIS,81;B_RANDOM_WALK,81;IS_DROP_OBJECT,false,84;IS_MOTIVATION_2_DEC,true,36;IS_WANT_OBJECT,false,4#
*:*:IS_MOTIVATION_1_DEC,true,67;IS_WANT_OBJECT,true,93;B_PHOTOTAXIS,94;B_RANDOM_WALK,90;B_RANDOM_WALK,78;IS_MOTIVATION_2_DEC,true,3;B_ANTI_PHOTOTAXIS,81;B_RANDOM_WALK,81;IS_DROP_OBJECT,false,84;IS_MOTIVATION_2_DEC,true,36;IS_WANT_OBJECT,false,4#
*:*:IS_MOTIVATION_1_DEC,true,67;IS_WANT_OBJECT,true,93;B_PHOTOTAXIS,94;B_RANDOM_WALK,90;B_RANDOM_WALK,78;IS_MOTIVATION_2_DEC,true,3;B_ANTI_PHOTOTAXIS,81;B_RANDOM_WALK,81;IS_DROP_OBJECT,false,84;IS_MOTIVATION_2_DEC,true,36;IS_WANT_OBJECT,false,4#
*:*:IS_MOTIVATION_1_DEC,true,67;IS_WANT_OBJECT,true,93;B_PHOTOTAXIS,94;B_RANDOM_WALK,90;B_RANDOM_WALK,78;IS_MOTIVATION_2_DEC,true,3;B_ANTI_PHOTOTAXIS,81;B_RANDOM_WALK,81;IS_DROP_OBJECT,false,84;IS_MOTIVATION_2_DEC,true,36;IS_WANT_OBJECT,false,4#
*:*:IS_MOTIVATION_1_DEC,true,67;IS_WANT_OBJECT,true,93;B_PHOTOTAXIS,94;B_RANDOM_WALK,90;B_RANDOM_WALK,78;IS_MOTIVATION_2_DEC,true,3;B_ANTI_PHOTOTAXIS,81;B_RANDOM_WALK,81;IS_DROP_OBJECT,false,84;IS_MOTIVATION_2_DEC,true,36;IS_WANT_OBJECT,false,4#
*:*:IS_MOTIVATION_1_DEC,true,67;IS_WANT_OBJECT,true,93;B_PHOTOTAXIS,94;B_RANDOM_WALK,90;B_RANDOM_WALK,78;IS_MOTIVATION_2_DEC,true,3;B_ANTI_PHOTOTAXIS,81;B_RANDOM_WALK,81;IS_DROP_OBJECT,false,84;IS_MOTIVATION_2_DEC,true,36;IS_WANT_OBJECT,false,4#
*:*:IS_MOTIVATION_1_DEC,true,67;IS_WANT_OBJECT,true,93;B_PHOTOTAXIS,94;B_RANDOM_WALK,90;B_RANDOM_WALK,78;IS_MOTIVATION_2_DEC,true,3;B_ANTI_PHOTOTAXIS,81;B_RANDOM_WALK,81;IS_DROP_OBJECT,false,84;IS_MOTIVATION_2_DEC,true,36;IS_WANT_OBJECT,false,4#
*:*:IS_MOTIVATION_1_DEC,true,67;IS_WANT_OBJECT,true,93;B_PHOTOTAXIS,94;B_RANDOM_WALK,90;B_RANDOM_WALK,78;IS_MOTIVATION_2_DEC,true,3;B_ANTI_PHOTOTAXIS,81;B_RANDOM_WALK,81;IS_DROP_OBJECT,false,84;IS_MOTIVATION_2_DEC,true,36;IS_WANT_OBJECT,false,4#
*:*:IS_MOTIVATION_1_DEC,true,67;IS_WANT_OBJECT,true,93;B_PHOTOTAXIS,94;B_RANDOM_WALK,90;B_RANDOM_WALK,78;IS_MOTIVATION_2_DEC,true,3;B_ANTI_PHOTOTAXIS,81;B_RANDOM_WALK,81;IS_DROP_OBJECT,false,84;IS_MOTIVATION_2_DEC,true,36;IS_WANT_OBJECT,false,4#
*:*:IS_MOTIVATION_1_DEC,true,67;IS_WANT_OBJECT,true,93;B_PHOTOTAXIS,94;B_RANDOM_WALK,90;B_RANDOM_WALK,78;IS_MOTIVATION_2_DEC,true,3;B_ANTI_PHOTOTAXIS,81;B_RANDOM_WALK,81;IS_DROP_OBJECT,false,84;IS_MOTIVATION_2_DEC,true,36;IS_WANT_OBJECT,false,4#
*:*:IS_MOTIVATION_1_DEC,true,67;IS_WANT_OBJECT,true,93;B_PHOTOTAXIS,94;B_RANDOM_WALK,90;B_RANDOM_WALK,78;IS_MOTIVATION_2_DEC,true,3;B_ANTI_PHOTOTAXIS,81;B_RANDOM_WALK,81;IS_DROP_OBJECT,false,84;IS_MOTIVATION_2_DEC,true,36;IS_WANT_OBJECT,false,4#
*:*:IS_MOTIVATION_1_DEC,true,67;IS_WANT_OBJECT,true,93;B_PHOTOTAXIS,94;B_RANDOM_WALK,90;B_RANDOM_WALK,78;IS_MOTIVATION_2_DEC,true,3;B_ANTI_PHOTOTAXIS,81;B_RANDOM_WALK,81;IS_DROP_OBJECT,false,84;IS_MOTIVATION_2_DEC,true,36;IS_WANT_OBJECT,false,4#
*:*:IS_MOTIVATION_1_DEC,true,67;IS_WANT_OBJECT,true,93;B_PHOTOTAXIS,94;B_RANDOM_WALK,90;B_RANDOM_WALK,78;IS_MOTIVATION_2_DEC,true,3;B_ANTI_PHOTOTAXIS,81;B_RANDOM_WALK,81;IS_DROP_OBJECT,false,84;IS_MOTIVATION_2_DEC,true,36;IS_WANT_OBJECT,false,4#
*:*:IS_MOTIVATION_1_DEC,true,67;IS_WANT_OBJECT,true,93;B_PHOTOTAXIS,94;B_RANDOM_WALK,90;B_RANDOM_WALK,78;IS_MOTIVATION_2_DEC,true,3;B_ANTI_PHOTOTAXIS,81;B_RANDOM_WALK,81;IS_DROP_OBJECT,false,84;IS_MOTIVATION_2_DEC,true,36;IS_WANT_OBJECT,false,4#
*:*:IS_MOTIVATION_1_DEC,true,67;IS_WANT_OBJECT,true,93;B_PHOTOTAXIS,94;B_RANDOM_WALK,90;B_RANDOM_WALK,78;IS_MOTIVATION_2_DEC,true,3;B_ANTI_PHOTOTAXIS,81;B_RANDOM_WALK,81;IS_DROP_OBJECT,false,84;IS_MOTIVATION_2_DEC,true,36;IS_WANT_OBJECT,false,4#
*:*:IS_MOTIVATION_1_DEC,true,67;IS_WANT_OBJECT,true,93;B_PHOTOTAXIS,94;B_RANDOM_WALK,90;B_RANDOM_WALK,78;IS_MOTIVATION_2_DEC,true,3;B_ANTI_PHOTOTAXIS,81;B_RANDOM_WALK,81;IS_DROP_OBJECT,false,84;IS_MOTIVATION_2_DEC,true,36;IS_WANT_OBJECT,false,4#
*:*:IS_MOTIVATION_1_DEC,true,67;IS_WANT_OBJECT,true,93;B_PHOTOTAXIS,94;B_RANDOM_WALK,90;B_RANDOM_WALK,78;IS_MOTIVATION_2_DEC,true,3;B_ANTI_PHOTOTAXIS,81;B_RANDOM_WALK,81;IS_DROP_OBJECT,false,84;IS_MOTIVATION_2_DEC,true,36;IS_WANT_OBJECT,false,4#
*:*:IS_MOTIVATION_1_DEC,true,67;IS_WANT_OBJECT,true,93;B_PHOTOTAXIS,94;B_RANDOM_WALK,90;B_RANDOM_WALK,78;IS_MOTIVATION_2_DEC,true,3;B_ANTI_PHOTOTAXIS,81;B_RANDOM_WALK,81;IS_DROP_OBJECT,false,84;IS_MOTIVATION_2_DEC,true,36;IS_WANT_OBJECT,false,4#
*:*:IS_MOTIVATION_1_DEC,true,67;IS_WANT_OBJECT,true,93;B_PHOTOTAXIS,94;B_RANDOM_WALK,90;B_RANDOM_WALK,78;IS_MOTIVATION_2_DEC,true,3;B_ANTI_PHOTOTAXIS,81;B_RANDOM_WALK,81;IS_DROP_OBJECT,false,84;IS_MOTIVATION_2_DEC,true,36;IS_WANT_OBJECT,false,4#
*:*:IS_MOTIVATION_1_DEC,true,67;IS_WANT_OBJECT,true,93;B_PHOTOTAXIS,94;B_RANDOM_WALK,90;B_RANDOM_WALK,78;IS_MOTIVATION_2_DEC,true,3;B_ANTI_PHOTOTAXIS,81;B_RANDOM_WALK,81;IS_DROP_OBJECT,false,84;IS_MOTIVATION_2_DEC,true,36;IS_WANT_OBJECT,false,4#
*:*:IS_MOTIVATION_1_DEC,true,67;IS_WANT_OBJECT,true,93;B_PHOTOTAXIS,94;B_RANDOM_WALK,90;B_RANDOM_WALK,78;IS_MOTIVATION_2_DEC,true,3;B_ANTI_PHOTOTAXIS,81;B_RANDOM_WALK,81;IS_DROP_OBJECT,false,84;IS_MOTIVATION_2_DEC,true,36;IS_WANT_OBJECT,false,4#
*:*:IS_MOTIVATION_1_DEC,true,67;IS_WANT_OBJECT,true,93;B_PHOTOTAXIS,94;B_RANDOM_WALK,90;B_RANDOM_WALK,78;IS_MOTIVATION_2_DEC,true,3;B_ANTI_PHOTOTAXIS,81;B_RANDOM_WALK,81;IS_DROP_OBJECT,false,84;IS_MOTIVATION_2_DEC,true,36;IS_WANT_OBJECT,false,4#
*:*:IS_MOTIVATION_1_DEC,true,67;IS_WANT_OBJECT,true,93;B_PHOTOTAXIS,94;B_RANDOM_WALK,90;B_RANDOM_WALK,78;IS_MOTIVATION_2_DEC,true,3;B_ANTI_PHOTOTAXIS,81;B_RANDOM_WALK,81;IS_DROP_OBJECT,false,84;IS_MOTIVATION_2_DEC,true,36;IS_WANT_OBJECT,false,4#
*:*:IS_MOTIVATION_1_DEC,true,67;IS_WANT_OBJECT,true,93;B_PHOTOTAXIS,94;B_RANDOM_WALK,90;B_RANDOM_WALK,78;IS_MOTIVATION_2_DEC,true,3;B_ANTI_PHOTOTAXIS,81;B_RANDOM_WALK,81;IS_DROP_OBJECT,false,84;IS_MOTIVATION_2_DEC,true,36;IS_WANT_OBJECT,false,4#
*:*:IS_MOTIVATION_1_DEC,true,67;IS_WANT_OBJECT,true,93;B_PHOTOTAXIS,94;B_RANDOM_WALK,90;B_RANDOM_WALK,78;IS_MOTIVATION_2_DEC,true,3;B_ANTI_PHOTOTAXIS,81;B_RANDOM_WALK,81;IS_DROP_OBJECT,false,84;IS_MOTIVATION_2_DEC,true,36;IS_WANT_OBJECT,false,4#
*:*:IS_MOTIVATION_1_DEC,true,67;IS_WANT_OBJECT,true,93;B_PHOTOTAXIS,94;B_RANDOM_WALK,90;B_RANDOM_WALK,78;IS_MOTIVATION_2_DEC,true,3;B_ANTI_PHOTOTAXIS,81;B_RANDOM_WALK,81;IS_DROP_OBJECT,false,84;IS_MOTIVATION_2_DEC,true,36;IS_WANT_OBJECT,false,4#
*:*:IS_MOTIVATION_1_DEC,true,67;IS_WANT_OBJECT,true,93;B_PHOTOTAXIS,94;B_RANDOM_WALK,90;B_RANDOM_WALK,78;IS_MOTIVATION_2_DEC,true,3;B_ANTI_PHOTOTAXIS,81;B_RANDOM_WALK,81;IS_DROP_OBJECT,false,84;IS_MOTIVATION_2_DEC,true,36;IS_WANT_OBJECT,false,4#
*:*:IS_MOTIVATION_1_DEC,true,67;IS_WANT_OBJECT,true,93;B_PHOTOTAXIS,94;B_RANDOM_WALK,90;B_RANDOM_WALK,78;IS_MOTIVATION_2_DEC,true,3;B_ANTI_PHOTOTAXIS,81;B_RANDOM_WALK,81;IS_DROP_OBJECT,false,84;IS_MOTIVATION_2_DEC,true,36;IS_WANT_OBJECT,false,4#
*:*:IS_MOTIVATION_1_DEC,true,67;IS_WANT_OBJECT,true,93;B_PHOTOTAXIS,94;B_RANDOM_WALK,90;B_RANDOM_WALK,78;IS_MOTIVATION_2_DEC,true,3;B_ANTI_PHOTOTAXIS,81;B_RANDOM_WALK,81;IS_DROP_OBJECT,false,84;IS_MOTIVATION_2_DEC,true,36;IS_WANT_OBJECT,false,4#
*:*:IS_MOTIVATION_1_DEC,true,67;IS_WANT_OBJECT,true,93;B_PHOTOTAXIS,94;B_RANDOM_WALK,90;B_RANDOM_WALK,78;IS_MOTIVATION_2_DEC,true,3;B_ANTI_PHOTOTAXIS,81;B_RANDOM_WALK,81;IS_DROP_OBJECT,false,84;IS_MOTIVATION_2_DEC,true,36;IS_WANT_OBJECT,false,4#
*:*:IS_MOTIVATION_1_DEC,true,67;IS_WANT_OBJECT,true,93;B_PHOTOTAXIS,94;B_RANDOM_WALK,90;B_RANDOM_WALK,78;IS_MOTIVATION_2_DEC,true,3;B_ANTI_PHOTOTAXIS,81;B_RANDOM_WALK,81;IS_DROP_OBJECT,false,84;IS_MOTIVATION_2_DEC,true,36;IS_WANT_OBJECT,false,4#
*:*:IS_MOTIVATION_1_DEC,true,67;IS_WANT_OBJECT,true,93;B_PHOTOTAXIS,94;B_RANDOM_WALK,90;B_RANDOM_WALK,78;IS_MOTIVATION_2_DEC,true,3;B_ANTI_PHOTOTAXIS,81;B_RANDOM_WALK,81;IS_DROP_OBJECT,false,84;IS_MOTIVATION_2_DEC,true,36;IS_WANT_OBJECT,false,4#
*:*:IS_MOTIVATION_1_DEC,true,67;IS_WANT_OBJECT,true,93;B_PHOTOTAXIS,94;B_RANDOM_WALK,90;B_RANDOM_WALK,78;IS_MOTIVATION_2_DEC,true,3;B_ANTI_PHOTOTAXIS,81;B_RANDOM_WALK,81;IS_DROP_OBJECT,false,84;IS_MOTIVATION_2_DEC,true,36;IS_WANT_OBJECT,false,4#
*:*:IS_MOTIVATION_1_DEC,true,67;IS_WANT_OBJECT,true,93;B_PHOTOTAXIS,94;B_RANDOM_WALK,90;B_RANDOM_WALK,78;IS_MOTIVATION_2_DEC,true,3;B_ANTI_PHOTOTAXIS,81;B_RANDOM_WALK,81;IS_DROP_OBJECT,false,84;IS_MOTIVATION_2_DEC,true,36;IS_WANT_OBJECT,false,4#
*:*:IS_MOTIVATION_1_DEC,true,67;IS_WANT_OBJECT,true,93;B_PHOTOTAXIS,94;B_RANDOM_WALK,90;B_RANDOM_WALK,78;IS_MOTIVATION_2_DEC,true,3;B_ANTI_PHOTOTAXIS,81;B_RANDOM_WALK,81;IS_DROP_OBJECT,false,84;IS_MOTIVATION_2_DEC,true,36;IS_WANT_OBJECT,false,4#
*:*:IS_MOTIVATION_1_DEC,true,67;IS_WANT_OBJECT,true,93;B_PHOTOTAXIS,94;B_RANDOM_WALK,90;B_RANDOM_WALK,78;IS_MOTIVATION_2_DEC,true,3;B_ANTI_PHOTOTAXIS,81;B_RANDOM_WALK,81;IS_DROP_OBJECT,false,84;IS_MOTIVATION_2_DEC,true,36;IS_WANT_OBJECT,false,4#
*:*:IS_MOTIVATION_1_DEC,true,67;IS_WANT_OBJECT,true,93;B_PHOTOTAXIS,94;B_RANDOM_WALK,90;B_RANDOM_WALK,78;IS_MOTIVATION_2_DEC,true,3;B_ANTI_PHOTOTAXIS,81;B_RANDOM_WALK,81;IS_DROP_OBJECT,false,84;IS_MOTIVATION_2_DEC,true,36;IS_WANT_OBJECT,false,4#
*:*:IS_MOTIVATION_1_DEC,true,67;IS_WANT_OBJECT,true,93;B_PHOTOTAXIS,94;B_RANDOM_WALK,90;B_RANDOM_WALK,78;IS_MOTIVATION_2_DEC,true,3;B_ANTI_PHOTOTAXIS,81;B_RANDOM_WALK,81;IS_DROP_OBJECT,false,84;IS_MOTIVATION_2_DEC,true,36;IS_WANT_OBJECT,false,4#
*:*:IS_MOTIVATION_1_DEC,true,67;IS_WANT_OBJECT,true,93;B_PHOTOTAXIS,94;B_RANDOM_WALK,90;B_RANDOM_WALK,78;IS_MOTIVATION_2_DEC,true,3;B_ANTI_PHOTOTAXIS,81;B_RANDOM_WALK,81;IS_DROP_OBJECT,false,84;IS_MOTIVATION_2_DEC,true,36;IS_WANT_OBJECT,false,4#
*:*:IS_MOTIVATION_1_DEC,true,67;IS_WANT_OBJECT,true,93;B_PHOTOTAXIS,94;B_RANDOM_WALK,90;B_RANDOM_WALK,78;IS_MOTIVATION_2_DEC,true,3;B_ANTI_PHOTOTAXIS,81;B_RANDOM_WALK,81;IS_DROP_OBJECT,false,84;IS_MOTIVATION_2_DEC,true,36;IS_WANT_OBJECT,false,4#
*:*:IS_MOTIVATION_1_DEC,true,67;IS_WANT_OBJECT,true,93;B_PHOTOTAXIS,94;B_RANDOM_WALK,90;B_RANDOM_WALK,78;IS_MOTIVATION_2_DEC,true,3;B_ANTI_PHOTOTAXIS,81;B_RANDOM_WALK,81;IS_DROP_OBJECT,false,84;IS_MOTIVATION_2_DEC,true,36;IS_WANT_OBJECT,false,4#
*:*:IS_MOTIVATION_1_DEC,true,67;IS_WANT_OBJECT,true,93;B_PHOTOTAXIS,94;B_RANDOM_WALK,90;B_RANDOM_WALK,78;IS_MOTIVATION_2_DEC,true,3;B_ANTI_PHOTOTAXIS,81;B_RANDOM_WALK,81;IS_DROP_OBJECT,false,84;IS_MOTIVATION_2_DEC,true,36;IS_WANT_OBJECT,false,4#
*:*:IS_MOTIVATION_1_DEC,true,67;IS_WANT_OBJECT,true,93;B_PHOTOTAXIS,94;B_RANDOM_WALK,90;B_RANDOM_WALK,78;IS_MOTIVATION_2_DEC,true,3;B_ANTI_PHOTOTAXIS,81;B_RANDOM_WALK,81;IS_DROP_OBJECT,false,84;IS_MOTIVATION_2_DEC,true,36;IS_WANT_OBJECT,false,4#
*:*:IS_MOTIVATION_1_DEC,true,67;IS_WANT_OBJECT,true,93;B_PHOTOTAXIS,94;B_RANDOM_WALK,90;B_RANDOM_WALK,78;IS_MOTIVATION_2_DEC,true,3;B_ANTI_PHOTOTAXIS,81;B_RANDOM_WALK,81;IS_DROP_OBJECT,false,84;IS_MOTIVATION_2_DEC,true,36;IS_WANT_OBJECT,false,4#
*:*:IS_MOTIVATION_1_DEC,true,67;IS_WANT_OBJECT,true,93;B_PHOTOTAXIS,94;B_RANDOM_WALK,90;B_RANDOM_WALK,78;IS_MOTIVATION_2_DEC,true,3;B_ANTI_PHOTOTAXIS,81;B_RANDOM_WALK,81;IS_DROP_OBJECT,false,84;IS_MOTIVATION_2_DEC,true,36;IS_WANT_OBJECT,false,4#
*:*:IS_MOTIVATION_1_DEC,true,67;IS_WANT_OBJECT,true,93;B_PHOTOTAXIS,94;B_RANDOM_WALK,90;B_RANDOM_WALK,78;IS_MOTIVATION_2_DEC,true,3;B_ANTI_PHOTOTAXIS,81;B_RANDOM_WALK,81;IS_DROP_OBJECT,false,84;IS_MOTIVATION_2_DEC,true,36;IS_WANT_OBJECT,false,4#
*:*:IS_MOTIVATION_1_DEC,true,67;IS_WANT_OBJECT,true,93;B_PHOTOTAXIS,94;B_RANDOM_WALK,90;B_RANDOM_WALK,78;IS_MOTIVATION_2_DEC,true,3;B_ANTI_PHOTOTAXIS,81;B_RANDOM_WALK,81;IS_DROP_OBJECT,false,84;IS_MOTIVATION_2_DEC,true,36;IS_WANT_OBJECT,false,4#
*:*:IS_MOTIVATION_1_DEC,true,67;IS_WANT_OBJECT,true,93;B_PHOTOTAXIS,94;B_RANDOM_WALK,90;B_RANDOM_WALK,78;IS_MOTIVATION_2_DEC,true,3;B_ANTI_PHOTOTAXIS,81;B_RANDOM_WALK,81;IS_DROP_OBJECT,false,84;IS_MOTIVATION_2_DEC,true,36;IS_WANT_OBJECT,false,4#
*:*:IS_MOTIVATION_1_DEC,true,67;IS_WANT_OBJECT,true,93;B_PHOTOTAXIS,94;B_RANDOM_WALK,90;B_RANDOM_WALK,78;IS_MOTIVATION_2_DEC,true,3;B_ANTI_PHOTOTAXIS,81;B_RANDOM_WALK,81;IS_DROP_OBJECT,false,84;IS_MOTIVATION_2_DEC,true,36;IS_WANT_OBJECT,false,4#
*:*:IS_MOTIVATION_1_DEC,true,67;IS_WANT_OBJECT,true,93;B_PHOTOTAXIS,94;B_RANDOM_WALK,90;B_RANDOM_WALK,78;IS_MOTIVATION_2_DEC,true,3;B_ANTI_PHOTOTAXIS,81;B_RANDOM_WALK,81;IS_DROP_OBJECT,false,84;IS_MOTIVATION_2_DEC,true,36;IS_WANT_OBJECT,false,4#
*:*:IS_MOTIVATION_1_DEC,true,67;IS_WANT_OBJECT,true,93;B_PHOTOTAXIS,94;B_RANDOM_WALK,90;B_RANDOM_WALK,78;IS_MOTIVATION_2_DEC,true,3;B_ANTI_PHOTOTAXIS,81;B_RANDOM_WALK,81;IS_DROP_OBJECT,false,84;IS_MOTIVATION_2_DEC,true,36;IS_WANT_OBJECT,false,4#
*:*:IS_MOTIVATION_1_DEC,true,67;IS_WANT_OBJECT,true,93;B_PHOTOTAXIS,94;B_RANDOM_WALK,90;B_RANDOM_WALK,78;IS_MOTIVATION_2_DEC,true,3;B_ANTI_PHOTOTAXIS,81;B_RANDOM_WALK,81;IS_DROP_OBJECT,false,84;IS_MOTIVATION_2_DEC,true,36;IS_WANT_OBJECT,false,4#
*:*:IS_MOTIVATION_1_DEC,true,67;IS_WANT_OBJECT,true,93;B_PHOTOTAXIS,94;B_RANDOM_WALK,90;B_RANDOM_WALK,78;IS_MOTIVATION_2_DEC,true,3;B_ANTI_PHOTOTAXIS,81;B_RANDOM_WALK,81;IS_DROP_OBJECT,false,84;IS_MOTIVATION_2_DEC,true,36;IS_WANT_OBJECT,false,4#
*:*:IS_MOTIVATION_1_DEC,true,67;IS_WANT_OBJECT,true,93;B_PHOTOTAXIS,94;B_RANDOM_WALK,90;B_RANDOM_WALK,78;IS_MOTIVATION_2_DEC,true,3;B_ANTI_PHOTOTAXIS,81;B_RANDOM_WALK,81;IS_DROP_OBJECT,false,84;IS_MOTIVATION_2_DEC,true,36;IS_WANT_OBJECT,false,4#
*:*:IS_MOTIVATION_1_DEC,true,67;IS_WANT_OBJECT,true,93;B_PHOTOTAXIS,94;B_RANDOM_WALK,90;B_RANDOM_WALK,78;IS_MOTIVATION_2_DEC,true,3;B_ANTI_PHOTOTAXIS,81;B_RANDOM_WALK,81;IS_DROP_OBJECT,false,84;IS_MOTIVATION_2_DEC,true,36;IS_WANT_OBJECT,false,4#
*:*:IS_MOTIVATION_1_DEC,true,67;IS_WANT_OBJECT,true,93;B_PHOTOTAXIS,94;B_RANDOM_WALK,90;B_RANDOM_WALK,78;IS_MOTIVATION_2_DEC,true,3;B_ANTI_PHOTOTAXIS,81;B_RANDOM_WALK,81;IS_DROP_OBJECT,false,84;IS_MOTIVATION_2_DEC,true,36;IS_WANT_OBJECT,false,4#
*:*:IS_MOTIVATION_1_DEC,true,67;IS_WANT_OBJECT,true,93;B_PHOTOTAXIS,94;B_RANDOM_WALK,90;B_RANDOM_WALK,78;IS_MOTIVATION_2_DEC,true,3;B_ANTI_PHOTOTAXIS,81;B_RANDOM_WALK,81;IS_DROP_OBJECT,false,84;IS_MOTIVATION_2_DEC,true,36;IS_WANT_OBJECT,false,4#
*:*:IS_MOTIVATION_1_DEC,true,67;IS_WANT_OBJECT,true,93;B_PHOTOTAXIS,94;B_RANDOM_WALK,90;B_RANDOM_WALK,78;IS_MOTIVATION_2_DEC,true,3;B_ANTI_PHOTOTAXIS,81;B_RANDOM_WALK,81;IS_DROP_OBJECT,false,84;IS_MOTIVATION_2_DEC,true,36;IS_WANT_OBJECT,false,4#
*:*:IS_MOTIVATION_1_DEC,true,67;IS_WANT_OBJECT,true,93;B_PHOTOTAXIS,94;B_RANDOM_WALK,90;B_RANDOM_WALK,78;IS_MOTIVATION_2_DEC,true,3;B_ANTI_PHOTOTAXIS,81;B_RANDOM_WALK,81;IS_DROP_OBJECT,false,84;IS_MOTIVATION_2_DEC,true,36;IS_WANT_OBJECT,false,4#
*:*:IS_MOTIVATION_1_DEC,true,67;IS_WANT_OBJECT,true,93;B_PHOTOTAXIS,94;B_RANDOM_WALK,90;B_RANDOM_WALK,78;IS_MOTIVATION_2_DEC,true,3;B_ANTI_PHOTOTAXIS,81;B_RANDOM_WALK,81;IS_DROP_OBJECT,false,84;IS_MOTIVATION_2_DEC,true,36;IS_WANT_OBJECT,false,4#
*:*:IS_MOTIVATION_1_DEC,true,67;IS_WANT_OBJECT,true,93;B_PHOTOTAXIS,94;B_RANDOM_WALK,90;B_RANDOM_WALK,78;IS_MOTIVATION_2_DEC,true,3;B_ANTI_PHOTOTAXIS,81;B_RANDOM_WALK,81;IS_DROP_OBJECT,false,84;IS_MOTIVATION_2_DEC,true,36;IS_WANT_OBJECT,false,4#
*:*:IS_MOTIVATION_1_DEC,true,67;IS_WANT_OBJECT,true,93;B_PHOTOTAXIS,94;B_RANDOM_WALK,90;B_RANDOM_WALK,78;IS_MOTIVATION_2_DEC,true,3;B_ANTI_PHOTOTAXIS,81;B_RANDOM_WALK,81;IS_DROP_OBJECT,false,84;IS_MOTIVATION_2_DEC,true,36;IS_WANT_OBJECT,false,4#
*:*:IS_MOTIVATION_1_DEC,true,67;IS_WANT_OBJECT,true,93;B_PHOTOTAXIS,94;B_RANDOM_WALK,90;B_RANDOM_WALK,78;IS_MOTIVATION_2_DEC,true,3;B_ANTI_PHOTOTAXIS,81;B_RANDOM_WALK,81;IS_DROP_OBJECT,false,84;IS_MOTIVATION_2_DEC,true,36;IS_WANT_OBJECT,false,4#
*:*:IS_MOTIVATION_1_DEC,true,67;IS_WANT_OBJECT,true,93;B_PHOTOTAXIS,94;B_RANDOM_WALK,90;B_RANDOM_WALK,78;IS_MOTIVATION_2_DEC,true,3;B_ANTI_PHOTOTAXIS,81;B_RANDOM_WALK,81;IS_DROP_OBJECT,false,84;IS_MOTIVATION_2_DEC,true,36;IS_WANT_OBJECT,false,4#
*:*:IS_MOTIVATION_1_DEC,true,67;IS_WANT_OBJECT,true,93;B_PHOTOTAXIS,94;B_RANDOM_WALK,90;B_RANDOM_WALK,78;IS_MOTIVATION_2_DEC,true,3;B_ANTI_PHOTOTAXIS,81;B_RANDOM_WALK,81;IS_DROP_OBJECT,false,84;IS_MOTIVATION_2_DEC,true,36;IS_WANT_OBJECT,false,4#
*:*:IS_MOTIVATION_1_DEC,true,67;IS_WANT_OBJECT,true,93;B_PHOTOTAXIS,94;B_RANDOM_WALK,90;B_RANDOM_WALK,78;IS_MOTIVATION_2_DEC,true,3;B_ANTI_PHOTOTAXIS,81;B_RANDOM_WALK,81;IS_DROP_OBJECT,false,84;IS_MOTIVATION_2_DEC,true,36;IS_WANT_OBJECT,false,4#
*:*:IS_MOTIVATION_1_DEC,true,67;IS_WANT_OBJECT,true,93;B_PHOTOTAXIS,94;B_RANDOM_WALK,90;B_RANDOM_WALK,78;IS_MOTIVATION_2_DEC,true,3;B_ANTI_PHOTOTAXIS,81;B_RANDOM_WALK,81;IS_DROP_OBJECT,false,84;IS_MOTIVATION_2_DEC,true,36;IS_WANT_OBJECT,false,4#
*:*:IS_MOTIVATION_1_DEC,true,67;IS_WANT_OBJECT,true,93;B_PHOTOTAXIS,94;B_RANDOM_WALK,90;B_RANDOM_WALK,78;IS_MOTIVATION_2_DEC,true,3;B_ANTI_PHOTOTAXIS,81;B_RANDOM_WALK,81;IS_DROP_OBJECT,false,84;IS_MOTIVATION_2_DEC,true,36;IS_WANT_OBJECT,false,4#
*:*:IS_MOTIVATION_1_DEC,true,67;IS_WANT_OBJECT,true,93;B_PHOTOTAXIS,94;B_RANDOM_WALK,90;B_RANDOM_WALK,78;IS_MOTIVATION_2_DEC,true,3;B_ANTI_PHOTOTAXIS,81;B_RANDOM_WALK,81;IS_DROP_OBJECT,false,84;IS_MOTIVATION_2_DEC,true,36;IS_WANT_OBJECT,false,4#
*:*:IS_MOTIVATION_1_DEC,true,67;IS_WANT_OBJECT,true,93;B_PHOTOTAXIS,94;B_RANDOM_WALK,90;B_RANDOM_WALK,78;IS_MOTIVATION_2_DEC,true,3;B_ANTI_PHOTOTAXIS,81;B_RANDOM_WALK,81;IS_DROP_OBJECT,false,84;IS_MOTIVATION_2_DEC,true,36;IS_WANT_OBJECT,false,4#
*:*:IS_MOTIVATION_1_DEC,true,67;IS_WANT_OBJECT,true,93;B_PHOTOTAXIS,94;B_RANDOM_WALK,90;B_RANDOM_WALK,78;IS_MOTIVATION_2_DEC,true,3;B_ANTI_PHOTOTAXIS,81;B_RANDOM_WALK,81;IS_DROP_OBJECT,false,84;IS_MOTIVATION_2_DEC,true,36;IS_WANT_OBJECT,false,4#
*:*:IS_MOTIVATION_1_DEC,true,67;IS_WANT_OBJECT,true,93;B_PHOTOTAXIS,94;B_RANDOM_WALK,90;B_RANDOM_WALK,78;IS_MOTIVATION_2_DEC,true,3;B_ANTI_PHOTOTAXIS,81;B_RANDOM_WALK,81;IS_DROP_OBJECT,false,84;IS_MOTIVATION_2_DEC,true,36;IS_WANT_OBJECT,false,4#
*:*:IS_MOTIVATION_1_DEC,true,67;IS_WANT_OBJECT,true,93;B_PHOTOTAXIS,94;B_RANDOM_WALK,90;B_RANDOM_WALK,78;IS_MOTIVATION_2_DEC,true,3;B_ANTI_PHOTOTAXIS,81;B_RANDOM_WALK,81;IS_DROP_OBJECT,false,84;IS_MOTIVATION_2_DEC,true,36;IS_WANT_OBJECT,false,4#
*:*:IS_MOTIVATION_1_DEC,true,67;IS_WANT_OBJECT,true,93;B_PHOTOTAXIS,94;B_RANDOM_WALK,90;B_RANDOM_WALK,78;IS_MOTIVATION_2_DEC,true,3;B_ANTI_PHOTOTAXIS,81;B_RANDOM_WALK,81;IS_DROP_OBJECT,false,84;IS_MOTIVATION_2_DEC,true,36;IS_WANT_OBJECT,false,4#
*:*:IS_MOTIVATION_1_DEC,true,67;IS_WANT_OBJECT,true,93;B_PHOTOTAXIS,94;B_RANDOM_WALK,90;B_RANDOM_WALK,78;IS_MOTIVATION_2_DEC,true,3;B_ANTI_PHOTOTAXIS,81;B_RANDOM_WALK,81;IS_DROP_OBJECT,false,84;IS_MOTIVATION_2_DEC,true,36;IS_WANT_OBJECT,false,4#
*:*:IS_MOTIVATION_1_DEC,true,67;IS_WANT_OBJECT,true,93;B_PHOTOTAXIS,94;B_RANDOM_WALK,90;B_RANDOM_WALK,78;IS_MOTIVATION_2_DEC,true,3;B_ANTI_PHOTOTAXIS,81;B_RANDOM_WALK,81;IS_DROP_OBJECT,false,84;IS_MOTIVATION_2_DEC,true,36;IS_WANT_OBJECT,false,4#
*:*:IS_MOTIVATION_1_DEC,true,67;IS_WANT_OBJECT,true,93;B_PHOTOTAXIS,94;B_RANDOM_WALK,90;B_RANDOM_WALK,78;IS_MOTIVATION_2_DEC,true,3;B_ANTI_PHOTOTAXIS,81;B_RANDOM_WALK,81;IS_DROP_OBJECT,false,84;IS_MOTIVATION_2_DEC,true,36;IS_WANT_OBJECT,false,4#
*:*:IS_MOTIVATION_1_DEC,true,67;IS_WANT_OBJECT,true,93;B_PHOTOTAXIS,94;B_RANDOM_WALK,90;B_RANDOM_WALK,78;IS_MOTIVATION_2_DEC,true,3;B_ANTI_PHOTOTAXIS,81;B_RANDOM_WALK,81;IS_DROP_OBJECT,false,84;IS_MOTIVATION_2_DEC,true,36;IS_WANT_OBJECT,false,4#
*:*:IS_MOTIVATION_1_DEC,true,67;IS_WANT_OBJECT,true,93;B_PHOTOTAXIS,94;B_RANDOM_WALK,90;B_RANDOM_WALK,78;IS_MOTIVATION_2_DEC,true,3;B_ANTI_PHOTOTAXIS,81;B_RANDOM_WALK,81;IS_DROP_OBJECT,false,84;IS_MOTIVATION_2_DEC,true,36;IS_WANT_OBJECT,false,4#
*:*:IS_MOTIVATION_1_DEC,true,67;IS_WANT_OBJECT,true,93;B_PHOTOTAXIS,94;B_RANDOM_WALK,90;B_RANDOM_WALK,78;IS_MOTIVATION_2_DEC,true,3;B_ANTI_PHOTOTAXIS,81;B_RANDOM_WALK,81;IS_DROP_OBJECT,false,84;IS_MOTIVATION_2_DEC,true,36;IS_WANT_OBJECT,false,4#
*:*:IS_MOTIVATION_1_DEC,true,67;IS_WANT_OBJECT,true,93;B_PHOTOTAXIS,94;B_RANDOM_WALK,90;B_RANDOM_WALK,78;IS_MOTIVATION_2_DEC,true,3;B_ANTI_PHOTOTAXIS,81;B_RANDOM_WALK,81;IS_DROP_OBJECT,false,84;IS_MOTIVATION_2_DEC,true,36;IS_WANT_OBJECT,false,4#
*:*:IS_MOTIVATION_1_DEC,true,67;IS_WANT_OBJECT,true,93;B_PHOTOTAXIS,94;B_RANDOM_WALK,90;B_RANDOM_WALK,78;IS_MOTIVATION_2_DEC,true,3;B_ANTI_PHOTOTAXIS,81;B_RANDOM_WALK,81;IS_DROP_OBJECT,false,84;IS_MOTIVATION_2_DEC,true,36;IS_WANT_OBJECT,false,4#
*:*:IS_MOTIVATION_1_DEC,true,67;IS_WANT_OBJECT,true,93;B_PHOTOTAXIS,94;B_RANDOM_WALK,90;B_RANDOM_WALK,78;IS_MOTIVATION_2_DEC,true,3;B_ANTI_PHOTOTAXIS,81;B_RANDOM_WALK,81;IS_DROP_OBJECT,false,84;IS_MOTIVATION_2_DEC,true,36;IS_WANT_OBJECT,false,4#
*:*:IS_MOTIVATION_1_DEC,true,67;IS_WANT_OBJECT,true,93;B_PHOTOTAXIS,94;B_RANDOM_WALK,90;B_RANDOM_WALK,78;IS_MOTIVATION_2_DEC,true,3;B_ANTI_PHOTOTAXIS,81;B_RANDOM_WALK,81;IS_DROP_OBJECT,false,84;IS_MOTIVATION_2_DEC,true,36;IS_WANT_OBJECT,false,4#
*:*:IS_MOTIVATION_1_DEC,true,67;IS_WANT_OBJECT,true,93;B_PHOTOTAXIS,94;B_RANDOM_WALK,90;B_RANDOM_WALK,78;IS_MOTIVATION_2_DEC,true,3;B_ANTI_PHOTOTAXIS,81;B_RANDOM_WALK,81;IS_DROP_OBJECT,false,84;IS_MOTIVATION_2_DEC,true,36;IS_WANT_OBJECT,false,4#
*:*:IS_MOTIVATION_1_DEC,true,67;IS_WANT_OBJECT,true,93;B_PHOTOTAXIS,94;B_RANDOM_WALK,90;B_RANDOM_WALK,78;IS_MOTIVATION_2_DEC,true,3;B_ANTI_PHOTOTAXIS,81;B_RANDOM_WALK,81;IS_DROP_OBJECT,false,84;IS_MOTIVATION_2_DEC,true,36;IS_WANT_OBJECT,false,4#
*:*:IS_MOTIVATION_1_DEC,true,67;IS_WANT_OBJECT,true,93;B_PHOTOTAXIS,94;B_RANDOM_WALK,90;B_RANDOM_WALK,78;IS_MOTIVATION_2_DEC,true,3;B_ANTI_PHOTOTAXIS,81;B_RANDOM_WALK,81;IS_DROP_OBJECT,false,84;IS_MOTIVATION_2_DEC,true,36;IS_WANT_OBJECT,false,4#
*:*:IS_MOTIVATION_1_DEC,true,67;IS_WANT_OBJECT,true,93;B_PHOTOTAXIS,94;B_RANDOM_WALK,90;B_RANDOM_WALK,78;IS_MOTIVATION_2_DEC,true,3;B_ANTI_PHOTOTAXIS,81;B_RANDOM_WALK,81;IS_DROP_OBJECT,false,84;IS_MOTIVATION_2_DEC,true,36;IS_WANT_OBJECT,false,4#
*:*:IS_MOTIVATION_1_DEC,true,67;IS_WANT_OBJECT,true,93;B_PHOTOTAXIS,94;B_RANDOM_WALK,90;B_RANDOM_WALK,78;IS_MOTIVATION_2_DEC,true,3;B_ANTI_PHOTOTAXIS,81;B_RANDOM_WALK,81;IS_DROP_OBJECT,false,84;IS_MOTIVATION_2_DEC,true,36;IS_WANT_OBJECT,false,4#
*:*:IS_MOTIVATION_1_DEC,true,67;IS_WANT_OBJECT,true,93;B_PHOTOTAXIS,94;B_RANDOM_WALK,90;B_RANDOM_WALK,78;IS_MOTIVATION_2_DEC,true,3;B_ANTI_PHOTOTAXIS,81;B_RANDOM_WALK,81;IS_DROP_OBJECT,false,84;IS_MOTIVATION_2_DEC,true,36;IS_WANT_OBJECT,false,4#
*:*:IS_MOTIVATION_1_DEC,true,67;IS_WANT_OBJECT,true,93;B_PHOTOTAXIS,94;B_RANDOM_WALK,90;B_RANDOM_WALK,78;IS_MOTIVATION_2_DEC,true,3;B_ANTI_PHOTOTAXIS,81;B_RANDOM_WALK,81;IS_DROP_OBJECT,false,84;IS_MOTIVATION_2_DEC,true,36;IS_WANT_OBJECT,false,4#
*:*:IS_MOTIVATION_1_DEC,true,67;IS_WANT_OBJECT,true,93;B_PHOTOTAXIS,94;B_RANDOM_WALK,90;B_RANDOM_WALK,78;IS_MOTIVATION_2_DEC,true,3;B_ANTI_PHOTOTAXIS,81;B_RANDOM_WALK,81;IS_DROP_OBJECT,false,84;IS_MOTIVATION_2_DEC,true,36;IS_WANT_OBJECT,false,4#
*:*:IS_MOTIVATION_1_DEC,true,67;IS_WANT_OBJECT,true,93;B_PHOTOTAXIS,94;B_RANDOM_WALK,90;B_RANDOM_WALK,78;IS_MOTIVATION_2_DEC,true,3;B_ANTI_PHOTOTAXIS,81;B_RANDOM_WALK,81;IS_DROP_OBJECT,false,84;IS_MOTIVATION_2_DEC,true,36;IS_WANT_OBJECT,false,4#
*:*:IS_MOTIVATION_1_DEC,true,67;IS_WANT_OBJECT,true,93;B_PHOTOTAXIS,94;B_RANDOM_WALK,90;B_RANDOM_WALK,78;IS_MOTIVATION_2_DEC,true,3;B_ANTI_PHOTOTAXIS,81;B_RANDOM_WALK,81;IS_DROP_OBJECT,false,84;IS_MOTIVATION_2_DEC,true,36;IS_WANT_OBJECT,false,4#
*:*:IS_MOTIVATION_1_DEC,true,67;IS_WANT_OBJECT,true,93;B_PHOTOTAXIS,94;B_RANDOM_WALK,90;B_RANDOM_WALK,78;IS_MOTIVATION_2_DEC,true,3;B_ANTI_PHOTOTAXIS,81;B_RANDOM_WALK,81;IS_DROP_OBJECT,false,84;IS_MOTIVATION_2_DEC,true,36;IS_WANT_OBJECT,false,4#
*:*:IS_MOTIVATION_1_DEC,true,67;IS_WANT_OBJECT,true,93;B_PHOTOTAXIS,94;B_RANDOM_WALK,90;B_RANDOM_WALK,78;IS_MOTIVATION_2_DEC,true,3;B_ANTI_PHOTOTAXIS,81;B_RANDOM_WALK,81;IS_DROP_OBJECT,false,84;IS_MOTIVATION_2_DEC,true,36;IS_WANT_OBJECT,false,4#
*:*:IS_MOTIVATION_1_DEC,true,67;IS_WANT_OBJECT,true,93;B_PHOTOTAXIS,94;B_RANDOM_WALK,90;B_RANDOM_WALK,78;IS_MOTIVATION_2_DEC,true,3;B_ANTI_PHOTOTAXIS,81;B_RANDOM_WALK,81;IS_DROP_OBJECT,false,84;IS_MOTIVATION_2_DEC,true,36;IS_WANT_OBJECT,false,4#
*:*:IS_MOTIVATION_1_DEC,true,67;IS_WANT_OBJECT,true,93;B_PHOTOTAXIS,94;B_RANDOM_WALK,90;B_RANDOM_WALK,78;IS_MOTIVATION_2_DEC,true,3;B_ANTI_PHOTOTAXIS,81;B_RANDOM_WALK,81;IS_DROP_OBJECT,false,84;IS_MOTIVATION_2_DEC,true,36;IS_WANT_OBJECT,false,4#
*:*:IS_MOTIVATION_1_DEC,true,67;IS_WANT_OBJECT,true,93;B_PHOTOTAXIS,94;B_RANDOM_WALK,90;B_RANDOM_WALK,78;IS_MOTIVATION_2_DEC,true,3;B_ANTI_PHOTOTAXIS,81;B_RANDOM_WALK,81;IS_DROP_OBJECT,false,84;IS_MOTIVATION_2_DEC,true,36;IS_WANT_OBJECT,false,4#
*:*:IS_MOTIVATION_1_DEC,true,67;IS_WANT_OBJECT,true,93;B_PHOTOTAXIS,94;B_RANDOM_WALK,90;B_RANDOM_WALK,78;IS_MOTIVATION_2_DEC,true,3;B_ANTI_PHOTOTAXIS,81;B_RANDOM_WALK,81;IS_DROP_OBJECT,false,84;IS_MOTIVATION_2_DEC,true,36;IS_WANT_OBJECT,false,4#
*:*:IS_MOTIVATION_1_DEC,true,67;IS_WANT_OBJECT,true,93;B_PHOTOTAXIS,94;B_RANDOM_WALK,90;B_RANDOM_WALK,78;IS_MOTIVATION_2_DEC,true,3;B_ANTI_PHOTOTAXIS,81;B_RANDOM_WALK,81;IS_DROP_OBJECT,false,84;IS_MOTIVATION_2_DEC,true,36;IS_WANT_OBJECT,false,4#
*:*:IS_MOTIVATION_1_DEC,true,67;IS_WANT_OBJECT,true,93;B_PHOTOTAXIS,94;B_RANDOM_WALK,90;B_RANDOM_WALK,78;IS_MOTIVATION_2_DEC,true,3;B_ANTI_PHOTOTAXIS,81;B_RANDOM_WALK,81;IS_DROP_OBJECT,false,84;IS_MOTIVATION_2_DEC,true,36;IS_WANT_OBJECT,false,4#
*:*:IS_MOTIVATION_1_DEC,true,67;IS_WANT_OBJECT,true,93;B_PHOTOTAXIS,94;B_RANDOM_WALK,90;B_RANDOM_WALK,78;IS_MOTIVATION_2_DEC,true,3;B_ANTI_PHOTOTAXIS,81;B_RANDOM_WALK,81;IS_DROP_OBJECT,false,84;IS_MOTIVATION_2_DEC,true,36;IS_WANT_OBJECT,false,4#
*:*:IS_MOTIVATION_1_DEC,true,67;IS_WANT_OBJECT,true,93;B_PHOTOTAXIS,94;B_RANDOM_WALK,90;B_RANDOM_WALK,78;IS_MOTIVATION_2_DEC,true,3;B_ANTI_PHOTOTAXIS,81;B_RANDOM_WALK,81;IS_DROP_OBJECT,false,84;IS_MOTIVATION_2_DEC,true,36;IS_WANT_OBJECT,false,4#
*:*:IS_MOTIVATION_1_DEC,true,67;IS_WANT_OBJECT,true,93;B_PHOTOTAXIS,94;B_RANDOM_WALK,90;B_RANDOM_WALK,78;IS_MOTIVATION_2_DEC,true,3;B_ANTI_PHOTOTAXIS,81;B_RANDOM_WALK,81;IS_DROP_OBJECT,false,84;IS_MOTIVATION_2_DEC,true,36;IS_WANT_OBJECT,false,4#
*:*:IS_MOTIVATION_1_DEC,true,67;IS_WANT_OBJECT,true,93;B_PHOTOTAXIS,94;B_RANDOM_WALK,90;B_RANDOM_WALK,78;IS_MOTIVATION_2_DEC,true,3;B_ANTI_PHOTOTAXIS,81;B_RANDOM_WALK,81;IS_DROP_OBJECT,false,84;IS_MOTIVATION_2_DEC,true,36;IS_WANT_OBJECT,false,4#
*:*:IS_MOTIVATION_1_DEC,true,67;IS_WANT_OBJECT,true,93;B_PHOTOTAXIS,94;B_RANDOM_WALK,90;B_RANDOM_WALK,78;IS_MOTIVATION_2_DEC,true,3;B_ANTI_PHOTOTAXIS,81;B_RANDOM_WALK,81;IS_DROP_OBJECT,false,84;IS_MOTIVATION_2_DEC,true,36;IS_WANT_OBJECT,false,4#
*:*:IS_MOTIVATION_1_DEC,true,67;IS_WANT_OBJECT,true,93;B_PHOTOTAXIS,94;B_RANDOM_WALK,90;B_RANDOM_WALK,78;IS_MOTIVATION_2_DEC,true,3;B_ANTI_PHOTOTAXIS,81;B_RANDOM_WALK,81;IS_DROP_OBJECT,false,84;IS_MOTIVATION_2_DEC,true,36;IS_WANT_OBJECT,false,4#
*:*:IS_MOTIVATION_1_DEC,true,67;IS_WANT_OBJECT,true,93;B_PHOTOTAXIS,94;B_RANDOM_WALK,90;B_RANDOM_WALK,78;IS_MOTIVATION_2_DEC,true,3;B_ANTI_PHOTOTAXIS,81;B_RANDOM_WALK,81;IS_DROP_OBJECT,false,84;IS_MOTIVATION_2_DEC,true,36;IS_WANT_OBJECT,false,4#
*:*:IS_MOTIVATION_1_DEC,true,67;IS_WANT_OBJECT,true,93;B_PHOTOTAXIS,94;B_RANDOM_WALK,90;B_RANDOM_WALK,78;IS_MOTIVATION_2_DEC,true,3;B_ANTI_PHOTOTAXIS,81;B_RANDOM_WALK,81;IS_DROP_OBJECT,false,84;IS_MOTIVATION_2_DEC,true,36;IS_WANT_OBJECT,false,4#
*:*:IS_MOTIVATION_1_DEC,true,67;IS_WANT_OBJECT,true,93;B_PHOTOTAXIS,94;B_RANDOM_WALK,90;B_RANDOM_WALK,78;IS_MOTIVATION_2_DEC,true,3;B_ANTI_PHOTOTAXIS,81;B_RANDOM_WALK,81;IS_DROP_OBJECT,false,84;IS_MOTIVATION_2_DEC,true,36;IS_WANT_OBJECT,false,4#
*:*:IS_MOTIVATION_1_DEC,true,67;IS_WANT_OBJECT,true,93;B_PHOTOTAXIS,94;B_RANDOM_WALK,90;B_RANDOM_WALK,78;IS_MOTIVATION_2_DEC,true,3;B_ANTI_PHOTOTAXIS,81;B_RANDOM_WALK,81;IS_DROP_OBJECT,false,84;IS_MOTIVATION_2_DEC,true,36;IS_WANT_OBJECT,false,4#
*:*:IS_MOTIVATION_1_DEC,true,67;IS_WANT_OBJECT,true,93;B_PHOTOTAXIS,94;B_RANDOM_WALK,90;B_RANDOM_WALK,78;IS_MOTIVATION_2_DEC,true,3;B_ANTI_PHOTOTAXIS,81;B_RANDOM_WALK,81;IS_DROP_OBJECT,false,84;IS_MOTIVATION_2_DEC,true,36;IS_WANT_OBJECT,false,4#
*:*:IS_MOTIVATION_1_DEC,true,67;IS_WANT_OBJECT,true,93;B_PHOTOTAXIS,94;B_RANDOM_WALK,90;B_RANDOM_WALK,78;IS_MOTIVATION_2_DEC,true,3;B_ANTI_PHOTOTAXIS,81;B_RANDOM_WALK,81;IS_DROP_OBJECT,false,84;IS_MOTIVATION_2_DEC,true,36;IS_WANT_OBJECT,false,4#
*:*:IS_MOTIVATION_1_DEC,true,67;IS_WANT_OBJECT,true,93;B_PHOTOTAXIS,94;B_RANDOM_WALK,90;B_RANDOM_WALK,78;IS_MOTIVATION_2_DEC,true,3;B_ANTI_PHOTOTAXIS,81;B_RANDOM_WALK,81;IS_DROP_OBJECT,false,84;IS_MOTIVATION_2_DEC,true,36;IS_WANT_OBJECT,false,4#
*:*:IS_MOTIVATION_1_DEC,true,67;IS_WANT_OBJECT,true,93;B_PHOTOTAXIS,94;B_RANDOM_WALK,90;B_RANDOM_WALK,78;IS_MOTIVATION_2_DEC,true,3;B_ANTI_PHOTOTAXIS,81;B_RANDOM_WALK,81;IS_DROP_OBJECT,false,84;IS_MOTIVATION_2_DEC,true,36;IS_WANT_OBJECT,false,4#
*:*:IS_MOTIVATION_1_DEC,true,67;IS_WANT_OBJECT,true,93;B_PHOTOTAXIS,94;B_RANDOM_WALK,90;B_RANDOM_WALK,78;IS_MOTIVATION_2_DEC,true,3;B_ANTI_PHOTOTAXIS,81;B_RANDOM_WALK,81;IS_DROP_OBJECT,false,84;IS_MOTIVATION_2_DEC,true,36;IS_WANT_OBJECT,false,4#
*:*:IS_MOTIVATION_1_DEC,true,67;IS_WANT_OBJECT,true,93;B_PHOTOTAXIS,94;B_RANDOM_WALK,90;B_RANDOM_WALK,78;IS_MOTIVATION_2_DEC,true,3;B_ANTI_PHOTOTAXIS,81;B_RANDOM_WALK,81;IS_DROP_OBJECT,false,84;IS_MOTIVATION_2_DEC,true,36;IS_WANT_OBJECT,false,4#
*:*:IS_MOTIVATION_1_DEC,true,67;IS_WANT_OBJECT,true,93;B_PHOTOTAXIS,94;B_RANDOM_WALK,90;B_RANDOM_WALK,78;IS_MOTIVATION_2_DEC,true,3;B_ANTI_PHOTOTAXIS,81;B_RANDOM_WALK,81;IS_DROP_OBJECT,false,84;IS_MOTIVATION_2_DEC,true,36;IS_WANT_OBJECT,false,4#
*:*:IS_MOTIVATION_1_DEC,true,67;IS_WANT_OBJECT,true,93;B_PHOTOTAXIS,94;B_RANDOM_WALK,90;B_RANDOM_WALK,78;IS_MOTIVATION_2_DEC,true,3;B_ANTI_PHOTOTAXIS,81;B_RANDOM_WALK,81;IS_DROP_OBJECT,false,84;IS_MOTIVATION_2_DEC,true,36;IS_WANT_OBJECT,false,4#
*:*:IS_MOTIVATION_1_DEC,true,67;IS_WANT_OBJECT,true,93;B_PHOTOTAXIS,94;B_RANDOM_WALK,90;B_RANDOM_WALK,78;IS_MOTIVATION_2_DEC,true,3;B_ANTI_PHOTOTAXIS,81;B_RANDOM_WALK,81;IS_DROP_OBJECT,false,84;IS_MOTIVATION_2_DEC,true,36;IS_WANT_OBJECT,false,4#
*:*:IS_MOTIVATION_1_DEC,true,67;IS_WANT_OBJECT,true,93;B_PHOTOTAXIS,94;B_RANDOM_WALK,90;B_RANDOM_WALK,78;IS_MOTIVATION_2_DEC,true,3;B_ANTI_PHOTOTAXIS,81;B_RANDOM_WALK,81;IS_DROP_OBJECT,false,84;IS_MOTIVATION_2_DEC,true,36;IS_WANT_OBJECT,false,4#
*:*:IS_MOTIVATION_1_DEC,true,67;IS_WANT_OBJECT,true,93;B_PHOTOTAXIS,94;B_RANDOM_WALK,90;B_RANDOM_WALK,78;IS_MOTIVATION_2_DEC,true,3;B_ANTI_PHOTOTAXIS,81;B_RANDOM_WALK,81;IS_DROP_OBJECT,false,84;IS_MOTIVATION_2_DEC,true,36;IS_WANT_OBJECT,false,4#
*:*:IS_MOTIVATION_1_DEC,true,67;IS_WANT_OBJECT,true,93;B_PHOTOTAXIS,94;B_RANDOM_WALK,90;B_RANDOM_WALK,78;IS_MOTIVATION_2_DEC,true,3;B_ANTI_PHOTOTAXIS,81;B_RANDOM_WALK,81;IS_DROP_OBJECT,false,84;IS_MOTIVATION_2_DEC,true,36;IS_WANT_OBJECT,false,4#
*:*:IS_MOTIVATION_1_DEC,true,67;IS_WANT_OBJECT,true,93;B_PHOTOTAXIS,94;B_RANDOM_WALK,90;B_RANDOM_WALK,78;IS_MOTIVATION_2_DEC,true,3;B_ANTI_PHOTOTAXIS,81;B_RANDOM_WALK,81;IS_DROP_OBJECT,false,84;IS_MOTIVATION_2_DEC,true,36;IS_WANT_OBJECT,false,4#
*:*:IS_MOTIVATION_1_DEC,true,67;IS_WANT_OBJECT,true,93;B_PHOTOTAXIS,94;B_RANDOM_WALK,90;B_RANDOM_WALK,78;IS_MOTIVATION_2_DEC,true,3;B_ANTI_PHOTOTAXIS,81;B_RANDOM_WALK,81;IS_DROP_OBJECT,false,84;IS_MOTIVATION_2_DEC,true,36;IS_WANT_OBJECT,false,4#
*:*:IS_MOTIVATION_1_DEC,true,67;IS_WANT_OBJECT,true,93;B_PHOTOTAXIS,94;B_RANDOM_WALK,90;B_RANDOM_WALK,78;IS_MOTIVATION_2_DEC,true,3;B_ANTI_PHOTOTAXIS,81;B_RANDOM_WALK,81;IS_DROP_OBJECT,false,84;IS_MOTIVATION_2_DEC,true,36;IS_WANT_OBJECT,false,4#
*:*:IS_MOTIVATION_1_DEC,true,67;IS_WANT_OBJECT,true,93;B_PHOTOTAXIS,94;B_RANDOM_WALK,90;B_RANDOM_WALK,78;IS_MOTIVATION_2_DEC,true,3;B_ANTI_PHOTOTAXIS,81;B_RANDOM_WALK,81;IS_DROP_OBJECT,false,84;IS_MOTIVATION_2_DEC,true,36;IS_WANT_OBJECT,false,4#
*:*:IS_MOTIVATION_1_DEC,true,67;IS_WANT_OBJECT,true,93;B_PHOTOTAXIS,94;B_RANDOM_WALK,90;B_RANDOM_WALK,78;IS_MOTIVATION_2_DEC,true,3;B_ANTI_PHOTOTAXIS,81;B_RANDOM_WALK,81;IS_DROP_OBJECT,false,84;IS_MOTIVATION_2_DEC,true,36;IS_WANT_OBJECT,false,4#
*:*:IS_MOTIVATION_1_DEC,true,67;IS_WANT_OBJECT,true,93;B_PHOTOTAXIS,94;B_RANDOM_WALK,90;B_RANDOM_WALK,78;IS_MOTIVATION_2_DEC,true,3;B_ANTI_PHOTOTAXIS,81;B_RANDOM_WALK,81;IS_DROP_OBJECT,false,84;IS_MOTIVATION_2_DEC,true,36;IS_WANT_OBJECT,false,4#
