0.0
0.438095
0.832011
0.821581
0.821581
0.977778
0.7875
0.6875
0.707843
0.707843
0.707843
0.707843
0.716149
0.716149
0.716149
0.716149
0.716149
0.716149
0.716149
0.716149
0.716149
0.716149
0.716149
0.716149
0.716149
0.716149
0.716149
0.716149
0.716149
0.716149
0.716149
0.716149
0.716149
0.716149
0.716149
0.716149
0.716149
0.716149
0.716149
0.716149
0.716149
0.716149
0.716149
0.495513
0.495513
0.495513
0.495513
0.495513
0.495513
0.495513
0.495513
0.495513
0.495513
0.495513
0.495513
0.495513
0.495513
0.495513
0.495513
0.495513
0.495513
0.495513
0.495513
0.495513
0.495513
0.495513
0.495513
0.495513
0.495513
0.495513
0.495513
0.495513
0.495513
0.495513
0.495513
0.495513
0.495513
0.495513
0.495513
0.495513
0.495513
0.495513
0.495513
0.495513
0.495513
0.495513
0.495513
0.495513
0.495513
0.495513
0.495513
0.495513
0.495513
0.495513
0.495513
0.495513
0.495513
0.495513
0.495513
0.495513
0.495513
0.495513
0.495513
0.495513
0.495513
0.495513
0.495513
0.495513
0.495513
0.495513
0.495513
0.495513
0.495513
0.495513
0.495513
0.495513
0.495513
0.495513
0.495513
0.495513
0.495513
0.495513
0.495513
0.495513
0.495513
0.495513
0.495513
0.495513
0.495513
0.495513
0.495513
0.495513
0.495513
0.495513
0.495513
0.495513
0.495513
0.495513
0.495513
0.495513
0.495513
0.495513
0.495513
0.495513
0.495513
0.495513
0.495513
0.495513
0.495513
0.495513
0.495513
0.495513
0.495513
0.495513
0.495513
0.495513
0.495513
0.495513
0.495513
0.495513
0.495513
0.495513
0.495513
0.581439
0.581439
0.581439
0.581439
0.581439
0.581439
0.581439
0.581439
0.581439
0.581439
0.581439
0.581439
0.581439
0.581439
0.581439
0.581439
0.581439
0.581439
0.581439
0.581439
0.581439
0.581439
0.581439
0.581439
0.581439
0.581439
0.581439
0.581439
0.581439
0.581439
0.581439
0.581439
0.581439
0.581439
0.581439
0.581439
0.581439
0.581439
0.581439
0.581439
0.581439
0.581439
0.581439
0.581439
0.581439
0.581439
0.581439
0.581439
0.581439
0.581439
0.581439
0.665631
0.665631
0.665631
0.665631
0.665631
0.665631
0.665631
0.665631
0.665631
0.665631
0.665631
0.665631
0.665631
0.665631
0.665631
0.665631
0.665631
0.665631
0.665631
0.665631
0.665631
0.665631
0.665631
0.665631
0.665631
0.665631
0.665631
0.665631
0.665631
0.665631
0.665631
0.665631
0.665631
0.665631
0.665631
0.665631
0.665631
0.665631
0.665631
0.665631
0.665631
0.665631
0.665631
0.665631
0.665631
0.665631
0.665631
0.665631
0.665631
0.665631
0.665631
0.665631
0.665631
0.665631
0.665631
0.665631
0.665631
0.665631
0.665631
0.665631
0.665631
0.665631
0.665631
0.665631
0.665631
0.665631
0.665631
0.665631
0.665631
0.665631
0.665631
0.665631
0.665631
0.665631
0.665631
0.665631
0.665631
0.665631
0.665631
0.665631
0.665631
0.665631
0.665631
0.665631
0.665631
0.665631
0.665631
0.665631
0.665631
0.665631
0.665631
0.665631
0.665631
0.665631
0.665631
0.665631
0.665631
0.665631
0.665631
0.665631
0.665631
0.665631
0.665631
0.665631
0.665631
0.665631
0.665631
0.665631
0.665631
0.665631
0.665631
0.665631
0.665631
0.665631
0.665631
0.665631
0.665631
0.665631
0.665631
0.665631
0.665631
0.665631
0.665631
0.665631
0.665631
0.665631
0.665631
0.665631
0.665631
0.665631
0.665631
0.665631
0.665631
0.665631
0.665631
0.665631
0.665631
0.665631
0.665631
0.665631
0.665631
0.665631
0.665631
0.665631
0.665631
0.665631
0.665631
0.665631
0.665631
0.665631
0.665631
0.665631
0.665631
0.665631
0.665631
0.665631
0.665631
0.665631
0.665631
0.665631
0.665631
0.665631
0.665631
0.665631
0.665631
0.665631
0.665631
0.665631
0.665631
0.665631
0.665631
0.665631
0.665631
0.665631
0.665631
0.665631
0.665631
0.665631
0.665631
0.665631
0.665631
0.665631
0.665631
0.665631
0.665631
0.665631
