0.794444
1.0
1.0
1.0
0.591667
1.0
0.591667
1.0
0.591667
1.0
0.591667
1.0
0.591667
1.0
0.591667
1.0
0.591667
1.0
0.591667
0.169872
0.684127
0.684127
0.684127
0.684127
0.684127
0.684127
0.684127
0.684127
0.684127
0.684127
0.684127
0.684127
0.684127
0.684127
0.684127
0.684127
0.684127
0.684127
0.684127
0.684127
0.684127
0.684127
0.684127
0.684127
0.684127
0.684127
0.684127
0.684127
0.684127
0.684127
0.684127
0.684127
0.684127
0.684127
0.684127
0.684127
0.684127
0.684127
0.684127
0.684127
0.684127
0.684127
0.684127
0.684127
0.684127
0.684127
0.684127
0.684127
0.684127
0.684127
0.684127
0.684127
0.684127
0.684127
0.684127
0.684127
0.684127
0.684127
0.684127
0.684127
0.684127
0.684127
0.684127
0.684127
0.684127
0.684127
0.684127
0.684127
0.684127
0.684127
0.684127
0.684127
0.684127
0.684127
0.684127
0.684127
0.684127
0.684127
0.684127
0.684127
0.684127
0.684127
0.684127
0.684127
0.684127
0.684127
0.684127
0.684127
0.684127
0.684127
0.684127
0.684127
0.684127
0.684127
0.684127
0.684127
0.684127
0.684127
0.684127
0.684127
0.684127
0.684127
0.684127
0.684127
0.684127
0.684127
0.684127
0.684127
0.684127
0.684127
0.684127
0.684127
0.684127
0.684127
0.684127
0.684127
0.684127
0.684127
0.684127
0.684127
0.684127
0.684127
0.684127
0.684127
0.684127
0.684127
0.684127
0.684127
0.684127
0.684127
0.684127
0.684127
0.684127
0.684127
0.684127
0.684127
0.684127
0.684127
0.684127
0.684127
0.684127
0.684127
0.684127
0.684127
0.684127
0.684127
0.684127
0.684127
0.684127
0.684127
0.684127
0.684127
0.684127
0.684127
0.684127
0.684127
0.684127
0.684127
0.684127
0.684127
0.684127
0.684127
0.684127
0.684127
0.684127
0.684127
0.684127
0.684127
0.684127
0.684127
0.684127
0.684127
0.684127
0.684127
0.684127
0.684127
0.684127
0.684127
0.684127
0.684127
0.684127
0.684127
0.684127
0.684127
0.684127
0.684127
0.684127
0.684127
0.684127
0.684127
0.684127
0.684127
0.684127
0.684127
0.684127
0.684127
0.684127
0.684127
0.684127
0.684127
0.684127
0.684127
0.684127
0.684127
0.684127
0.684127
0.684127
0.684127
0.684127
0.684127
0.684127
0.684127
0.684127
0.684127
0.684127
0.684127
0.684127
0.684127
0.684127
0.684127
0.684127
0.684127
0.684127
0.684127
0.684127
0.684127
0.684127
0.684127
0.684127
0.684127
0.684127
0.684127
0.684127
0.684127
0.684127
0.684127
0.684127
0.684127
0.684127
0.684127
0.684127
0.684127
0.684127
0.684127
0.684127
0.684127
0.684127
0.684127
0.684127
0.684127
0.684127
0.684127
0.684127
0.684127
0.684127
0.684127
0.684127
0.684127
0.684127
0.684127
0.684127
0.684127
0.684127
0.684127
0.684127
0.684127
0.325397
0.325397
0.25
0.321739
0.321739
0.321739
0.321739
0.321739
0.321739
0.321739
0.321739
0.321739
0.321739
0.321739
0.321739
0.321739
0.321739
0.321739
0.321739
0.201389
0.201389
0.201389
0.201389
0.201389
0.220741
0.220741
0.220741
0.220741
0.193122
0.193122
0.190657
0.292898
0.264706
0.264706
0.31378
0.31378
0.31378
0.31378
0.393029
0.393029
0.275746
0.392147
0.392147
0.392147
0.392147
0.392147
0.392147
0.392147
0.392147
0.392147
0.392147
0.392147
0.392147
0.392147
0.392147
0.392147
0.392147
0.392147
0.392147
0.392147
0.301935
0.301935
0.301935
0.301935
0.301935
0.301935
0.301935
0.307423
0.362025
0.362025
0.362025
0.362025
0.362025
0.362025
0.362025
0.362025
0.362025
0.362025
0.362025
0.362025
0.362025
0.362025
0.362025
0.362025
0.362025
0.362025
0.362025
0.362025
0.362025
0.362025
0.362025
0.362025
0.362025
0.362025
0.362025
0.362025
0.362025
0.362025
0.362025
0.362025
0.362025
0.362025
0.362025
0.362025
0.362025
0.362025
0.362025
0.362025
0.362025
0.362025
0.362025
0.362025
0.362025
0.362025
