Run,Seed 0,Seed 1,Seed 2,Seed 3,Seed 4,Seed 5,Seed 6,Seed 7,Seed 8,Seed 9,Seed 10,Seed 11,Seed 12,Seed 13,Seed 14,Seed 15,Seed 16,Seed 17,Seed 18,Seed 19,Seed 20,Seed 21,Seed 22,Seed 23,Seed 24,Seed 25,Seed 26,Seed 27,Seed 28,Seed 29,Seed 30,Seed 31,Seed 32,Seed 33,Seed 34,Seed 35,Seed 36,Seed 37,Seed 38,Seed 39,Seed 40,Seed 41,Seed 42,Seed 43,Seed 44,Seed 45,Seed 46,Seed 47,Seed 48,Seed 49
66,0.0,0.0,0.0,0.0,0.0,0.0,0.0,0.0,0.0,0.0,0.0,0.0,0.0,0.0,0.0,0.0,0.0,0.0,0.0,0.0,0.0,0.0,0.0,0.0,0.0,0.0,0.0,0.0,0.0,0.0,0.0,0.0,0.0,0.0,0.0,0.0,0.0,0.0,0.0,0.0,0.0,0.0,0.0,0.0,0.0,0.0,0.0,0.0,0.0,0.0
177,2.0,2.0,2.0,3.0,1.0,2.0,1.0,2.0,1.0,3.0,2.0,2.0,2.0,1.0,2.0,1.0,1.0,3.0,0.0,1.0,2.0,2.0,1.0,1.0,2.0,2.0,2.0,2.0,1.0,2.0,2.0,3.0,2.0,0.0,2.0,1.0,2.0,1.0,0.0,0.0,2.0,2.0,0.0,1.0,1.0,2.0,1.0,2.0,4.0,0.0
6,9.0,10.0,10.0,8.0,10.0,11.0,10.0,10.0,9.0,10.0,12.0,10.0,10.0,10.0,11.0,9.0,10.0,10.0,9.0,10.0,10.0,9.0,10.0,11.0,10.0,10.0,10.0,10.0,11.0,8.0,11.0,10.0,9.0,11.0,10.0,10.0,10.0,8.0,10.0,9.0,11.0,10.0,10.0,8.0,9.0,10.0,10.0,9.0,10.0,10.0
179,11.0,10.0,12.0,13.0,12.0,13.0,12.0,12.0,11.0,11.0,11.0,11.0,11.0,10.0,12.0,12.0,13.0,10.0,12.0,12.0,11.0,12.0,11.0,11.0,11.0,11.0,12.0,11.0,11.0,11.0,10.0,12.0,11.0,10.0,10.0,11.0,11.0,12.0,12.0,12.0,12.0,11.0,11.0,11.0,12.0,12.0,10.0,12.0,12.0,12.0
7,8.0,7.0,8.0,7.0,7.0,8.0,6.0,8.0,8.0,7.0,7.0,9.0,7.0,9.0,6.0,4.0,5.0,7.0,8.0,9.0,9.0,6.0,7.0,8.0,6.0,7.0,8.0,4.0,8.0,6.0,7.0,9.0,6.0,7.0,8.0,9.0,8.0,8.0,8.0,6.0,10.0,6.0,9.0,8.0,5.0,9.0,8.0,7.0,7.0,9.0
68,1.0,3.0,0.0,1.0,1.0,4.0,1.0,2.0,0.0,0.0,1.0,2.0,1.0,2.0,2.0,2.0,1.0,2.0,3.0,1.0,3.0,3.0,2.0,3.0,2.0,0.0,1.0,2.0,4.0,1.0,2.0,3.0,1.0,2.0,3.0,2.0,1.0,2.0,0.0,2.0,2.0,0.0,0.0,1.0,2.0,2.0,0.0,1.0,3.0,2.0
69,0.0,0.0,3.0,1.0,0.0,3.0,0.0,1.0,1.0,2.0,1.0,1.0,1.0,2.0,0.0,0.0,2.0,0.0,0.0,1.0,0.0,2.0,1.0,2.0,0.0,1.0,0.0,1.0,0.0,0.0,2.0,2.0,2.0,1.0,1.0,2.0,1.0,2.0,1.0,1.0,2.0,0.0,0.0,1.0,0.0,0.0,1.0,1.0,0.0,1.0
36,11.0,10.0,9.0,10.0,11.0,12.0,11.0,11.0,10.0,9.0,12.0,11.0,10.0,11.0,10.0,10.0,12.0,10.0,8.0,11.0,11.0,11.0,12.0,9.0,11.0,10.0,12.0,10.0,11.0,10.0,11.0,11.0,10.0,11.0,9.0,11.0,11.0,9.0,10.0,10.0,11.0,11.0,10.0,10.0,10.0,10.0,10.0,12.0,11.0,10.0
42,2.0,1.0,0.0,2.0,2.0,2.0,2.0,1.0,1.0,0.0,1.0,1.0,1.0,1.0,2.0,0.0,0.0,2.0,2.0,1.0,2.0,0.0,1.0,0.0,2.0,0.0,0.0,0.0,0.0,1.0,1.0,2.0,1.0,0.0,0.0,0.0,0.0,1.0,1.0,1.0,0.0,1.0,1.0,0.0,0.0,1.0,1.0,1.0,1.0,1.0
65,3.0,1.0,0.0,1.0,1.0,2.0,0.0,1.0,1.0,2.0,2.0,1.0,0.0,1.0,2.0,1.0,1.0,1.0,1.0,1.0,0.0,1.0,1.0,0.0,1.0,0.0,1.0,0.0,3.0,0.0,1.0,1.0,0.0,0.0,2.0,1.0,1.0,2.0,1.0,0.0,0.0,1.0,3.0,1.0,1.0,0.0,0.0,1.0,1.0,1.0
61,12.0,11.0,12.0,13.0,11.0,13.0,12.0,12.0,12.0,12.0,13.0,11.0,13.0,13.0,11.0,10.0,10.0,10.0,12.0,12.0,12.0,12.0,11.0,10.0,12.0,11.0,13.0,11.0,13.0,15.0,11.0,13.0,11.0,11.0,10.0,13.0,13.0,11.0,12.0,13.0,13.0,14.0,12.0,13.0,12.0,13.0,10.0,11.0,11.0,9.0
5,10.0,9.0,6.0,9.0,11.0,9.0,11.0,9.0,9.0,11.0,10.0,12.0,9.0,9.0,8.0,7.0,11.0,11.0,11.0,12.0,10.0,12.0,9.0,9.0,11.0,11.0,5.0,11.0,9.0,7.0,11.0,7.0,8.0,11.0,11.0,8.0,11.0,8.0,11.0,10.0,10.0,10.0,10.0,12.0,9.0,8.0,10.0,10.0,8.0,9.0
63,9.0,10.0,10.0,10.0,12.0,12.0,10.0,7.0,11.0,10.0,9.0,12.0,9.0,12.0,11.0,10.0,8.0,10.0,12.0,12.0,10.0,11.0,9.0,11.0,11.0,11.0,12.0,12.0,11.0,10.0,11.0,11.0,10.0,12.0,9.0,11.0,9.0,12.0,9.0,10.0,11.0,10.0,12.0,8.0,10.0,12.0,12.0,11.0,12.0,11.0
178,2.0,4.0,0.0,0.0,1.0,3.0,1.0,3.0,1.0,3.0,2.0,1.0,1.0,0.0,1.0,0.0,0.0,1.0,0.0,4.0,2.0,2.0,1.0,3.0,2.0,2.0,1.0,1.0,1.0,2.0,1.0,2.0,1.0,2.0,0.0,3.0,1.0,2.0,1.0,2.0,3.0,2.0,2.0,2.0,0.0,1.0,1.0,2.0,3.0,0.0
38,1.0,0.0,3.0,1.0,1.0,2.0,1.0,2.0,0.0,0.0,1.0,0.0,1.0,1.0,0.0,0.0,1.0,0.0,3.0,1.0,0.0,1.0,0.0,0.0,0.0,1.0,0.0,2.0,0.0,1.0,0.0,2.0,1.0,1.0,1.0,1.0,0.0,1.0,0.0,0.0,0.0,0.0,0.0,1.0,0.0,0.0,2.0,2.0,0.0,1.0
40,11.0,10.0,8.0,9.0,11.0,11.0,10.0,11.0,11.0,10.0,12.0,11.0,12.0,13.0,11.0,9.0,11.0,12.0,10.0,11.0,8.0,11.0,10.0,8.0,10.0,12.0,10.0,11.0,11.0,9.0,10.0,10.0,11.0,12.0,10.0,11.0,9.0,7.0,12.0,12.0,12.0,12.0,11.0,12.0,9.0,11.0,10.0,10.0,12.0,12.0
64,2.0,1.0,1.0,1.0,3.0,5.0,2.0,3.0,1.0,2.0,0.0,0.0,0.0,2.0,3.0,2.0,1.0,3.0,2.0,1.0,3.0,1.0,3.0,2.0,0.0,3.0,1.0,3.0,1.0,1.0,2.0,2.0,3.0,2.0,2.0,0.0,2.0,0.0,1.0,1.0,2.0,3.0,0.0,0.0,2.0,0.0,3.0,3.0,2.0,0.0
37,2.0,2.0,1.0,1.0,2.0,3.0,1.0,3.0,1.0,3.0,0.0,1.0,3.0,3.0,1.0,1.0,1.0,1.0,1.0,1.0,1.0,3.0,0.0,2.0,2.0,1.0,1.0,2.0,0.0,3.0,3.0,0.0,2.0,1.0,2.0,0.0,2.0,2.0,2.0,2.0,3.0,1.0,2.0,1.0,0.0,2.0,2.0,2.0,2.0,0.0
62,10.0,12.0,11.0,12.0,12.0,11.0,11.0,12.0,11.0,12.0,12.0,11.0,13.0,12.0,11.0,13.0,14.0,12.0,12.0,11.0,12.0,11.0,12.0,12.0,12.0,9.0,12.0,12.0,12.0,12.0,12.0,11.0,10.0,12.0,11.0,13.0,11.0,9.0,12.0,12.0,12.0,10.0,13.0,13.0,11.0,11.0,11.0,12.0,13.0,13.0
2,10.0,12.0,12.0,12.0,11.0,12.0,11.0,10.0,10.0,9.0,11.0,10.0,11.0,13.0,11.0,12.0,11.0,10.0,11.0,12.0,9.0,10.0,11.0,11.0,12.0,12.0,11.0,10.0,11.0,12.0,11.0,11.0,9.0,10.0,11.0,12.0,10.0,12.0,12.0,11.0,10.0,12.0,11.0,11.0,9.0,12.0,12.0,9.0,11.0,11.0
60,9.0,9.0,10.0,8.0,6.0,11.0,8.0,10.0,7.0,12.0,7.0,9.0,9.0,8.0,11.0,10.0,11.0,11.0,11.0,10.0,6.0,11.0,9.0,9.0,8.0,8.0,9.0,7.0,9.0,9.0,11.0,8.0,11.0,10.0,9.0,8.0,7.0,8.0,9.0,9.0,8.0,8.0,7.0,11.0,9.0,11.0,7.0,8.0,7.0,10.0
39,10.0,11.0,11.0,11.0,11.0,12.0,11.0,13.0,10.0,12.0,12.0,10.0,13.0,12.0,10.0,12.0,11.0,13.0,12.0,10.0,11.0,11.0,12.0,11.0,12.0,11.0,12.0,10.0,12.0,11.0,12.0,10.0,12.0,12.0,10.0,12.0,11.0,11.0,10.0,11.0,13.0,12.0,11.0,12.0,12.0,13.0,10.0,12.0,13.0,11.0
67,4.0,3.0,4.0,4.0,3.0,6.0,4.0,4.0,4.0,4.0,5.0,4.0,5.0,4.0,4.0,2.0,3.0,5.0,3.0,6.0,5.0,5.0,4.0,4.0,3.0,6.0,5.0,5.0,3.0,5.0,4.0,4.0,2.0,4.0,5.0,3.0,5.0,5.0,5.0,4.0,4.0,3.0,4.0,4.0,3.0,4.0,3.0,4.0,4.0,3.0
59,2.0,4.0,5.0,4.0,2.0,6.0,6.0,3.0,4.0,4.0,4.0,4.0,4.0,6.0,4.0,3.0,4.0,4.0,4.0,4.0,3.0,5.0,5.0,6.0,4.0,4.0,3.0,5.0,4.0,2.0,4.0,4.0,3.0,3.0,5.0,3.0,5.0,6.0,3.0,4.0,3.0,4.0,5.0,3.0,4.0,5.0,3.0,4.0,5.0,5.0
