Run,Seed 0,Seed 1,Seed 2,Seed 3,Seed 4,Seed 5,Seed 6,Seed 7,Seed 8,Seed 9,Seed 10,Seed 11,Seed 12,Seed 13,Seed 14,Seed 15,Seed 16,Seed 17,Seed 18,Seed 19,Seed 20,Seed 21,Seed 22,Seed 23,Seed 24,Seed 25,Seed 26,Seed 27,Seed 28,Seed 29,Seed 30,Seed 31,Seed 32,Seed 33,Seed 34,Seed 35,Seed 36,Seed 37,Seed 38,Seed 39,Seed 40,Seed 41,Seed 42,Seed 43,Seed 44,Seed 45,Seed 46,Seed 47,Seed 48,Seed 49
1,0,0,0,0,0,0,0,0,0,0,0,0,0,0,0,0,0,0,0,0,0,0,0,0,0,0,0,0,0,0,0,0,0,0,0,0,0,0,0,0,0,0,0,0,0,0,0,0,0,0
2,1,1,1,0.9,1,0.777778,1,0.625,0.923077,0.888889,1,1,0.916667,1,0.857143,0.777778,1,0.833333,1,0.818182,0.888889,1,0.833333,1,1,1,1,1,1,0.875,1,0.833333,1,1,0.888889,1,1,1,0.875,1,0.909091,1,0.9,0.888889,1,1,0.888889,1,1,1
3,1,0.75,1,1,1,1,1,1,1,0.714286,0.875,0.8,1,0.8,1,1,1,0.875,0.875,0.888889,0.75,1,1,1,1,0.857143,1,1,0.888889,1,1,1,1,1,1,1,0.777778,1,1,1,0.666667,1,1,0.875,0.8,1,1,1,0.8,1
5,0.75,0.75,1,0.714286,0.666667,0.8,0.625,0.777778,0.5,1,1,0.75,0.571429,0.875,1,0.727273,0.9,0.583333,0.6,0.875,0.714286,0.75,0.8,0.857143,0.857143,0.9,0.818182,0.875,1,0.6,1,0.9,1,0.9,0.727273,0.6,0.5,0.857143,0.75,0.3,1,0.5,1,0.875,0.833333,0.75,1,0.7,0.8,0.9
6,0.75,1,1,1,0.875,1,1,0.833333,1,0.833333,0.9,1,0.833333,0.666667,0.714286,1,0.833333,0.75,1,1,1,0.8,0.857143,0.8,1,1,0.666667,0.666667,0.875,0.875,0.666667,0.857143,1,0.714286,0.857143,1,1,1,1,0.833333,0.857143,0.8,0.875,1,0.6,1,1,1,0.714286,1
7,1,0.909091,1,1,1,1,0.8,1,1,0.833333,1,1,1,1,1,1,1,1,1,1,0.8,1,1,1,1,1,1,1,1,1,1,1,1,1,1,0.75,1,1,1,0.666667,0.666667,1,1,1,0.666667,1,1,1,0.666667,1
4,0.875,0.833333,1,0.727273,0.875,1,0.75,0.857143,0.8,1,0,0.888889,1,0.75,1,1,1,1,1,0.5,0.777778,1,1,0.714286,1,0.9,1,1,1,1,0.857143,1,0.6,1,1,1,0.75,1,0.888889,0.666667,0.8,0.888889,0.9,1,0.666667,1,0.9,0.818182,1,1
