Generation:
200

Phenotype:
P_HAS_OBJECT,false;*:*:B_PHOTOTAXIS,85;IS_DROP_OBJECT,false,23;B_RANDOM_WALK,54#P_HAS_OBJECT,false;*:*:IS_DROP_OBJECT,false,97#P_ON_NEST,true;*:*:IS_DROP_OBJECT,true,24;IS_DROP_OBJECT,true,27#P_HAS_OBJECT,true;*:*:B_ANTI_PHOTOTAXIS,36#

Genotype:
[86448, 74402, 19650, 39543, 73274, 37957, 63225, 56920, 12603, 33963, 30454, 16048, 70213, 60297, 20285, 90006, 10833, 80598, 47151, 77203, 31838, 59181, 42598, 43940, 85490, 26516, 26706, 40990, 69820, 19054, 66002, 37465, 79937, 44205, 30629, 44897, 75459, 41115, 71467, 56559, 77743, 7369, 53680, 79785, 85618, 39330, 29626, 62410, 53613, 97071, 41121, 85158, 32848, 50423, 45730, 77077, 79426, 33051, 68009, 46493, 53680, 90171, 6468, 85675, 50729, 65072, 4906, 29626, 64100, 4548, 97071, 33160, 46843, 6481, 28177, 80240, 12938, 79426, 68009, 7369, 59528, 52560, 85618, 50589, 15917, 64100, 53613, 97071, 41121, 23402, 6481, 78397, 40541, 49646, 79426, 42240, 25994, 69472, 32460, 55315, 94281, 67743, 48270, 6456, 38833, 43855, 84701, 11419, 52565]
Tree:
None

Fitness:
13.6667