ave_fitness	ave_genome_length	ave_tree_depth	ave_tree_nodes	ave_used_codons	best_fitness	gen	invalids	max_genome_length	max_tree_depth	max_tree_nodes	max_used_codons	min_genome_length	min_tree_depth	min_tree_nodes	min_used_codons	runtime_error	time_adjust	time_taken	total_inds	total_time	unique_inds	unused_search	
0.0	49.57142857142857	8.128571428571428	47.48571428571429	33.24285714285714	0.0	0	0	145	10	139	97	16	7	15	11	0	0	1321.9713191986084	70	1321.9713191986084	69	1.4285714285714164	
0.0	43.385714285714286	8.23913043478261	41.34782608695652	29.02173913043478	0.0	1	25	103	13.0	113.0	79.0	9	7.0	15.0	11.0	0	0	744.037602186203	140	2066.0089213848114	102	27.142857142857153	
0.0	41.4	8.057692307692308	38.90384615384615	27.21153846153846	0.0	2	44	121	12.0	95.0	67.0	10	7.0	15.0	11.0	0	0	833.0414998531342	210	2899.0504212379456	132	37.142857142857146	
0.0	45.957142857142856	8.0	38.26923076923077	26.73076923076923	0.0	3	63	122	12.0	118.0	82.0	8	7.0	15.0	11.0	0	0	826.1263358592987	280	3725.1767570972443	154	44.99999999999999	
0.0	53.042857142857144	7.6440677966101696	32.86440677966102	23.10169491525424	0.0	4	75	121	12.0	86.0	60.0	16	7.0	15.0	11.0	0	0	950.5004460811615	350	4675.677203178406	181	48.285714285714285	
0.0	49.042857142857144	7.707692307692308	31.646153846153847	22.307692307692307	0.0	5	81	122	14.0	146.0	103.0	16	7.0	15.0	11.0	0	0	1103.3104038238525	420	5778.987607002258	214	49.04761904761905	
0.015384615384615385	57.25714285714286	7.923076923076923	36.87692307692308	25.876923076923077	1.0	6	87	121	15.0	168.0	117.0	13	7.0	15.0	11.0	0	0	1105.6567299365997	490	6884.644336938858	250	48.97959183673469	
0.015873015873015872	57.17142857142857	8.126984126984127	36.79365079365079	25.77777777777778	1.0	7	95	131	15.0	168.0	117.0	16	7.0	15.0	11.0	0	0	1042.0196781158447	560	7926.664015054703	280	50.0	
0.021164015873015876	57.68571428571428	8.396825396825397	41.12698412698413	28.746031746031747	1.0	8	103	156	15.0	153.0	106.0	16	7.0	15.0	11.0	0	0	1033.596032857895	630	8960.260047912598	310	50.7936507936508	
0.025252515151515154	59.957142857142856	8.318181818181818	39.28787878787879	27.515151515151516	1.0	9	108	156	14.0	129.0	91.0	16	7.0	15.0	11.0	0	0	1084.3944251537323	700	10044.65447306633	335	52.14285714285714	
0.07017535087719298	57.98571428571429	8.228070175438596	40.45614035087719	28.263157894736842	1.33333	10	122	131	10.0	83.0	58.0	12	7.0	15.0	11.0	0	0	892.0139589309692	770	10936.6684319973	362	52.98701298701299	
0.0757575	67.08571428571429	8.590909090909092	44.07575757575758	30.757575757575758	1.33333	11	127	131	14.0	99.0	70.0	16	7.0	18.0	13.0	0	0	1063.6211242675781	840	12000.289556264877	396	52.85714285714286	
0.1384614153846154	71.42857142857143	8.646153846153846	46.6	32.44615384615385	1.33333	12	133	131	13.0	105.0	73.0	33	7.0	18.0	13.0	0	0	1042.067100763321	910	13042.356657028198	426	53.18681318681319	
0.2349724098360656	70.47142857142858	8.754098360655737	53.0	36.950819672131146	1.33333	13	143	125	12.0	93.0	65.0	17	7.0	18.0	13.0	0	0	1003.186439037323	980	14045.543096065521	458	53.26530612244898	
0.1640208412698413	75.62857142857143	9.0	56.857142857142854	39.57142857142857	1.33333	14	151	127	13.0	150.0	105.0	41	7.0	21.0	15.0	0	0	1050.6760556697845	1050	15096.219151735306	498	52.57142857142857	
0.2222217619047619	70.27142857142857	8.968253968253968	55.142857142857146	38.476190476190474	1.33333	15	159	125	14.0	100.0	70.0	22	7.0	15.0	11.0	0	0	1086.2872598171234	1120	16182.50641155243	535	52.232142857142854	
0.2666661076923077	70.45714285714286	8.830769230769231	54.246153846153845	37.8	1.33333	16	165	125	14.0	97.0	68.0	17	7.0	20.0	14.0	0	0	1097.0654277801514	1190	17279.57183933258	576	51.596638655462186	
0.4055547166666667	70.87142857142857	8.983333333333333	59.483333333333334	41.56666666666667	1.66667	17	176	115	12.0	114.0	79.0	27	7.0	20.0	14.0	0	0	1020.6048383712769	1260	18300.176677703857	610	51.58730158730159	
0.44999928333333333	75.77142857142857	9.583333333333334	67.88333333333334	47.5	1.66667	18	187	110	16.0	135.0	93.0	33	8.0	27.0	19.0	0	0	1032.234343290329	1330	19332.411020994186	644	51.578947368421055	
0.3333330158730159	79.97142857142858	9.666666666666666	71.74603174603175	50.111111111111114	1.66667	19	195	133	16.0	140.0	98.0	28	8.0	28.0	20.0	0	0	1122.03661775589	1400	20454.447638750076	689	50.785714285714285	
0.3620687931034483	83.02857142857142	9.551724137931034	74.79310344827586	52.258620689655174	1.66667	20	208	128	12.0	118.0	82.0	44	8.0	36.0	25.0	0	0	1033.01686501503	1470	21487.464503765106	724	50.74829931972789	
0.3597883968253968	84.91428571428571	9.777777777777779	82.25396825396825	57.53968253968254	1.66667	21	216	125	14.0	152.0	104.0	61	8.0	57.0	40.0	0	0	1155.9825053215027	1540	22643.44700908661	764	50.38961038961039	
0.31638457627118644	87.2	9.88135593220339	78.71186440677967	55.152542372881356	1.66667	22	228	153	14.0	144.0	100.0	34	8.0	28.0	20.0	0	0	1077.2570941448212	1610	23720.70410323143	806	49.93788819875776	
0.19672163934426232	86.62857142857143	9.78688524590164	75.31147540983606	52.75409836065574	1.66667	23	238	153	14.0	144.0	100.0	44	8.0	30.0	21.0	0	0	1169.6589369773865	1680	24890.363040208817	848	49.523809523809526	
0.23958374999999998	86.68571428571428	9.75	75.390625	52.796875	1.66667	24	245	134	14.0	159.0	111.0	25	8.0	47.0	33.0	0	0	1198.2072820663452	1750	26088.57032227516	887	49.31428571428571	
0.2372885254237288	90.37142857142857	9.813559322033898	79.83050847457628	55.86440677966102	1.66667	25	257	141	13.0	159.0	111.0	30	8.0	36.0	26.0	0	0	1103.6369404792786	1820	27192.20726275444	922	49.34065934065934	
0.2820517384615384	92.94285714285714	9.569230769230769	75.44615384615385	52.87692307692308	1.66667	26	263	155	13.0	159.0	111.0	61	7.0	15.0	11.0	0	0	1219.2336778640747	1890	28411.440940618515	961	49.15343915343915	
0.2043013870967742	89.55714285714286	9.64516129032258	72.69354838709677	50.87096774193548	1.66667	27	272	135	12.0	104.0	72.0	54	7.0	15.0	11.0	0	0	1140.7630009651184	1960	29552.203941583633	997	49.13265306122449	
0.2622954262295082	92.01428571428572	9.672131147540984	78.14754098360656	54.68852459016394	1.66667	28	282	164	12.0	145.0	101.0	40	7.0	15.0	11.0	0	0	1118.9016857147217	2030	30671.105627298355	1040	48.768472906403936	
0.46875059375	92.51428571428572	9.859375	82.296875	57.65625	1.66667	29	289	164	14.0	143.0	100.0	47	7.0	20.0	14.0	0	0	1168.6529126167297	2100	31839.758539915085	1076	48.76190476190476	
0.41520498245614035	90.82857142857142	9.526315789473685	80.0701754385965	56.01754385964912	1.66667	30	303	164	12.0	136.0	94.0	27	7.0	21.0	15.0	0	0	1029.7108800411224	2170	32869.46941995621	1114	48.66359447004608	
0.33862450793650795	96.98571428571428	9.714285714285714	79.47619047619048	55.523809523809526	1.66667	31	311	200	13.0	139.0	98.0	28	7.0	23.0	16.0	0	0	1121.268486738205	2240	33990.73790669441	1155	48.4375	
0.22727303030303028	99.98571428571428	9.818181818181818	82.60606060606061	57.71212121212121	1.66667	32	316	205	14.0	179.0	125.0	58	7.0	23.0	16.0	0	0	1217.6062104701996	2310	35208.34411716461	1198	48.13852813852814	
0.3434348939393939	103.28571428571429	9.757575757575758	80.31818181818181	56.18181818181818	1.66667	33	321	229	14.0	207.0	145.0	53	7.0	18.0	13.0	0	0	1193.4757165908813	2380	36401.81983375549	1244	47.731092436974784	
0.33838421212121217	105.64285714285714	9.969696969696969	86.71212121212122	60.56060606060606	1.66667	34	326	232	14.0	160.0	112.0	24	7.0	23.0	16.0	0	0	1182.0221400260925	2450	37583.841973781586	1291	47.30612244897959	
0.442708921875	102.78571428571429	10.109375	91.546875	63.9375	1.66667	35	333	185	15.0	160.0	112.0	41	7.0	23.0	16.0	0	0	1140.6448543071747	2520	38724.48682808876	1331	47.182539682539684	
0.5166673666666667	99.01428571428572	10.016666666666667	88.25	61.71666666666667	1.66667	36	344	189	15.0	190.0	134.0	43	7.0	23.0	16.0	0	0	1093.9906287193298	2590	39818.47745680809	1366	47.25868725868726	
0.29166706249999996	102.3	9.796875	82.46875	57.671875	1.66667	37	351	196	14.0	135.0	95.0	47	7.0	23.0	16.0	0	0	1182.8640642166138	2660	41001.341521024704	1411	46.954887218045116	
0.3177086875	104.77142857142857	9.828125	79.640625	55.625	1.66667	38	358	199	13.0	154.0	107.0	39	7.0	23.0	16.0	0	0	1164.2105541229248	2730	42165.55207514763	1457	46.63003663003663	
0.22043053225806455	105.04285714285714	9.758064516129032	80.64516129032258	56.5	1.66667	39	367	222	13.0	150.0	105.0	39	8.0	33.0	23.0	0	0	1112.1353776454926	2800	43277.68745279312	1501	46.392857142857146	
0.27868885245901637	105.22857142857143	10.131147540983607	87.09836065573771	60.83606557377049	1.66667	40	377	222	13.0	143.0	100.0	36	8.0	33.0	23.0	0	0	1107.7773580551147	2870	44385.464810848236	1539	46.376306620209064	
0.322581064516129	104.1	9.935483870967742	82.83870967741936	57.82258064516129	1.66667	41	386	194	13.0	138.0	95.0	68	8.0	33.0	23.0	0	0	1111.6727230548859	2940	45497.13753390312	1577	46.36054421768707	
0.3383843181818182	99.77142857142857	9.621212121212121	81.18181818181819	56.74242424242424	1.66667	42	391	237	14.0	147.0	101.0	69	9.0	49.0	35.0	0	0	1226.286463022232	3010	46723.423996925354	1622	46.11295681063123	
0.2857146964285714	93.67142857142858	9.75	82.89285714285714	57.875	1.66667	43	406	189	14.0	162.0	112.0	46	8.0	37.0	26.0	0	0	1012.7515015602112	3080	47736.175498485565	1663	46.006493506493506	
0.2677598852459016	96.6	9.78688524590164	82.34426229508196	57.49180327868852	1.66667	44	416	189	14.0	197.0	135.0	46	9.0	37.0	26.0	0	0	1118.14044880867	3150	48854.315947294235	1708	45.77777777777777	
0.2688176290322581	84.77142857142857	9.709677419354838	72.53225806451613	50.67741935483871	1.66667	45	425	145	14.0	130.0	90.0	36	8.0	37.0	26.0	0	0	1128.2158591747284	3220	49982.53180646896	1745	45.807453416149066	
0.29850780597014925	89.67142857142858	9.925373134328359	77.31343283582089	53.97014925373134	1.66667	46	429	164	13.0	114.0	79.0	31	7.0	26.0	18.0	0	0	1225.5258724689484	3290	51208.05767893791	1787	45.683890577507604	
0.28160941379310345	92.74285714285715	9.758620689655173	72.20689655172414	50.37931034482759	1.66667	47	442	178	14.0	124.0	86.0	45	8.0	30.0	21.0	0	0	1042.2019045352936	3360	52250.259583473206	1823	45.74404761904762	
0.21890582089552238	91.55714285714286	10.029850746268657	78.11940298507463	54.582089552238806	1.66667	48	446	161	16.0	130.0	91.0	56	8.0	37.0	26.0	0	0	1223.783243894577	3430	53474.04282736778	1868	45.53935860058309	
0.3636369393939394	89.14285714285714	9.954545454545455	74.63636363636364	52.07575757575758	1.66667	49	451	145	14.0	104.0	73.0	41	8.0	30.0	21.0	0	0	1167.6394143104553	3500	54641.68224167824	1910	45.42857142857143	
0.305556	88.45714285714286	9.783333333333333	76.73333333333333	53.6	1.66667	50	462	152	14.0	144.0	99.0	30	7.0	23.0	16.0	0	0	1091.587167263031	3570	55733.26940894127	1947	45.46218487394958	
0.4338631746031746	94.44285714285714	9.904761904761905	80.31746031746032	56.04761904761905	1.66667	51	470	203	15.0	161.0	112.0	21	8.0	37.0	26.0	0	0	1133.0962705612183	3640	56866.36567950249	1985	45.46703296703297	
0.3888895	94.48571428571428	10.121212121212121	82.21212121212122	57.40909090909091	1.66667	52	475	203	15.0	161.0	112.0	64	8.0	37.0	26.0	0	0	1256.6979610919952	3710	58123.06364059448	2020	45.55256064690026	
0.278688868852459	89.31428571428572	9.819672131147541	75.19672131147541	52.65573770491803	1.66667	53	485	203	15.0	185.0	127.0	32	8.0	28.0	20.0	0	0	1146.8883624076843	3780	59269.95200300217	2057	45.58201058201058	
0.2512824769230769	87.58571428571429	9.446153846153846	68.41538461538461	47.89230769230769	1.66667	54	491	220	13.0	119.0	83.0	59	7.0	21.0	15.0	0	0	1191.361891746521	3850	60461.31389474869	2100	45.45454545454546	
0.20707110606060608	85.08571428571429	9.378787878787879	66.77272727272727	46.53030303030303	1.66667	55	496	143	13.0	108.0	75.0	49	7.0	27.0	19.0	0	0	1162.503513097763	3920	61623.81740784645	2143	45.33163265306123	
0.34895884374999997	80.75714285714285	9.453125	67.1875	46.90625	2.0	56	503	143	13.0	135.0	95.0	18	7.0	17.0	12.0	0	0	1086.0142576694489	3990	62709.8316655159	2184	45.263157894736835	
0.30687876190476193	86.2	9.333333333333334	68.06349206349206	47.6031746031746	2.0	57	511	151	13.0	113.0	79.0	34	7.0	27.0	19.0	0	0	1203.529812335968	4060	63913.36147785187	2221	45.29556650246306	
0.20967767741935484	87.9	9.887096774193548	72.64516129032258	50.79032258064516	2.0	58	520	161	13.0	152.0	106.0	45	8.0	33.0	23.0	0	0	1084.6408865451813	4130	64998.00236439705	2258	45.326876513317195	
0.20000032857142858	91.12857142857143	9.82857142857143	73.04285714285714	51.08571428571429	2.0	59	521	161	12	143	100	53	7	18	13	0	0	1209.037418603897	4200	66207.03978300095	2302	45.19047619047619	
0.17948743076923077	91.3	9.753846153846155	77.58461538461539	54.15384615384615	2.0	60	527	161	13.0	149.0	104.0	19	7.0	27.0	19.0	0	0	1095.2918639183044	4270	67302.33164691925	2341	45.175644028103044	
0.2222225873015873	91.81428571428572	9.793650793650794	78.03174603174604	54.523809523809526	2.0	61	535	161	12.0	122.0	84.0	50	8.0	28.0	20.0	0	0	1090.9331443309784	4340	68393.26479125023	2380	45.16129032258065	
0.23888926666666668	85.4	9.916666666666666	80.43333333333334	56.25	2.0	62	546	151	14.0	137.0	95.0	37	8.0	28.0	20.0	0	0	1043.1840841770172	4410	69436.44887542725	2422	45.079365079365076	
0.3756617142857143	85.58571428571429	9.873015873015873	78.4920634920635	54.904761904761905	2.33333	63	554	149	12.0	127.0	89.0	23	7.0	23.0	16.0	0	0	1108.184983253479	4480	70544.63385868073	2458	45.13392857142857	
0.42187523437499996	89.54285714285714	9.859375	79.65625	55.71875	2.33333	64	561	160	12.0	111.0	77.0	19	7.0	20.0	14.0	0	0	1143.7836034297943	4550	71688.41746211052	2495	45.16483516483516	
0.35593227118644066	91.01428571428572	10.220338983050848	84.33898305084746	58.983050847457626	2.33333	65	573	160	16.0	150.0	105.0	43	8.0	30.0	21.0	0	0	1057.376179933548	4620	72745.79364204407	2533	45.17316017316018	
0.3437499375	91.24285714285715	10.0	82.3125	57.59375	2.33333	66	580	140	13.0	150.0	105.0	21	7.0	20.0	14.0	0	0	1097.202710390091	4690	73842.99635243416	2574	45.11727078891258	
0.310344775862069	85.1	10.017241379310345	76.70689655172414	53.6551724137931	2.33333	67	593	147	12.0	139.0	97.0	21	7.0	26.0	18.0	0	0	992.9374089241028	4760	74835.93376135826	2611	45.147058823529406	
0.24747469696969698	84.0	9.696969696969697	70.83333333333333	49.54545454545455	2.33333	68	598	130	12.0	108.0	75.0	21	7.0	20.0	14.0	0	0	1130.6274597644806	4830	75966.56122112274	2655	45.03105590062112	
0.3551911967213115	83.54285714285714	10.245901639344263	78.8688524590164	55.114754098360656	2.33333	69	608	135	14.0	123.0	86.0	9	7.0	25.0	18.0	0	0	1048.330946445465	4900	77014.8921675682	2696	44.97959183673469	
0.36410261538461536	91.5	10.2	79.86153846153846	55.723076923076924	2.33333	70	614	187	16.0	160.0	111.0	21	7.0	20.0	14.0	0	0	1119.8172948360443	4970	78134.70946240425	2742	44.82897384305835	
0.430107564516129	97.74285714285715	10.306451612903226	85.53225806451613	59.75806451612903	2.33333	71	623	187	14.0	160.0	111.0	27	7.0	20.0	14.0	0	0	1117.1238133907318	5040	79251.83327579498	2776	44.92063492063492	
0.3551910491803279	91.7	10.59016393442623	89.0327868852459	62.0655737704918	2.33333	72	633	156	16.0	161.0	111.0	33	7.0	21.0	15.0	0	0	1155.50910282135	5110	80407.34237861633	2823	44.75538160469667	
0.33333303571428574	90.18571428571428	10.392857142857142	84.94642857142857	59.285714285714285	2.33333	73	648	164	14.0	161.0	111.0	25	7.0	23.0	16.0	0	0	1026.7911517620087	5180	81434.13353037834	2868	44.633204633204635	
0.3703701904761905	96.02857142857142	10.174603174603174	80.71428571428571	56.507936507936506	2.66667	74	656	152	14.0	125.0	87.0	30	7.0	17.0	12.0	0	0	1148.0463020801544	5250	82582.1798324585	2910	44.57142857142857	
0.42051253846153847	93.68571428571428	10.430769230769231	85.47692307692307	59.69230769230769	2.66667	75	662	157	14.0	134.0	94.0	19	7.0	21.0	15.0	0	0	1172.713469028473	5320	83754.89330148697	2959	44.379699248120296	
0.44270796875	94.07142857142857	10.6875	85.984375	60.03125	2.66667	76	669	201	14.0	153.0	106.0	12	7.0	20.0	14.0	0	0	1151.9296016693115	5390	84906.82290315628	2995	44.43413729128015	
0.468749796875	102.1	10.796875	87.390625	61.09375	2.66667	77	676	261	14.0	134.0	94.0	28	7.0	21.0	15.0	0	0	1183.1745371818542	5460	86089.99744033813	3037	44.37728937728937	
0.3541665	102.37142857142857	10.46875	86.296875	60.265625	2.66667	78	683	188	14.0	177.0	124.0	34	7.0	23.0	16.0	0	0	1178.0459623336792	5530	87268.04340267181	3083	44.249547920434	
0.4098360655737705	102.11428571428571	10.508196721311476	88.68852459016394	61.91803278688525	2.66667	79	693	188	13.0	176.0	123.0	46	7.0	21.0	15.0	0	0	1115.2314100265503	5600	88383.27481269836	3129	44.125	
0.28961754098360654	100.5	10.262295081967213	85.70491803278688	59.81967213114754	2.66667	80	703	173	14.0	165.0	115.0	41	7.0	21.0	15.0	0	0	1110.2300627231598	5670	89493.50487542152	3176	43.98589065255732	
0.35416665625	103.9	10.859375	92.15625	64.40625	2.66667	81	710	161	15.0	183.0	127.0	47	8.0	45.0	32.0	0	0	1207.6389853954315	5740	90701.14386081696	3217	43.954703832752614	
0.313131303030303	97.61428571428571	10.636363636363637	90.89393939393939	63.36363636363637	2.66667	82	715	226	15.0	198.0	136.0	44	7.0	32.0	22.0	0	0	1237.6862637996674	5810	91938.83012461662	3271	43.70051635111876	
0.30729179687499997	94.82857142857142	10.671875	90.6875	63.234375	2.66667	83	722	179	14.0	151.0	104.0	34	7.0	21.0	15.0	0	0	1192.6433193683624	5880	93131.47344398499	3318	43.57142857142857	
0.2974360769230769	94.37142857142857	10.584615384615384	88.83076923076923	62.06153846153846	2.66667	84	728	151	15.0	158.0	109.0	34	7.0	21.0	15.0	0	0	1208.8952240943909	5950	94340.36866807938	3364	43.46218487394958	
0.3177084375	100.1	10.34375	79.96875	55.765625	2.66667	85	735	180	15.0	183.0	127.0	33	7.0	21.0	15.0	0	0	1192.1130397319794	6020	95532.48170781136	3410	43.355481727574755	
0.2736320895522388	95.77142857142857	10.26865671641791	74.74626865671642	52.11940298507463	2.66667	86	739	172	15.0	122.0	85.0	32	8.0	30.0	21.0	0	0	1286.1099355220795	6090	96818.59164333344	3447	43.39901477832512	
0.33333363636363633	90.87142857142857	9.984848484848484	71.04545454545455	49.57575757575758	2.66667	87	744	156	15.0	123.0	86.0	20	7.0	20.0	14.0	0	0	1275.823942899704	6160	98094.41558623314	3488	43.37662337662338	
0.43386295238095235	88.67142857142858	9.80952380952381	71.41269841269842	49.857142857142854	2.66667	88	752	156	16.0	187.0	128.0	23	7.0	18.0	13.0	0	0	1184.79705286026	6230	99279.2126390934	3524	43.43499197431782	
0.5185190634920634	84.37142857142857	10.428571428571429	84.14285714285714	58.714285714285715	2.66667	89	760	156	14.0	162.0	113.0	23	7.0	18.0	13.0	0	0	1193.486430644989	6300	100472.69906973839	3559	43.507936507936506	
0.5617288333333333	88.15714285714286	10.648148148148149	89.51851851851852	62.425925925925924	2.66667	90	777	151	14.0	142.0	98.0	25	7.0	21.0	15.0	0	0	975.4130146503448	6370	101448.11208438873	3596	43.54788069073784	
0.4098363442622951	92.01428571428572	10.459016393442623	85.81967213114754	59.967213114754095	2.66667	91	787	151	13.0	131.0	92.0	52	7.0	21.0	15.0	0	0	1126.6863052845001	6440	102574.79838967323	3634	43.57142857142857	
0.661616803030303	92.07142857142857	10.969696969696969	95.25757575757575	66.5	2.66667	92	792	151	13.0	131.0	92.0	52	8.0	37.0	26.0	0	0	1209.4568183422089	6510	103784.25520801544	3670	43.625192012288785	
0.5084750847457626	93.51428571428572	10.576271186440678	91.50847457627118	63.79661016949152	4.66667	93	804	164	13.0	144.0	100.0	15	8.0	30.0	21.0	0	0	1080.68346118927	6580	104864.93866920471	3708	43.64741641337386	
0.45000035	93.97142857142858	10.466666666666667	89.46666666666667	62.38333333333333	4.66667	94	815	164	14.0	133.0	91.0	22	8.0	30.0	21.0	0	0	1088.0948123931885	6650	105953.0334815979	3755	43.53383458646617	
0.45502661904761904	102.25714285714285	10.587301587301587	92.07936507936508	64.19047619047619	5.33333	95	823	193	16.0	217.0	152.0	35	8.0	30.0	21.0	0	0	1151.3431143760681	6720	107104.37659597397	3803	43.40773809523809	
0.3015873492063492	99.18571428571428	10.492063492063492	90.4920634920635	63.04761904761905	5.33333	96	831	214	17.0	142.0	99.0	15	8.0	30.0	21.0	0	0	1161.4651103019714	6790	108265.84170627594	3850	43.29896907216495	
0.4626865223880597	105.27142857142857	10.298507462686567	89.8955223880597	62.776119402985074	5.33333	97	835	190	15.0	166.0	117.0	47	8.0	30.0	21.0	0	0	1225.687858581543	6860	109491.52956485748	3895	43.22157434402333	
1.046874734375	109.15714285714286	10.5	93.046875	64.765625	5.33333	98	842	157	15.0	166.0	117.0	77	7.0	15.0	11.0	0	0	1196.2623631954193	6930	110687.7919280529	3941	43.131313131313135	
0.7589740461538462	107.35714285714286	10.661538461538461	94.84615384615384	65.95384615384616	5.33333	99	848	152	16.0	194.0	135.0	69	7.0	17.0	12.0	0	0	1208.336764574051	7000	111896.12869262695	3987	43.04285714285714	
0.8238091428571429	112.61428571428571	10.642857142857142	92.64285714285714	64.44285714285714	5.33333	100	849	200	16	168	117	58	7	20	14	0	0	1282.4292266368866	7070	113178.55791926384	4038	42.88543140028288	
0.8783065555555556	113.61428571428571	10.80952380952381	95.84126984126983	66.53968253968254	5.33333	101	857	169	16.0	136.0	95.0	58	7.0	21.0	15.0	0	0	1173.3135561943054	7140	114351.87147545815	4087	42.75910364145658	
0.6772482539682539	120.07142857142857	10.253968253968255	87.31746031746032	60.77777777777778	5.33333	102	865	186	13.0	174.0	121.0	64	7.0	21.0	15.0	0	0	1177.307822227478	7210	115529.17929768562	4132	42.690707350901526	
0.7878784848484849	121.21428571428571	10.287878787878787	91.48484848484848	63.621212121212125	5.33333	103	870	186	14.0	178.0	123.0	55	7.0	21.0	15.0	0	0	1250.9207389354706	7280	116780.1000366211	4184	42.52747252747253	
0.9344260655737705	128.45714285714286	10.80327868852459	99.11475409836065	69.0	5.33333	104	880	213	15.0	168.0	117.0	29	8.0	37.0	26.0	0	0	1157.9987754821777	7350	117938.09881210327	4228	42.47619047619048	
0.9313720588235295	134.55714285714285	10.808823529411764	100.33823529411765	69.69117647058823	5.33333	105	883	213	14.0	144.0	100.0	52	8.0	37.0	26.0	0	0	1261.3061151504517	7420	119199.40492725372	4279	42.33153638814016	
0.5323380597014926	141.32857142857142	10.626865671641792	99.50746268656717	69.38805970149254	5.33333	106	887	213	13.0	172.0	119.0	76	7.0	23.0	16.0	0	0	1240.9540979862213	7490	120440.35902523994	4335	42.12283044058746	
0.6763280579710145	145.5142857142857	10.46376811594203	94.04347826086956	65.43478260869566	5.33333	107	889	248	16.0	172.0	119.0	72	7.0	24.0	17.0	0	0	1249.4549677371979	7560	121689.81399297714	4390	41.93121693121693	
0.8333330303030303	146.37142857142857	10.333333333333334	90.06060606060606	62.71212121212121	5.33333	108	894	236	14.0	195.0	135.0	66	8.0	37.0	26.0	0	0	1177.295683145523	7630	122867.10967612267	4435	41.87418086500655	
0.6313128787878789	146.04285714285714	10.121212121212121	88.86363636363636	61.90909090909091	5.33333	109	899	260	16.0	195.0	135.0	65	8.0	44.0	31.0	0	0	1235.5821280479431	7700	124102.69180417061	4484	41.76623376623376	
0.642511884057971	145.4	10.333333333333334	90.65217391304348	63.11594202898551	5.33333	110	901	260	16.0	162.0	113.0	59	8.0	37.0	26.0	0	0	1294.170580625534	7770	125396.86238479614	4534	41.64736164736165	
0.7205879411764706	157.45714285714286	10.397058823529411	96.91176470588235	67.48529411764706	5.33333	111	904	260	13.0	152.0	106.0	59	8.0	38.0	27.0	0	0	1270.0581986904144	7840	126666.92058348656	4579	41.594387755102034	
0.8109449253731343	166.11428571428573	10.73134328358209	96.95522388059702	67.5223880597015	5.33333	112	908	260	16.0	179.0	124.0	59	8.0	37.0	26.0	0	0	1269.546237230301	7910	127936.46682071686	4631	41.45385587863464	
0.714975652173913	162.38571428571427	10.608695652173912	95.7536231884058	66.65217391304348	5.33333	113	910	301	15.0	201.0	140.0	70	7.0	17.0	12.0	0	0	1314.9105894565582	7980	129251.37741017342	4684	41.30325814536341	
0.6183572463768117	161.8	10.507246376811594	97.42028985507247	67.84057971014492	5.33333	114	912	285	16.0	229.0	161.0	107	8.0	37.0	26.0	0	0	1299.3858392238617	8050	130550.76324939728	4740	41.11801242236025	
0.795238	151.32857142857142	10.285714285714286	89.3	62.22857142857143	5.33333	115	912	343	16	249	174	67	8	37	26	0	0	1369.5434398651123	8120	131920.3066892624	4792	40.98522167487685	
0.5273629850746269	153.27142857142857	10.850746268656716	98.28358208955224	68.5223880597015	5.33333	116	916	312	17.0	210.0	147.0	57	7.0	21.0	15.0	0	0	1281.970802307129	8190	133202.27749156952	4843	40.866910866910864	
0.8725486911764706	158.87142857142857	10.955882352941176	98.97058823529412	68.91176470588235	5.33333	117	919	335	16.0	218.0	152.0	79	7.0	20.0	14.0	0	0	1318.0645854473114	8260	134520.34207701683	4896	40.72639225181598	
0.8137251470588235	154.52857142857144	10.823529411764707	97.97058823529412	68.30882352941177	5.33333	118	922	335	15.0	224.0	155.0	79	7.0	21.0	15.0	0	0	1291.6256964206696	8330	135811.9677734375	4951	40.56422569027611	
0.7419351129032258	145.31428571428572	10.82258064516129	96.80645161290323	67.38709677419355	5.33333	119	931	328	15.0	208.0	144.0	38	7.0	21.0	15.0	0	0	1162.2237305641174	8400	136974.19150400162	4993	40.55952380952381	
1.019047	147.61428571428573	10.6	95.22857142857143	66.24285714285715	5.33333	120	932	261	15	252	175	71	7	21	15	0	0	1286.7309124469757	8470	138260.9224164486	5046	40.425029515938604	
0.9130430434782608	144.3	10.53623188405797	91.04347826086956	63.43478260869565	5.33333	121	934	258	14.0	174.0	122.0	83	8.0	30.0	21.0	0	0	1263.539951324463	8540	139524.46236777306	5094	40.351288056206094	
1.1940295522388058	139.9142857142857	10.537313432835822	90.01492537313433	62.701492537313435	5.33333	122	938	271	15.0	174.0	122.0	47	7.0	18.0	13.0	0	0	1182.1975193023682	8610	140706.65988707542	5144	40.2555168408827	
1.164251115942029	142.92857142857142	10.956521739130435	103.10144927536231	71.78260869565217	5.33333	123	940	233	16.0	195.0	136.0	98	7.0	18.0	13.0	0	0	1274.1600759029388	8680	141980.81996297836	5192	40.18433179723502	
1.1592035820895523	140.42857142857142	10.567164179104477	95.74626865671642	66.70149253731343	5.33333	124	944	233	14.0	159.0	112.0	77	7.0	18.0	13.0	0	0	1278.5228817462921	8750	143259.34284472466	5236	40.16	
0.9095232857142856	139.38571428571427	10.542857142857143	90.74285714285715	63.2	5.33333	125	944	233	16	159	111	77	7	21	15	0	0	1335.1888558864594	8820	144594.5317006111	5286	40.06802721088435	
0.7190472857142857	137.85714285714286	10.228571428571428	87.24285714285715	60.8	5.33333	126	945	233	14	164	114	82	7	18	13	0	0	1344.3841814994812	8890	145938.9158821106	5337	39.966254218222716	
0.8484845454545454	132.92857142857142	10.469696969696969	93.74242424242425	65.25757575757575	8.0	127	950	235	16.0	164.0	114.0	67	7.0	18.0	13.0	0	0	1241.9347953796387	8960	147180.85067749023	5386	39.88839285714286	
1.176767378787879	130.47142857142856	10.303030303030303	88.24242424242425	61.484848484848484	8.0	128	955	235	17.0	160.0	113.0	53	7.0	15.0	11.0	0	0	1230.3266472816467	9030	148411.17732477188	5432	39.84496124031007	
1.1617645147058824	125.41428571428571	10.544117647058824	93.0	64.66176470588235	8.0	129	958	214	17.0	198.0	138.0	49	7.0	21.0	15.0	0	0	1235.6604588031769	9100	149646.83778357506	5481	39.76923076923077	
1.191175735294118	129.9857142857143	10.735294117647058	101.58823529411765	70.63235294117646	11.3333	130	961	214	16.0	217.0	151.0	74	7.0	21.0	15.0	0	0	1248.8878920078278	9170	150895.7256755829	5529	39.705561613958565	
1.1589734923076922	127.8	10.907692307692308	109.06153846153846	75.8923076923077	11.3333	131	967	209	15.0	213.0	148.0	62	7.0	21.0	15.0	0	0	1210.4637126922607	9240	152106.18938827515	5575	39.66450216450217	
0.888888893939394	129.14285714285714	10.530303030303031	99.62121212121212	69.53030303030303	11.3333	132	972	209	15.0	218.0	151.0	74	7.0	21.0	15.0	0	0	1235.0804562568665	9310	153341.269844532	5621	39.62406015037594	
0.8529416176470588	129.75714285714287	10.441176470588236	96.86764705882354	67.55882352941177	11.3333	133	975	209	15.0	218.0	151.0	38	7.0	21.0	15.0	0	0	1296.783344745636	9380	154638.05318927765	5669	39.56289978678038	
0.8238099999999999	132.4142857142857	10.17142857142857	92.37142857142857	64.42857142857143	11.3333	134	976	229	16	284	198	74	7	21	15	0	0	1278.0564153194427	9450	155916.1096045971	5718	39.49206349206349	
1.3227513174603176	128.82857142857142	9.88888888888889	84.95238095238095	59.26984126984127	11.3333	135	984	193	16.0	226.0	157.0	53	7.0	21.0	15.0	0	0	1136.076693534851	9520	157052.18629813194	5766	39.432773109243705	
1.479797424242424	133.17142857142858	10.454545454545455	99.07575757575758	69.21212121212122	11.3333	136	989	231	15.0	199.0	139.0	60	7.0	21.0	15.0	0	0	1241.0510833263397	9590	158293.23738145828	5816	39.35349322210636	
1.2575757575757576	141.72857142857143	10.272727272727273	92.0909090909091	64.27272727272727	11.3333	137	994	234	15.0	214.0	149.0	42	7.0	18.0	13.0	0	0	1233.9099230766296	9660	159527.1473045349	5861	39.3271221532091	
1.214286714285714	152.25714285714287	10.457142857142857	98.65714285714286	68.92857142857143	11.3333	138	994	228	14	199	140	63	7	21	15	0	0	1353.9724028110504	9730	160881.11970734596	5911	39.2497430626927	
1.531400971014493	160.21428571428572	10.869565217391305	107.73913043478261	75.23188405797102	11.3333	139	996	269	17.0	275.0	192.0	63	7.0	23.0	16.0	0	0	1326.9531455039978	9800	162208.07285284996	5960	39.183673469387756	
1.2898526086956523	161.25714285714287	11.333333333333334	118.31884057971014	82.6086956521739	11.3333	140	998	269	17.0	276.0	192.0	59	7.0	23.0	16.0	0	0	1389.1525983810425	9870	163597.225451231	6015	39.05775075987842	
1.1190447571428572	168.12857142857143	11.242857142857142	115.14285714285714	80.41428571428571	11.3333	141	999	279	17	232	161	59	7	20	14	0	0	1374.1430730819702	9940	164971.36852431297	6070	38.933601609657956	
1.0869540579710146	168.61428571428573	11.304347826086957	115.17391304347827	80.34782608695652	11.3333	142	1001	259	17.0	232.0	161.0	75	8.0	28.0	20.0	0	0	1338.6984477043152	10010	166310.0669720173	6124	38.821178821178826	
1.0190452857142855	162.75714285714287	11.342857142857143	114.48571428571428	79.87142857142857	11.3333	143	1001	291	17	232	161	75	7	21	15	0	0	1409.2907226085663	10080	167719.35769462585	6181	38.68055555555555	
1.2686531791044777	169.0	11.029850746268657	113.02985074626865	78.8955223880597	11.3333	144	1005	333	16.0	227.0	158.0	101	7.0	15.0	11.0	0	0	1294.893649816513	10150	169014.25134444237	6231	38.61083743842365	
1.3142822857142857	167.28571428571428	10.985714285714286	113.8	79.44285714285714	11.3333	145	1005	248	15	258	179	75	7	20	14	0	0	1369.8073945045471	10220	170384.05873894691	6282	38.53228962818004	
1.58571	166.35714285714286	10.771428571428572	103.07142857142857	71.95714285714286	11.3333	146	1005	298	16	273	190	86	7	20	14	0	0	1345.813434123993	10290	171729.8721730709	6336	38.42565597667639	
1.2898517391304345	169.1	10.942028985507246	107.59420289855072	75.05797101449275	11.3333	147	1007	298	16.0	229.0	159.0	99	7.0	29.0	20.0	0	0	1330.306382894516	10360	173060.17855596542	6386	38.359073359073356	
1.3380924285714286	168.61428571428573	10.67142857142857	98.32857142857142	68.58571428571429	11.3333	148	1008	271	15	216	151	91	7	20	14	0	0	1340.12766456604	10430	174400.30622053146	6432	38.33173537871525	
1.2523775714285712	170.1	10.614285714285714	96.52857142857142	67.34285714285714	11.3333	149	1009	311	16	210	147	77	7	21	15	0	0	1331.3658332824707	10500	175731.67205381393	6483	38.25714285714285	
1.3284285294117648	169.81428571428572	10.926470588235293	106.30882352941177	74.23529411764706	11.3333	150	1012	356	17.0	212.0	147.0	44	7.0	21.0	15.0	0	0	1268.5335538387299	10570	177000.20560765266	6530	38.221381267738884	
1.4714252857142858	176.02857142857144	11.142857142857142	109.34285714285714	76.3	11.3333	151	1012	356	16	207	143	66	7	21	15	0	0	1365.461098909378	10640	178365.66670656204	6586	38.10150375939849	
1.1809495714285714	170.15714285714284	10.885714285714286	101.5	70.94285714285714	11.3333	152	1013	288	15	201	140	78	8	37	26	0	0	1351.6717219352722	10710	179717.3384284973	6636	38.03921568627451	
1.5273592537313432	168.42857142857142	10.567164179104477	93.7910447761194	65.4776119402985	11.3333	153	1017	290	15.0	199.0	138.0	44	8.0	38.0	26.0	0	0	1263.8802053928375	10780	180981.21863389015	6681	38.024118738404454	
1.4656829411764705	168.67142857142858	11.0	98.07352941176471	68.32352941176471	11.3333	154	1020	329	17.0	221.0	155.0	90	7.0	23.0	16.0	0	0	1270.6463532447815	10850	182251.86498713493	6731	37.963133640552996	
1.2047595714285713	179.92857142857142	10.657142857142857	88.75714285714285	61.9	11.3333	155	1021	304	15	221	155	91	7	21	15	0	0	1256.858972787857	10920	183508.7239599228	6777	37.93956043956044	
1.2380929142857144	175.65714285714284	10.6	88.75714285714285	61.885714285714286	11.3333	156	1022	332	15	222	156	76	7	20	14	0	0	1271.8644409179688	10990	184780.58840084076	6829	37.86169244767971	
1.3809500714285714	185.45714285714286	10.485714285714286	93.6	65.21428571428571	12.0	157	1022	325	17	220	152	76	7	21	15	0	0	1330.9624428749084	11060	186111.55084371567	6877	37.82097649186257	
1.0289831014492752	176.38571428571427	10.231884057971014	82.07246376811594	57.21739130434783	12.0	158	1024	378	15.0	163.0	113.0	75	7.0	18.0	13.0	0	0	1255.7930879592896	11130	187367.34393167496	6923	37.79874213836478	
1.2512053188405798	185.78571428571428	10.420289855072463	90.17391304347827	62.82608695652174	12.0	159	1026	381	16.0	228.0	158.0	33	7.0	17.0	12.0	0	0	1247.2101850509644	11200	188614.55411672592	6971	37.75892857142858	
1.1225471176470587	180.22857142857143	10.544117647058824	93.05882352941177	64.73529411764706	12.0	160	1029	362	16.0	229.0	158.0	58	7.0	17.0	12.0	0	0	1256.88671875	11270	189871.44083547592	7017	37.73735581188997	
1.1274490294117647	165.87142857142857	10.397058823529411	90.07352941176471	62.720588235294116	12.0	161	1032	325	17.0	229.0	158.0	75	7.0	15.0	11.0	0	0	1234.335584640503	11340	191105.77642011642	7061	37.7336860670194	
0.995236242857143	167.9857142857143	10.314285714285715	93.75714285714285	65.28571428571429	12.0	162	1033	331	14	201	140	41	7	17	12	0	0	1274.8282449245453	11410	192380.60466504097	7109	37.69500438212094	
1.0298488059701494	158.57142857142858	10.417910447761194	96.2089552238806	67.1044776119403	12.0	163	1037	324	16.0	206.0	143.0	39	7.0	23.0	16.0	0	0	1264.0856719017029	11480	193644.69033694267	7159	37.639372822299656	
1.2548995	158.14285714285714	10.647058823529411	94.88235294117646	66.23529411764706	12.0	164	1040	318	16.0	173.0	121.0	48	7.0	23.0	16.0	0	0	1267.1549999713898	11550	194911.84533691406	7209	37.58441558441559	
1.4857123714285714	156.75714285714287	10.67142857142857	101.0	70.44285714285714	12.6667	165	1041	357	15	199	140	72	7	17	12	0	0	1363.0058290958405	11620	196274.8511660099	7257	37.547332185886404	
1.4047614285714285	172.0	11.042857142857143	104.8	73.12857142857143	12.6667	166	1042	420	16	208	146	64	7	17	12	0	0	1394.6355140209198	11690	197669.48668003082	7311	37.45936698032506	
1.4714285285714286	159.5142857142857	10.885714285714286	99.15714285714286	69.14285714285714	12.6667	167	1043	349	15	208	146	75	7	17	12	0	0	1330.0597953796387	11760	198999.54647541046	7365	37.37244897959183	
1.434784492753623	170.4857142857143	10.768115942028986	100.23188405797102	69.82608695652173	12.6667	168	1045	349	16.0	293.0	205.0	94	7.0	30.0	21.0	0	0	1270.9281568527222	11830	200270.47463226318	7417	37.303465765004226	
2.0434801884057974	148.5857142857143	10.420289855072463	99.05797101449275	69.02898550724638	12.6667	169	1047	314	15.0	226.0	158.0	32	7.0	23.0	16.0	0	0	1314.0293962955475	11900	201584.50402855873	7473	37.201680672268914	
1.7708369687499999	145.15714285714284	10.265625	92.421875	64.453125	12.6667	170	1054	440	15.0	180.0	124.0	62	7.0	27.0	19.0	0	0	1195.2736103534698	11970	202779.7776389122	7517	37.20133667502089	
2.2000047142857144	171.34285714285716	10.442857142857143	96.37142857142857	67.18571428571428	12.6667	171	1055	440	15	197	136	77	7	27	19	0	0	1326.913405418396	12040	204106.6910443306	7563	37.1843853820598	
1.6616186363636365	170.55714285714285	10.151515151515152	89.18181818181819	62.25757575757576	12.6667	172	1060	481	16.0	159.0	111.0	44	7.0	23.0	16.0	0	0	1209.0542693138123	12110	205315.7453136444	7618	37.093311312964495	
1.2009823529411765	181.9857142857143	10.191176470588236	87.8970588235294	61.25	12.6667	173	1063	481	14.0	159.0	111.0	44	8.0	37.0	26.0	0	0	1184.8646371364594	12180	206500.60995078087	7671	37.01970443349754	
1.58854375	189.54285714285714	10.34375	90.8125	63.21875	12.6667	174	1070	481	14.0	163.0	113.0	36	8.0	37.0	26.0	0	0	1124.143013715744	12250	207624.7529644966	7714	37.02857142857143	
2.3439185714285715	149.81428571428572	10.222222222222221	97.39682539682539	67.87301587301587	13.3333	175	1078	485	13.0	198.0	138.0	39	8.0	37.0	26.0	0	0	1062.4924893379211	12320	208687.24545383453	7756	37.04545454545455	
2.5752719354838707	133.0857142857143	10.32258064516129	101.16129032258064	70.46774193548387	13.3333	176	1087	451	13.0	178.0	125.0	31	7.0	27.0	19.0	0	0	841.2495203018188	12390	209528.49497413635	7806	36.997578692493946	
1.7391319275362318	131.5	10.507246376811594	106.33333333333333	74.07246376811594	13.3333	177	1089	192	14.0	202.0	141.0	69	8.0	37.0	26.0	0	0	851.5634071826935	12460	210380.05838131905	7858	36.93418940609951	
2.0049776119402987	131.4142857142857	10.522388059701493	101.82089552238806	70.86567164179104	13.3333	178	1093	194	17.0	169.0	117.0	60	7.0	27.0	19.0	0	0	824.3516092300415	12530	211204.4099905491	7911	36.86352753391859	
1.9435915384615388	129.97142857142856	10.676923076923076	101.23076923076923	70.56923076923077	13.3333	179	1099	247	16.0	233.0	162.0	45	8.0	32.0	22.0	0	0	816.7926371097565	12600	212021.20262765884	7955	36.86507936507937	
1.7487194923076925	127.98571428571428	10.523076923076923	103.35384615384615	71.96923076923076	13.3333	180	1105	247	15.0	208.0	144.0	43	8.0	32.0	22.0	0	0	807.9534773826599	12670	212829.1561050415	8002	36.84293606945541	
2.243782089552239	128.85714285714286	10.223880597014926	96.25373134328358	67.07462686567165	13.3333	181	1109	247	15.0	208.0	144.0	53	7.0	21.0	15.0	0	0	835.4634013175964	12740	213664.6195063591	8045	36.852433281004714	
2.1333328333333332	126.95714285714286	10.2	92.56666666666666	64.4	13.3333	182	1120	247	14.0	271.0	189.0	41	7.0	18.0	13.0	0	0	720.4486081600189	12810	214385.06811451912	8091	36.8384074941452	
1.6715667647058823	125.08571428571429	10.132352941176471	91.22058823529412	63.5	13.3333	183	1123	223	15.0	172.0	120.0	82	8.0	35.0	24.0	0	0	821.417150259018	12880	215206.48526477814	8140	36.80124223602485	
1.4666652307692305	120.64285714285714	9.923076923076923	86.41538461538461	60.16923076923077	13.3333	184	1129	183	14.0	179.0	123.0	79	8.0	28.0	20.0	0	0	787.9712562561035	12950	215994.45652103424	8186	36.787644787644794	
2.0338144927536232	127.85714285714286	10.231884057971014	97.66666666666667	67.95652173913044	13.3333	185	1131	198	14.0	229.0	157.0	65	8.0	28.0	20.0	0	0	839.7552876472473	13020	216834.2118086815	8236	36.743471582181265	
2.3025615384615383	125.44285714285714	10.36923076923077	93.81538461538462	65.23076923076923	13.3333	186	1137	306	15.0	228.0	158.0	18	7.0	23.0	16.0	0	0	784.7343366146088	13090	217618.9461452961	8284	36.71504965622613	
3.0403983333333335	126.28571428571429	9.833333333333334	85.03030303030303	59.31818181818182	13.3333	187	1142	313	14.0	151.0	106.0	76	7.0	18.0	13.0	0	0	790.7226390838623	13160	218409.66878437996	8332	36.68693009118541	
3.7727217121212124	120.62857142857143	10.378787878787879	98.3030303030303	68.51515151515152	13.3333	188	1147	201	14.0	249.0	171.0	33	7.0	18.0	13.0	0	0	799.9295680522919	13230	219209.59835243225	8380	36.65910808767951	
2.4776076119402983	124.57142857142857	10.522388059701493	98.5223880597015	68.74626865671642	13.6667	189	1151	201	14.0	238.0	165.0	34	7.0	21.0	15.0	0	0	814.3324615955353	13300	220023.9308140278	8431	36.60902255639098	
1.609373390625	123.77142857142857	10.46875	87.46875	61.171875	13.6667	190	1158	201	14.0	163.0	113.0	58	7.0	26.0	18.0	0	0	764.7514116764069	13370	220788.6822257042	8480	36.57442034405385	
1.9253716417910447	126.01428571428572	10.835820895522389	92.76119402985074	64.71641791044776	13.6667	191	1162	221	16.0	195.0	134.0	37	8.0	26.0	18.0	0	0	800.3744378089905	13440	221589.05666351318	8521	36.59970238095238	
1.5652178695652175	123.32857142857142	10.159420289855072	79.10144927536231	55.231884057971016	13.6667	192	1164	205	16.0	198.0	136.0	55	7.0	27.0	19.0	0	0	847.212543964386	13510	222436.26920747757	8568	36.58031088082902	
2.3137259852941177	119.28571428571429	10.220588235294118	79.69117647058823	55.63235294117647	13.6667	193	1167	204	14.0	135.0	93.0	34	7.0	23.0	16.0	0	0	816.9363570213318	13580	223253.2055644989	8611	36.59057437407953	
2.471797384615385	111.77142857142857	10.03076923076923	83.93846153846154	58.66153846153846	13.6667	194	1173	177	14.0	175.0	122.0	51	7.0	17.0	12.0	0	0	785.789529800415	13650	224038.99509429932	8658	36.57142857142858	
2.9697000606060606	110.31428571428572	9.893939393939394	88.66666666666667	62.0	13.6667	195	1178	160	15.0	149.0	105.0	59	7.0	17.0	12.0	0	0	802.9618008136749	13720	224841.956895113	8699	36.59620991253645	
3.7910502985074626	111.85714285714286	10.402985074626866	97.85074626865672	68.43283582089552	13.6667	196	1182	183	16.0	185.0	129.0	36	8.0	34.0	24.0	0	0	846.5554094314575	13790	225688.51230454445	8745	36.58448150833937	
3.456416415384616	118.42857142857143	10.307692307692308	99.58461538461539	69.47692307692307	13.6667	197	1188	183	13.0	189.0	132.0	32	8.0	25.0	18.0	0	0	814.992862701416	13860	226503.50516724586	8794	36.551226551226556	
2.522227166666667	123.31428571428572	10.383333333333333	98.2	68.58333333333333	13.6667	198	1199	276	15.0	195.0	135.0	51	8.0	32.0	22.0	0	0	757.3434648513794	13930	227260.84863209724	8834	36.582914572864325	
2.454550606060606	124.35714285714286	10.318181818181818	97.13636363636364	67.81818181818181	13.6667	199	1204	239	15.0	218.0	152.0	64	7.0	21.0	15.0	0	0	840.1294348239899	14000	228100.97806692123	8881	36.56428571428572	
1.2979823181818182	123.54285714285714	10.287878787878787	92.04545454545455	64.13636363636364	13.6667	200	1209	264	15.0	184.0	129.0	49	7.0	21.0	15.0	0	0	852.8580739498138	14070	228953.83614087105	8933	36.51030561478322	
