Generation:
2000

Phenotype:
*:*:IS_WANT_OBJECT,false,6;B_ANTI_PHOTOTAXIS,96;B_RANDOM_WALK,6#P_MOTIVATION_2_GT,true;*:B_RANDOM_WALK;B_PHOTOTAXIS;B_ANTI_PHOTOTAXIS;*:IS_DROP_OBJECT,false,43;B_RANDOM_WALK,73;B_ANTI_PHOTOTAXIS,79#P_HAS_OBJECT,false;*:*:IS_MOTIVATION_1_DEC,true,3;IS_WANT_OBJECT,false,1;B_PHOTOTAXIS,3;B_PHOTOTAXIS,93;IS_WANT_OBJECT,true,58;B_RANDOM_WALK,93;IS_DROP_OBJECT,false,53#

Genotype:
[69950, 72537, 74575, 77859, 39199, 16343, 20486, 93491, 33573, 78264, 26613, 73332, 87872, 97148, 84397, 18499, 60999, 70603, 67250, 96232, 29828, 11217, 75406, 42491, 47006, 89941, 68030, 3776, 64455, 13236, 34974, 56510, 20358, 74853, 38096, 25552, 50189, 26441, 4834, 45543, 67204, 36343, 19933, 56502, 51960, 41974, 54242, 65309, 37140, 99755, 55212, 93808, 2713, 34924, 23843, 49419, 38896, 94953, 79580, 82015, 33871, 6976, 70867, 49419, 78530, 99867, 69981, 97875, 75090, 37373, 22914, 98141, 53082, 63996, 79859, 32725, 14094, 92384, 20358, 15, 35858, 25552, 35192, 93952, 46977, 45543, 67204, 36343, 75249, 73818, 16112, 71566, 62614, 5392, 55865, 72512, 79580, 82015, 39047, 34924, 94903, 27027, 78530, 38269, 46131, 73395, 87387, 77261, 92100, 34839, 16935, 49083, 60627, 95242, 80636, 27523, 9973, 47278, 36353, 80853, 53028, 4676, 49867, 60656, 66944, 19371, 69020, 92729, 38319, 37549, 3567, 61567, 73438, 27315, 10196, 54656, 16470, 24423, 76919, 40391, 60808, 25961, 5129, 91269, 44261, 60197, 8184, 20180]
Tree:
None

Fitness:
26.6667