ave_fitness	ave_genome_length	ave_tree_depth	ave_tree_nodes	ave_used_codons	best_fitness	gen	invalids	max_genome_length	max_tree_depth	max_tree_nodes	max_used_codons	min_genome_length	min_tree_depth	min_tree_nodes	min_used_codons	runtime_error	time_adjust	time_taken	total_inds	total_time	unique_inds	unused_search	
0.0	50.542857142857144	8.185714285714285	48.542857142857144	33.885714285714286	0.0	0	0	151	10	146	101	18	7	17	12	0	0	1334.708731174469	70	1334.708731174469	70	0.0	
0.0	46.84285714285714	8.229166666666666	37.375	26.25	0.0	1	23	120	14.0	80.0	56.0	18	7.0	15.0	11.0	0	0	834.5471038818359	140	2169.255835056305	107	23.571428571428584	
0.0	46.52857142857143	8.238095238095237	36.84126984126984	25.873015873015873	0.0	2	31	88	11.0	87.0	61.0	22	7.0	17.0	12.0	0	0	1105.7737481594086	210	3275.0295832157135	134	36.1904761904762	
0.0	43.18571428571428	8.090909090909092	34.872727272727275	24.6	0.0	3	47	98	13.0	84.0	58.0	9	7.0	15.0	11.0	0	0	921.2711179256439	280	4196.300701141357	162	42.14285714285714	
0.0	38.457142857142856	8.067796610169491	35.0	24.54237288135593	0.0	4	59	88	14.0	86.0	59.0	11	7.0	17.0	12.0	0	0	952.5441198348999	350	5148.844820976257	199	43.14285714285714	
0.0	40.4	7.938461538461539	33.38461538461539	23.523076923076925	0.0	5	65	84	14.0	69.0	48.0	21	7.0	15.0	11.0	0	0	1049.5835678577423	420	6198.428388834	226	46.19047619047619	
0.0	36.5	7.67741935483871	28.677419354838708	20.20967741935484	0.0	6	74	70	10.0	85.0	59.0	9	7.0	15.0	11.0	0	0	1033.086629152298	490	7231.515017986298	253	48.36734693877551	
0.0	35.47142857142857	7.776119402985074	26.149253731343283	18.46268656716418	0.0	7	78	70	12.0	63.0	44.0	19	7.0	15.0	11.0	0	0	1163.5337290763855	560	8395.048747062683	278	50.357142857142854	
0.0	34.08571428571429	7.625	25.90625	18.265625	0.0	8	85	70	10.0	63.0	44.0	17	7.0	17.0	12.0	0	0	1034.7342438697815	630	9429.782990932465	293	53.492063492063494	
0.0	32.542857142857144	7.626865671641791	24.253731343283583	17.134328358208954	0.0	9	89	69	10.0	38.0	27.0	18	7.0	15.0	11.0	0	0	1109.6101822853088	700	10539.393173217773	320	54.285714285714285	
0.0	33.32857142857143	7.656716417910448	25.253731343283583	17.791044776119403	0.0	10	93	49	10.0	43.0	30.0	18	7.0	15.0	11.0	0	0	1109.870442390442	770	11649.263615608215	344	55.324675324675326	
0.0	32.48571428571429	7.602941176470588	24.294117647058822	17.102941176470587	0.0	11	96	49	10.0	45.0	31.0	18	7.0	15.0	11.0	0	0	1120.2596147060394	840	12769.523230314255	372	55.714285714285715	
0.0	33.44285714285714	7.666666666666667	24.28787878787879	17.151515151515152	0.0	12	101	51	11.0	54.0	38.0	16	7.0	15.0	11.0	0	0	1090.8692932128906	910	13860.392523527145	393	56.81318681318681	
0.0	34.9	8.130434782608695	28.231884057971016	19.89855072463768	0.0	13	103	49	12.0	56.0	39.0	22	7.0	15.0	11.0	0	0	1117.0472445487976	980	14977.439768075943	418	57.3469387755102	
0.0	35.52857142857143	7.914285714285715	26.62857142857143	18.742857142857144	0.0	14	104	53	12	52	37	22	7	15	11	0	0	1126.4171288013458	1050	16103.856896877289	445	57.61904761904762	
0.0	34.57142857142857	8.194029850746269	28.597014925373134	20.134328358208954	0.0	15	108	63	12.0	55.0	39.0	11	7.0	15.0	11.0	0	0	1071.7290813922882	1120	17175.585978269577	471	57.94642857142857	
0.0	33.385714285714286	7.786885245901639	26.442622950819672	18.60655737704918	0.0	16	118	82	10.0	56.0	39.0	6	7.0	15.0	11.0	0	0	985.560629606247	1190	18161.146607875824	489	58.90756302521009	
0.015625	33.142857142857146	7.796875	27.0	18.984375	1.0	17	125	82	10.0	56.0	39.0	11	7.0	15.0	11.0	0	0	1057.7191145420074	1260	19218.86572241783	513	59.285714285714285	
0.06060606060606061	35.042857142857144	7.7727272727272725	27.71212121212121	19.59090909090909	1.0	18	130	82	10.0	70.0	50.0	11	7.0	15.0	11.0	0	0	1148.5874807834625	1330	20367.453203201294	534	59.849624060150376	
0.07575757575757576	39.6	7.893939393939394	27.0	19.09090909090909	1.0	19	135	65	11.0	61.0	42.0	11	7.0	15.0	11.0	0	0	1103.694429397583	1400	21471.147632598877	563	59.785714285714285	
0.14646465151515153	36.55714285714286	7.757575757575758	27.166666666666668	19.21212121212121	1.0	20	140	63	11.0	61.0	42.0	2	7.0	15.0	11.0	0	0	1092.4904415607452	1470	22563.638074159622	582	60.40816326530612	
0.26553671186440675	43.6	8.169491525423728	34.847457627118644	24.610169491525422	1.0	21	152	73	12.0	89.0	62.0	13	7.0	15.0	11.0	0	0	992.832647562027	1540	23556.47072172165	610	60.38961038961039	
0.21693120634920635	49.27142857142857	8.285714285714286	36.857142857142854	26.063492063492063	1.0	22	160	96	12.0	82.0	57.0	16	7.0	15.0	11.0	0	0	1099.0151951313019	1610	24655.48591685295	642	60.12422360248447	
0.19999998333333333	52.457142857142856	8.45	38.88333333333333	27.433333333333334	1.0	23	171	99	12.0	82.0	57.0	28	7.0	15.0	11.0	0	0	1040.6923398971558	1680	25696.178256750107	666	60.35714285714286	
0.192708328125	50.08571428571429	8.515625	37.453125	26.359375	1.0	24	178	91	13.0	116.0	80.0	26	7.0	15.0	11.0	0	0	1124.5935606956482	1750	26820.771817445755	694	60.34285714285714	
0.23076923076923078	50.714285714285715	8.215384615384615	35.323076923076925	24.93846153846154	1.0	25	184	98	13.0	85.0	59.0	19	7.0	15.0	11.0	0	0	1122.1765167713165	1820	27942.94833421707	716	60.65934065934066	
0.25806451612903225	55.77142857142857	9.274193548387096	47.16129032258065	33.24193548387097	1.0	26	193	82	16.0	99.0	69.0	18	7.0	15.0	11.0	0	0	1105.829449415207	1890	29048.77778363228	745	60.58201058201058	
0.390625	58.07142857142857	8.78125	46.5	32.84375	1.0	27	200	89	13.0	85.0	59.0	31	8.0	31.0	22.0	0	0	1163.6706058979034	1960	30212.448389530182	770	60.714285714285715	
0.4603174603174603	59.142857142857146	8.634920634920634	45.682539682539684	32.26984126984127	1.0	28	208	85	12.0	98.0	69.0	35	8.0	24.0	17.0	0	0	1101.3500893115997	2030	31313.79847884178	793	60.935960591133004	
0.3715846393442623	56.81428571428572	8.491803278688524	44.885245901639344	31.704918032786885	1.33333	29	218	82	13.0	83.0	58.0	39	8.0	24.0	17.0	0	0	1087.6295819282532	2100	32401.428060770035	820	60.95238095238095	
0.2555553666666667	56.27142857142857	8.766666666666667	48.21666666666667	34.016666666666666	1.33333	30	229	85	13.0	86.0	61.0	33	8.0	24.0	17.0	0	0	1091.4742720127106	2170	33492.902332782745	846	61.013824884792626	
0.3333329827586207	56.51428571428571	8.827586206896552	48.275862068965516	33.93103448275862	1.33333	31	242	85	15.0	97.0	68.0	14	7.0	17.0	12.0	0	0	1058.4432337284088	2240	34551.345566511154	880	60.714285714285715	
0.30107500000000004	58.714285714285715	8.85483870967742	50.33870967741935	35.435483870967744	1.33333	32	251	94	14.0	103.0	72.0	16	7.0	17.0	12.0	0	0	1088.1265313625336	2310	35639.47209787369	912	60.51948051948052	
0.37777706666666666	58.94285714285714	8.683333333333334	48.21666666666667	33.983333333333334	1.33333	33	262	110	14.0	105.0	74.0	29	7.0	17.0	12.0	0	0	1065.1519839763641	2380	36704.62408185005	942	60.42016806722689	
0.5084735084745762	58.15714285714286	8.677966101694915	46.83050847457627	33.03389830508475	1.33333	34	274	91	13.0	111.0	78.0	15	8.0	24.0	17.0	0	0	1014.1944408416748	2450	37718.81852269173	965	60.61224489795919	
0.45698832258064515	58.2	8.548387096774194	43.46774193548387	30.64516129032258	1.33333	35	283	94	12.0	78.0	54.0	16	7.0	17.0	12.0	0	0	1055.5948958396912	2520	38774.41341853142	991	60.67460317460318	
0.39153342857142853	57.371428571428574	8.396825396825397	41.95238095238095	29.634920634920636	1.33333	36	291	78	12.0	78.0	54.0	35	7.0	15.0	11.0	0	0	1053.8278880119324	2590	39828.24130654335	1013	60.88803088803088	
0.5806437096774194	56.55714285714286	8.290322580645162	40.354838709677416	28.5	1.33333	37	300	78	11.0	76.0	53.0	40	7.0	17.0	12.0	0	0	1075.0196726322174	2660	40903.26097917557	1027	61.390977443609025	
0.42777671666666656	58.05714285714286	8.433333333333334	44.68333333333333	31.516666666666666	1.33333	38	311	91	12.0	111.0	77.0	32	7.0	15.0	11.0	0	0	1042.175695180893	2730	41945.43667435646	1053	61.42857142857142	
0.46447972131147536	57.48571428571429	8.245901639344263	41.65573770491803	29.42622950819672	1.33333	39	321	91	11.0	76.0	53.0	39	7.0	17.0	12.0	0	0	1037.7736093997955	2800	42983.210283756256	1075	61.607142857142854	
0.5136599836065573	57.81428571428572	8.754098360655737	50.09836065573771	35.34426229508197	1.33333	40	331	91	12.0	106.0	74.0	32	7.0	15.0	11.0	0	0	1051.306155204773	2870	44034.51643896103	1102	61.602787456445995	
0.5208321406249999	56.68571428571428	8.53125	46.765625	32.953125	1.33333	41	338	83	11.0	81.0	57.0	37	7.0	20.0	14.0	0	0	1101.1021173000336	2940	45135.61855626106	1128	61.63265306122449	
0.4268996666666667	56.57142857142857	8.456140350877194	45.3859649122807	32.03508771929825	1.33333	42	352	78	11.0	87.0	61.0	34	8.0	24.0	17.0	0	0	968.2618758678436	3010	46103.880432128906	1151	61.76079734219269	
0.4444434035087719	57.44285714285714	8.421052631578947	44.771929824561404	31.63157894736842	1.33333	43	366	88	11.0	77.0	55.0	26	7.0	24.0	17.0	0	0	964.8099558353424	3080	47068.69038796425	1171	61.98051948051948	
0.5409825573770491	59.68571428571428	8.573770491803279	46.83606557377049	33.0655737704918	1.33333	44	376	108	11.0	110.0	77.0	33	8.0	32.0	23.0	0	0	1062.1269645690918	3150	48130.81735253334	1190	62.22222222222222	
0.47777679999999995	57.55714285714286	8.383333333333333	46.05	32.516666666666666	1.33333	45	387	101	13.0	119.0	83.0	31	8.0	24.0	17.0	0	0	1035.5446422100067	3220	49166.36199474335	1218	62.173913043478265	
0.49122696491228063	58.457142857142856	8.473684210526315	47.473684210526315	33.50877192982456	1.33333	46	401	104	11.0	119.0	83.0	40	8.0	31.0	22.0	0	0	965.998110294342	3290	50132.36010503769	1244	62.18844984802432	
0.4207640327868853	59.41428571428571	8.508196721311476	43.81967213114754	30.918032786885245	1.33333	47	411	125	12.0	80.0	55.0	31	7.0	15.0	11.0	0	0	1080.736519575119	3360	51213.09662461281	1269	62.23214285714286	
0.4946224677419354	60.357142857142854	8.387096774193548	43.12903225806452	30.516129032258064	1.33333	48	420	112	11.0	80.0	56.0	39	7.0	15.0	11.0	0	0	1103.5277671813965	3430	52316.624391794205	1291	62.36151603498542	
0.3978485	64.52857142857142	8.451612903225806	43.75806451612903	30.983870967741936	1.33333	49	429	115	11.0	75.0	53.0	38	7.0	22.0	16.0	0	0	1097.2388875484467	3500	53413.86327934265	1324	62.17142857142857	
0.4583322343749999	62.51428571428571	8.515625	43.53125	30.71875	1.33333	50	436	112	11.0	80.0	56.0	46	7.0	15.0	11.0	0	0	1131.8252427577972	3570	54545.68852210045	1350	62.18487394957983	
0.40437077049180326	58.94285714285714	8.39344262295082	42.459016393442624	30.0327868852459	1.33333	51	446	83	12.0	72.0	50.0	31	7.0	15.0	11.0	0	0	1081.5747728347778	3640	55627.26329493523	1372	62.30769230769231	
0.42473030645161286	59.08571428571429	8.258064516129032	42.854838709677416	30.322580645161292	1.33333	52	455	96	11.0	72.0	50.0	34	7.0	15.0	11.0	0	0	1059.4048779010773	3710	56686.668172836304	1397	62.34501347708895	
0.5322571451612903	57.7	8.32258064516129	42.483870967741936	30.032258064516128	1.66667	53	464	76	13.0	76.0	53.0	38	7.0	15.0	11.0	0	0	1078.770771741867	3780	57765.43894457817	1415	62.56613756613756	
0.5263148421052631	58.042857142857144	8.43859649122807	44.12280701754386	31.157894736842106	1.66667	54	478	81	11.0	69.0	48.0	31	8.0	24.0	17.0	0	0	948.910276889801	3850	58714.34922146797	1431	62.83116883116883	
0.5689649482758621	57.542857142857144	8.379310344827585	44.08620689655172	31.103448275862068	1.66667	55	491	81	11.0	81.0	57.0	33	8.0	24.0	17.0	0	0	983.8381631374359	3920	59698.18738460541	1456	62.857142857142854	
0.7192979649122807	57.957142857142856	8.192982456140351	41.14035087719298	29.105263157894736	1.66667	56	505	82	11.0	62.0	44.0	39	8.0	22.0	16.0	0	0	974.3587839603424	3990	60672.54616856575	1471	63.1328320802005	
0.7460322698412699	60.0	8.444444444444445	44.04761904761905	31.158730158730158	1.66667	57	513	79	12.0	95.0	66.0	38	7.0	15.0	11.0	0	0	1094.281911611557	4060	61766.82808017731	1491	63.275862068965516	
0.6666673387096773	60.44285714285714	8.548387096774194	46.193548387096776	32.61290322580645	1.66667	58	522	89	13.0	97.0	69.0	28	7.0	17.0	12.0	0	0	1118.253573179245	4130	62885.08165335655	1513	63.365617433414045	
0.5875711186440679	66.84285714285714	8.813559322033898	50.45762711864407	35.66101694915254	2.0	59	534	112	13.0	127.0	91.0	31	8.0	24.0	17.0	0	0	1030.4370834827423	4200	63915.518736839294	1542	63.285714285714285	
0.545977448275862	67.12857142857143	9.051724137931034	52.87931034482759	37.275862068965516	2.0	60	547	112	14.0	99.0	69.0	29	8.0	24.0	17.0	0	0	991.9289491176605	4270	64907.447685956955	1569	63.25526932084309	
0.5179491538461538	70.75714285714285	9.353846153846154	55.96923076923077	39.38461538461539	2.0	61	553	100	14.0	113.0	79.0	40	8.0	36.0	26.0	0	0	1177.4798409938812	4340	66084.92752695084	1600	63.13364055299539	
0.442709015625	70.41428571428571	9.203125	52.34375	36.78125	2.0	62	560	143	14.0	113.0	79.0	31	7.0	21.0	15.0	0	0	1175.584635257721	4410	67260.51216220856	1631	63.01587301587301	
0.41799014285714287	71.35714285714286	9.047619047619047	51.23809523809524	36.04761904761905	2.0	63	568	110	14.0	100.0	70.0	30	8.0	22.0	16.0	0	0	1142.3249151706696	4480	68402.83707737923	1657	63.01339285714286	
0.34313783823529415	74.17142857142858	8.867647058823529	48.5	34.088235294117645	2.0	64	571	126	12.0	122.0	86.0	43	7.0	23.0	16.0	0	0	1243.1403799057007	4550	69645.97745728493	1688	62.9010989010989	
0.3862440158730159	70.34285714285714	8.984126984126984	47.73015873015873	33.53968253968254	2.0	65	579	131	12.0	85.0	60.0	38	8.0	24.0	17.0	0	0	1141.9501812458038	4620	70787.92763853073	1714	62.900432900432904	
0.4079607313432836	70.37142857142857	8.925373134328359	47.47761194029851	33.37313432835821	2.0	66	583	131	12.0	85.0	59.0	43	8.0	22.0	16.0	0	0	1221.8126583099365	4690	72009.74029684067	1742	62.857142857142854	
0.5641033230769231	69.84285714285714	8.830769230769231	49.723076923076924	34.98461538461538	2.0	67	589	121	12.0	85.0	59.0	51	7.0	17.0	12.0	0	0	1175.2779388427734	4760	73185.01823568344	1761	63.00420168067227	
0.550265253968254	67.72857142857143	8.793650793650794	48.38095238095238	33.96825396825397	2.0	68	597	119	12.0	103.0	72.0	36	7.0	17.0	12.0	0	0	1099.5797176361084	4830	74284.59795331955	1788	62.98136645962733	
0.6111118939393938	69.81428571428572	8.803030303030303	47.333333333333336	33.22727272727273	2.0	69	602	88	13.0	87.0	60.0	43	7.0	17.0	12.0	0	0	1145.0502932071686	4900	75429.64824652672	1814	62.97959183673469	
0.4950985294117647	71.57142857142857	9.117647058823529	52.89705882352941	37.161764705882355	2.0	70	605	89	14.0	103.0	71.0	38	7.0	15.0	11.0	0	0	1223.4351871013641	4970	76653.08343362808	1845	62.87726358148893	
0.5641033230769231	72.14285714285714	9.415384615384616	57.01538461538462	39.89230769230769	2.0	71	611	124	14.0	129.0	90.0	29	7.0	20.0	14.0	0	0	1150.4205067157745	5040	77803.50394034386	1877	62.757936507936506	
0.5291009523809523	76.24285714285715	9.380952380952381	56.03174603174603	39.23809523809524	2.0	72	619	115	14.0	103.0	71.0	45	7.0	17.0	12.0	0	0	1092.889526605606	5110	78896.39346694946	1915	62.52446183953033	
0.3978496129032258	78.92857142857143	9.580645161290322	59.32258064516129	41.53225806451613	2.33333	73	628	129	14.0	121.0	83.0	52	8.0	22.0	16.0	0	0	1096.5231492519379	5180	79992.9166162014	1956	62.23938223938224	
0.41145840624999996	79.05714285714286	9.671875	60.375	42.171875	2.33333	74	635	118	13.0	97.0	68.0	34	7.0	15.0	11.0	0	0	1116.8723809719086	5250	81109.78899717331	1995	62.0	
0.4074074761904761	82.24285714285715	10.047619047619047	63.492063492063494	44.36507936507937	2.33333	75	643	124	14.0	111.0	77.0	48	8.0	24.0	17.0	0	0	1091.1859903335571	5320	82200.97498750687	2031	61.82330827067669	
0.5519124098360656	85.08571428571429	10.081967213114755	65.22950819672131	45.557377049180324	2.33333	76	653	127	15.0	113.0	79.0	46	8.0	28.0	20.0	0	0	1071.3091521263123	5390	83272.28413963318	2071	61.57699443413729	
0.4747473484848485	82.51428571428572	9.803030303030303	62.06060606060606	43.43939393939394	2.33333	77	658	150	13.0	105.0	72.0	36	8.0	28.0	20.0	0	0	1114.9667036533356	5460	84387.25084328651	2110	61.35531135531135	
0.4677418064516129	83.68571428571428	9.5	59.83870967741935	41.91935483870968	2.33333	78	667	147	15.0	113.0	79.0	49	8.0	28.0	20.0	0	0	1043.3251609802246	5530	85430.57600426674	2150	61.12115732368897	
0.6666664307692307	79.41428571428571	9.584615384615384	62.30769230769231	43.53846153846154	2.33333	79	673	124	13.0	133.0	93.0	42	8.0	24.0	17.0	0	0	1112.1291840076447	5600	86542.70518827438	2185	60.982142857142854	
0.5027318852459017	74.35714285714286	9.62295081967213	59.721311475409834	41.78688524590164	2.33333	80	683	124	13.0	133.0	93.0	44	8.0	22.0	16.0	0	0	1075.3714497089386	5670	87618.07663798332	2219	60.8641975308642	
0.416666359375	78.12857142857143	9.984375	66.59375	46.53125	2.33333	81	690	124	13.0	133.0	93.0	41	7.0	18.0	13.0	0	0	1117.1930029392242	5740	88735.26964092255	2258	60.66202090592335	
0.5252519848484849	81.81428571428572	10.212121212121213	69.01515151515152	48.196969696969695	2.33333	82	695	124	13.0	151.0	105.0	28	8.0	33.0	23.0	0	0	1159.0716800689697	5810	89894.34132099152	2294	60.51635111876076	
0.578124484375	81.24285714285715	10.109375	67.84375	47.40625	2.66667	83	702	142	15.0	119.0	82.0	26	8.0	39.0	28.0	0	0	1133.415619134903	5880	91027.75694012642	2334	60.30612244897959	
0.5959591060606061	82.4	10.075757575757576	67.48484848484848	47.09090909090909	2.66667	84	707	132	15.0	117.0	81.0	40	8.0	24.0	17.0	0	0	1152.3453478813171	5950	92180.10228800774	2378	60.03361344537815	
0.5572135671641791	82.4	10.149253731343284	66.44776119402985	46.46268656716418	2.66667	85	711	124	13.0	120.0	84.0	49	8.0	30.0	21.0	0	0	1143.8864772319794	6020	93323.98876523972	2416	59.8671096345515	
0.7444443166666666	82.38571428571429	10.15	68.51666666666667	47.9	2.66667	86	722	128	13.0	107.0	75.0	40	8.0	33.0	23.0	0	0	1026.5675280094147	6090	94350.55629324913	2450	59.770114942528735	
0.6051281076923076	86.42857142857143	10.246153846153845	67.63076923076923	47.292307692307695	2.66667	87	728	127	13.0	113.0	79.0	49	7.0	17.0	12.0	0	0	1141.1217923164368	6160	95491.67808556557	2489	59.59415584415584	
0.6868683030303031	81.74285714285715	10.030303030303031	67.96969696969697	47.484848484848484	2.66667	88	733	121	13.0	113.0	79.0	40	7.0	17.0	12.0	0	0	1128.8238995075226	6230	96620.50198507309	2530	59.3900481540931	
0.4141412575757576	83.98571428571428	10.015151515151516	66.43939393939394	46.40909090909091	2.66667	89	738	133	13.0	125.0	87.0	48	7.0	23.0	16.0	0	0	1175.4657950401306	6300	97795.96778011322	2573	59.15873015873016	
0.537634129032258	86.48571428571428	10.129032258064516	68.64516129032258	48.016129032258064	2.66667	90	747	158	15.0	123.0	85.0	38	7.0	23.0	16.0	0	0	1094.3794474601746	6370	98890.3472275734	2612	58.99529042386185	
0.5343914126984126	87.17142857142858	9.936507936507937	69.23809523809524	48.3968253968254	4.66667	91	755	142	15.0	196.0	135.0	35	7.0	17.0	12.0	0	0	1144.1880536079407	6440	100034.53528118134	2654	58.7888198757764	
0.51666695	89.9	9.916666666666666	70.0	48.96666666666667	4.66667	92	766	201	13.0	196.0	135.0	37	7.0	17.0	12.0	0	0	1111.8962879180908	6510	101146.43156909943	2693	58.63287250384025	
0.58854203125	91.48571428571428	10.265625	74.234375	51.875	4.66667	93	773	153	13.0	148.0	103.0	40	8.0	22.0	16.0	0	0	1176.1694288253784	6580	102322.6009979248	2741	58.34346504559271	
0.8079100338983051	86.45714285714286	10.322033898305085	75.44067796610169	52.57627118644068	4.66667	94	785	143	14.0	126.0	87.0	38	8.0	30.0	21.0	0	0	1080.6235356330872	6650	103403.22453355789	2781	58.18045112781955	
0.838541859375	91.72857142857143	10.171875	74.546875	51.890625	4.66667	95	792	143	14.0	126.0	87.0	50	8.0	24.0	17.0	0	0	1180.0533556938171	6720	104583.27788925171	2822	58.00595238095238	
1.1862751470588235	90.21428571428571	9.970588235294118	75.41176470588235	52.529411764705884	4.66667	96	795	143	14.0	193.0	135.0	59	8.0	26.0	18.0	0	0	1205.781676530838	6790	105789.05956578255	2863	57.83505154639175	
1.3838391515151514	85.22857142857143	9.666666666666666	67.31818181818181	46.96969696969697	4.66667	97	800	137	13.0	118.0	81.0	48	8.0	22.0	16.0	0	0	1176.6324908733368	6860	106965.69205665588	2904	57.667638483965014	
1.2367156086956521	86.55714285714286	9.681159420289855	67.4927536231884	47.130434782608695	4.66667	98	802	128	15.0	138.0	97.0	53	8.0	24.0	17.0	0	0	1201.1298887729645	6930	108166.82194542885	2942	57.54689754689755	
1.2189060149253732	85.54285714285714	9.686567164179104	69.92537313432835	48.80597014925373	4.66667	99	806	132	13.0	123.0	85.0	44	9.0	33.0	23.0	0	0	1189.3018016815186	7000	109356.12374711037	2983	57.385714285714286	
1.0289859420289855	87.28571428571429	10.115942028985508	80.3623188405797	55.91304347826087	4.66667	100	808	125	14.0	178.0	122.0	52	8.0	33.0	23.0	0	0	1280.7800855636597	7070	110636.90383267403	3026	57.199434229137196	
0.9128208615384614	86.57142857142857	10.076923076923077	79.6	55.36923076923077	4.66667	101	814	148	14.0	178.0	122.0	28	8.0	33.0	23.0	0	0	1210.7708404064178	7140	111847.67467308044	3070	57.002801120448176	
1.0895527313432836	93.22857142857143	10.134328358208956	76.86567164179104	53.56716417910448	4.66667	102	818	135	17.0	140.0	98.0	39	8.0	33.0	23.0	0	0	1255.2125346660614	7210	113102.8872077465	3116	56.78224687933426	
0.9595964090909089	92.02857142857142	10.212121212121213	77.84848484848484	54.21212121212121	4.66667	103	823	129	14.0	166.0	115.0	47	8.0	26.0	18.0	0	0	1244.822586297989	7280	114347.7097940445	3153	56.68956043956044	
0.8190479	91.72857142857143	10.342857142857143	80.04285714285714	55.7	4.66667	104	824	129	14	149	104	56	7	17	12	0	0	1264.8463084697723	7350	115612.55610251427	3199	56.476190476190474	
0.8787883333333333	92.22857142857143	10.136363636363637	77.56060606060606	54.0	4.66667	105	829	129	14.0	152.0	105.0	54	8.0	33.0	23.0	0	0	1188.8563928604126	7420	116801.41249537468	3242	56.307277628032345	
0.7025645538461539	90.4	10.446153846153846	79.73846153846154	55.41538461538462	4.66667	106	835	180	14.0	141.0	99.0	39	7.0	21.0	15.0	0	0	1183.9336564540863	7490	117985.34615182877	3288	56.10146862483311	
1.1142862142857142	90.45714285714286	9.842857142857143	75.08571428571429	52.357142857142854	4.66667	107	836	152	14	139	97	59	7	18	13	0	0	1279.9681980609894	7560	119265.31434988976	3335	55.886243386243386	
1.602941882352941	91.04285714285714	9.352941176470589	63.75	44.455882352941174	4.66667	108	839	167	12.0	148.0	103.0	42	7.0	17.0	12.0	0	0	1204.4152562618256	7630	120469.72960615158	3372	55.80602883355177	
1.382353455882353	88.97142857142858	9.779411764705882	67.98529411764706	47.35294117647059	4.66667	109	842	127	14.0	132.0	91.0	51	7.0	17.0	12.0	0	0	1196.7210791110992	7700	121666.45068526268	3409	55.72727272727273	
1.2753625797101449	90.01428571428572	9.73913043478261	66.95652173913044	46.63768115942029	4.66667	110	844	141	14.0	170.0	118.0	56	7.0	17.0	12.0	0	0	1182.2409822940826	7770	122848.69166755676	3445	55.66280566280567	
0.961352884057971	91.38571428571429	9.72463768115942	65.18840579710145	45.43478260869565	4.66667	111	846	150	15.0	144.0	100.0	56	7.0	15.0	11.0	0	0	1208.0566189289093	7840	124056.74828648567	3488	55.51020408163265	
1.039216044117647	91.77142857142857	9.602941176470589	69.86764705882354	48.588235294117645	4.66667	112	849	150	13.0	124.0	85.0	34	7.0	17.0	12.0	0	0	1207.1957921981812	7910	125263.94407868385	3528	55.39823008849557	
1.1062806956521738	95.21428571428571	9.826086956521738	69.66666666666667	48.594202898550726	4.66667	113	851	141	14.0	136.0	95.0	47	7.0	17.0	12.0	0	0	1224.803955078125	7980	126488.74803376198	3572	55.238095238095234	
1.041666921875	93.05714285714286	9.921875	75.71875	52.875	4.66667	114	858	150	14.0	176.0	121.0	15	8.0	24.0	17.0	0	0	1183.5212986469269	8050	127672.2693324089	3613	55.118012422360245	
1.2089555671641792	90.61428571428571	10.0	79.16417910447761	55.223880597014926	4.66667	115	862	141	15.0	176.0	121.0	43	8.0	24.0	17.0	0	0	1278.5555472373962	8120	128950.8248796463	3656	54.97536945812808	
1.1062807391304348	91.31428571428572	9.797101449275363	74.85507246376811	52.30434782608695	4.66667	116	864	161	13.0	164.0	115.0	44	7.0	17.0	12.0	0	0	1277.1137356758118	8190	130227.93861532211	3699	54.83516483516483	
1.106280608695652	90.25714285714285	9.72463768115942	71.14492753623189	49.57971014492754	4.66667	117	866	132	13.0	188.0	129.0	55	8.0	24.0	17.0	0	0	1298.5206656455994	8260	131526.4592809677	3737	54.75786924939467	
0.950249223880597	88.31428571428572	9.985074626865671	70.40298507462687	49.059701492537314	4.66667	118	870	159	16.0	144.0	100.0	42	9.0	33.0	23.0	0	0	1229.1809420585632	8330	132755.64022302628	3777	54.6578631452581	
0.9803926029411765	92.24285714285715	9.867647058823529	66.72058823529412	46.470588235294116	4.66667	119	873	155	16.0	155.0	105.0	64	8.0	22.0	16.0	0	0	1244.1642830371857	8400	133999.80450606346	3818	54.54761904761905	
1.14215725	90.94285714285714	9.573529411764707	67.69117647058823	47.1764705882353	4.66667	120	876	155	12.0	186.0	127.0	50	7.0	17.0	12.0	0	0	1245.964459657669	8470	135245.76896572113	3857	54.46280991735537	
1.3000003	92.81428571428572	9.557142857142857	69.27142857142857	48.2	4.66667	121	876	161	13	186	127	27	7	17	12	0	0	1267.9135103225708	8540	136513.6824760437	3887	54.4847775175644	
1.1372554117647058	91.47142857142858	9.955882352941176	72.57352941176471	50.61764705882353	4.66667	122	879	161	13.0	141.0	98.0	63	8.0	24.0	17.0	0	0	1265.0697162151337	8610	137778.75219225883	3926	54.40185830429733	
0.967213606557377	88.98571428571428	10.0	80.49180327868852	56.01639344262295	4.66667	123	889	145	13.0	136.0	94.0	31	7.0	17.0	12.0	0	0	1107.9158356189728	8680	138886.6680278778	3966	54.30875576036867	
0.8164255942028985	89.82857142857142	9.971014492753623	74.79710144927536	52.15942028985507	4.66667	124	891	139	13.0	130.0	91.0	45	7.0	17.0	12.0	0	0	1286.8446247577667	8750	140173.51265263557	4005	54.22857142857143	
0.8457715820895523	87.55714285714286	10.149253731343284	73.46268656716418	51.32835820895522	4.66667	125	895	132	14.0	139.0	96.0	43	7.0	15.0	11.0	0	0	1248.102864742279	8820	141421.61551737785	4043	54.1609977324263	
1.072464231884058	90.87142857142857	10.159420289855072	74.33333333333333	51.78260869565217	4.66667	126	897	132	13.0	154.0	107.0	43	8.0	24.0	17.0	0	0	1281.7314383983612	8890	142703.34695577621	4081	54.09448818897638	
0.8656719701492538	90.22857142857143	10.238805970149254	80.08955223880596	55.582089552238806	4.66667	127	901	137	14.0	176.0	123.0	47	8.0	24.0	17.0	0	0	1238.7127058506012	8960	143942.05966162682	4124	53.97321428571429	
0.8686870454545453	88.84285714285714	10.136363636363637	78.78787878787878	54.77272727272727	4.66667	128	906	131	14.0	176.0	123.0	27	8.0	33.0	23.0	0	0	1207.8343043327332	9030	145149.89396595955	4164	53.887043189368775	
0.9629634285714286	84.9	10.158730158730158	76.76190476190476	53.476190476190474	4.66667	129	914	144	15.0	145.0	102.0	32	8.0	22.0	16.0	0	0	1154.027821302414	9100	146303.92178726196	4206	53.78021978021978	
1.0564107384615384	89.12857142857143	10.015384615384615	76.76923076923077	53.46153846153846	4.66667	130	920	146	14.0	206.0	143.0	37	8.0	33.0	23.0	0	0	1195.8384964466095	9170	147499.76028370857	4242	53.74045801526717	
0.9452739701492536	88.91428571428571	10.298507462686567	76.88059701492537	53.61194029850746	4.66667	131	924	159	16.0	148.0	103.0	48	8.0	31.0	22.0	0	0	1278.9244854450226	9240	148778.6847691536	4285	53.625541125541126	
1.0821262753623189	87.95714285714286	9.72463768115942	68.31884057971014	47.78260869565217	4.66667	132	926	137	16.0	172.0	120.0	35	8.0	22.0	16.0	0	0	1317.2507343292236	9310	150095.93550348282	4332	53.46938775510204	
0.7114430895522388	93.27142857142857	9.835820895522389	74.3731343283582	51.985074626865675	4.66667	133	930	156	14.0	172.0	120.0	43	8.0	33.0	23.0	0	0	1290.5318040847778	9380	151386.4673075676	4378	53.32622601279318	
0.8535358484848484	92.17142857142858	9.984848484848484	74.71212121212122	52.15151515151515	4.66667	134	935	166	17.0	189.0	131.0	38	8.0	22.0	16.0	0	0	1232.7560050487518	9450	152619.22331261635	4421	53.216931216931215	
1.1641030769230767	88.47142857142858	9.738461538461538	76.12307692307692	53.01538461538462	4.66667	135	941	142	13.0	170.0	118.0	15	8.0	39.0	28.0	0	0	1193.6097230911255	9520	153812.83303570747	4462	53.13025210084034	
0.9333338571428572	91.52857142857142	9.857142857142858	75.14285714285714	52.42857142857143	4.66667	136	942	167	13	136	94	52	8	31	22	0	0	1282.5263667106628	9590	155095.35940241814	4507	53.00312825860271	
1.2941183088235295	86.65714285714286	9.558823529411764	68.51470588235294	47.85294117647059	4.66667	137	945	133	13.0	140.0	97.0	50	8.0	26.0	18.0	0	0	1257.5551598072052	9660	156352.91456222534	4544	52.96066252587991	
1.2189059104477613	89.24285714285715	9.850746268656716	75.19402985074628	52.43283582089552	4.66667	138	949	145	13.0	173.0	120.0	29	8.0	31.0	22.0	0	0	1249.7873725891113	9730	157602.70193481445	4585	52.877697841726615	
1.2051284769230768	94.75714285714285	9.8	75.44615384615385	52.707692307692305	4.66667	139	955	148	14.0	175.0	121.0	16	7.0	15.0	11.0	0	0	1188.5270307064056	9800	158791.22896552086	4624	52.816326530612244	
1.06060653030303	98.31428571428572	9.984848484848484	77.4090909090909	53.93939393939394	4.66667	140	960	148	13.0	171.0	119.0	50	8.0	33.0	23.0	0	0	1196.6868269443512	9870	159987.9157924652	4668	52.705167173252285	
1.1592046119402986	97.0	9.805970149253731	78.1044776119403	54.47761194029851	4.66667	141	964	145	13.0	191.0	133.0	50	8.0	24.0	17.0	0	0	1241.791186094284	9940	161229.7069785595	4710	52.61569416498994	
1.4141419242424245	92.2	9.848484848484848	79.93939393939394	55.71212121212121	5.0	142	969	145	12.0	164.0	114.0	38	8.0	38.0	27.0	0	0	1195.8961691856384	10010	162425.60314774513	4747	52.57742257742258	
1.196970121212121	94.0	9.863636363636363	76.56060606060606	53.36363636363637	5.0	143	974	168	15.0	178.0	122.0	30	8.0	22.0	16.0	0	0	1182.7002363204956	10080	163608.30338406563	4790	52.480158730158735	
0.7708334375	94.4	9.765625	73.40625	51.34375	5.0	144	981	189	13.0	170.0	119.0	32	7.0	17.0	12.0	0	0	1164.097263097763	10150	164772.4006471634	4831	52.40394088669951	
1.0049754179104478	90.38571428571429	9.835820895522389	77.43283582089552	54.0	5.0	145	985	139	14.0	169.0	118.0	39	7.0	17.0	12.0	0	0	1262.2534313201904	10220	166034.65407848358	4870	52.348336594911935	
0.9371982753623188	97.34285714285714	9.826086956521738	75.79710144927536	52.89855072463768	5.0	146	987	151	15.0	178.0	125.0	52	7.0	17.0	12.0	0	0	1285.6592547893524	10290	167320.31333327293	4913	52.25461613216715	
0.7263682388059701	92.82857142857142	9.402985074626866	67.38805970149254	46.940298507462686	5.0	147	991	156	14.0	188.0	131.0	40	7.0	17.0	12.0	0	0	1184.6536946296692	10360	168504.9670279026	4953	52.191119691119695	
0.8769230615384616	87.24285714285715	9.692307692307692	69.21538461538462	48.23076923076923	5.0	148	997	132	13.0	188.0	131.0	50	7.0	15.0	11.0	0	0	1208.3418452739716	10430	169713.30887317657	4996	52.099712368168746	
0.876923	84.57142857142857	9.692307692307692	70.52307692307693	49.10769230769231	5.0	149	1003	130	14.0	167.0	117.0	26	7.0	15.0	11.0	0	0	1170.017251253128	10500	170883.3261244297	5037	52.02857142857143	
0.8032785573770491	82.44285714285714	9.360655737704919	63.42622950819672	44.22950819672131	5.0	150	1013	128	13.0	156.0	109.0	46	7.0	15.0	11.0	0	0	1118.0922815799713	10570	172001.41840600967	5075	51.98675496688742	
0.9494948333333333	86.22857142857143	9.818181818181818	70.87878787878788	49.53030303030303	5.0	151	1018	132	14.0	154.0	107.0	47	7.0	17.0	12.0	0	0	1192.9589636325836	10640	173194.37736964226	5120	51.8796992481203	
0.8578430147058824	86.01428571428572	9.911764705882353	72.51470588235294	50.64705882352941	5.0	152	1021	126	13.0	137.0	96.0	31	8.0	26.0	18.0	0	0	1229.0249807834625	10710	174423.40235042572	5159	51.830065359477125	
0.9682537936507937	91.04285714285714	9.603174603174603	66.2063492063492	46.20634920634921	5.0	153	1029	154	14.0	148.0	104.0	43	7.0	17.0	12.0	0	0	1124.305891752243	10780	175547.70824217796	5194	51.81818181818182	
0.9901958529411763	95.98571428571428	9.838235294117647	72.27941176470588	50.48529411764706	5.0	154	1032	162	14.0	180.0	126.0	39	7.0	17.0	12.0	0	0	1269.1628096103668	10850	176816.87105178833	5233	51.76958525345622	
1.1641024615384616	92.8	9.96923076923077	78.27692307692308	54.738461538461536	5.0	155	1038	180	15.0	239.0	167.0	32	8.0	39.0	28.0	0	0	1207.3891718387604	10920	178024.2602236271	5276	51.684981684981686	
1.4117645	87.81428571428572	9.558823529411764	70.3529411764706	49.01470588235294	5.0	156	1041	148	13.0	181.0	125.0	17	7.0	29.0	20.0	0	0	1168.600361585617	10990	179192.8605852127	5313	51.65605095541401	
1.000000015625	84.42857142857143	9.578125	72.046875	50.296875	5.0	157	1048	140	12.0	123.0	85.0	28	9.0	33.0	23.0	0	0	1152.4907610416412	11060	180345.35134625435	5352	51.609403254972875	
0.9696968333333333	84.48571428571428	9.681818181818182	72.03030303030303	50.303030303030305	5.0	158	1053	124	13.0	134.0	93.0	37	9.0	32.0	22.0	0	0	1236.2853407859802	11130	181581.63668704033	5398	51.50044923629829	
0.7462685820895523	82.75714285714285	10.08955223880597	78.11940298507463	54.55223880597015	5.0	159	1057	124	14.0	140.0	98.0	24	8.0	33.0	23.0	0	0	1263.6906542778015	11200	182845.32734131813	5446	51.375	
0.9253730597014925	85.01428571428572	9.940298507462687	75.6268656716418	52.865671641791046	5.0	160	1061	150	13.0	124.0	85.0	40	8.0	37.0	27.0	0	0	1314.7616004943848	11270	184160.08894181252	5488	51.30434782608695	
1.0937499218750002	83.58571428571429	9.75	71.734375	50.171875	5.0	161	1068	142	13.0	167.0	116.0	46	8.0	33.0	23.0	0	0	1187.5608410835266	11340	185347.64978289604	5526	51.26984126984127	
1.447916609375	85.42857142857143	9.765625	75.46875	52.78125	5.0	162	1075	133	13.0	167.0	116.0	46	7.0	35.0	24.0	0	0	1154.1898176670074	11410	186501.83960056305	5564	51.235758106923754	
1.6979164375	84.11428571428571	9.90625	78.359375	54.65625	5.0	163	1082	124	14.0	160.0	111.0	20	8.0	33.0	23.0	0	0	1132.611835718155	11480	187634.4514362812	5597	51.245644599303134	
1.2373735606060605	83.31428571428572	9.696969696969697	72.33333333333333	50.5	5.0	164	1087	137	13.0	179.0	124.0	28	8.0	29.0	20.0	0	0	1142.9030120372772	11550	188777.35444831848	5632	51.23809523809524	
1.2946858405797101	86.64285714285714	9.681159420289855	70.85507246376811	49.405797101449274	5.0	165	1089	137	13.0	179.0	124.0	50	8.0	32.0	22.0	0	0	1208.354204416275	11620	189985.70865273476	5667	51.230636833046475	
1.3645832812499998	87.65714285714286	9.609375	70.40625	49.03125	5.0	166	1096	170	16.0	241.0	167.0	41	9.0	33.0	23.0	0	0	1103.6343040466309	11690	191089.3429567814	5699	51.24893071000856	
1.4444443181818183	85.67142857142858	9.621212121212121	74.03030303030303	51.621212121212125	5.0	167	1101	138	12.0	130.0	91.0	41	8.0	33.0	23.0	0	0	1186.4358866214752	11760	192275.77884340286	5741	51.18197278911565	
1.333333420289855	86.65714285714286	9.507246376811594	69.46376811594203	48.405797101449274	5.0	168	1103	123	13.0	109.0	76.0	65	8.0	33.0	23.0	0	0	1258.6483912467957	11830	193534.42723464966	5779	51.14961961115807	
1.6010101666666665	83.54285714285714	9.43939393939394	67.07575757575758	46.86363636363637	5.0	169	1108	125	12.0	140.0	98.0	40	7.0	15.0	11.0	0	0	1205.4875366687775	11900	194739.91477131844	5812	51.159663865546214	
1.297979696969697	84.64285714285714	9.636363636363637	73.60606060606061	51.303030303030305	5.0	170	1113	127	13.0	128.0	89.0	52	7.0	15.0	11.0	0	0	1169.4894633293152	11970	195909.40423464775	5849	51.136173767752716	
1.182291578125	86.2	9.515625	70.65625	49.296875	5.0	171	1120	127	13.0	126.0	89.0	41	8.0	33.0	23.0	0	0	1156.5209200382233	12040	197065.92515468597	5887	51.104651162790695	
0.9215685294117647	85.58571428571429	9.602941176470589	70.67647058823529	49.3235294117647	5.0	172	1123	117	13.0	126.0	89.0	57	8.0	33.0	23.0	0	0	1248.673071861267	12110	198314.59822654724	5929	51.040462427745666	
1.0252523939393938	84.8	9.681818181818182	71.77272727272727	50.09090909090909	5.0	173	1128	117	13.0	126.0	88.0	49	8.0	33.0	23.0	0	0	1189.8181085586548	12180	199504.4163351059	5966	51.018062397372745	
0.9270832812500001	87.44285714285714	9.84375	73.75	51.359375	5.0	174	1135	151	14.0	112.0	77.0	49	8.0	33.0	23.0	0	0	1168.879203081131	12250	200673.29553818703	6012	50.92244897959184	
0.7333331846153847	89.37142857142857	9.8	73.16923076923077	51.07692307692308	5.0	175	1141	152	14.0	159.0	110.0	46	8.0	24.0	17.0	0	0	1203.5088620185852	12320	201876.8044002056	6054	50.86038961038961	
1.0151512272727272	83.14285714285714	9.545454545454545	67.96969696969697	47.515151515151516	5.0	176	1146	161	13.0	170.0	118.0	31	8.0	24.0	17.0	0	0	1228.4580707550049	12390	203105.26247096062	6095	50.807102502017756	
1.4875620597014925	86.12857142857143	9.552238805970148	68.82089552238806	48.02985074626866	5.0	177	1150	125	14.0	126.0	87.0	49	8.0	33.0	23.0	0	0	1211.9284830093384	12460	204317.19095396996	6130	50.80256821829855	
1.5555556521739131	86.28571428571429	9.492753623188406	67.4927536231884	47.028985507246375	5.0	178	1152	136	14.0	112.0	77.0	21	8.0	33.0	23.0	0	0	1162.9448392391205	12530	205480.13579320908	6168	50.774142059058256	
1.0591396129032258	84.98571428571428	9.64516129032258	68.33870967741936	47.74193548387097	5.0	179	1161	125	13.0	135.0	95.0	47	8.0	33.0	23.0	0	0	1059.579166173935	12600	206539.714959383	6208	50.73015873015873	
0.8717948461538461	85.87142857142857	9.646153846153846	68.44615384615385	47.815384615384616	5.0	180	1167	140	13.0	123.0	85.0	33	7.0	18.0	13.0	0	0	1115.217345237732	12670	207654.93230462074	6246	50.70244672454617	
0.6615384461538462	90.31428571428572	9.323076923076924	61.30769230769231	42.90769230769231	5.0	181	1173	140	13.0	154.0	108.0	33	7.0	15.0	11.0	0	0	1106.5233027935028	12740	208761.45560741425	6285	50.66718995290424	
1.112745044117647	91.65714285714286	9.264705882352942	65.51470588235294	45.73529411764706	5.0	182	1176	155	12.0	115.0	79.0	30	7.0	15.0	11.0	0	0	872.7024047374725	12810	209634.15801215172	6328	50.60109289617486	
1.0142854571428572	94.45714285714286	9.542857142857143	70.74285714285715	49.371428571428574	5.0	183	1177	140	13	149	105	56	8	33	23	0	0	857.746349811554	12880	210491.90436196327	6366	50.57453416149068	
0.9661832318840581	95.81428571428572	9.594202898550725	73.79710144927536	51.44927536231884	5.0	184	1179	140	13.0	142.0	99.0	56	8.0	42.0	29.0	0	0	833.5736448764801	12950	211325.47800683975	6410	50.5019305019305	
0.9303481940298507	92.31428571428572	10.059701492537313	80.49253731343283	55.985074626865675	5.0	185	1183	151	15.0	142.0	99.0	43	9.0	33.0	23.0	0	0	846.1694605350494	13020	212171.6474673748	6453	50.437788018433174	
1.3686866969696971	91.74285714285715	9.787878787878787	76.21212121212122	53.07575757575758	5.0	186	1188	150	14.0	163.0	112.0	46	8.0	33.0	23.0	0	0	797.6026799678802	13090	212969.25014734268	6492	50.40488922841864	
1.2222222121212123	87.15714285714286	9.606060606060606	71.62121212121212	49.89393939393939	5.0	187	1193	148	14.0	165.0	114.0	58	8.0	24.0	17.0	0	0	771.7436842918396	13160	213740.99383163452	6526	50.41033434650456	
1.4444444242424241	88.9	9.5	67.03030303030303	46.68181818181818	5.0	188	1198	118	14.0	124.0	85.0	60	8.0	24.0	17.0	0	0	777.7564461231232	13230	214518.75027775764	6560	50.41572184429327	
1.0343137647058824	90.24285714285715	9.573529411764707	71.51470588235294	49.89705882352941	5.0	189	1201	128	13.0	122.0	85.0	69	8.0	32.0	23.0	0	0	835.9628155231476	13300	215354.7130932808	6595	50.41353383458647	
0.9903382463768116	89.91428571428571	9.855072463768115	75.08695652173913	52.31884057971015	5.0	190	1203	131	14.0	163.0	113.0	47	7.0	17.0	12.0	0	0	848.2872564792633	13370	216203.00034976006	6641	50.32909498878085	
0.9841270317460319	90.61428571428571	9.841269841269842	73.34920634920636	51.111111111111114	5.0	191	1211	153	16.0	150.0	105.0	15	7.0	17.0	12.0	0	0	766.2657272815704	13440	216969.26607704163	6672	50.357142857142854	
0.8333332714285714	90.94285714285714	9.7	70.64285714285714	49.27142857142857	5.0	192	1212	140	13	136	95	37	7	17	12	0	0	850.9078576564789	13510	217820.1739346981	6711	50.32568467801629	
0.9282051076923077	86.34285714285714	9.292307692307693	64.3076923076923	44.8	5.0	193	1218	161	12.0	129.0	90.0	37	8.0	26.0	18.0	0	0	759.6111829280853	13580	218579.7851176262	6748	50.30927835051546	
1.1739129130434782	84.91428571428571	9.46376811594203	65.40579710144928	45.65217391304348	5.0	194	1220	161	12.0	114.0	79.0	51	8.0	32.0	22.0	0	0	827.1641261577606	13650	219406.94924378395	6780	50.32967032967033	
1.1435895384615384	89.11428571428571	9.261538461538462	65.95384615384616	45.98461538461538	5.0	195	1226	161	13.0	168.0	117.0	54	8.0	32.0	22.0	0	0	744.3453326225281	13720	220151.29457640648	6814	50.33527696793003	
0.8307691076923077	89.02857142857142	9.707692307692307	72.83076923076923	50.784615384615385	5.0	196	1232	161	15.0	184.0	129.0	50	8.0	26.0	18.0	0	0	769.8721415996552	13790	220921.16671800613	6853	50.30456852791878	
1.2864582812499998	83.97142857142858	9.5625	72.6875	50.609375	5.0	197	1239	170	13.0	142.0	99.0	32	8.0	26.0	18.0	0	0	747.0640313625336	13860	221668.23074936867	6889	50.295815295815295	
1.3948717538461537	91.08571428571429	9.36923076923077	65.4	45.6	5.0	198	1245	178	12.0	133.0	92.0	50	7.0	17.0	12.0	0	0	782.4943554401398	13930	222450.7251048088	6924	50.2943287867911	
1.200980294117647	94.27142857142857	9.705882352941176	69.19117647058823	48.25	5.0	199	1248	178	13.0	133.0	92.0	31	8.0	33.0	23.0	0	0	816.3415951728821	14000	223267.0666999817	6965	50.25	
0.9435896769230769	97.78571428571429	9.923076923076923	70.78461538461538	49.353846153846156	7.66667	200	1254	178	14.0	156.0	110.0	37	8.0	33.0	23.0	0	0	771.3254573345184	14070	224038.3921573162	7014	50.149253731343286	
