best_fitness	avg_fitness
1	0.0190476
1.33333	0.285714
1.66667	0.980952
1.66667	1.32857
1.66667	1.32857
1.66667	1.32857
1.66667	1.32857
1.66667	1.32857
1.66667	1.3381
1.66667	1.33333
1.66667	1.33333
1.66667	1.32857
1.66667	1.32857
1.66667	1.3381
1.66667	1.33333
1.66667	1.33333
1.66667	1.33333
1.66667	1.3381
1.66667	1.32857
1.66667	1.32857
1.66667	1.32857
1.66667	1.32857
1.66667	1.3381
1.66667	1.3381
1.66667	1.32857
1.66667	1.32857
1.66667	1.31905
1.66667	1.32381
1.66667	1.33333
1.66667	1.3381
1.66667	1.3381
1.66667	1.32857
1.66667	1.33333
1.66667	1.32857
1.66667	1.33333
1.66667	1.31905
1.66667	1.32857
1.66667	1.33333
1.66667	1.3381
1.66667	1.3381
1.66667	1.32381
1.66667	1.3381
1.66667	1.30952
1.66667	1.32857
1.66667	1.33333
1.66667	1.3381
1.66667	1.33333
1.66667	1.3381
1.66667	1.32857
1.66667	1.3381
1.66667	1.32857
1.66667	1.3381
1.66667	1.31429
1.66667	1.32857
1.66667	1.33333
1.66667	1.3381
1.66667	1.30952
1.66667	1.3381
1.66667	1.29524
1.66667	1.32857
1.66667	1.31429
1.66667	1.3381
1.66667	1.3381
1.66667	1.33333
1.66667	1.33333
1.66667	1.3381
1.66667	1.33333
1.66667	1.32857
1.66667	1.3381
1.66667	1.3381
1.66667	1.33333
1.66667	1.3381
1.66667	1.31905
1.66667	1.3381
1.66667	1.3381
1.66667	1.32857
1.66667	1.32381
1.66667	1.3381
1.66667	1.3381
1.66667	1.32857
1.66667	1.33333
1.66667	1.33333
1.66667	1.32857
1.66667	1.33333
1.66667	1.33333
1.66667	1.30952
1.66667	1.3381
1.66667	1.33333
1.66667	1.3381
1.66667	1.31905
1.66667	1.33333
1.66667	1.33333
1.66667	1.32857
1.66667	1.3381
1.66667	1.32857
1.66667	1.31429
1.66667	1.3381
1.66667	1.3381
1.66667	1.32381
1.66667	1.30476
1.66667	1.33333
1.66667	1.3
1.66667	1.3381
1.66667	1.33333
1.66667	1.3381
1.66667	1.3381
1.66667	1.3381
1.66667	1.30952
1.66667	1.3381
1.66667	1.32857
1.66667	1.31429
1.66667	1.32381
1.66667	1.33333
1.66667	1.32857
1.66667	1.3381
1.66667	1.32857
1.66667	1.33333
1.66667	1.3381
1.66667	1.3381
1.66667	1.3381
1.66667	1.33333
1.66667	1.32857
1.66667	1.31905
1.66667	1.33333
1.66667	1.31429
1.66667	1.33333
1.66667	1.33333
1.66667	1.32381
1.66667	1.32857
1.66667	1.3381
1.66667	1.32857
1.66667	1.3381
1.66667	1.32857
1.66667	1.3381
1.66667	1.32381
1.66667	1.32857
1.66667	1.3381
1.66667	1.32381
1.66667	1.31429
1.66667	1.32381
1.66667	1.3381
1.66667	1.32857
1.66667	1.33333
1.66667	1.3381
1.66667	1.33333
1.66667	1.33333
1.66667	1.32857
1.66667	1.3381
1.66667	1.31905
1.66667	1.32857
1.66667	1.33333
1.66667	1.3381
1.66667	1.33333
1.66667	1.32857
1.66667	1.32857
1.66667	1.33333
1.66667	1.3381
1.66667	1.33333
1.66667	1.3381
1.66667	1.31905
1.66667	1.31905
1.66667	1.32381
1.66667	1.32857
1.66667	1.32857
1.66667	1.3381
1.66667	1.32381
1.66667	1.32857
1.66667	1.31429
1.66667	1.31905
1.66667	1.32857
1.66667	1.33333
1.66667	1.32857
1.66667	1.32381
1.66667	1.32857
1.66667	1.32857
1.66667	1.3381
1.66667	1.33333
1.66667	1.33333
1.66667	1.31905
1.66667	1.32857
1.66667	1.30952
1.66667	1.33333
1.66667	1.32857
1.66667	1.33333
1.66667	1.3381
1.66667	1.32857
1.66667	1.31429
1.66667	1.33333
1.66667	1.3381
1.66667	1.3381
1.66667	1.3381
1.66667	1.33333
1.66667	1.32381
1.66667	1.3381
1.66667	1.31905
1.66667	1.33333
1.66667	1.3381
1.66667	1.31905
1.66667	1.31429
1.66667	1.3381
