best_fitness	avg_fitness
1	0.0285714
1.33333	0.252381
1.33333	1.33333
1.33333	1.33333
1.33333	1.33333
1.33333	1.33333
1.33333	1.33333
1.33333	1.33333
1.33333	1.33333
1.33333	1.33333
1.33333	1.33333
1.33333	1.33333
1.33333	1.33333
1.33333	1.33333
1.33333	1.33333
1.33333	1.33333
1.33333	1.33333
1.33333	1.33333
1.33333	1.33333
1.33333	1.33333
1.33333	1.33333
1.33333	1.33333
1.33333	1.33333
1.33333	1.33333
1.33333	1.33333
1.33333	1.33333
1.33333	1.33333
1.33333	1.33333
1.33333	1.33333
1.33333	1.33333
1.33333	1.33333
1.33333	1.33333
1.33333	1.33333
1.33333	1.33333
1.33333	1.33333
1.33333	1.33333
1.33333	1.33333
1.33333	1.33333
1.33333	1.33333
1.33333	1.33333
1.33333	1.33333
1.33333	1.33333
1.33333	1.33333
1.33333	1.33333
1.33333	1.33333
1.33333	1.33333
1.33333	1.33333
1.33333	1.33333
1.33333	1.33333
1.33333	1.33333
1.33333	1.33333
1.33333	1.33333
1.33333	1.33333
1.33333	1.33333
1.33333	1.33333
1.33333	1.33333
1.33333	1.33333
1.33333	1.33333
1.33333	1.33333
1.33333	1.33333
1.33333	1.33333
1.33333	1.33333
1.33333	1.33333
1.33333	1.33333
1.33333	1.33333
1.33333	1.33333
1.33333	1.33333
1.33333	1.33333
1.33333	1.33333
1.33333	1.33333
1.33333	1.33333
1.33333	1.33333
1.33333	1.33333
1.33333	1.33333
1.33333	1.33333
1.33333	1.33333
1.33333	1.33333
1.33333	1.33333
1.33333	1.33333
1.33333	1.33333
1.33333	1.33333
1.33333	1.33333
1.33333	1.33333
1.33333	1.33333
1.33333	1.33333
1.33333	1.33333
1.33333	1.33333
1.33333	1.33333
1.33333	1.33333
1.33333	1.33333
1.33333	1.33333
1.33333	1.33333
1.33333	1.33333
1.33333	1.33333
1.33333	1.33333
1.33333	1.33333
1.33333	1.33333
1.33333	1.33333
1.33333	1.33333
1.33333	1.33333
1.33333	1.33333
1.33333	1.33333
1.33333	1.33333
1.33333	1.33333
1.33333	1.33333
1.33333	1.33333
1.33333	1.33333
1.33333	1.33333
1.33333	1.33333
1.33333	1.33333
1.33333	1.33333
1.33333	1.33333
1.33333	1.33333
1.33333	1.33333
1.33333	1.33333
1.33333	1.33333
1.33333	1.33333
1.33333	1.33333
1.33333	1.33333
1.33333	1.33333
1.33333	1.33333
1.33333	1.33333
1.33333	1.33333
1.33333	1.33333
1.33333	1.33333
1.33333	1.33333
1.33333	1.33333
1.33333	1.33333
1.33333	1.33333
1.33333	1.33333
1.33333	1.33333
1.33333	1.33333
1.33333	1.33333
1.33333	1.33333
1.33333	1.33333
1.33333	1.33333
1.33333	1.33333
1.33333	1.33333
1.33333	1.33333
1.33333	1.33333
1.33333	1.33333
1.33333	1.33333
1.33333	1.33333
1.33333	1.33333
1.33333	1.33333
1.33333	1.33333
1.33333	1.33333
1.33333	1.33333
1.33333	1.33333
1.33333	1.33333
1.33333	1.33333
1.33333	1.33333
1.33333	1.33333
1.33333	1.33333
1.33333	1.33333
1.33333	1.33333
1.33333	1.33333
1.33333	1.33333
1.33333	1.33333
1.33333	1.33333
1.33333	1.33333
1.33333	1.33333
1.33333	1.33333
1.33333	1.33333
1.33333	1.33333
1.33333	1.33333
1.33333	1.33333
1.33333	1.33333
1.33333	1.33333
1.33333	1.33333
1.33333	1.33333
1.33333	1.33333
1.33333	1.33333
1.33333	1.33333
1.33333	1.33333
1.33333	1.33333
1.33333	1.33333
1.33333	1.33333
1.33333	1.33333
1.33333	1.33333
1.33333	1.33333
1.33333	1.33333
1.33333	1.33333
1.33333	1.33333
1.33333	1.33333
1.33333	1.33333
1.33333	1.33333
1.33333	1.33333
1.33333	1.33333
1.33333	1.33333
1.33333	1.33333
1.33333	1.33333
1.33333	1.33333
1.33333	1.33333
1.33333	1.33333
1.33333	1.33333
1.33333	1.33333
1.33333	1.33333
1.33333	1.33333
1.33333	1.33333
