ave_fitness	ave_genome_length	ave_tree_depth	ave_tree_nodes	ave_used_codons	best_fitness	gen	invalids	max_genome_length	max_tree_depth	max_tree_nodes	max_used_codons	min_genome_length	min_tree_depth	min_tree_nodes	min_used_codons	runtime_error	time_adjust	time_taken	total_inds	total_time	unique_inds	unused_search	
0.0	57.2	8.28	55.04	38.32	0.0	0	0	130	10	125	87	18	7	17	12	0	0	524.1821665763855	25	524.1821665763855	25	0.0	
0.0	46.2	7.818181818181818	34.63636363636363	24.09090909090909	0.0	1	3	121	13.0	87.0	60.0	18	7.0	17.0	12.0	0	0	406.7251899242401	50	930.9073565006256	39	22.0	
0.0	40.08	7.565217391304348	28.956521739130434	20.26086956521739	0.0	2	5	121	8.0	61.0	42.0	18	7.0	17.0	12.0	0	0	444.0792541503906	75	1374.9866106510162	52	30.666666666666657	
0.0	40.0	7.608695652173913	29.73913043478261	20.695652173913043	0.0	3	7	111	8.0	47.0	32.0	18	7.0	17.0	12.0	0	0	387.9588725566864	100	1762.9454832077026	62	38.0	
