Once in the container, source  /opt/argos3/build_simulator/setup_env.sh 
Possible commands:  singularity shell -B /home:/home -B /mnt/lustre:/mnt/lustre /usr/local/argos/3.0.0-beta52/argos.img
Possible commands:  singularity exec -B /home:/home -B /mnt/lustre:/mnt/lustre /usr/local/argos/3.0.0-beta52/argos.img command.sh
Once in the container, source  /opt/argos3/build_simulator/setup_env.sh 
Possible commands:  singularity shell -B /home:/home -B /mnt/lustre:/mnt/lustre /usr/local/argos/3.0.0-beta52/argos.img
Possible commands:  singularity exec -B /home:/home -B /mnt/lustre:/mnt/lustre /usr/local/argos/3.0.0-beta52/argos.img command.sh
Once in the container, source  /opt/argos3/build_simulator/setup_env.sh 
Possible commands:  singularity shell -B /home:/home -B /mnt/lustre:/mnt/lustre /usr/local/argos/3.0.0-beta52/argos.img
Possible commands:  singularity exec -B /home:/home -B /mnt/lustre:/mnt/lustre /usr/local/argos/3.0.0-beta52/argos.img command.sh
slurmstepd: *** JOB 4904751 CANCELLED AT 2018-09-07T13:49:01 *** on ge00
Once in the container, source  /opt/argos3/build_simulator/setup_env.sh 
Possible commands:  singularity shell -B /home:/home -B /mnt/lustre:/mnt/lustre /usr/local/argos/3.0.0-beta52/argos.img
Possible commands:  singularity exec -B /home:/home -B /mnt/lustre:/mnt/lustre /usr/local/argos/3.0.0-beta52/argos.img command.sh
[1;32mGeneration #[0m[1;32m0[0m[1;32m...[0m[1;32m scores:[0m[1;32m [0m[1;32m0[0m[1;32m [0m[1;32m0[0m[1;32m [0m[1;32m0[0m[1;32m [0m[1;32m0[0m[1;32m [0m[1;32m0[0m[1;32m [0m[1;32m0[0m[1;32m [0m[1;32m0[0m[1;32m [0m[1;32m0[0m[1;32m [0m[1;32m0[0m[1;32m [0m[1;32m0[0m[1;32m [0m[1;32m0[0m[1;32m [0m[1;32m0[0m[1;32m [0m[1;32m0[0m[1;32m [0m[1;32m0[0m[1;32m [0m[1;32m0[0m[1;32m [0m[1;32m0[0m[1;32m [0m[1;32m0[0m[1;32m [0m[1;32m0[0m[1;32m [0m[1;32m0[0m[1;32m [0m[1;32m0[0m[1;32m [0m[1;32m0[0m[1;32m [0m[1;32m0[0m[1;32m [0m[1;32m0[0m[1;32m [0m[1;32m0[0m[1;32m [0m[1;32m0[0m[1;32m [0m[1;32m0[0m[1;32m [0m[1;32m0[0m[1;32m [0m[1;32m0[0m[1;32m [0m[1;32m0[0m[1;32m [0m[1;32m0[0m[1;32m [0m[1;32m0[0m[1;32m [0m[1;32m0[0m[1;32m [0m[1;32m0[0m[1;32m [0m[1;32m0[0m[1;32m [0m[1;32m0[0m[1;32m [0m[1;32m0[0m[1;32m [0m[1;32m0[0m[1;32m [0m[1;32m0[0m[1;32m [0m[1;32m0[0m[1;32m [0m[1;32m0[0m[1;32m [0m[1;32m0[0m[1;32m [0m[1;32m0[0m[1;32m [0m[1;32m0[0m[1;32m [0m[1;32m0[0m[1;32m [0m[1;32m0[0m[1;32m [0m[1;32m0[0m[1;32m [0m[1;32m0[0m[1;32m [0m[1;32m0[0m[1;32m [0m[1;32m0[0m[1;32m [0m[1;32m0[0m[1;32m [0m[1;32m0[0m[1;32m [0m[1;32m0[0m[1;32m [0m[1;32m0[0m[1;32m [0m[1;32m0[0m[1;32m [0m[1;32m0[0m[1;32m [0m[1;32m0[0m[1;32m [0m[1;32m0[0m[1;32m [0m[1;32m0[0m[1;32m [0m[1;32m0[0m[1;32m [0m[1;32m0[0m[1;32m [0m[1;32m0[0m[1;32m [0m[1;32m0[0m[1;32m [0m[1;32m0[0m[1;32m [0m[1;32m0[0m[1;32m [0m[1;32m0[0m[1;32m [0m[1;32m0[0m[1;32m [0m[1;32m0[0m[1;32m [0m[1;32m0[0m[1;32m [0m[1;32m0[0m[1;32m [0m[1;32m0[0m[1;32m [0m[1;32m0[0m[1;32m [0m[1;32m0[0m[1;32m [0m[1;32m0[0m[1;32m [0m[1;32m0[0m[1;32m [0m[1;32m0[0m[1;32m [0m[1;32m0[0m[1;32m [0m[1;32m0[0m[1;32m [0m[1;32m0[0m[1;32m [0m[1;32m0[0m[1;32m [0m[1;32m0[0m[1;32m [0m[1;32m0[0m[1;32m [0m[1;32m0[0m[1;32m [0m[1;32m0[0m[1;32m [0m[1;32m0[0m[1;32m [0m[1;32m0[0m[1;32m [0m[1;32m0[0m[1;32m [0m[1;32m0[0m[1;32m [0m[1;32m0[0m[1;32m [0m[1;32m0[0m[1;32m [0m[1;32m0[0m[1;32m [0m[1;32m0[0m[1;32m [0m[1;32m0[0m[1;32m [0m[1;32m0[0m[1;32m [0m[1;32m0[0m[1;32m [0m[1;32m0[0m[1;32m [0m[1;32m0[0m[1;32m [0m[1;32m0[0m[1;32m [0m[1;32m0[0m[1;32m [0m[1;32m0[0m[1;32m [0m[1;32m0[0m
[1;32mGeneration #[0m[1;32m1[0m[1;32m...[0m[1;32m scores:[0m[1;32m [0m[1;32m0.333333[0m[1;32m [0m[1;32m0.333333[0m[1;32m [0m[1;32m0.333333[0m[1;32m [0m[1;32m0.333333[0m[1;32m [0m[1;32m0.333333[0m[1;32m [0m[1;32m0.333333[0m[1;32m [0m[1;32m0.333333[0m[1;32m [0m[1;32m0[0m[1;32m [0m[1;32m0[0m[1;32m [0m[1;32m0[0m[1;32m [0m[1;32m0[0m[1;32m [0m[1;32m0[0m[1;32m [0m[1;32m0[0m[1;32m [0m[1;32m0[0m[1;32m [0m[1;32m0[0m[1;32m [0m[1;32m0[0m[1;32m [0m[1;32m0[0m[1;32m [0m[1;32m0[0m[1;32m [0m[1;32m0[0m[1;32m [0m[1;32m0[0m[1;32m [0m[1;32m0[0m[1;32m [0m[1;32m0[0m[1;32m [0m[1;32m0[0m[1;32m [0m[1;32m0[0m[1;32m [0m[1;32m0[0m[1;32m [0m[1;32m0[0m[1;32m [0m[1;32m0[0m[1;32m [0m[1;32m0[0m[1;32m [0m[1;32m0[0m[1;32m [0m[1;32m0[0m[1;32m [0m[1;32m0[0m[1;32m [0m[1;32m0[0m[1;32m [0m[1;32m0[0m[1;32m [0m[1;32m0[0m[1;32m [0m[1;32m0[0m[1;32m [0m[1;32m0[0m[1;32m [0m[1;32m0[0m[1;32m [0m[1;32m0[0m[1;32m [0m[1;32m0[0m[1;32m [0m[1;32m0[0m[1;32m [0m[1;32m0[0m[1;32m [0m[1;32m0[0m[1;32m [0m[1;32m0[0m[1;32m [0m[1;32m0[0m[1;32m [0m[1;32m0[0m[1;32m [0m[1;32m0[0m[1;32m [0m[1;32m0[0m[1;32m [0m[1;32m0[0m[1;32m [0m[1;32m0[0m[1;32m [0m[1;32m0[0m[1;32m [0m[1;32m0[0m[1;32m [0m[1;32m0[0m[1;32m [0m[1;32m0[0m[1;32m [0m[1;32m0[0m[1;32m [0m[1;32m0[0m[1;32m [0m[1;32m0[0m[1;32m [0m[1;32m0[0m[1;32m [0m[1;32m0[0m[1;32m [0m[1;32m0[0m[1;32m [0m[1;32m0[0m[1;32m [0m[1;32m0[0m[1;32m [0m[1;32m0[0m[1;32m [0m[1;32m0[0m[1;32m [0m[1;32m0[0m[1;32m [0m[1;32m0[0m[1;32m [0m[1;32m0[0m[1;32m [0m[1;32m0[0m[1;32m [0m[1;32m0[0m[1;32m [0m[1;32m0[0m[1;32m [0m[1;32m0[0m[1;32m [0m[1;32m0[0m[1;32m [0m[1;32m0[0m[1;32m [0m[1;32m0[0m[1;32m [0m[1;32m0[0m[1;32m [0m[1;32m0[0m[1;32m [0m[1;32m0[0m[1;32m [0m[1;32m0[0m[1;32m [0m[1;32m0[0m[1;32m [0m[1;32m0[0m[1;32m [0m[1;32m0[0m[1;32m [0m[1;32m0[0m[1;32m [0m[1;32m0[0m[1;32m [0m[1;32m0[0m[1;32m [0m[1;32m0[0m[1;32m [0m[1;32m0[0m[1;32m [0m[1;32m0[0m[1;32m [0m[1;32m0[0m[1;32m [0m[1;32m0[0m[1;32m [0m[1;32m0[0m[1;32m [0m[1;32m0[0m[1;32m [0m[1;32m0[0m[1;32m [0m[1;32m0[0m[1;32m [0m[1;32m0[0m[1;32m [0m[1;32m0[0m[1;32m [0m[1;32m0[0m[1;32m [0m[1;32m0[0m[1;32m [0m[1;32m0[0m[1;32m [0m[1;32m0[0m[1;32m [0m[1;32m0[0m[1;32m [0m[1;32m0[0m
[1;32mGeneration #[0m[1;32m2[0m[1;32m...[0m[1;32m scores:[0m[1;32m [0m[1;32m0.333333[0m[1;32m [0m[1;32m0.333333[0m[1;32m [0m[1;32m0.333333[0m[1;32m [0m[1;32m0.333333[0m[1;32m [0m[1;32m0.333333[0m[1;32m [0m[1;32m0.333333[0m[1;32m [0m[1;32m0.333333[0m[1;32m [0m[1;32m0.333333[0m[1;32m [0m[1;32m0.333333[0m[1;32m [0m[1;32m0.333333[0m[1;32m [0m[1;32m0.333333[0m[1;32m [0m[1;32m0.333333[0m[1;32m [0m[1;32m0.333333[0m[1;32m [0m[1;32m0.333333[0m[1;32m [0m[1;32m0.333333[0m[1;32m [0m[1;32m0.333333[0m[1;32m [0m[1;32m0.333333[0m[1;32m [0m[1;32m0.333333[0m[1;32m [0m[1;32m0.333333[0m[1;32m [0m[1;32m0.333333[0m[1;32m [0m[1;32m0.333333[0m[1;32m [0m[1;32m0.333333[0m[1;32m [0m[1;32m0.333333[0m[1;32m [0m[1;32m0.333333[0m[1;32m [0m[1;32m0.333333[0m[1;32m [0m[1;32m0.333333[0m[1;32m [0m[1;32m0.333333[0m[1;32m [0m[1;32m0.333333[0m[1;32m [0m[1;32m0.333333[0m[1;32m [0m[1;32m0.333333[0m[1;32m [0m[1;32m0.333333[0m[1;32m [0m[1;32m0.333333[0m[1;32m [0m[1;32m0.333333[0m[1;32m [0m[1;32m0.333333[0m[1;32m [0m[1;32m0.333333[0m[1;32m [0m[1;32m0.333333[0m[1;32m [0m[1;32m0.333333[0m[1;32m [0m[1;32m0.333333[0m[1;32m [0m[1;32m0.333333[0m[1;32m [0m[1;32m0.333333[0m[1;32m [0m[1;32m0.333333[0m[1;32m [0m[1;32m0.333333[0m[1;32m [0m[1;32m0.333333[0m[1;32m [0m[1;32m0.333333[0m[1;32m [0m[1;32m0.333333[0m[1;32m [0m[1;32m0.333333[0m[1;32m [0m[1;32m0.333333[0m[1;32m [0m[1;32m0.333333[0m[1;32m [0m[1;32m0.333333[0m[1;32m [0m[1;32m0.333333[0m[1;32m [0m[1;32m0.333333[0m[1;32m [0m[1;32m0.333333[0m[1;32m [0m[1;32m0.333333[0m[1;32m [0m[1;32m0.333333[0m[1;32m [0m[1;32m0.333333[0m[1;32m [0m[1;32m0.333333[0m[1;32m [0m[1;32m0.333333[0m[1;32m [0m[1;32m0.333333[0m[1;32m [0m[1;32m0.333333[0m[1;32m [0m[1;32m0.333333[0m[1;32m [0m[1;32m0.333333[0m[1;32m [0m[1;32m0.333333[0m[1;32m [0m[1;32m0.333333[0m[1;32m [0m[1;32m0.333333[0m[1;32m [0m[1;32m0.333333[0m[1;32m [0m[1;32m0.333333[0m[1;32m [0m[1;32m0.333333[0m[1;32m [0m[1;32m0.333333[0m[1;32m [0m[1;32m0.333333[0m[1;32m [0m[1;32m0.333333[0m[1;32m [0m[1;32m0.333333[0m[1;32m [0m[1;32m0.333333[0m[1;32m [0m[1;32m0.333333[0m[1;32m [0m[1;32m0.333333[0m[1;32m [0m[1;32m0.333333[0m[1;32m [0m[1;32m0.333333[0m[1;32m [0m[1;32m0.333333[0m[1;32m [0m[1;32m0.333333[0m[1;32m [0m[1;32m0.333333[0m[1;32m [0m[1;32m0.333333[0m[1;32m [0m[1;32m0.333333[0m[1;32m [0m[1;32m0.333333[0m[1;32m [0m[1;32m0.333333[0m[1;32m [0m[1;32m0.333333[0m[1;32m [0m[1;32m0.333333[0m[1;32m [0m[1;32m0.333333[0m[1;32m [0m[1;32m0.333333[0m[1;32m [0m[1;32m0.333333[0m[1;32m [0m[1;32m0.333333[0m[1;32m [0m[1;32m0.333333[0m[1;32m [0m[1;32m0.333333[0m[1;32m [0m[1;32m0.333333[0m[1;32m [0m[1;32m0.333333[0m[1;32m [0m[1;32m0.333333[0m[1;32m [0m[1;32m0.333333[0m[1;32m [0m[1;32m0.333333[0m[1;32m [0m[1;32m0.333333[0m[1;32m [0m[1;32m0.333333[0m[1;32m [0m[1;32m0.333333[0m[1;32m [0m[1;32m0.333333[0m
[1;32mGeneration #[0m[1;32m3[0m[1;32m...[0m[1;32m scores:[0m[1;32m [0m[1;32m0.333333[0m[1;32m [0m[1;32m0.333333[0m[1;32m [0m[1;32m0.333333[0m[1;32m [0m[1;32m0.333333[0m[1;32m [0m[1;32m0.333333[0m[1;32m [0m[1;32m0.333333[0m[1;32m [0m[1;32m0.333333[0m[1;32m [0m[1;32m0.333333[0m[1;32m [0m[1;32m0.333333[0m[1;32m [0m[1;32m0.333333[0m[1;32m [0m[1;32m0.333333[0m[1;32m [0m[1;32m0.333333[0m[1;32m [0m[1;32m0.333333[0m[1;32m [0m[1;32m0.333333[0m[1;32m [0m[1;32m0.333333[0m[1;32m [0m[1;32m0.333333[0m[1;32m [0m[1;32m0.333333[0m[1;32m [0m[1;32m0.333333[0m[1;32m [0m[1;32m0.333333[0m[1;32m [0m[1;32m0.333333[0m[1;32m [0m[1;32m0.333333[0m[1;32m [0m[1;32m0.333333[0m[1;32m [0m[1;32m0.333333[0m[1;32m [0m[1;32m0.333333[0m[1;32m [0m[1;32m0.333333[0m[1;32m [0m[1;32m0.333333[0m[1;32m [0m[1;32m0.333333[0m[1;32m [0m[1;32m0.333333[0m[1;32m [0m[1;32m0.333333[0m[1;32m [0m[1;32m0.333333[0m[1;32m [0m[1;32m0.333333[0m[1;32m [0m[1;32m0.333333[0m[1;32m [0m[1;32m0.333333[0m[1;32m [0m[1;32m0.333333[0m[1;32m [0m[1;32m0.333333[0m[1;32m [0m[1;32m0.333333[0m[1;32m [0m[1;32m0.333333[0m[1;32m [0m[1;32m0.333333[0m[1;32m [0m[1;32m0.333333[0m[1;32m [0m[1;32m0.333333[0m[1;32m [0m[1;32m0.333333[0m[1;32m [0m[1;32m0.333333[0m[1;32m [0m[1;32m0.333333[0m[1;32m [0m[1;32m0.333333[0m[1;32m [0m[1;32m0.333333[0m[1;32m [0m[1;32m0.333333[0m[1;32m [0m[1;32m0.333333[0m[1;32m [0m[1;32m0.333333[0m[1;32m [0m[1;32m0.333333[0m[1;32m [0m[1;32m0.333333[0m[1;32m [0m[1;32m0.333333[0m[1;32m [0m[1;32m0.333333[0m[1;32m [0m[1;32m0.333333[0m[1;32m [0m[1;32m0.333333[0m[1;32m [0m[1;32m0.333333[0m[1;32m [0m[1;32m0.333333[0m[1;32m [0m[1;32m0.333333[0m[1;32m [0m[1;32m0.333333[0m[1;32m [0m[1;32m0.333333[0m[1;32m [0m[1;32m0.333333[0m[1;32m [0m[1;32m0.333333[0m[1;32m [0m[1;32m0.333333[0m[1;32m [0m[1;32m0.333333[0m[1;32m [0m[1;32m0.333333[0m[1;32m [0m[1;32m0.333333[0m[1;32m [0m[1;32m0.333333[0m[1;32m [0m[1;32m0.333333[0m[1;32m [0m[1;32m0.333333[0m[1;32m [0m[1;32m0.333333[0m[1;32m [0m[1;32m0.333333[0m[1;32m [0m[1;32m0.333333[0m[1;32m [0m[1;32m0.333333[0m[1;32m [0m[1;32m0.333333[0m[1;32m [0m[1;32m0.333333[0m[1;32m [0m[1;32m0.333333[0m[1;32m [0m[1;32m0.333333[0m[1;32m [0m[1;32m0.333333[0m[1;32m [0m[1;32m0.333333[0m[1;32m [0m[1;32m0.333333[0m[1;32m [0m[1;32m0.333333[0m[1;32m [0m[1;32m0.333333[0m[1;32m [0m[1;32m0.333333[0m[1;32m [0m[1;32m0.333333[0m[1;32m [0m[1;32m0.333333[0m[1;32m [0m[1;32m0.333333[0m[1;32m [0m[1;32m0.333333[0m[1;32m [0m[1;32m0.333333[0m[1;32m [0m[1;32m0.333333[0m[1;32m [0m[1;32m0.333333[0m[1;32m [0m[1;32m0.333333[0m[1;32m [0m[1;32m0.333333[0m[1;32m [0m[1;32m0.333333[0m[1;32m [0m[1;32m0.333333[0m[1;32m [0m[1;32m0.333333[0m[1;32m [0m[1;32m0.333333[0m[1;32m [0m[1;32m0.333333[0m[1;32m [0m[1;32m0.333333[0m[1;32m [0m[1;32m0.333333[0m[1;32m [0m[1;32m0.333333[0m[1;32m [0m[1;32m0.333333[0m
[1;32mGeneration #[0m[1;32m4[0m[1;32m...[0m[1;32m scores:[0m[1;32m [0m[1;32m0.333333[0m[1;32m [0m[1;32m0.333333[0m[1;32m [0m[1;32m0.333333[0m[1;32m [0m[1;32m0.333333[0m[1;32m [0m[1;32m0.333333[0m[1;32m [0m[1;32m0.333333[0m[1;32m [0m[1;32m0.333333[0m[1;32m [0m[1;32m0.333333[0m[1;32m [0m[1;32m0.333333[0m[1;32m [0m[1;32m0.333333[0m[1;32m [0m[1;32m0.333333[0m[1;32m [0m[1;32m0.333333[0m[1;32m [0m[1;32m0.333333[0m[1;32m [0m[1;32m0.333333[0m[1;32m [0m[1;32m0.333333[0m[1;32m [0m[1;32m0.333333[0m[1;32m [0m[1;32m0.333333[0m[1;32m [0m[1;32m0.333333[0m[1;32m [0m[1;32m0.333333[0m[1;32m [0m[1;32m0.333333[0m[1;32m [0m[1;32m0.333333[0m[1;32m [0m[1;32m0.333333[0m[1;32m [0m[1;32m0.333333[0m[1;32m [0m[1;32m0.333333[0m[1;32m [0m[1;32m0.333333[0m[1;32m [0m[1;32m0.333333[0m[1;32m [0m[1;32m0.333333[0m[1;32m [0m[1;32m0.333333[0m[1;32m [0m[1;32m0.333333[0m[1;32m [0m[1;32m0.333333[0m[1;32m [0m[1;32m0.333333[0m[1;32m [0m[1;32m0.333333[0m[1;32m [0m[1;32m0.333333[0m[1;32m [0m[1;32m0.333333[0m[1;32m [0m[1;32m0.333333[0m[1;32m [0m[1;32m0.333333[0m[1;32m [0m[1;32m0.333333[0m[1;32m [0m[1;32m0.333333[0m[1;32m [0m[1;32m0.333333[0m[1;32m [0m[1;32m0.333333[0m[1;32m [0m[1;32m0.333333[0m[1;32m [0m[1;32m0.333333[0m[1;32m [0m[1;32m0.333333[0m[1;32m [0m[1;32m0.333333[0m[1;32m [0m[1;32m0.333333[0m[1;32m [0m[1;32m0.333333[0m[1;32m [0m[1;32m0.333333[0m[1;32m [0m[1;32m0.333333[0m[1;32m [0m[1;32m0.333333[0m[1;32m [0m[1;32m0.333333[0m[1;32m [0m[1;32m0.333333[0m[1;32m [0m[1;32m0.333333[0m[1;32m [0m[1;32m0.333333[0m[1;32m [0m[1;32m0.333333[0m[1;32m [0m[1;32m0.333333[0m[1;32m [0m[1;32m0.333333[0m[1;32m [0m[1;32m0.333333[0m[1;32m [0m[1;32m0.333333[0m[1;32m [0m[1;32m0.333333[0m[1;32m [0m[1;32m0.333333[0m[1;32m [0m[1;32m0.333333[0m[1;32m [0m[1;32m0.333333[0m[1;32m [0m[1;32m0.333333[0m[1;32m [0m[1;32m0.333333[0m[1;32m [0m[1;32m0.333333[0m[1;32m [0m[1;32m0.333333[0m[1;32m [0m[1;32m0.333333[0m[1;32m [0m[1;32m0.333333[0m[1;32m [0m[1;32m0.333333[0m[1;32m [0m[1;32m0.333333[0m[1;32m [0m[1;32m0.333333[0m[1;32m [0m[1;32m0.333333[0m[1;32m [0m[1;32m0.333333[0m[1;32m [0m[1;32m0.333333[0m[1;32m [0m[1;32m0.333333[0m[1;32m [0m[1;32m0.333333[0m[1;32m [0m[1;32m0.333333[0m[1;32m [0m[1;32m0.333333[0m[1;32m [0m[1;32m0.333333[0m[1;32m [0m[1;32m0.333333[0m[1;32m [0m[1;32m0.333333[0m[1;32m [0m[1;32m0.333333[0m[1;32m [0m[1;32m0.333333[0m[1;32m [0m[1;32m0.333333[0m[1;32m [0m[1;32m0.333333[0m[1;32m [0m[1;32m0.333333[0m[1;32m [0m[1;32m0.333333[0m[1;32m [0m[1;32m0.333333[0m[1;32m [0m[1;32m0.333333[0m[1;32m [0m[1;32m0.333333[0m[1;32m [0m[1;32m0.333333[0m[1;32m [0m[1;32m0.333333[0m[1;32m [0m[1;32m0.333333[0m[1;32m [0m[1;32m0.333333[0m[1;32m [0m[1;32m0.333333[0m[1;32m [0m[1;32m0.333333[0m[1;32m [0m[1;32m0.333333[0m[1;32m [0m[1;32m0.333333[0m[1;32m [0m[1;32m0.333333[0m[1;32m [0m[1;32m0.333333[0m
[1;32mGeneration #[0m[1;32m5[0m[1;32m...[0m[1;32m scores:[0m[1;32m [0m[1;32m0.333333[0m[1;32m [0m[1;32m0.333333[0m[1;32m [0m[1;32m0.333333[0m[1;32m [0m[1;32m0.333333[0m[1;32m [0m[1;32m0.333333[0m[1;32m [0m[1;32m0.333333[0m[1;32m [0m[1;32m0.333333[0m[1;32m [0m[1;32m0.333333[0m[1;32m [0m[1;32m0.333333[0m[1;32m [0m[1;32m0.333333[0m[1;32m [0m[1;32m0.333333[0m[1;32m [0m[1;32m0.333333[0m[1;32m [0m[1;32m0.333333[0m[1;32m [0m[1;32m0.333333[0m[1;32m [0m[1;32m0.333333[0m[1;32m [0m[1;32m0.333333[0m[1;32m [0m[1;32m0.333333[0m[1;32m [0m[1;32m0.333333[0m[1;32m [0m[1;32m0.333333[0m[1;32m [0m[1;32m0.333333[0m[1;32m [0m[1;32m0.333333[0m[1;32m [0m[1;32m0.333333[0m[1;32m [0m[1;32m0.333333[0m[1;32m [0m[1;32m0.333333[0m[1;32m [0m[1;32m0.333333[0m[1;32m [0m[1;32m0.333333[0m[1;32m [0m[1;32m0.333333[0m[1;32m [0m[1;32m0.333333[0m[1;32m [0m[1;32m0.333333[0m[1;32m [0m[1;32m0.333333[0m[1;32m [0m[1;32m0.333333[0m[1;32m [0m[1;32m0.333333[0m[1;32m [0m[1;32m0.333333[0m[1;32m [0m[1;32m0.333333[0m[1;32m [0m[1;32m0.333333[0m[1;32m [0m[1;32m0.333333[0m[1;32m [0m[1;32m0.333333[0m[1;32m [0m[1;32m0.333333[0m[1;32m [0m[1;32m0.333333[0m[1;32m [0m[1;32m0.333333[0m[1;32m [0m[1;32m0.333333[0m[1;32m [0m[1;32m0.333333[0m[1;32m [0m[1;32m0.333333[0m[1;32m [0m[1;32m0.333333[0m[1;32m [0m[1;32m0.333333[0m[1;32m [0m[1;32m0.333333[0m[1;32m [0m[1;32m0.333333[0m[1;32m [0m[1;32m0.333333[0m[1;32m [0m[1;32m0.333333[0m[1;32m [0m[1;32m0.333333[0m[1;32m [0m[1;32m0.333333[0m[1;32m [0m[1;32m0.333333[0m[1;32m [0m[1;32m0.333333[0m[1;32m [0m[1;32m0.333333[0m[1;32m [0m[1;32m0.333333[0m[1;32m [0m[1;32m0.333333[0m[1;32m [0m[1;32m0.333333[0m[1;32m [0m[1;32m0.333333[0m[1;32m [0m[1;32m0.333333[0m[1;32m [0m[1;32m0.333333[0m[1;32m [0m[1;32m0.333333[0m[1;32m [0m[1;32m0.333333[0m[1;32m [0m[1;32m0.333333[0m[1;32m [0m[1;32m0.333333[0m[1;32m [0m[1;32m0.333333[0m[1;32m [0m[1;32m0.333333[0m[1;32m [0m[1;32m0.333333[0m[1;32m [0m[1;32m0.333333[0m[1;32m [0m[1;32m0.333333[0m[1;32m [0m[1;32m0.333333[0m[1;32m [0m[1;32m0.333333[0m[1;32m [0m[1;32m0.333333[0m[1;32m [0m[1;32m0.333333[0m[1;32m [0m[1;32m0.333333[0m[1;32m [0m[1;32m0.333333[0m[1;32m [0m[1;32m0.333333[0m[1;32m [0m[1;32m0.333333[0m[1;32m [0m[1;32m0.333333[0m[1;32m [0m[1;32m0.333333[0m[1;32m [0m[1;32m0.333333[0m[1;32m [0m[1;32m0.333333[0m[1;32m [0m[1;32m0.333333[0m[1;32m [0m[1;32m0.333333[0m[1;32m [0m[1;32m0.333333[0m[1;32m [0m[1;32m0.333333[0m[1;32m [0m[1;32m0.333333[0m[1;32m [0m[1;32m0.333333[0m[1;32m [0m[1;32m0.333333[0m[1;32m [0m[1;32m0.333333[0m[1;32m [0m[1;32m0.333333[0m[1;32m [0m[1;32m0.333333[0m[1;32m [0m[1;32m0.333333[0m[1;32m [0m[1;32m0.333333[0m[1;32m [0m[1;32m0.333333[0m[1;32m [0m[1;32m0.333333[0m[1;32m [0m[1;32m0.333333[0m[1;32m [0m[1;32m0.333333[0m[1;32m [0m[1;32m0.333333[0m[1;32m [0m[1;32m0.333333[0m[1;32m [0m[1;32m0.333333[0m[1;32m [Flushing genome... [0m[1;32mdone.][0m
[1;32mGeneration #[0m[1;32m6[0m[1;32m...[0m[1;32m scores:[0m[1;32m [0m[1;32m0.333333[0m[1;32m [0m[1;32m0.333333[0m[1;32m [0m[1;32m0.333333[0m[1;32m [0m[1;32m0.333333[0m[1;32m [0m[1;32m0.333333[0m[1;32m [0m[1;32m0.333333[0m[1;32m [0m[1;32m0.333333[0m[1;32m [0m[1;32m0.333333[0m[1;32m [0m[1;32m0.333333[0m[1;32m [0m[1;32m0.333333[0m[1;32m [0m[1;32m0.333333[0m[1;32m [0m[1;32m0.333333[0m[1;32m [0m[1;32m0.333333[0m[1;32m [0m[1;32m0.333333[0m[1;32m [0m[1;32m0.333333[0m[1;32m [0m[1;32m0.333333[0m[1;32m [0m[1;32m0.333333[0m[1;32m [0m[1;32m0.333333[0m[1;32m [0m[1;32m0.333333[0m[1;32m [0m[1;32m0.333333[0m[1;32m [0m[1;32m0.333333[0m[1;32m [0m[1;32m0.333333[0m[1;32m [0m[1;32m0.333333[0m[1;32m [0m[1;32m0.333333[0m[1;32m [0m[1;32m0.333333[0m[1;32m [0m[1;32m0.333333[0m[1;32m [0m[1;32m0.333333[0m[1;32m [0m[1;32m0.333333[0m[1;32m [0m[1;32m0.333333[0m[1;32m [0m[1;32m0.333333[0m[1;32m [0m[1;32m0.333333[0m[1;32m [0m[1;32m0.333333[0m[1;32m [0m[1;32m0.333333[0m[1;32m [0m[1;32m0.333333[0m[1;32m [0m[1;32m0.333333[0m[1;32m [0m[1;32m0.333333[0m[1;32m [0m[1;32m0.333333[0m[1;32m [0m[1;32m0.333333[0m[1;32m [0m[1;32m0.333333[0m[1;32m [0m[1;32m0.333333[0m[1;32m [0m[1;32m0.333333[0m[1;32m [0m[1;32m0.333333[0m[1;32m [0m[1;32m0.333333[0m[1;32m [0m[1;32m0.333333[0m[1;32m [0m[1;32m0.333333[0m[1;32m [0m[1;32m0.333333[0m[1;32m [0m[1;32m0.333333[0m[1;32m [0m[1;32m0.333333[0m[1;32m [0m[1;32m0.333333[0m[1;32m [0m[1;32m0.333333[0m[1;32m [0m[1;32m0.333333[0m[1;32m [0m[1;32m0.333333[0m[1;32m [0m[1;32m0.333333[0m[1;32m [0m[1;32m0.333333[0m[1;32m [0m[1;32m0.333333[0m[1;32m [0m[1;32m0.333333[0m[1;32m [0m[1;32m0.333333[0m[1;32m [0m[1;32m0.333333[0m[1;32m [0m[1;32m0.333333[0m[1;32m [0m[1;32m0.333333[0m[1;32m [0m[1;32m0.333333[0m[1;32m [0m[1;32m0.333333[0m[1;32m [0m[1;32m0.333333[0m[1;32m [0m[1;32m0.333333[0m[1;32m [0m[1;32m0.333333[0m[1;32m [0m[1;32m0.333333[0m[1;32m [0m[1;32m0.333333[0m[1;32m [0m[1;32m0.333333[0m[1;32m [0m[1;32m0.333333[0m[1;32m [0m[1;32m0.333333[0m[1;32m [0m[1;32m0.333333[0m[1;32m [0m[1;32m0.333333[0m[1;32m [0m[1;32m0.333333[0m[1;32m [0m[1;32m0.333333[0m[1;32m [0m[1;32m0.333333[0m[1;32m [0m[1;32m0.333333[0m[1;32m [0m[1;32m0.333333[0m[1;32m [0m[1;32m0.333333[0m[1;32m [0m[1;32m0.333333[0m[1;32m [0m[1;32m0.333333[0m[1;32m [0m[1;32m0.333333[0m[1;32m [0m[1;32m0.333333[0m[1;32m [0m[1;32m0.333333[0m[1;32m [0m[1;32m0.333333[0m[1;32m [0m[1;32m0.333333[0m[1;32m [0m[1;32m0.333333[0m[1;32m [0m[1;32m0.333333[0m[1;32m [0m[1;32m0.333333[0m[1;32m [0m[1;32m0.333333[0m[1;32m [0m[1;32m0.333333[0m[1;32m [0m[1;32m0.333333[0m[1;32m [0m[1;32m0.333333[0m[1;32m [0m[1;32m0.333333[0m[1;32m [0m[1;32m0.333333[0m[1;32m [0m[1;32m0.333333[0m[1;32m [0m[1;32m0.333333[0m[1;32m [0m[1;32m0.333333[0m[1;32m [0m[1;32m0.333333[0m[1;32m [0m[1;32m0.333333[0m[1;32m [0m[1;32m0.333333[0m
[1;32mGeneration #[0m[1;32m7[0m[1;32m...[0m[1;32m scores:[0m[1;32m [0m[1;32m0.333333[0m[1;32m [0m[1;32m0.333333[0m[1;32m [0m[1;32m0.333333[0m[1;32m [0m[1;32m0.333333[0m[1;32m [0m[1;32m0.333333[0m[1;32m [0m[1;32m0.333333[0m[1;32m [0m[1;32m0.333333[0m[1;32m [0m[1;32m0.333333[0m[1;32m [0m[1;32m0.333333[0m[1;32m [0m[1;32m0.333333[0m[1;32m [0m[1;32m0.333333[0m[1;32m [0m[1;32m0.333333[0m[1;32m [0m[1;32m0.333333[0m[1;32m [0m[1;32m0.333333[0m[1;32m [0m[1;32m0.333333[0m[1;32m [0m[1;32m0.333333[0m[1;32m [0m[1;32m0.333333[0m[1;32m [0m[1;32m0.333333[0m[1;32m [0m[1;32m0.333333[0m[1;32m [0m[1;32m0.333333[0m[1;32m [0m[1;32m0.333333[0m[1;32m [0m[1;32m0.333333[0m[1;32m [0m[1;32m0.333333[0m[1;32m [0m[1;32m0.333333[0m[1;32m [0m[1;32m0.333333[0m[1;32m [0m[1;32m0.333333[0m[1;32m [0m[1;32m0.333333[0m[1;32m [0m[1;32m0.333333[0m[1;32m [0m[1;32m0.333333[0m[1;32m [0m[1;32m0.333333[0m[1;32m [0m[1;32m0.333333[0m[1;32m [0m[1;32m0.333333[0m[1;32m [0m[1;32m0.333333[0m[1;32m [0m[1;32m0.333333[0m[1;32m [0m[1;32m0.333333[0m[1;32m [0m[1;32m0.333333[0m[1;32m [0m[1;32m0.333333[0m[1;32m [0m[1;32m0.333333[0m[1;32m [0m[1;32m0.333333[0m[1;32m [0m[1;32m0.333333[0m[1;32m [0m[1;32m0.333333[0m[1;32m [0m[1;32m0.333333[0m[1;32m [0m[1;32m0.333333[0m[1;32m [0m[1;32m0.333333[0m[1;32m [0m[1;32m0.333333[0m[1;32m [0m[1;32m0.333333[0m[1;32m [0m[1;32m0.333333[0m[1;32m [0m[1;32m0.333333[0m[1;32m [0m[1;32m0.333333[0m[1;32m [0m[1;32m0.333333[0m[1;32m [0m[1;32m0.333333[0m[1;32m [0m[1;32m0.333333[0m[1;32m [0m[1;32m0.333333[0m[1;32m [0m[1;32m0.333333[0m[1;32m [0m[1;32m0.333333[0m[1;32m [0m[1;32m0.333333[0m[1;32m [0m[1;32m0.333333[0m[1;32m [0m[1;32m0.333333[0m[1;32m [0m[1;32m0.333333[0m[1;32m [0m[1;32m0.333333[0m[1;32m [0m[1;32m0.333333[0m[1;32m [0m[1;32m0.333333[0m[1;32m [0m[1;32m0.333333[0m[1;32m [0m[1;32m0.333333[0m[1;32m [0m[1;32m0.333333[0m[1;32m [0m[1;32m0.333333[0m[1;32m [0m[1;32m0.333333[0m[1;32m [0m[1;32m0.333333[0m[1;32m [0m[1;32m0.333333[0m[1;32m [0m[1;32m0.333333[0m[1;32m [0m[1;32m0.333333[0m[1;32m [0m[1;32m0.333333[0m[1;32m [0m[1;32m0.333333[0m[1;32m [0m[1;32m0.333333[0m[1;32m [0m[1;32m0.333333[0m[1;32m [0m[1;32m0.333333[0m[1;32m [0m[1;32m0.333333[0m[1;32m [0m[1;32m0.333333[0m[1;32m [0m[1;32m0.333333[0m[1;32m [0m[1;32m0.333333[0m[1;32m [0m[1;32m0.333333[0m[1;32m [0m[1;32m0.333333[0m[1;32m [0m[1;32m0.333333[0m[1;32m [0m[1;32m0.333333[0m[1;32m [0m[1;32m0.333333[0m[1;32m [0m[1;32m0.333333[0m[1;32m [0m[1;32m0.333333[0m[1;32m [0m[1;32m0.333333[0m[1;32m [0m[1;32m0.333333[0m[1;32m [0m[1;32m0.333333[0m[1;32m [0m[1;32m0.333333[0m[1;32m [0m[1;32m0.333333[0m[1;32m [0m[1;32m0.333333[0m[1;32m [0m[1;32m0.333333[0m[1;32m [0m[1;32m0.333333[0m[1;32m [0m[1;32m0.333333[0m[1;32m [0m[1;32m0.333333[0m[1;32m [0m[1;32m0.333333[0m[1;32m [0m[1;32m0.333333[0m[1;32m [0m[1;32m0.333333[0m
[1;32mGeneration #[0m[1;32m8[0m[1;32m...[0m[1;32m scores:[0m[1;32m [0m[1;32m0.333333[0m[1;32m [0m[1;32m0.333333[0m[1;32m [0m[1;32m0.333333[0m[1;32m [0m[1;32m0.333333[0m[1;32m [0m[1;32m0.333333[0m[1;32m [0m[1;32m0.333333[0m[1;32m [0m[1;32m0.333333[0m[1;32m [0m[1;32m0.333333[0m[1;32m [0m[1;32m0.333333[0m[1;32m [0m[1;32m0.333333[0m[1;32m [0m[1;32m0.333333[0m[1;32m [0m[1;32m0.333333[0m[1;32m [0m[1;32m0.333333[0m[1;32m [0m[1;32m0.333333[0m[1;32m [0m[1;32m0.333333[0m[1;32m [0m[1;32m0.333333[0m[1;32m [0m[1;32m0.333333[0m[1;32m [0m[1;32m0.333333[0m[1;32m [0m[1;32m0.333333[0m[1;32m [0m[1;32m0.333333[0m[1;32m [0m[1;32m0.333333[0m[1;32m [0m[1;32m0.333333[0m[1;32m [0m[1;32m0.333333[0m[1;32m [0m[1;32m0.333333[0m[1;32m [0m[1;32m0.333333[0m[1;32m [0m[1;32m0.333333[0m[1;32m [0m[1;32m0.333333[0m[1;32m [0m[1;32m0.333333[0m[1;32m [0m[1;32m0.333333[0m[1;32m [0m[1;32m0.333333[0m[1;32m [0m[1;32m0.333333[0m[1;32m [0m[1;32m0.333333[0m[1;32m [0m[1;32m0.333333[0m[1;32m [0m[1;32m0.333333[0m[1;32m [0m[1;32m0.333333[0m[1;32m [0m[1;32m0.333333[0m[1;32m [0m[1;32m0.333333[0m[1;32m [0m[1;32m0.333333[0m[1;32m [0m[1;32m0.333333[0m[1;32m [0m[1;32m0.333333[0m[1;32m [0m[1;32m0.333333[0m[1;32m [0m[1;32m0.333333[0m[1;32m [0m[1;32m0.333333[0m[1;32m [0m[1;32m0.333333[0m[1;32m [0m[1;32m0.333333[0m[1;32m [0m[1;32m0.333333[0m[1;32m [0m[1;32m0.333333[0m[1;32m [0m[1;32m0.333333[0m[1;32m [0m[1;32m0.333333[0m[1;32m [0m[1;32m0.333333[0m[1;32m [0m[1;32m0.333333[0m[1;32m [0m[1;32m0.333333[0m[1;32m [0m[1;32m0.333333[0m[1;32m [0m[1;32m0.333333[0m[1;32m [0m[1;32m0.333333[0m[1;32m [0m[1;32m0.333333[0m[1;32m [0m[1;32m0.333333[0m[1;32m [0m[1;32m0.333333[0m[1;32m [0m[1;32m0.333333[0m[1;32m [0m[1;32m0.333333[0m[1;32m [0m[1;32m0.333333[0m[1;32m [0m[1;32m0.333333[0m[1;32m [0m[1;32m0.333333[0m[1;32m [0m[1;32m0.333333[0m[1;32m [0m[1;32m0.333333[0m[1;32m [0m[1;32m0.333333[0m[1;32m [0m[1;32m0.333333[0m[1;32m [0m[1;32m0.333333[0m[1;32m [0m[1;32m0.333333[0m[1;32m [0m[1;32m0.333333[0m[1;32m [0m[1;32m0.333333[0m[1;32m [0m[1;32m0.333333[0m[1;32m [0m[1;32m0.333333[0m[1;32m [0m[1;32m0.333333[0m[1;32m [0m[1;32m0.333333[0m[1;32m [0m[1;32m0.333333[0m[1;32m [0m[1;32m0.333333[0m[1;32m [0m[1;32m0.333333[0m[1;32m [0m[1;32m0.333333[0m[1;32m [0m[1;32m0.333333[0m[1;32m [0m[1;32m0.333333[0m[1;32m [0m[1;32m0.333333[0m[1;32m [0m[1;32m0.333333[0m[1;32m [0m[1;32m0.333333[0m[1;32m [0m[1;32m0.333333[0m[1;32m [0m[1;32m0.333333[0m[1;32m [0m[1;32m0.333333[0m[1;32m [0m[1;32m0.333333[0m[1;32m [0m[1;32m0.333333[0m[1;32m [0m[1;32m0.333333[0m[1;32m [0m[1;32m0.333333[0m[1;32m [0m[1;32m0.333333[0m[1;32m [0m[1;32m0.333333[0m[1;32m [0m[1;32m0.333333[0m[1;32m [0m[1;32m0.333333[0m[1;32m [0m[1;32m0.333333[0m[1;32m [0m[1;32m0.333333[0m[1;32m [0m[1;32m0.333333[0m[1;32m [0m[1;32m0.333333[0m[1;32m [0m[1;32m0.333333[0m
[1;32mGeneration #[0m[1;32m9[0m[1;32m...[0m[1;32m scores:[0m[1;32m [0m[1;32m0.333333[0m[1;32m [0m[1;32m0.333333[0m[1;32m [0m[1;32m0.333333[0m[1;32m [0m[1;32m0.333333[0m[1;32m [0m[1;32m0.333333[0m[1;32m [0m[1;32m0.333333[0m[1;32m [0m[1;32m0.333333[0m[1;32m [0m[1;32m0.333333[0m[1;32m [0m[1;32m0.333333[0m[1;32m [0m[1;32m0.333333[0m[1;32m [0m[1;32m0.333333[0m[1;32m [0m[1;32m0.333333[0m[1;32m [0m[1;32m0.333333[0m[1;32m [0m[1;32m0.333333[0m[1;32m [0m[1;32m0.333333[0m[1;32m [0m[1;32m0.333333[0m[1;32m [0m[1;32m0.333333[0m[1;32m [0m[1;32m0.333333[0m[1;32m [0m[1;32m0.333333[0m[1;32m [0m[1;32m0.333333[0m[1;32m [0m[1;32m0.333333[0m[1;32m [0m[1;32m0.333333[0m[1;32m [0m[1;32m0.333333[0m[1;32m [0m[1;32m0.333333[0m[1;32m [0m[1;32m0.333333[0m[1;32m [0m[1;32m0.333333[0m[1;32m [0m[1;32m0.333333[0m[1;32m [0m[1;32m0.333333[0m[1;32m [0m[1;32m0.333333[0m[1;32m [0m[1;32m0.333333[0m[1;32m [0m[1;32m0.333333[0m[1;32m [0m[1;32m0.333333[0m[1;32m [0m[1;32m0.333333[0m[1;32m [0m[1;32m0.333333[0m[1;32m [0m[1;32m0.333333[0m[1;32m [0m[1;32m0.333333[0m[1;32m [0m[1;32m0.333333[0m[1;32m [0m[1;32m0.333333[0m[1;32m [0m[1;32m0.333333[0m[1;32m [0m[1;32m0.333333[0m[1;32m [0m[1;32m0.333333[0m[1;32m [0m[1;32m0.333333[0m[1;32m [0m[1;32m0.333333[0m[1;32m [0m[1;32m0.333333[0m[1;32m [0m[1;32m0.333333[0m[1;32m [0m[1;32m0.333333[0m[1;32m [0m[1;32m0.333333[0m[1;32m [0m[1;32m0.333333[0m[1;32m [0m[1;32m0.333333[0m[1;32m [0m[1;32m0.333333[0m[1;32m [0m[1;32m0.333333[0m[1;32m [0m[1;32m0.333333[0m[1;32m [0m[1;32m0.333333[0m[1;32m [0m[1;32m0.333333[0m[1;32m [0m[1;32m0.333333[0m[1;32m [0m[1;32m0.333333[0m[1;32m [0m[1;32m0.333333[0m[1;32m [0m[1;32m0.333333[0m[1;32m [0m[1;32m0.333333[0m[1;32m [0m[1;32m0.333333[0m[1;32m [0m[1;32m0.333333[0m[1;32m [0m[1;32m0.333333[0m[1;32m [0m[1;32m0.333333[0m[1;32m [0m[1;32m0.333333[0m[1;32m [0m[1;32m0.333333[0m[1;32m [0m[1;32m0.333333[0m[1;32m [0m[1;32m0.333333[0m[1;32m [0m[1;32m0.333333[0m[1;32m [0m[1;32m0.333333[0m[1;32m [0m[1;32m0.333333[0m[1;32m [0m[1;32m0.333333[0m[1;32m [0m[1;32m0.333333[0m[1;32m [0m[1;32m0.333333[0m[1;32m [0m[1;32m0.333333[0m[1;32m [0m[1;32m0.333333[0m[1;32m [0m[1;32m0.333333[0m[1;32m [0m[1;32m0.333333[0m[1;32m [0m[1;32m0.333333[0m[1;32m [0m[1;32m0.333333[0m[1;32m [0m[1;32m0.333333[0m[1;32m [0m[1;32m0.333333[0m[1;32m [0m[1;32m0.333333[0m[1;32m [0m[1;32m0.333333[0m[1;32m [0m[1;32m0.333333[0m[1;32m [0m[1;32m0.333333[0m[1;32m [0m[1;32m0.333333[0m[1;32m [0m[1;32m0.333333[0m[1;32m [0m[1;32m0.333333[0m[1;32m [0m[1;32m0.333333[0m[1;32m [0m[1;32m0.333333[0m[1;32m [0m[1;32m0.333333[0m[1;32m [0m[1;32m0.333333[0m[1;32m [0m[1;32m0.333333[0m[1;32m [0m[1;32m0.333333[0m[1;32m [0m[1;32m0.333333[0m[1;32m [0m[1;32m0.333333[0m[1;32m [0m[1;32m0.333333[0m[1;32m [0m[1;32m0.333333[0m[1;32m [0m[1;32m0.333333[0m[1;32m [0m[1;32m0.333333[0m
[1;32mGeneration #[0m[1;32m10[0m[1;32m...[0m[1;32m scores:[0m[1;32m [0m[1;32m0.333333[0m[1;32m [0m[1;32m0.333333[0m[1;32m [0m[1;32m0.333333[0m[1;32m [0m[1;32m0.333333[0m[1;32m [0m[1;32m0.333333[0m[1;32m [0m[1;32m0.333333[0m[1;32m [0m[1;32m0.333333[0m[1;32m [0m[1;32m0.333333[0m[1;32m [0m[1;32m0.333333[0m[1;32m [0m[1;32m0.333333[0m[1;32m [0m[1;32m0.333333[0m[1;32m [0m[1;32m0.333333[0m[1;32m [0m[1;32m0.333333[0m[1;32m [0m[1;32m0.333333[0m[1;32m [0m[1;32m0.333333[0m[1;32m [0m[1;32m0.333333[0m[1;32m [0m[1;32m0.333333[0m[1;32m [0m[1;32m0.333333[0m[1;32m [0m[1;32m0.333333[0m[1;32m [0m[1;32m0.333333[0m[1;32m [0m[1;32m0.333333[0m[1;32m [0m[1;32m0.333333[0m[1;32m [0m[1;32m0.333333[0m[1;32m [0m[1;32m0.333333[0m[1;32m [0m[1;32m0.333333[0m[1;32m [0m[1;32m0.333333[0m[1;32m [0m[1;32m0.333333[0m[1;32m [0m[1;32m0.333333[0m[1;32m [0m[1;32m0.333333[0m[1;32m [0m[1;32m0.333333[0m[1;32m [0m[1;32m0.333333[0m[1;32m [0m[1;32m0.333333[0m[1;32m [0m[1;32m0.333333[0m[1;32m [0m[1;32m0.333333[0m[1;32m [0m[1;32m0.333333[0m[1;32m [0m[1;32m0.333333[0m[1;32m [0m[1;32m0.333333[0m[1;32m [0m[1;32m0.333333[0m[1;32m [0m[1;32m0.333333[0m[1;32m [0m[1;32m0.333333[0m[1;32m [0m[1;32m0.333333[0m[1;32m [0m[1;32m0.333333[0m[1;32m [0m[1;32m0.333333[0m[1;32m [0m[1;32m0.333333[0m[1;32m [0m[1;32m0.333333[0m[1;32m [0m[1;32m0.333333[0m[1;32m [0m[1;32m0.333333[0m[1;32m [0m[1;32m0.333333[0m[1;32m [0m[1;32m0.333333[0m[1;32m [0m[1;32m0.333333[0m[1;32m [0m[1;32m0.333333[0m[1;32m [0m[1;32m0.333333[0m[1;32m [0m[1;32m0.333333[0m[1;32m [0m[1;32m0.333333[0m[1;32m [0m[1;32m0.333333[0m[1;32m [0m[1;32m0.333333[0m[1;32m [0m[1;32m0.333333[0m[1;32m [0m[1;32m0.333333[0m[1;32m [0m[1;32m0.333333[0m[1;32m [0m[1;32m0.333333[0m[1;32m [0m[1;32m0.333333[0m[1;32m [0m[1;32m0.333333[0m[1;32m [0m[1;32m0.333333[0m[1;32m [0m[1;32m0.333333[0m[1;32m [0m[1;32m0.333333[0m[1;32m [0m[1;32m0.333333[0m[1;32m [0m[1;32m0.333333[0m[1;32m [0m[1;32m0.333333[0m[1;32m [0m[1;32m0.333333[0m[1;32m [0m[1;32m0.333333[0m[1;32m [0m[1;32m0.333333[0m[1;32m [0m[1;32m0.333333[0m[1;32m [0m[1;32m0.333333[0m[1;32m [0m[1;32m0.333333[0m[1;32m [0m[1;32m0.333333[0m[1;32m [0m[1;32m0.333333[0m[1;32m [0m[1;32m0.333333[0m[1;32m [0m[1;32m0.333333[0m[1;32m [0m[1;32m0.333333[0m[1;32m [0m[1;32m0.333333[0m[1;32m [0m[1;32m0.333333[0m[1;32m [0m[1;32m0.333333[0m[1;32m [0m[1;32m0.333333[0m[1;32m [0m[1;32m0.333333[0m[1;32m [0m[1;32m0.333333[0m[1;32m [0m[1;32m0.333333[0m[1;32m [0m[1;32m0.333333[0m[1;32m [0m[1;32m0.333333[0m[1;32m [0m[1;32m0.333333[0m[1;32m [0m[1;32m0.333333[0m[1;32m [0m[1;32m0.333333[0m[1;32m [0m[1;32m0.333333[0m[1;32m [0m[1;32m0.333333[0m[1;32m [0m[1;32m0.333333[0m[1;32m [0m[1;32m0.333333[0m[1;32m [0m[1;32m0.333333[0m[1;32m [0m[1;32m0.333333[0m[1;32m [0m[1;32m0.333333[0m[1;32m [0m[1;32m0.333333[0m[1;32m [0m[1;32m0.333333[0m[1;32m [Flushing genome... [0m[1;32mdone.][0m
[0m[0m