Generation:
2000

Phenotype:
*:B_PHOTOTAXIS;B_PHOTOTAXIS;B_PHOTOTAXIS;*:B_RANDOM_WALK,11#*:*:IS_DROP_OBJECT,false,2#*:B_PHOTOTAXIS;B_RANDOM_WALK;*:B_ANTI_PHOTOTAXIS,50;B_RANDOM_WALK,47#P_MOTIVATION_1_LT,false;P_HAS_OBJECT,false;P_MOTIVATION_2_LT,false;*:*:IS_MOTIVATION_2_INC,true,58;B_PHOTOTAXIS,98;IS_WANT_OBJECT,true,93;B_RANDOM_WALK,57;IS_DROP_OBJECT,false,65#P_MOTIVATION_2_GT,false;*:B_PHOTOTAXIS;B_RANDOM_WALK;B_RANDOM_WALK;*:IS_MOTIVATION_2_DEC,true,12;B_ANTI_PHOTOTAXIS,51#P_ON_NEST,true;*:*:IS_WANT_OBJECT,false,40;B_RANDOM_WALK,79;B_PHOTOTAXIS,69#

Genotype:
[47010, 50901, 47639, 24221, 97164, 61656, 23600, 52788, 19320, 52128, 7715, 51063, 60087, 38528, 14165, 52490, 67479, 7482, 73211, 75455, 92663, 63151, 15581, 69149, 42233, 20882, 96781, 28373, 3436, 89596, 53278, 87273, 55867, 60590, 70938, 83834, 14861, 56863, 918, 27328, 68286, 71598, 93670, 6009, 35791, 79402, 41624, 81695, 40144, 73094, 63151, 15570, 80825, 35393, 60803, 29090, 57976, 17228, 73335, 7354, 96135, 69478, 31669, 18411, 82612, 48731, 45020, 60436, 82859, 49442, 32416, 46882, 7229, 63220, 49570, 32343, 7482, 13632, 34228, 46733, 39118, 18162, 95012, 37766, 43184, 32894, 5321, 85175, 87523, 90713, 56863, 918, 48331, 18945, 11276, 92460, 95048, 93176, 74244, 53531, 97639, 47929, 63873, 11804, 87324, 18760, 51041, 43184, 32894, 32773, 85175, 92460, 23133, 4643, 98993, 14824, 51320, 75853, 29982, 65924, 77932, 23180, 32795, 26406, 32894, 28191, 48862, 75612, 71333, 18440, 71445, 65540, 18162, 37737, 2403, 21648, 77493, 42258, 7482, 87202, 244, 37673, 96231, 31669, 26120, 57690, 35142, 32894, 48710, 14165, 65465, 918, 63518, 75111, 83464, 55725, 63151, 18162, 37657, 42233, 43184, 72902, 80107, 85175, 92460, 69073, 74009, 17924, 89389, 76544, 32894, 46830, 30941, 75117, 91878, 22066, 37673, 63151, 81884, 37657, 67143, 54054, 49, 6467, 6127, 32416, 51224, 93120, 14165, 65465, 918, 63518, 75111, 83464, 55725, 63151, 18162, 94641, 42233, 43184, 32894, 65693, 85175, 92460, 99525, 56863, 918, 71064, 83024, 30191, 52289, 63151, 18162, 49456, 89389, 55677, 32894, 47211, 91864, 39412, 40924, 22066, 37673, 63151, 81884, 37657, 35393, 14165, 88899, 12941, 17228, 73320, 59366, 37673, 63151, 31669, 18411, 57690, 48731, 32894, 60436, 6467, 6127, 32416, 51224, 92460, 14165, 50948, 918, 7482, 75111, 244, 46733, 63151, 18162, 37657, 42233, 43184, 32894, 80107, 85175, 92460, 14165, 56863, 918, 71064, 97106, 30191, 52289, 63151, 18162, 17924, 42233, 48731, 32894, 28191, 30941, 7482, 91878, 244, 37673, 63151, 18162, 37657, 42233, 14165, 56863, 12941, 7482, 87202, 244, 37673, 63151, 31669, 37657, 57690, 35142, 32894, 48710, 19619, 35298, 12140, 92017, 18787, 10749, 56863, 62183, 58258, 35975, 39813, 4494, 20731, 93758, 31081, 67656, 17247, 70853, 25559, 14028, 13227, 75253]
Tree:
None

Fitness:
28.3333