Generation:
200

Phenotype:
*:*:IS_DROP_OBJECT,true,20;IS_DROP_OBJECT,false,53;B_ANTI_PHOTOTAXIS,82;IS_DROP_OBJECT,true,24;IS_DROP_OBJECT,false,53;B_RANDOM_WALK,97;IS_WANT_OBJECT,true,73#

Genotype:
[99227, 47563, 41991, 35848, 76965, 67025, 65496, 36967, 87070, 77055, 24394, 4161, 59884, 3697, 10056, 32537, 34669, 16112, 29976, 50064, 79358, 19267, 95628, 77116, 36967, 5238, 77055, 24394, 95974, 44094, 3697, 89014, 32537, 34669, 16112, 34270, 22296, 57268, 89555, 3026, 13853, 63051, 35213, 81798, 58592, 11082, 29035, 403, 8271, 479, 95365, 28370, 98928, 668, 22139, 65817, 73276, 59008, 11620, 41359, 27992]
Tree:
None

Fitness:
3.0