Generation:
2000

Phenotype:
*:*:IS_WANT_OBJECT,false,10;B_ANTI_PHOTOTAXIS,30;IS_MOTIVATION_2_DEC,false,4;IS_WANT_OBJECT,true,82#P_HAS_OBJECT,false;P_MOTIVATION_2_GT,true;*:*:B_PHOTOTAXIS,93;IS_DROP_OBJECT,false,68#*:B_PHOTOTAXIS;*:B_PHOTOTAXIS,16;B_RANDOM_WALK,76#

Genotype:
[56306, 9288, 13729, 23517, 42875, 37679, 94574, 90347, 44416, 91206, 93133, 33340, 3336, 28834, 15070, 16438, 39925, 73814, 59131, 89691, 827, 40307, 48181, 72467, 74519, 82232, 30720, 91680, 12303, 16438, 93594, 52638, 18560, 97508, 50047, 40436, 38429, 72467, 72208, 79265, 13693, 68391, 3711, 80648, 4464, 41323, 53604, 6961, 93859, 74711, 29378, 82759, 88811, 66122, 74711, 47440, 82759, 9919, 88468, 86730, 38429, 99725, 88020, 77780, 13693, 68391, 92229, 70785, 3336, 11192, 56042, 16438, 94405, 89691, 50047, 30380, 64659, 72467, 81645, 9000, 16575, 11192, 12303, 16438, 93594, 52638, 14921, 97508, 50047, 40436, 38429, 72467, 88020, 46229, 13693, 9788, 60305, 70785, 4464, 93846, 90762, 46043, 52638, 90673, 89691, 97163, 81082, 21168, 72467, 81645, 99739, 58621, 40307, 80864, 72467, 81645, 99739, 58621, 87017, 7359, 74711, 60974, 54320, 70580, 88468, 3666, 30094, 83279, 23227, 72188, 76606, 23695, 12006, 72224, 33461, 4254]
Tree:
None

Fitness:
23.6667