AGENT_SIZE:              100
CACHE:                   True
CODON_SIZE:              100000
CORES:                   48
CROSSOVER:               variable_onepoint
CROSSOVER_PROBABILITY:   0.3
DATASET_DELIMITER:       None
DATASET_TEST:            None
DATASET_TRAIN:           Vladislavleva4/Train.txt
DEBUG:                   False
ELITE_SIZE:              5
ERROR_METRIC:            None
EXPERIMENT_NAME:         foraging
FILE_PATH:               /mnt/lustre/projects/no45/mriz9/esr-benchmarks/PonyGE2/src/../results/foraging/hc12_18_8_21_052036_612675_1579524_42
FITNESS_FUNCTION:        foraging
GENERATIONS:             200
GENERATION_SIZE:         65
GRAMMAR_FILE:            GESwarm_foraging.bnf
HILL_CLIMBING_HISTORY:   1000
INITIALISATION:          PI_grow
INIT_GENOME_LENGTH:      200
INTERACTION_PROBABILITY: 0.5
INVALID_SELECTION:       False
LOAD_STATE:              None
LOOKUP_BAD_FITNESS:      False
LOOKUP_FITNESS:          False
MACHINE:                 hc12
MAX_GENOME_LENGTH:       500
MAX_INIT_TREE_DEPTH:     10
MAX_TREE_DEPTH:          17
MAX_TREE_NODES:          None
MAX_WRAPS:               0
MIN_INIT_TREE_DEPTH:     None
MULTIAGENT:              False
MULTICORE:               True
MUTATE_DUPLICATES:       False
MUTATION:                int_flip_per_codon
MUTATION_EVENTS:         1
MUTATION_PROBABILITY:    0.05
NO_CROSSOVER_INVALIDS:   False
NO_MUTATION_INVALIDS:    False
OPTIMIZE_CONSTANTS:      False
PARAMETERS:              foraging.txt
PERMUTATION_RAMPS:       5
POPULATION_SIZE:         70
RANDOM_SEED:             42
REPLACEMENT:             generational
REVERSE_MAPPING_TARGET:  None
RUNS:                    1
SAVE_ALL:                False
SAVE_PLOTS:              True
SAVE_STATE:              False
SAVE_STATE_STEP:         1
SCHC_COUNT_METHOD:       count_all
SEARCH_LOOP:             search_loop
SEED_INDIVIDUALS:        []
SELECTION:               tournament
SELECTION_PROPORTION:    0.5
SILENT:                  False
STEP:                    step
TARGET:                  ponyge_rocks
TARGET_SEED_FOLDER:      None
TIME_STAMP:              hc12_18_8_21_052036_612675_1579524_42
TOURNAMENT_SIZE:         2
VERBOSE:                 False
WITHIN_USED:             True
