best_fitness	avg_fitness
2.66667	2.66667
2.66667	2.66667
2.66667	2.66667
2.66667	2.66667
2.66667	2.66667
2.66667	2.66667
2.66667	2.66667
2.66667	2.66667
2.66667	2.66667
2.66667	2.66667
2.66667	2.66667
2.66667	2.66667
2.66667	2.66667
2.66667	2.66667
2.66667	2.66667
2.66667	2.66667
2.66667	2.66667
2.66667	2.66667
2.66667	2.66667
2.66667	2.66667
2.66667	2.66667
2.66667	2.66667
2.66667	2.66667
2.66667	2.66667
2.66667	2.66667
2.66667	2.66667
2.66667	2.66667
2.66667	2.66667
2.66667	2.66667
2.66667	2.66667
2.66667	2.66667
2.66667	2.66667
2.66667	2.66667
2.66667	2.66667
2.66667	2.66667
2.66667	2.66667
2.66667	2.66667
2.66667	2.66667
2.66667	2.66667
2.66667	2.66667
