Generation:
200

Phenotype:
*:*:IS_WANT_OBJECT,true,67;B_ANTI_PHOTOTAXIS,36;IS_DROP_OBJECT,false,93;IS_DROP_OBJECT,false,30;IS_DROP_OBJECT,true,43;IS_WANT_OBJECT,true,89;IS_DROP_OBJECT,false,71#P_HAS_OBJECT,false;*:*:IS_DROP_OBJECT,false,22;B_RANDOM_WALK,85;B_PHOTOTAXIS,20#

Genotype:
[13848, 98445, 67843, 58027, 79419, 95139, 84688, 73725, 46598, 50954, 60824, 66424, 46420, 5858, 76141, 93100, 86593, 84822, 9211, 5639, 51649, 39829, 40291, 81326, 86733, 26619, 28129, 75251, 88102, 34920, 71793, 61274, 39829, 19776, 30646, 28034, 2511, 89864, 87364, 90702, 84222, 42879, 80443, 48615, 13203, 52611, 33805, 47295, 36717, 3720, 32083, 77390, 88795, 45007, 42693, 35635, 81683, 73694, 71365, 4109, 82591, 8643, 19414, 60100, 46420, 50751, 32075, 77956, 32075, 19064, 75251, 84822, 9211, 85991, 84296, 39829, 75121, 15560, 10663, 61995, 28129, 75251, 88102, 34920, 71793, 89418, 39829, 19776, 17141, 28034, 2511, 89864, 41244, 90702, 84222, 42879, 80443, 713, 13203, 52611, 31051, 99939, 66446, 3720, 32083, 77390, 88795, 45007, 42693, 35635, 74923, 13706, 71365, 79101, 82591, 24465, 30386, 76203, 46420, 53556, 32075, 27343, 75251, 32083, 55846, 20197, 84296, 4277, 38921, 17141, 30468, 97600, 14953, 74794, 91882, 91630, 42879, 80443, 713, 13203, 18334, 31051, 76511, 37581, 79613, 64143, 6737, 49956, 91373, 13381, 28538, 51901, 80127, 98383, 65692, 42879, 6123, 37767, 31868, 45136, 81945]
Tree:
None

Fitness:
11.6667