Generation:
2000

Phenotype:
*:*:IS_DROP_OBJECT,true,22;B_ANTI_PHOTOTAXIS,93;IS_MOTIVATION_2_INC,true,60;B_RANDOM_WALK,45;IS_MOTIVATION_1_INC,true,60;IS_WANT_OBJECT,true,41;IS_DROP_OBJECT,false,81;B_ANTI_PHOTOTAXIS,26;IS_DROP_OBJECT,false,31;B_RANDOM_WALK,86;IS_MOTIVATION_1_INC,true,96#

Genotype:
[33597, 67748, 20647, 28732, 21457, 46893, 45496, 42607, 27562, 37999, 9104, 55471, 39016, 57364, 88242, 21328, 8981, 97930, 21413, 42186, 66736, 18494, 69952, 55122, 390, 85286, 78764, 71553, 36772, 62843, 45316, 10790, 17684, 26421, 6282, 85915, 39313, 63156, 17684, 1455, 69160, 33461, 36033, 3577, 26419, 586, 41326, 94646, 9991, 7369, 16489, 57600, 63819, 63370, 49057, 79647, 91032, 2284, 96230, 19753, 64061, 80886, 44803, 15659, 42873, 27416, 63370, 14034, 75637, 91032, 2284, 74262, 21917, 64061, 80886, 97993, 15659, 9649, 30670, 71075, 40749, 36108, 587, 85493, 25252, 29543, 20844, 6697, 75616, 99921, 69829, 5028, 9313, 61650, 87268, 22674]
Tree:
None

Fitness:
7.66667