ave_fitness	ave_genome_length	ave_tree_depth	ave_tree_nodes	ave_used_codons	best_fitness	gen	invalids	max_genome_length	max_tree_depth	max_tree_nodes	max_used_codons	min_genome_length	min_tree_depth	min_tree_nodes	min_used_codons	runtime_error	time_adjust	time_taken	total_inds	total_time	unique_inds	unused_search	
0.009523814285714286	47.97142857142857	8.17142857142857	45.98571428571429	32.18571428571428	0.666667	0	0	108	10	103	72	16	7	15	11	0	0	1562.446858406067	70	1562.446858406067	70	0.0	
0.011299440677966103	46.31428571428572	8.220338983050848	37.728813559322035	26.47457627118644	0.666667	1	12	108	11.0	114.0	80.0	16	7.0	15.0	11.0	0	0	1180.621245622635	140	2743.068104028702	116	17.14285714285714	
0.011695912280701755	51.371428571428574	8.508771929824562	42.3859649122807	29.70175438596491	0.666667	2	26	101	12.0	96.0	66.0	10	7.0	15.0	11.0	0	0	1124.4522051811218	210	3867.5203092098236	147	30.0	
0.010416671875	53.77142857142857	8.59375	41.8125	29.453125	0.666667	3	33	101	12.0	119.0	84.0	11	7.0	15.0	11.0	0	0	1287.9052340984344	280	5155.425543308258	183	34.64285714285714	
0.010582015873015873	59.98571428571429	8.492063492063492	41.93650793650794	29.49206349206349	0.666667	4	41	101	12.0	110.0	76.0	11	7.0	15.0	11.0	0	0	1275.4931988716125	350	6430.918742179871	211	39.714285714285715	
0.011111116666666667	59.67142857142857	8.416666666666666	39.916666666666664	28.066666666666666	0.666667	5	52	122	12.0	93.0	66.0	6	7.0	15.0	11.0	0	0	1206.3152894973755	420	7637.234031677246	245	41.666666666666664	
0.010101015151515153	51.614285714285714	8.454545454545455	39.10606060606061	27.40909090909091	0.666667	6	57	106	12.0	139.0	97.0	16	7.0	15.0	11.0	0	0	1308.0787303447723	490	8945.312762022018	271	44.693877551020414	
0.027322409836065573	55.8	8.344262295081966	36.22950819672131	25.40983606557377	1.0	7	67	89	13.0	101.0	70.0	9	7.0	15.0	11.0	0	0	1197.6113996505737	560	10142.924161672592	302	46.07142857142858	
0.02380952857142857	61.7	8.314285714285715	36.957142857142856	25.9	1.0	8	68	114	11	101	70	16	7	15	11	0	0	1361.3338377475739	630	11504.257999420166	335	46.82539682539682	
0.0252525303030303	51.41428571428571	8.287878787878787	34.81818181818182	24.46969696969697	1.0	9	73	88	11.0	99.0	69.0	16	7.0	15.0	11.0	0	0	1272.1743171215057	700	12776.432316541672	366	47.71428571428571	
0.025641030769230768	52.614285714285714	8.692307692307692	40.89230769230769	28.615384615384617	1.0	10	79	89	13.0	99.0	69.0	16	7.0	15.0	11.0	0	0	1237.09947514534	770	14013.531791687012	392	49.09090909090909	
0.039215691176470585	54.48571428571429	8.367647058823529	35.61764705882353	24.970588235294116	1.0	11	82	92	13.0	99.0	69.0	16	7.0	15.0	11.0	0	0	1326.2636473178864	840	15339.795439004898	425	49.404761904761905	
0.038647347826086954	61.214285714285715	8.405797101449275	37.6231884057971	26.333333333333332	1.0	12	84	110	13.0	99.0	69.0	16	7.0	15.0	11.0	0	0	1346.510312795639	910	16686.305751800537	456	49.89010989010989	
0.06862745588235294	57.97142857142857	7.985294117647059	34.25	24.029411764705884	1.0	13	87	91	12.0	107.0	74.0	16	7.0	15.0	11.0	0	0	1291.495651960373	980	17977.80140376091	479	51.12244897959184	
0.0952381	65.48571428571428	8.128571428571428	36.22857142857143	25.428571428571427	1.0	14	87	102	11	107	74	26	7	15	11	0	0	1366.648074388504	1050	19344.449478149414	515	50.952380952380956	
0.1809523857142857	67.17142857142858	8.4	38.542857142857144	27.12857142857143	1.0	15	88	102	12	107	74	19	7	15	11	0	0	1348.382557630539	1120	20692.832035779953	545	51.339285714285715	
0.19402985074626866	68.87142857142857	8.82089552238806	46.11940298507463	32.37313432835821	1.0	16	92	100	17.0	108.0	75.0	19	7.0	15.0	11.0	0	0	1294.0626800060272	1190	21986.89471578598	582	51.09243697478992	
0.21212121212121213	67.28571428571429	9.030303030303031	49.74242424242424	35.03030303030303	1.0	17	97	100	17.0	125.0	87.0	9	7.0	15.0	11.0	0	0	1287.94993185997	1260	23274.84464764595	615	51.19047619047619	
0.2995168985507246	70.4	9.318840579710145	55.507246376811594	39.01449275362319	1.0	18	99	107	17.0	105.0	73.0	13	7.0	17.0	12.0	0	0	1325.7231397628784	1330	24600.56778740883	653	50.902255639097746	
0.307291671875	71.52857142857142	9.25	55.875	39.25	1.0	19	106	104	17.0	103.0	71.0	35	7.0	18.0	13.0	0	0	1269.4019026756287	1400	25869.969690084457	686	51.0	
0.3532338358208955	75.24285714285715	9.611940298507463	61.28358208955224	42.985074626865675	1.0	20	110	114	17.0	103.0	72.0	38	7.0	23.0	16.0	0	0	1353.876161813736	1470	27223.845851898193	717	51.224489795918366	
0.35593225423728814	74.81428571428572	9.677966101694915	64.8135593220339	45.50847457627118	1.66667	21	122	122	13.0	110.0	76.0	44	7.0	23.0	16.0	0	0	1158.8131244182587	1540	28382.658976316452	744	51.688311688311686	
0.3232323787878788	74.12857142857143	9.954545454545455	64.13636363636364	45.0	1.66667	22	127	101	17.0	110.0	76.0	45	7.0	23.0	16.0	0	0	1287.8956077098846	1610	29670.554584026337	777	51.73913043478261	
0.38011708771929825	72.7	10.017543859649123	65.36842105263158	45.89473684210526	1.66667	23	141	104	17.0	105.0	73.0	13	8.0	31.0	22.0	0	0	1139.4273946285248	1680	30809.98197865486	807	51.964285714285715	
0.3538462	73.52857142857142	9.984615384615385	63.63076923076923	44.58461538461538	1.66667	24	147	111	16.0	110.0	76.0	33	7.0	21.0	15.0	0	0	1262.026073217392	1750	32072.008051872253	843	51.82857142857143	
0.3692308615384615	75.08571428571429	10.076923076923077	62.56923076923077	43.87692307692308	1.66667	25	153	113	17.0	107.0	74.0	42	7.0	21.0	15.0	0	0	1314.8544080257416	1820	33386.862459897995	878	51.75824175824176	
0.37313452238805966	74.22857142857143	9.970149253731343	63.97014925373134	44.82089552238806	1.66667	26	157	101	16.0	102.0	71.0	43	7.0	21.0	15.0	0	0	1343.8972537517548	1890	34730.75971364975	916	51.53439153439153	
0.26984153968253966	77.75714285714285	10.031746031746032	64.71428571428571	45.26984126984127	1.66667	27	165	105	16.0	121.0	84.0	37	7.0	23.0	16.0	0	0	1260.2117455005646	1960	35990.971459150314	953	51.37755102040816	
0.369792140625	82.94285714285714	10.171875	66.109375	46.140625	1.66667	28	172	144	17.0	128.0	89.0	32	7.0	23.0	16.0	0	0	1289.6703128814697	2030	37280.641772031784	995	50.98522167487685	
0.2777781515151515	86.17142857142858	10.363636363636363	67.81818181818181	47.34848484848485	1.66667	29	177	144	17.0	126.0	88.0	32	7.0	23.0	16.0	0	0	1285.4200899600983	2100	38566.06186199188	1044	50.285714285714285	
0.3641031384615385	97.17142857142858	10.76923076923077	75.87692307692308	52.89230769230769	1.66667	30	183	152	17.0	155.0	109.0	52	7.0	23.0	16.0	0	0	1084.5091125965118	2170	39650.570974588394	1088	49.86175115207373	
0.25870662686567164	98.21428571428571	10.507462686567164	74.6268656716418	52.149253731343286	1.66667	31	187	171	17.0	123.0	86.0	20	7.0	23.0	16.0	0	0	926.3177087306976	2240	40576.88868331909	1137	49.24107142857142	
0.17910471641791045	102.72857142857143	10.298507462686567	77.82089552238806	54.43283582089552	1.66667	32	191	200	15.0	135.0	93.0	53	8.0	37.0	26.0	0	0	915.0573816299438	2310	41491.946064949036	1187	48.61471861471861	
0.27941219117647054	104.71428571428571	9.941176470588236	69.5	48.61764705882353	1.66667	33	194	210	17.0	151.0	105.0	47	7.0	23.0	16.0	0	0	919.1505224704742	2380	42411.09658741951	1233	48.193277310924366	
0.23671528985507242	108.47142857142858	10.27536231884058	75.5072463768116	52.971014492753625	1.66667	34	196	210	15.0	163.0	114.0	47	8.0	38.0	27.0	0	0	956.7705721855164	2450	43367.867159605026	1272	48.08163265306122	
0.33830904477611945	99.61428571428571	10.343283582089553	75.46268656716418	52.776119402985074	1.66667	35	200	284	14.0	135.0	95.0	22	8.0	38.0	27.0	0	0	945.0922644138336	2520	44312.95942401886	1303	48.29365079365079	
0.22885613432835822	108.82857142857142	9.895522388059701	71.86567164179104	50.208955223880594	1.66667	36	204	284	15.0	140.0	98.0	72	8.0	38.0	27.0	0	0	897.9370996952057	2590	45210.896523714066	1347	47.99227799227799	
0.30434828985507245	103.02857142857142	10.434782608695652	75.89855072463769	53.05797101449275	1.66667	37	206	284	15.0	140.0	98.0	36	7.0	23.0	16.0	0	0	952.6337330341339	2660	46163.5302567482	1388	47.81954887218045	
0.3084582537313433	102.27142857142857	10.447761194029852	74.7910447761194	52.16417910447761	1.66667	38	210	234	17.0	172.0	120.0	41	7.0	23.0	16.0	0	0	879.2959394454956	2730	47042.826196193695	1431	47.58241758241758	
0.4378116865671641	117.4	10.164179104477611	70.68656716417911	49.35820895522388	1.66667	39	214	234	16.0	129.0	91.0	51	7.0	23.0	16.0	0	0	913.7105967998505	2800	47956.536792993546	1470	47.5	
0.4299523768115942	107.8	10.144927536231885	69.78260869565217	48.78260869565217	1.66667	40	216	234	12.0	129.0	91.0	52	7.0	18.0	13.0	0	0	930.9332699775696	2870	48887.470062971115	1514	47.24738675958188	
0.35384666153846156	106.08571428571429	10.138461538461538	69.53846153846153	48.55384615384615	1.66667	41	222	151	13.0	120.0	84.0	61	7.0	21.0	15.0	0	0	889.1759581565857	2940	49776.6460211277	1550	47.278911564625844	
0.3282056923076923	106.08571428571429	9.923076923076923	69.8	48.738461538461536	1.66667	42	228	197	13.0	136.0	93.0	49	7.0	17.0	12.0	0	0	866.1035985946655	3010	50642.749619722366	1597	46.94352159468439	
0.2657008695652174	105.75714285714285	9.956521739130435	68.52173913043478	47.89855072463768	1.66667	43	230	197	13.0	121.0	84.0	69	7.0	23.0	16.0	0	0	966.5543653964996	3080	51609.303985118866	1644	46.62337662337662	
0.2801936666666666	104.14285714285714	9.855072463768115	65.07246376811594	45.405797101449274	1.66667	44	232	197	17.0	97.0	67.0	51	7.0	29.0	20.0	0	0	925.5531897544861	3150	52534.85717487335	1685	46.507936507936506	
0.2095241857142857	102.84285714285714	9.857142857142858	67.57142857142857	47.285714285714285	1.66667	45	233	200	13	122	84	64	7	23	16	0	0	944.3322806358337	3220	53479.189455509186	1733	46.18012422360248	
0.2892161764705882	102.52857142857142	9.691176470588236	65.88235294117646	46.14705882352941	1.66667	46	236	192	13.0	130.0	90.0	56	7.0	18.0	13.0	0	0	954.199620962143	3290	54433.38907647133	1777	45.98784194528876	
0.3190481	102.95714285714286	9.9	65.54285714285714	45.82857142857143	1.66667	47	236	198	17	121	84	69	7	17	12	0	0	954.8992021083832	3360	55388.28827857971	1818	45.892857142857146	
0.31313183333333333	102.1	10.212121212121213	71.43939393939394	49.92424242424242	1.66667	48	241	192	16.0	123.0	86.0	36	7.0	20.0	14.0	0	0	880.9136445522308	3430	56269.20192313194	1859	45.80174927113703	
0.26666701428571427	104.15714285714286	9.914285714285715	70.64285714285714	49.34285714285714	1.66667	49	242	197	13	128	90	36	7	20	14	0	0	922.4420042037964	3500	57191.64392733574	1900	45.714285714285715	
0.23076963076923074	105.67142857142858	10.123076923076923	72.0	50.2	1.66667	50	248	226	17.0	152.0	105.0	36	7.0	17.0	12.0	0	0	828.862988948822	3570	58020.50691628456	1937	45.74229691876751	
0.17142880000000002	114.08571428571429	9.942857142857143	72.22857142857143	50.44285714285714	1.66667	51	248	244	13	213	148	36	7	17	12	0	0	928.5495038032532	3640	58949.056420087814	1977	45.68681318681319	
0.17619077142857142	101.97142857142858	9.67142857142857	67.5	47.114285714285714	1.66667	52	249	226	14	144	100	36	7	17	12	0	0	920.9662005901337	3710	59870.02262067795	2017	45.63342318059299	
0.27179533846153847	110.67142857142858	9.892307692307693	70.1076923076923	48.98461538461538	1.66667	53	255	251	13.0	179.0	125.0	36	7.0	17.0	12.0	0	0	857.8304319381714	3780	60727.85305261612	2054	45.66137566137566	
0.31372598529411766	106.8	9.558823529411764	64.26470588235294	44.88235294117647	2.0	54	258	240	13.0	179.0	125.0	28	7.0	23.0	16.0	0	0	887.2862038612366	3850	61615.139256477356	2089	45.74025974025974	
0.3676475441176471	110.44285714285714	9.867647058823529	67.69117647058823	47.30882352941177	2.0	55	261	240	12.0	113.0	78.0	46	7.0	23.0	16.0	0	0	893.1062984466553	3920	62508.24555492401	2127	45.73979591836734	
0.3636367121212121	102.67142857142858	10.030303030303031	67.75757575757575	47.36363636363637	2.0	56	266	203	14.0	163.0	113.0	40	7.0	20.0	14.0	0	0	871.9487767219543	3990	63380.194331645966	2159	45.88972431077695	
0.2809526142857143	101.67142857142858	9.7	65.12857142857143	45.51428571428571	2.0	57	267	234	14	138	96	46	7	23	16	0	0	901.1761512756348	4060	64281.3704829216	2209	45.59113300492611	
0.1952381857142857	101.38571428571429	9.528571428571428	64.82857142857142	45.371428571428574	2.0	58	268	234	13	114	80	46	7	26	18	0	0	911.2360427379608	4130	65192.60652565956	2259	45.302663438256666	
0.16666672058823528	102.58571428571429	9.676470588235293	67.94117647058823	47.5	2.0	59	271	269	14.0	124.0	87.0	27	7.0	23.0	16.0	0	0	894.1883070468903	4200	66086.79483270645	2302	45.19047619047619	
0.25238105714285713	103.11428571428571	9.285714285714286	63.7	44.55714285714286	2.0	60	272	198	16	153	106	60	7	23	16	0	0	922.8023273944855	4270	67009.59716010094	2349	44.988290398126466	
0.252381	100.88571428571429	9.371428571428572	61.15714285714286	42.82857142857143	2.0	61	272	153	14	130	91	60	7	17	12	0	0	979.6895477771759	4340	67989.28670787811	2385	45.046082949308754	
0.2794117205882353	102.71428571428571	9.426470588235293	60.3235294117647	42.25	2.0	62	275	171	17.0	139.0	96.0	58	7.0	15.0	11.0	0	0	940.8488104343414	4410	68930.13551831245	2431	44.875283446712025	
0.3627450588235294	102.44285714285714	9.5	64.70588235294117	45.38235294117647	2.0	63	278	171	13.0	124.0	86.0	62	7.0	17.0	12.0	0	0	926.605744600296	4480	69856.74126291275	2475	44.75446428571429	
0.2761904857142857	103.94285714285714	9.585714285714285	66.18571428571428	46.55714285714286	2.0	64	278	175	14	125	87	60	7	24	17	0	0	992.472326040268	4550	70849.21358895302	2520	44.61538461538461	
0.33333332857142856	104.15714285714286	9.814285714285715	66.91428571428571	47.01428571428571	2.0	65	279	175	15	155	109	60	7	17	12	0	0	974.819319486618	4620	71824.03290843964	2564	44.5021645021645	
0.2666666714285714	104.47142857142858	9.8	67.62857142857143	47.4	2.0	66	280	168	14	155	109	58	7	26	18	0	0	983.2253551483154	4690	72807.25826358795	2610	44.34968017057569	
0.2857142857142857	99.44285714285714	9.914285714285715	68.32857142857142	47.857142857142854	2.0	67	281	151	15	139	98	58	7	23	16	0	0	975.0014629364014	4760	73782.25972652435	2648	44.36974789915966	
0.3761904714285714	99.32857142857142	9.928571428571429	68.58571428571429	48.02857142857143	2.0	68	282	148	17	139	98	52	8	32	23	0	0	951.4525711536407	4830	74733.712297678	2690	44.3064182194617	
0.3095238142857143	94.18571428571428	9.7	66.07142857142857	46.17142857142857	2.0	69	282	142	17	139	96	36	8	32	23	0	0	991.5073571205139	4900	75725.21965479851	2737	44.14285714285714	
0.3666665571428571	97.5	9.842857142857143	69.58571428571429	48.642857142857146	2.0	70	282	142	13	139	96	58	7	23	16	0	0	983.7967126369476	4970	76709.01636743546	2778	44.104627766599606	
0.44927534782608697	95.74285714285715	9.826086956521738	66.14492753623189	46.34782608695652	2.0	71	284	143	14.0	140.0	98.0	58	8.0	32.0	23.0	0	0	933.1598806381226	5040	77642.17624807358	2821	44.02777777777778	
0.5523809428571429	98.25714285714285	9.542857142857143	62.84285714285714	44.08571428571429	2.0	72	285	131	14	121	85	58	7	17	12	0	0	932.1903300285339	5110	78574.36657810211	2863	43.97260273972603	
0.5637254264705882	98.67142857142858	9.470588235294118	62.63235294117647	43.9264705882353	2.0	73	288	157	12.0	135.0	94.0	23	7.0	23.0	16.0	0	0	906.0244574546814	5180	79480.3910355568	2898	44.054054054054056	
0.5476189428571429	98.08571428571429	9.657142857142857	65.48571428571428	45.81428571428572	2.0	74	288	157	13	135	94	61	7	23	16	0	0	925.5288696289062	5250	80405.9199051857	2935	44.0952380952381	
0.5476190571428572	97.92857142857143	9.4	62.457142857142856	43.72857142857143	2.0	75	289	141	13	138	96	55	7	23	16	0	0	931.1479487419128	5320	81337.06785392761	2976	44.060150375939855	
0.44285718571428573	98.41428571428571	9.228571428571428	57.05714285714286	39.957142857142856	2.0	76	289	145	11	95	66	54	7	23	16	0	0	966.2896566390991	5390	82303.35751056671	3014	44.08163265306122	
0.5238095571428572	97.07142857142857	9.457142857142857	57.74285714285714	40.457142857142856	2.0	77	290	123	12	101	70	55	7	20	14	0	0	964.815548658371	5460	83268.17305922508	3046	44.21245421245421	
0.34825871641791045	97.72857142857143	9.686567164179104	65.80597014925372	46.059701492537314	2.0	78	294	133	13.0	114.0	81.0	42	8.0	30.0	21.0	0	0	900.2235155105591	5530	84168.39657473564	3094	44.050632911392405	
0.3857142714285714	102.5	9.614285714285714	64.15714285714286	44.84285714285714	2.0	79	295	152	13	139	96	61	7	18	13	0	0	940.4488289356232	5600	85108.84540367126	3135	44.01785714285714	
0.5523809428571429	105.01428571428572	9.657142857142857	65.17142857142858	45.628571428571426	2.0	80	296	152	11	107	75	58	7	23	16	0	0	915.0717096328735	5670	86023.91711330414	3172	44.05643738977072	
0.5652174492753623	103.4	9.869565217391305	66.7536231884058	46.6231884057971	3.0	81	298	161	17.0	105.0	74.0	62	7.0	23.0	16.0	0	0	900.8433828353882	5740	86924.76049613953	3215	43.98954703832752	
0.4444444057971015	105.78571428571429	9.782608695652174	67.43478260869566	47.15942028985507	3.0	82	300	140	12.0	119.0	83.0	60	7.0	23.0	16.0	0	0	906.5801167488098	5810	87831.34061288834	3254	43.99311531841652	
0.5809523857142858	106.95714285714286	9.614285714285714	63.32857142857143	44.32857142857143	3.0	83	300	170	11	103	72	66	7	23	16	0	0	953.7443926334381	5880	88785.08500552177	3295	43.9625850340136	
0.5857140857142857	102.27142857142857	9.685714285714285	64.94285714285714	45.41428571428571	3.33333	84	301	158	13	103	72	66	7	23	16	0	0	940.2280964851379	5950	89725.31310200691	3343	43.815126050420176	
0.4656862205882353	102.04285714285714	9.617647058823529	64.88235294117646	45.25	3.33333	85	304	172	13.0	104.0	73.0	64	7.0	21.0	15.0	0	0	930.1697859764099	6020	90655.48288798332	3385	43.770764119601324	
0.4809522285714286	104.21428571428571	9.571428571428571	65.35714285714286	45.5	3.33333	86	304	172	14	108	75	54	7	23	16	0	0	929.4106833934784	6090	91584.8935713768	3431	43.66174055829228	
0.6476190428571428	102.4	9.871428571428572	68.27142857142857	47.52857142857143	3.33333	87	305	167	13	108	75	54	7	23	16	0	0	957.499443769455	6160	92542.39301514626	3480	43.506493506493506	
0.9571424142857142	97.22857142857143	9.942857142857143	70.71428571428571	49.18571428571428	4.33333	88	306	136	16	141	98	61	7	17	12	0	0	972.2590737342834	6230	93514.65208888054	3523	43.45104333868379	
1.0285709571428572	95.84285714285714	9.82857142857143	67.84285714285714	47.25714285714286	4.33333	89	307	147	14	148	104	44	7	17	12	0	0	981.6162765026093	6300	94496.26836538315	3564	43.42857142857143	
0.5120771014492753	93.01428571428572	10.159420289855072	72.18840579710145	50.2463768115942	4.33333	90	309	147	16.0	139.0	96.0	62	7.0	17.0	12.0	0	0	983.0388975143433	6370	95479.30726289749	3608	43.35949764521193	
0.44285684285714283	94.12857142857143	9.9	69.52857142857142	48.47142857142857	4.33333	91	310	147	16	139	96	62	7	17	12	0	0	1005.7901113033295	6440	96485.09737420082	3661	43.15217391304348	
0.552238552238806	94.6	10.0	69.94029850746269	48.776119402985074	4.33333	92	314	156	17.0	140.0	98.0	40	7.0	17.0	12.0	0	0	949.9213511943817	6510	97435.0187253952	3706	43.07219662058371	
0.7342992898550725	97.55714285714286	9.53623188405797	66.26086956521739	46.14492753623188	4.33333	93	316	159	14.0	139.0	96.0	43	7.0	17.0	12.0	0	0	933.9814462661743	6580	98369.00017166138	3750	43.00911854103343	
0.9613522753623189	97.42857142857143	9.608695652173912	65.27536231884058	45.492753623188406	4.33333	94	318	159	14.0	126.0	88.0	23	7.0	17.0	12.0	0	0	924.3035044670105	6650	99293.30367612839	3794	42.94736842105264	
0.6960783088235294	100.0	9.911764705882353	65.95588235294117	45.94117647058823	4.33333	95	321	198	17.0	140.0	98.0	23	7.0	17.0	12.0	0	0	948.3852100372314	6720	100241.68888616562	3840	42.85714285714286	
1.0047612428571429	99.04285714285714	9.857142857142858	65.41428571428571	45.628571428571426	4.33333	96	322	194	13	125	88	23	8	32	23	0	0	956.290186882019	6790	101197.97907304764	3890	42.7098674521355	
1.1421561911764706	96.48571428571428	9.720588235294118	65.19117647058823	45.39705882352941	4.33333	97	325	194	11.0	97.0	66.0	42	7.0	17.0	12.0	0	0	919.06476354599	6860	102117.04383659363	3934	42.6530612244898	
1.0245092794117647	98.41428571428571	10.088235294117647	74.54411764705883	51.80882352941177	4.33333	98	328	212	14.0	139.0	96.0	33	8.0	33.0	24.0	0	0	915.7347257137299	6930	103032.77856230736	3983	42.52525252525252	
0.8186271764705882	102.7	10.161764705882353	75.57352941176471	52.48529411764706	4.33333	99	331	244	14.0	139.0	96.0	47	8.0	40.0	28.0	0	0	939.1698977947235	7000	103971.94846010208	4032	42.400000000000006	
0.8999996285714286	108.31428571428572	10.2	68.61428571428571	47.74285714285714	4.33333	100	332	212	17	138	96	62	7	21	15	0	0	994.1334898471832	7070	104966.08194994926	4084	42.234794908062234	
1.0761898285714284	105.44285714285714	9.928571428571429	63.92857142857143	44.48571428571429	4.33333	101	333	224	15	142	99	14	7	17	12	0	0	1012.5559010505676	7140	105978.63785099983	4130	42.15686274509803	
1.171428	101.14285714285714	10.014285714285714	65.42857142857143	45.58571428571429	4.33333	102	333	224	13	139	96	14	7	17	12	0	0	990.9490175247192	7210	106969.58686852455	4173	42.12205270457697	
1.1476184142857142	101.74285714285715	10.142857142857142	69.95714285714286	48.642857142857146	4.33333	103	333	243	15	134	93	53	8	26	18	0	0	962.6633713245392	7280	107932.25023984909	4216	42.08791208791208	
1.5523801	99.77142857142857	9.9	66.28571428571429	46.114285714285714	4.33333	104	333	124	12	95	65	48	8	22	16	0	0	959.6792159080505	7350	108891.92945575714	4263	42.00000000000001	
1.5047616714285716	99.5	9.9	67.28571428571429	46.74285714285714	4.33333	105	333	138	15	134	93	48	7	17	12	0	0	973.1725726127625	7420	109865.1020283699	4301	42.03504043126684	
1.2476187714285714	98.9	10.085714285714285	73.85714285714286	51.31428571428572	4.33333	106	333	141	15	140	98	58	8	26	18	0	0	998.739618062973	7490	110863.84164643288	4348	41.94926568758345	
1.0714279571428573	101.14285714285714	10.114285714285714	74.51428571428572	51.81428571428572	4.33333	107	334	150	15	140	96	63	8	22	16	0	0	992.9140996932983	7560	111856.75574612617	4389	41.94444444444444	
1.0333328428571429	100.91428571428571	10.228571428571428	75.71428571428571	52.6	4.33333	108	335	160	14	141	98	63	8	42	29	0	0	990.7499713897705	7630	112847.50571751595	4426	41.99213630406291	
0.8571422428571428	98.87142857142857	10.0	70.85714285714286	49.285714285714285	4.33333	109	336	140	13	108	74	56	8	42	29	0	0	959.1998052597046	7700	113806.70552277565	4467	41.98701298701298	
1.2999993714285714	101.31428571428572	9.9	70.44285714285714	49.05714285714286	4.33333	110	336	166	15	138	96	53	7	17	12	0	0	958.7229709625244	7770	114765.42849373817	4513	41.917631917631915	
0.816424579710145	100.62857142857143	9.985507246376812	71.1304347826087	49.52173913043478	4.33333	111	338	144	15.0	138.0	96.0	52	8.0	45.0	32.0	0	0	965.0199358463287	7840	115730.4484295845	4561	41.82397959183673	
0.7809520571428571	97.05714285714286	9.914285714285715	67.41428571428571	46.885714285714286	4.33333	112	338	141	17	106	73	42	7	15	11	0	0	1006.3480694293976	7910	116736.7964990139	4609	41.73198482932996	
0.5555552463768116	94.8	10.115942028985508	70.71014492753623	49.27536231884058	4.33333	113	340	141	17.0	140.0	97.0	52	8.0	24.0	17.0	0	0	980.5645201206207	7980	117717.36101913452	4649	41.74185463659148	
0.6769227076923078	93.37142857142857	9.892307692307693	69.15384615384616	48.30769230769231	4.33333	114	346	131	14.0	140.0	97.0	52	7.0	15.0	11.0	0	0	911.0124559402466	8050	118628.37347507477	4689	41.75155279503105	
1.3523801714285717	97.41428571428571	9.628571428571428	66.01428571428572	46.05714285714286	4.33333	115	347	136	13	112	79	60	7	15	11	0	0	985.7819719314575	8120	119614.15544700623	4729	41.76108374384236	
1.3809516571428573	98.01428571428572	9.957142857142857	69.45714285714286	48.34285714285714	4.33333	116	347	139	13	139	96	62	8	26	18	0	0	960.4931116104126	8190	120574.64855861664	4769	41.770451770451764	
1.125603115942029	96.32857142857142	10.0	69.31884057971014	48.30434782608695	4.66667	117	349	134	13.0	130.0	91.0	53	8.0	33.0	23.0	0	0	948.1275978088379	8260	121522.77615642548	4817	41.68280871670702	
1.0904757714285713	98.68571428571428	9.957142857142857	69.81428571428572	48.542857142857144	4.66667	118	350	143	14	140	98	64	8	24	17	0	0	959.3155834674835	8330	122482.09173989296	4850	41.77671068427371	
0.9758451739130434	98.54285714285714	9.985507246376812	67.71014492753623	47.072463768115945	4.66667	119	352	137	13.0	139.0	96.0	55	7.0	21.0	15.0	0	0	957.1583921909332	8400	123439.2501320839	4891	41.773809523809526	
1.0904759285714285	99.5	10.042857142857143	70.15714285714286	48.75714285714286	4.66667	120	353	168	14	139	96	55	8	24	17	0	0	968.7679209709167	8470	124408.01805305481	4929	41.806375442739075	
1.223809242857143	98.97142857142858	10.185714285714285	71.84285714285714	49.94285714285714	4.66667	121	354	133	15	143	99	55	8	35	25	0	0	966.3763871192932	8540	125374.3944401741	4974	41.75644028103045	
0.9666671428571427	102.87142857142857	10.242857142857142	73.61428571428571	51.17142857142857	4.66667	122	355	151	15	143	99	59	7	17	12	0	0	994.677937746048	8610	126369.07237792015	5022	41.67247386759582	
1.140097144927536	102.84285714285714	10.318840579710145	75.40579710144928	52.333333333333336	5.0	123	357	152	14.0	149.0	102.0	76	8.0	40.0	28.0	0	0	938.1768255233765	8680	127307.24920344353	5067	41.62442396313364	
0.8142860571428571	101.9	10.4	76.2	52.885714285714286	5.0	124	358	141	14	150	104	64	8	39	28	0	0	985.9088551998138	8750	128293.15805864334	5119	41.497142857142855	
0.9238096142857143	103.48571428571428	10.371428571428572	75.48571428571428	52.34285714285714	5.33333	125	359	132	14	150	104	69	8	28	20	0	0	970.3027029037476	8820	129263.46076154709	5171	41.3718820861678	
0.9428573	106.01428571428572	10.742857142857142	82.0	56.857142857142854	5.33333	126	360	151	14	150	104	64	8	37	26	0	0	997.7462785243988	8890	130261.20704007149	5222	41.259842519685044	
0.6428571	102.18571428571428	10.542857142857143	77.5	53.7	5.33333	127	361	140	15	139	97	64	8	41	29	0	0	972.5550494194031	8960	131233.7620894909	5272	41.160714285714285	
0.7020200909090909	104.88571428571429	10.287878787878787	76.5	53.196969696969695	5.33333	128	366	143	13.0	166.0	115.0	53	7.0	17.0	12.0	0	0	946.8101315498352	9030	132180.57222104073	5316	41.1295681063123	
0.885714	110.01428571428572	10.6	77.72857142857143	53.871428571428574	5.33333	129	366	167	16	185	128	69	8	31	22	0	0	998.652902841568	9100	133179.2251238823	5372	40.96703296703297	
1.127450529411765	113.0	10.573529411764707	79.80882352941177	55.294117647058826	5.33333	130	369	227	14.0	148.0	102.0	62	7.0	32.0	22.0	0	0	956.5730464458466	9170	134135.79817032814	5418	40.916030534351144	
0.6142854142857143	113.64285714285714	10.414285714285715	77.48571428571428	53.614285714285714	5.33333	131	369	191	14	148	102	61	8	24	17	0	0	984.5986199378967	9240	135120.39679026604	5470	40.80086580086581	
0.943589323076923	111.04285714285714	10.2	70.13846153846154	48.69230769230769	9.0	132	375	229	14.0	115.0	80.0	38	7.0	17.0	12.0	0	0	903.0778131484985	9310	136023.47460341454	5513	40.78410311493018	
1.0476185571428571	110.71428571428571	10.17142857142857	70.01428571428572	48.67142857142857	9.0	133	375	189	14	149	104	39	7	17	12	0	0	979.0667405128479	9380	137002.54134392738	5560	40.72494669509595	
0.8476189999999999	113.71428571428571	10.228571428571428	69.64285714285714	48.32857142857143	9.0	134	376	189	14	174	121	21	7	17	12	0	0	991.4723255634308	9450	137994.0136694908	5610	40.63492063492063	
0.923809342857143	113.6	10.314285714285715	73.65714285714286	51.114285714285714	9.0	135	377	168	15	140	97	58	7	15	11	0	0	972.2436430454254	9520	138966.25731253624	5660	40.54621848739496	
1.3095231857142857	106.3	10.642857142857142	76.37142857142857	52.97142857142857	9.0	136	377	168	16	148	103	58	8	22	16	0	0	1004.0525598526001	9590	139970.30987238884	5709	40.46923879040667	
1.5809520428571429	104.68571428571428	10.5	71.85714285714286	49.871428571428574	9.33333	137	377	149	14	148	102	68	8	30	22	0	0	980.1865956783295	9660	140950.49646806717	5759	40.383022774327124	
1.6666666029411765	99.44285714285714	10.485294117647058	71.79411764705883	49.88235294117647	9.33333	138	380	144	14.0	135.0	93.0	52	7.0	17.0	12.0	0	0	957.1030752658844	9730	141907.59954333305	5801	40.380267214799595	
1.8407959552238804	100.28571428571429	10.552238805970148	73.91044776119404	51.417910447761194	9.33333	139	384	161	17.0	142.0	98.0	56	7.0	17.0	12.0	0	0	981.781763792038	9800	142889.3813071251	5846	40.346938775510196	
2.1743590153846157	100.0	10.707692307692307	77.86153846153846	54.0	11.0	140	390	161	15.0	148.0	102.0	43	7.0	21.0	15.0	0	0	965.257556438446	9870	143854.63886356354	5890	40.3242147922999	
2.024875417910448	106.55714285714286	10.970149253731343	84.94029850746269	58.88059701492537	11.0	141	394	200	14.0	148.0	102.0	28	9.0	35.0	24.0	0	0	979.4129498004913	9940	144834.05181336403	5935	40.29175050301811	
2.176767303030303	106.62857142857143	11.06060606060606	88.36363636363636	61.24242424242424	11.0	142	399	200	17.0	148.0	102.0	45	8.0	35.0	24.0	0	0	959.8401036262512	10010	145793.89191699028	5980	40.25974025974026	
1.697916515625	108.34285714285714	11.0625	88.484375	61.3125	11.0	143	406	222	13.0	138.0	95.0	6	8.0	38.0	27.0	0	0	951.9109439849854	10080	146745.80286097527	6026	40.21825396825397	
2.3429950869565217	129.14285714285714	11.217391304347826	90.3623188405797	62.63768115942029	11.0	144	408	200	14.0	136.0	94.0	49	8.0	46.0	32.0	0	0	1025.3696019649506	10150	147771.17246294022	6077	40.12807881773399	
1.533333323076923	130.6	11.107692307692307	88.64615384615385	61.43076923076923	11.0	145	414	244	15.0	169.0	116.0	14	8.0	34.0	24.0	0	0	991.1135818958282	10220	148762.28604483604	6129	40.0293542074364	
1.8714289	158.6	10.857142857142858	83.1	57.77142857142857	11.0	146	415	268	15	178	125	49	8	33	24	0	0	1090.5683798789978	10290	149852.85442471504	6175	39.99028182701652	
2.190476557142857	159.9857142857143	10.771428571428572	79.1	55.02857142857143	11.0	147	415	256	13	168	116	49	8	45	32	0	0	1093.17311501503	10360	150946.02753973007	6222	39.942084942084946	
1.7904761285714286	160.0857142857143	10.757142857142858	80.32857142857142	55.81428571428572	11.0	148	416	278	17	152	106	49	8	39	28	0	0	1055.5848577022552	10430	152001.61239743233	6271	39.875359539789066	
1.8809524714285715	159.78571428571428	10.67142857142857	79.08571428571429	54.98571428571429	11.0	149	417	250	15	173	120	92	8	31	22	0	0	1059.2860124111176	10500	153060.89840984344	6318	39.82857142857142	
2.3047625714285713	146.87142857142857	10.614285714285714	76.38571428571429	53.142857142857146	11.0	150	417	238	16	169	116	92	8	29	20	0	0	1023.3628284931183	10570	154084.26123833656	6363	39.80132450331125	
2.595238614285714	149.21428571428572	10.928571428571429	80.44285714285714	56.01428571428571	11.0	151	417	222	14	150	106	70	8	29	20	0	0	1068.1300866603851	10640	155152.39132499695	6410	39.755639097744364	
1.8142856571428572	145.72857142857143	10.657142857142857	77.41428571428571	53.81428571428572	11.0	152	417	211	14	135	94	70	8	33	23	0	0	1074.621663570404	10710	156227.01298856735	6459	39.69187675070028	
1.4999999142857146	147.24285714285713	10.585714285714285	79.48571428571428	55.18571428571428	11.0	153	417	217	16	174	121	99	8	24	17	0	0	1048.7012045383453	10780	157275.7141931057	6510	39.6103896103896	
1.657142342857143	151.72857142857143	11.185714285714285	84.77142857142857	58.91428571428571	11.0	154	418	235	16	176	122	95	8	34	24	0	0	1027.8605723381042	10850	158303.5747654438	6561	39.52995391705068	
1.3142856571428574	153.9	10.642857142857142	74.7	52.042857142857144	11.0	155	418	235	16	182	126	100	8	33	24	0	0	1066.452403306961	10920	159370.02716875076	6618	39.3956043956044	
1.8999993857142856	155.95714285714286	10.742857142857142	76.84285714285714	53.5	11.0	156	418	255	17	149	103	100	7	15	11	0	0	1052.0453433990479	10990	160422.0725121498	6669	39.31756141947225	
1.7047619571428572	152.05714285714285	10.32857142857143	75.58571428571429	52.48571428571429	11.0	157	418	277	15	221	152	100	8	47	33	0	0	997.9325594902039	11060	161420.00507164001	6719	39.24954792043399	
2.061905285714286	153.24285714285713	10.271428571428572	72.42857142857143	50.41428571428571	11.0	158	418	276	14	139	96	104	7	17	12	0	0	1048.5940651893616	11130	162468.59913682938	6768	39.19137466307278	
2.4761904285714285	141.82857142857142	10.1	68.34285714285714	47.6	11.0	159	418	197	13	150	104	104	7	17	12	0	0	1042.140037059784	11200	163510.73917388916	6811	39.1875	
2.104762	142.9857142857143	10.3	71.84285714285714	50.042857142857144	11.0	160	418	197	16	230	158	104	7	17	12	0	0	1053.5767998695374	11270	164564.3159737587	6860	39.13043478260869	
2.838095285714286	143.47142857142856	10.642857142857142	75.18571428571428	52.214285714285715	11.0	161	418	196	16	230	158	98	8	26	18	0	0	1090.3290598392487	11340	165654.64503359795	6902	39.135802469135804	
2.004761857142857	144.18571428571428	10.571428571428571	73.87142857142857	51.371428571428574	11.0	162	418	196	12	136	94	105	7	17	12	0	0	1110.5888967514038	11410	166765.23393034935	6950	39.08851884312007	
2.419047628571428	140.5	10.528571428571428	74.18571428571428	51.642857142857146	11.0	163	418	178	12	128	90	108	8	36	26	0	0	1071.5620765686035	11480	167836.79600691795	6998	39.0418118466899	
1.3142857142857143	145.0857142857143	10.3	69.34285714285714	48.31428571428572	11.0	164	418	193	12	134	93	96	7	21	15	0	0	1093.0492734909058	11550	168929.84528040886	7046	38.99567099567099	
2.2619046714285713	144.61428571428573	10.442857142857143	74.24285714285715	51.714285714285715	11.0	165	418	176	15	203	141	110	8	31	22	0	0	1057.6047167778015	11620	169987.44999718666	7091	38.97590361445783	
2.480952342857143	146.21428571428572	10.242857142857142	66.57142857142857	46.32857142857143	11.0	166	418	233	12	151	105	101	7	20	14	0	0	1068.755987405777	11690	171056.20598459244	7130	39.00769888793841	
2.047618914285714	141.9142857142857	10.114285714285714	65.84285714285714	45.8	11.0	167	418	193	12	125	86	99	7	17	12	0	0	1052.330399274826	11760	172108.53638386726	7176	38.9795918367347	
2.5523809571428573	141.31428571428572	10.371428571428572	70.4	48.91428571428571	11.0	168	418	193	14	165	113	99	7	17	12	0	0	1052.9932796955109	11830	173161.52966356277	7216	39.00253592561285	
2.0142857714285713	142.21428571428572	10.214285714285714	66.1	45.94285714285714	11.0	169	418	187	13	150	104	110	7	15	11	0	0	1061.2499918937683	11900	174222.77965545654	7257	39.01680672268908	
1.3285713000000001	145.1	10.271428571428572	66.71428571428571	46.44285714285714	11.0	170	418	177	15	125	87	100	7	15	11	0	0	1070.2225408554077	11970	175293.00219631195	7306	38.9640768588137	
1.6952379142857144	144.0142857142857	10.371428571428572	69.17142857142858	48.128571428571426	11.0	171	418	192	15	125	87	100	7	15	11	0	0	1057.9498777389526	12040	176350.9520740509	7348	38.970099667774086	
1.4619047285714286	147.18571428571428	10.457142857142857	70.02857142857142	48.74285714285714	11.0	172	419	213	16	145	101	73	7	15	11	0	0	1050.2742640972137	12110	177401.22633814812	7391	38.967795210569776	
1.7952380000000001	146.81428571428572	10.357142857142858	73.5	51.1	11.0	173	419	244	13	126	87	95	7	15	11	0	0	1093.4914135932922	12180	178494.7177517414	7440	38.916256157635466	
2.8952379571428573	144.9	10.214285714285714	68.82857142857142	47.91428571428571	11.0	174	419	201	12	123	87	106	7	15	11	0	0	1047.3230748176575	12250	179542.04082655907	7478	38.95510204081633	
2.1238094142857142	139.07142857142858	10.142857142857142	66.31428571428572	46.07142857142857	11.0	175	419	223	13	123	87	63	7	17	12	0	0	1039.1048741340637	12320	180581.14570069313	7519	38.96915584415584	
1.6047619	138.81428571428572	10.485714285714286	70.02857142857142	48.614285714285714	11.0	176	419	200	16	123	84	63	7	17	12	0	0	1044.0735919475555	12390	181625.2192926407	7561	38.97497982243745	
1.7142859	143.84285714285716	10.414285714285715	70.84285714285714	49.15714285714286	11.0	177	419	213	14	125	86	99	7	17	12	0	0	1036.5812857151031	12460	182661.8005783558	7611	38.916532905296954	
1.4619049571428573	143.2	10.242857142857142	72.07142857142857	50.142857142857146	11.0	178	419	213	16	161	111	76	7	17	12	0	0	987.4151599407196	12530	183649.2157382965	7655	38.90662410215483	
1.2142857285714286	148.77142857142857	10.528571428571428	74.77142857142857	51.97142857142857	11.0	179	419	227	16	161	111	76	7	17	12	0	0	1029.0325248241425	12600	184678.24826312065	7707	38.83333333333333	
1.4190477142857143	149.62857142857143	10.485714285714286	70.2	48.857142857142854	11.0	180	420	214	13	136	96	104	7	17	12	0	0	1037.2052283287048	12670	185715.45349144936	7753	38.80820836621942	
1.0523804285714284	153.61428571428573	10.342857142857143	72.38571428571429	50.34285714285714	11.0	181	420	228	14	127	87	97	7	17	12	0	0	1036.0489156246185	12740	186751.50240707397	7805	38.73626373626373	
1.6095238	157.02857142857144	10.7	76.05714285714286	52.82857142857143	11.0	182	420	219	14	153	106	118	8	30	21	0	0	1088.1874451637268	12810	187839.6898522377	7855	38.68071818891491	
2.1428571	152.47142857142856	10.728571428571428	77.88571428571429	54.128571428571426	11.0	183	420	272	14	159	111	74	8	37	27	0	0	1100.1702868938446	12880	188939.86013913155	7902	38.649068322981364	
1.4142857142857144	153.92857142857142	10.785714285714286	80.6	56.114285714285714	11.0	184	420	228	14	181	125	74	8	32	23	0	0	1051.166485786438	12950	189991.02662491798	7950	38.61003861003861	
1.8238096142857143	142.18571428571428	10.442857142857143	70.37142857142857	49.114285714285714	11.0	185	421	228	13	172	120	74	7	15	11	0	0	1025.7891473770142	13020	191016.815772295	7992	38.617511520737324	
1.638095242857143	148.5	10.5	73.25714285714285	50.97142857142857	11.0	186	421	228	14	139	96	74	8	41	29	0	0	1042.4123048782349	13090	192059.22807717323	8045	38.54087089381208	
2.2380952428571432	148.3	10.32857142857143	71.22857142857143	49.5	11.0	187	421	228	14	140	97	98	7	17	12	0	0	1048.4119176864624	13160	193107.6399948597	8087	38.54863221884498	
2.4428572428571425	145.07142857142858	10.128571428571428	68.91428571428571	48.042857142857144	11.0	188	421	237	13	132	91	80	7	21	15	0	0	1046.4594967365265	13230	194154.09949159622	8131	38.54119425547997	
1.7190478142857144	140.8	10.157142857142857	71.24285714285715	49.542857142857144	11.0	189	421	237	14	131	91	101	7	15	11	0	0	1063.2510738372803	13300	195217.3505654335	8181	38.488721804511286	
1.8857142857142857	137.52857142857144	10.042857142857143	68.21428571428571	47.385714285714286	11.0	190	421	214	12	149	103	96	7	21	15	0	0	1032.7907197475433	13370	196250.14128518105	8222	38.50411368735976	
1.5809518142857144	132.9142857142857	10.214285714285714	72.05714285714286	50.07142857142857	11.0	191	421	189	14	152	107	89	7	17	12	0	0	1023.9841175079346	13440	197274.12540268898	8272	38.45238095238095	
2.3047623714285717	133.04285714285714	10.342857142857143	73.02857142857142	50.74285714285714	11.0	192	421	184	12	132	92	89	7	17	12	0	0	1010.4508793354034	13510	198284.57628202438	8314	38.460399703923024	
1.6714290428571428	136.47142857142856	10.771428571428572	73.84285714285714	51.4	11.0	193	421	228	17	132	92	45	8	33	23	0	0	1081.5849533081055	13580	199366.1612353325	8365	38.4020618556701	
1.4333333857142858	142.27142857142857	10.428571428571429	74.34285714285714	51.642857142857146	11.0	194	422	179	14	135	93	89	8	32	23	0	0	1025.7891960144043	13650	200391.9504313469	8405	38.42490842490842	
1.6428572428571429	143.32857142857142	10.385714285714286	75.94285714285714	52.7	11.0	195	422	209	14	147	102	89	8	26	18	0	0	1016.2414321899414	13720	201408.19186353683	8454	38.38192419825073	
1.7428574857142856	142.77142857142857	10.728571428571428	78.98571428571428	54.857142857142854	11.0	196	422	176	14	150	104	89	8	26	18	0	0	1002.2461395263672	13790	202410.4380030632	8502	38.34662799129804	
1.6904762857142857	145.44285714285715	10.5	74.58571428571429	51.84285714285714	11.0	197	422	197	14	147	102	107	8	41	29	0	0	1088.7858574390411	13860	203499.22386050224	8553	38.290043290043286	
1.6809524714285713	146.3	10.357142857142858	72.8	50.68571428571428	11.0	198	422	192	14	136	95	114	7	17	12	0	0	1038.0685513019562	13930	204537.2924118042	8600	38.26274228284279	
1.1714285714285715	148.78571428571428	10.185714285714285	66.57142857142857	46.31428571428572	11.0	199	422	192	14	118	82	97	7	24	17	0	0	1070.3403594493866	14000	205607.6327712536	8644	38.25714285714285	
1.6571428571428573	146.0142857142857	10.371428571428572	69.78571428571429	48.47142857142857	11.0	200	423	201	14	118	82	97	7	15	11	0	0	1073.1283116340637	14070	206680.76108288765	8690	38.23738450604123	
