ave_fitness	ave_genome_length	ave_tree_depth	ave_tree_nodes	ave_used_codons	best_fitness	gen	invalids	max_genome_length	max_tree_depth	max_tree_nodes	max_used_codons	min_genome_length	min_tree_depth	min_tree_nodes	min_used_codons	runtime_error	time_adjust	time_taken	total_inds	total_time	unique_inds	unused_search	
0.0	56.4	8.114285714285714	54.08571428571429	37.74285714285714	0.0	0	0	169	10	164	113	16	7	15	11	0	0	1230.5217785835266	70	1230.5217785835266	70	0.0	
0.0	59.55714285714286	8.854166666666666	49.708333333333336	34.791666666666664	0.0	1	23	143	12.0	121.0	84.0	16	7.0	15.0	11.0	0	0	817.0718913078308	140	2047.5936698913574	110	21.42857142857143	
0.0	68.5	8.923076923076923	52.41538461538462	36.76923076923077	0.0	2	29	175	12.0	126.0	87.0	16	7.0	15.0	11.0	0	0	1161.1514749526978	210	3208.745144844055	143	31.904761904761898	
0.0	67.51428571428572	8.863636363636363	52.40909090909091	36.696969696969695	0.0	3	34	132	13.0	150.0	105.0	16	7.0	15.0	11.0	0	0	1133.8927505016327	280	4342.637895345688	178	36.42857142857143	
0.0	71.12857142857143	8.625	47.90625	33.640625	0.0	4	41	132	15.0	151.0	105.0	16	7.0	15.0	11.0	0	0	1129.3414957523346	350	5471.9793910980225	210	40.0	
0.0	70.94285714285714	8.569230769230769	44.58461538461538	31.26153846153846	0.0	5	47	189	12.0	117.0	81.0	15	7.0	15.0	11.0	0	0	1125.7775173187256	420	6597.756908416748	245	41.666666666666664	
0.0	74.7	8.82258064516129	48.67741935483871	34.12903225806452	0.0	6	56	145	12.0	160.0	111.0	11	7.0	15.0	11.0	0	0	1096.4829437732697	490	7694.239852190018	288	41.22448979591836	
0.0	69.42857142857143	8.847457627118644	47.69491525423729	33.47457627118644	0.0	7	68	153	14.0	163.0	113.0	13	7.0	15.0	11.0	0	0	1018.8999516963959	560	8713.139803886414	317	43.392857142857146	
0.0	68.88571428571429	8.80952380952381	44.285714285714285	31.206349206349206	0.0	8	76	157	14.0	163.0	113.0	15	7.0	15.0	11.0	0	0	1084.3754787445068	630	9797.51528263092	346	45.079365079365076	
0.0	88.52857142857142	8.9375	43.859375	30.90625	0.0	9	83	159	14.0	153.0	107.0	15	7.0	15.0	11.0	0	0	1158.918247461319	700	10956.43353009224	380	45.714285714285715	
0.0	92.48571428571428	9.130434782608695	45.14492753623188	31.579710144927535	0.0	10	85	166	13.0	135.0	94.0	16	7.0	15.0	11.0	0	0	1242.2661623954773	770	12198.699692487717	414	46.23376623376624	
0.0	87.5	9.75	55.53125	38.828125	0.0	11	92	168	15.0	147.0	103.0	7	7.0	15.0	11.0	0	0	1183.4366357326508	840	13382.136328220367	455	45.833333333333336	
0.010256415384615384	79.74285714285715	9.6	50.4	35.16923076923077	0.666667	12	98	165	15.0	149.0	103.0	3	7.0	15.0	11.0	0	0	1216.3988025188446	910	14598.535130739212	499	45.16483516483516	
0.009661840579710146	74.55714285714286	9.478260869565217	46.710144927536234	32.65217391304348	0.666667	13	100	195	15.0	138.0	96.0	16	7.0	15.0	11.0	0	0	1243.2856872081757	980	15841.820817947388	542	44.693877551020414	
0.019900507462686567	68.72857142857143	9.208955223880597	45.149253731343286	31.582089552238806	0.666667	14	104	211	14.0	94.0	65.0	12	7.0	15.0	11.0	0	0	1200.4776504039764	1050	17042.298468351364	578	44.952380952380956	
0.04761906349206349	68.97142857142858	8.968253968253968	42.74603174603175	29.88888888888889	0.666667	15	112	226	13.0	92.0	64.0	16	7.0	15.0	11.0	0	0	1105.5838458538055	1120	18147.88231420517	611	45.44642857142858	
0.08955226865671642	95.4	9.597014925373134	54.985074626865675	38.43283582089552	0.666667	16	116	228	13.0	133.0	92.0	16	7.0	15.0	11.0	0	0	1191.3239181041718	1190	19339.20623230934	654	45.042016806722685	
0.08585862121212122	110.64285714285714	10.030303030303031	70.10606060606061	48.93939393939394	0.666667	17	121	232	15.0	168.0	117.0	42	7.0	15.0	11.0	0	0	1202.418476343155	1260	20541.624708652496	702	44.285714285714285	
0.06763282608695652	127.2	9.492753623188406	61.14492753623188	42.768115942028984	1.33333	18	123	248	12.0	168.0	117.0	54	7.0	15.0	11.0	0	0	1253.6889760494232	1330	21795.31368470192	742	44.21052631578948	
0.169154223880597	139.17142857142858	9.567164179104477	68.94029850746269	48.25373134328358	1.66667	19	127	276	15.0	215.0	150.0	33	7.0	15.0	11.0	0	0	1221.4049198627472	1400	23016.718604564667	787	43.785714285714285	
0.17171719696969698	130.78571428571428	9.833333333333334	76.22727272727273	53.28787878787879	1.66667	20	132	242	15.0	219.0	153.0	19	7.0	15.0	11.0	0	0	1156.410543680191	1470	24173.129148244858	828	43.673469387755105	
0.30729175000000003	130.97142857142856	9.984375	84.421875	58.953125	2.0	21	139	250	17.0	195.0	136.0	26	7.0	15.0	11.0	0	0	1146.668019771576	1540	25319.797168016434	868	43.63636363636364	
0.40437185245901636	126.85714285714286	10.049180327868852	86.06557377049181	59.967213114754095	2.0	22	149	244	17.0	195.0	136.0	64	7.0	15.0	11.0	0	0	1079.503561258316	1610	26399.30072927475	905	43.7888198757764	
0.46031758730158734	121.85714285714286	10.158730158730158	84.06349206349206	58.63492063492063	2.0	23	157	229	17.0	195.0	136.0	55	7.0	15.0	11.0	0	0	1098.5707273483276	1680	27497.871456623077	948	43.57142857142857	
0.43386274603174607	139.77142857142857	10.34920634920635	83.82539682539682	58.476190476190474	2.0	24	165	228	17.0	195.0	136.0	54	8.0	22.0	16.0	0	0	1104.4871037006378	1750	28602.358560323715	989	43.48571428571428	
0.317708640625	153.2	10.25	86.25	60.140625	2.0	25	172	263	17.0	195.0	136.0	18	7.0	22.0	16.0	0	0	1135.661850452423	1820	29738.02041077614	1033	43.24175824175824	
0.3236717246376811	174.12857142857143	10.478260869565217	86.79710144927536	60.44927536231884	2.33333	26	174	269	17.0	217.0	151.0	52	8.0	30.0	21.0	0	0	1249.772448539734	1890	30987.792859315872	1086	42.539682539682545	
0.28019328985507247	172.44285714285715	10.492753623188406	93.01449275362319	64.69565217391305	2.33333	27	176	242	17.0	262.0	183.0	52	8.0	32.0	22.0	0	0	1210.40434217453	1960	32198.197201490402	1139	41.88775510204081	
0.4714284285714285	178.57142857142858	10.742857142857142	92.37142857142857	64.31428571428572	5.0	28	177	295	17	235	164	89	7	23	16	0	0	1246.8800168037415	2030	33445.077218294144	1188	41.477832512315274	
0.2999997142857143	183.71428571428572	10.414285714285715	95.51428571428572	66.58571428571429	5.0	29	177	295	17	207	144	100	7	23	16	0	0	1286.669737815857	2100	34731.74695611	1239	41.0	
0.3619046285714286	192.62857142857143	10.514285714285714	97.67142857142858	68.11428571428571	5.0	30	177	303	17	236	164	105	7	23	16	0	0	1271.0885319709778	2170	36002.83548808098	1289	40.59907834101383	
0.5952377571428572	185.17142857142858	10.714285714285714	96.0	66.97142857142858	5.0	31	177	307	17	222	154	105	7	17	12	0	0	1260.4443099498749	2240	37263.27979803085	1336	40.35714285714286	
0.7523808000000001	193.37142857142857	10.942857142857143	103.12857142857143	71.98571428571428	5.0	32	177	307	17	207	145	105	7	15	11	0	0	1276.1519646644592	2310	38539.43176269531	1388	39.913419913419915	
0.724637579710145	190.85714285714286	10.768115942028986	104.89855072463769	73.21739130434783	5.0	33	179	338	17.0	242.0	169.0	89	7.0	15.0	11.0	0	0	1242.365347623825	2380	39781.79711031914	1435	39.70588235294118	
0.8476189	194.81428571428572	10.628571428571428	100.4	70.04285714285714	5.66667	34	179	376	17	210	146	63	7	20	14	0	0	1251.4399633407593	2450	41033.2370736599	1489	39.22448979591837	
0.7584539130434783	185.21428571428572	10.782608695652174	100.85507246376811	70.44927536231884	5.66667	35	181	389	17.0	275.0	193.0	39	8.0	35.0	25.0	0	0	1225.1590757369995	2520	42258.3961493969	1540	38.888888888888886	
1.1111109710144929	197.4	11.101449275362318	105.18840579710145	73.5072463768116	5.66667	36	183	378	17.0	219.0	154.0	48	7.0	20.0	14.0	0	0	1222.831395149231	2590	43481.22754454613	1592	38.53281853281854	
0.9285713285714287	214.38571428571427	11.042857142857143	98.62857142857143	68.8	5.66667	37	183	378	17	231	161	48	8	37	26	0	0	1253.1136553287506	2660	44734.34119987488	1645	38.1578947368421	
0.6764704852941177	230.25714285714287	10.852941176470589	93.76470588235294	65.3970588235294	5.66667	38	186	326	17.0	221.0	155.0	48	7.0	29.0	20.0	0	0	1214.5806767940521	2730	45948.92187666893	1691	38.05860805860806	
0.7238095285714287	239.15714285714284	10.728571428571428	96.3	67.12857142857143	5.66667	39	187	352	17	281	196	106	8	28	20	0	0	1274.0941026210785	2800	47223.01597929001	1741	37.82142857142857	
0.9428573857142857	254.0	10.857142857142858	96.24285714285715	67.28571428571429	7.0	40	188	403	17	314	219	87	7	21	15	0	0	1253.8052365779877	2870	48476.821215867996	1792	37.5609756097561	
1.0476194428571428	263.27142857142854	10.428571428571429	84.8	59.32857142857143	7.0	41	189	369	17	191	133	123	7	20	14	0	0	1239.101817369461	2940	49715.92303323746	1839	37.44897959183674	
1.4142859571428572	274.6857142857143	10.742857142857142	88.58571428571429	61.957142857142856	7.66667	42	190	350	17	245	170	123	7	23	16	0	0	1257.2589883804321	3010	50973.18202161789	1877	37.64119601328903	
1.0285714428571429	287.5	10.585714285714285	83.71428571428571	58.5	7.66667	43	190	354	17	282	196	220	7	18	13	0	0	1272.935741186142	3080	52246.11776280403	1930	37.33766233766234	
1.0285714857142856	287.22857142857146	10.842857142857143	91.28571428571429	63.74285714285714	7.66667	44	191	421	17	215	149	169	7	18	13	0	0	1260.6699707508087	3150	53506.78773355484	1975	37.301587301587304	
0.7857141857142858	297.75714285714287	11.557142857142857	113.37142857142857	79.11428571428571	7.66667	45	191	461	17	284	196	205	7	23	16	0	0	1331.8787639141083	3220	54838.66649746895	2026	37.08074534161491	
0.9095236714285715	293.8285714285714	11.357142857142858	106.45714285714286	74.27142857142857	7.66667	46	191	461	17	286	199	139	7	27	19	0	0	1304.1472055912018	3290	56142.81370306015	2083	36.68693009118541	
0.9809524714285714	284.24285714285713	11.271428571428572	103.28571428571429	72.15714285714286	7.66667	47	191	359	17	240	166	167	7	27	19	0	0	1299.4799313545227	3360	57442.29363441467	2138	36.36904761904762	
1.1304346811594204	291.1857142857143	11.666666666666666	109.3623188405797	76.43478260869566	13.0	48	193	479	17.0	248.0	173.0	159	7.0	26.0	18.0	0	0	1262.2682654857635	3430	58704.56189990044	2196	35.97667638483965	
1.0904761	291.25714285714287	11.842857142857143	113.14285714285714	79.0	13.0	49	194	436	17	282	196	171	7	26	18	0	0	1288.6682159900665	3500	59993.2301158905	2250	35.71428571428571	
0.8999999714285714	288.95714285714286	11.842857142857143	113.75714285714285	79.41428571428571	13.0	50	194	436	17	282	196	171	7	18	13	0	0	1288.4257435798645	3570	61281.65585947037	2310	35.294117647058826	
0.8454106231884058	296.3	11.695652173913043	113.1304347826087	79.10144927536231	13.0	51	196	436	17.0	281.0	196.0	198	7.0	18.0	13.0	0	0	1268.3806641101837	3640	62550.03652358055	2362	35.1098901098901	
1.0784313676470587	305.3142857142857	11.573529411764707	114.45588235294117	79.98529411764706	13.0	52	199	436	17.0	218.0	154.0	173	7.0	18.0	13.0	0	0	1213.461760520935	3710	63763.498284101486	2412	34.98652291105121	
1.3095238857142857	301.62857142857143	11.185714285714285	105.47142857142858	73.68571428571428	13.0	53	199	433	17	191	133	136	7	18	13	0	0	1265.8792955875397	3780	65029.377579689026	2465	34.788359788359784	
1.1809525	305.9	11.214285714285714	103.4	72.25714285714285	13.0	54	199	433	17	218	154	215	7	18	13	0	0	1277.1296985149384	3850	66306.50727820396	2514	34.7012987012987	
1.5666670428571428	301.0857142857143	10.814285714285715	97.27142857142857	68.0	13.0	55	199	433	17	202	141	215	8	32	22	0	0	1267.7767171859741	3920	67574.28399538994	2565	34.566326530612244	
2.519049471428571	314.8	11.228571428571428	106.9	74.72857142857143	13.0	56	199	458	17	237	166	243	8	35	25	0	0	1265.573634147644	3990	68839.85762953758	2619	34.360902255639104	
2.5428575714285717	312.1142857142857	11.257142857142858	106.34285714285714	74.24285714285715	13.0	57	199	475	17	238	166	243	7	20	14	0	0	1283.1324565410614	4060	70122.99008607864	2669	34.26108374384236	
1.7285714285714286	311.5	10.614285714285714	97.84285714285714	68.27142857142857	13.0	58	200	475	16	248	173	210	7	29	20	0	0	1275.8871159553528	4130	71398.877202034	2723	34.06779661016948	
1.8405797536231883	318.1142857142857	10.521739130434783	91.91304347826087	64.2463768115942	13.0	59	202	433	16.0	197.0	138.0	245	8.0	37.0	26.0	0	0	1264.8267056941986	4200	72663.7039077282	2779	33.83333333333334	
2.090476285714286	307.72857142857146	10.942857142857143	93.45714285714286	65.3	13.0	60	202	448	15	252	177	235	8	36	25	0	0	1233.8352715969086	4270	73897.5391793251	2831	33.70023419203747	
1.8190481428571428	301.14285714285717	10.971428571428572	92.52857142857142	64.62857142857143	13.0	61	202	433	17	252	177	188	8	30	21	0	0	1272.4138848781586	4340	75169.95306420326	2885	33.525345622119815	
1.5904762000000001	291.8285714285714	11.357142857142858	98.87142857142857	69.04285714285714	13.0	62	203	389	16	176	123	185	8	33	23	0	0	1249.7474541664124	4410	76419.70051836967	2941	33.31065759637188	
1.7238095714285713	293.84285714285716	11.6	96.97142857142858	67.52857142857142	13.0	63	203	384	17	214	149	135	8	33	23	0	0	1311.2042684555054	4480	77730.90478682518	2992	33.21428571428572	
2.1999993857142854	293.15714285714284	11.442857142857143	101.81428571428572	71.0	13.0	64	204	384	17	258	178	190	8	41	29	0	0	1280.5103113651276	4550	79011.41509819031	3046	33.05494505494505	
2.6952371	289.01428571428573	11.17142857142857	103.1	72.02857142857142	13.0	65	204	384	15	195	136	193	8	46	32	0	0	1319.6064615249634	4620	80331.02155971527	3094	33.03030303030303	
2.7809527571428574	289.6142857142857	11.214285714285714	104.27142857142857	72.84285714285714	13.0	66	205	367	16	209	146	199	7	18	13	0	0	1283.819092988968	4690	81614.84065270424	3143	32.98507462686567	
3.3761922857142856	289.6142857142857	10.757142857142858	92.37142857142857	64.57142857142857	13.0	67	205	367	17	219	154	201	7	18	13	0	0	1252.7413275241852	4760	82867.58198022842	3196	32.85714285714286	
2.4809524714285716	298.37142857142857	10.67142857142857	95.87142857142857	67.01428571428572	13.0	68	205	402	16	208	145	225	7	18	13	0	0	1314.9479687213898	4830	84182.52994894981	3249	32.732919254658384	
1.8904757571428572	294.4	10.614285714285714	90.14285714285714	62.91428571428571	13.0	69	205	423	16	184	128	225	8	36	26	0	0	1300.7521135807037	4900	85483.28206253052	3304	32.57142857142857	
1.3428571857142857	296.14285714285717	10.971428571428572	98.01428571428572	68.44285714285714	13.0	70	205	423	17	220	154	200	8	36	26	0	0	1311.5635304450989	4970	86794.84559297562	3355	32.494969818913475	
1.4619053285714285	296.1	10.8	96.45714285714286	67.21428571428571	13.0	71	205	425	17	191	132	182	8	33	24	0	0	1320.0866343975067	5040	88114.93222737312	3414	32.26190476190476	
2.676190571428571	291.74285714285713	11.042857142857143	98.2	68.68571428571428	13.0	72	205	328	17	244	171	182	7	18	13	0	0	1295.8398299217224	5110	89410.77205729485	3462	32.2504892367906	
2.2571434285714287	297.15714285714284	11.17142857142857	94.44285714285714	66.24285714285715	13.0	73	205	390	17	244	171	226	8	33	24	0	0	1335.185772895813	5180	90745.95783019066	3514	32.16216216216216	
2.180952285714286	296.3	11.057142857142857	97.1	67.91428571428571	13.0	74	206	376	17	244	171	253	8	35	25	0	0	1275.0979716777802	5250	92021.05580186844	3561	32.17142857142858	
2.3666665285714283	296.51428571428573	11.142857142857142	95.6	66.94285714285714	13.0	75	207	354	17	229	160	234	7	23	16	0	0	1304.1051359176636	5320	93325.1609377861	3613	32.086466165413526	
2.4857132857142856	297.72857142857146	11.028571428571428	95.82857142857142	67.07142857142857	13.0	76	207	406	15	219	154	184	8	35	25	0	0	1318.847987651825	5390	94644.00892543793	3663	32.0408163265306	
1.585714757142857	301.45714285714286	11.2	107.18571428571428	74.84285714285714	13.0	77	207	436	17	291	204	208	7	23	16	0	0	1301.70463681221	5460	95945.71356225014	3720	31.86813186813187	
2.1714285571428573	297.7	10.971428571428572	101.6	71.14285714285714	13.0	78	207	418	17	291	204	176	7	18	13	0	0	1287.8960235118866	5530	97233.60958576202	3769	31.844484629294755	
3.3666674714285714	305.54285714285714	11.685714285714285	108.22857142857143	75.75714285714285	13.0	79	207	418	17	243	168	236	8	48	34	0	0	1306.1347682476044	5600	98539.74435400963	3820	31.785714285714278	
2.900000614285714	303.51428571428573	11.314285714285715	103.02857142857142	72.2	13.0	80	207	418	17	220	154	228	7	23	16	0	0	1337.946917772293	5670	99877.69127178192	3873	31.693121693121697	
2.090475242857143	299.0857142857143	11.271428571428572	110.65714285714286	77.51428571428572	13.0	81	207	401	17	259	181	172	7	29	20	0	0	1330.5215682983398	5740	101208.21284008026	3930	31.533101045296164	
2.4333325714285716	301.4	10.8	99.21428571428571	69.61428571428571	13.0	82	207	411	15	218	154	141	8	34	24	0	0	1327.3966505527496	5810	102535.60949063301	3979	31.5146299483649	
2.804759185714286	314.8	10.585714285714285	92.98571428571428	65.24285714285715	13.0	83	207	411	16	232	163	269	8	34	24	0	0	1353.8873493671417	5880	103889.49684000015	4026	31.530612244897966	
2.6571423285714286	309.6	11.114285714285714	99.6	69.74285714285715	13.0	84	207	411	17	232	163	245	8	36	26	0	0	1334.9081161022186	5950	105224.40495610237	4071	31.579831932773104	
3.123810414285714	309.0	10.82857142857143	92.14285714285714	64.37142857142857	13.0	85	208	415	15	220	153	231	8	41	28	0	0	1266.3152568340302	6020	106490.7202129364	4125	31.478405315614623	
2.452380471428571	311.3285714285714	10.957142857142857	98.08571428571429	68.64285714285714	13.0	86	208	425	16	245	172	231	8	32	23	0	0	1283.5524725914001	6090	107774.2726855278	4176	31.42857142857143	
2.099999414285714	301.8	10.742857142857142	91.55714285714286	64.01428571428572	13.0	87	208	416	16	163	112	231	8	32	23	0	0	1306.0132160186768	6160	109080.28590154648	4224	31.42857142857143	
1.5285708142857142	295.0857142857143	11.085714285714285	101.21428571428571	70.91428571428571	13.0	88	209	374	17	276	192	225	8	30	21	0	0	1330.4782586097717	6230	110410.76416015625	4280	31.30016051364366	
2.3285702571428573	294.57142857142856	10.82857142857143	93.54285714285714	65.52857142857142	13.0	89	209	356	17	230	161	243	7	21	15	0	0	1347.1743621826172	6300	111757.93852233887	4330	31.269841269841265	
2.052382342857143	295.5	10.814285714285715	93.85714285714286	65.78571428571429	13.0	90	210	387	17	283	196	215	8	28	20	0	0	1300.6188883781433	6370	113058.55741071701	4382	31.20879120879121	
2.3428568142857142	296.7857142857143	10.971428571428572	91.21428571428571	63.94285714285714	13.0	91	210	393	17	283	196	215	7	18	13	0	0	1295.6872384548187	6440	114354.24464917183	4425	31.288819875776397	
1.6095248142857141	295.8285714285714	10.814285714285715	91.65714285714286	64.14285714285714	13.0	92	211	430	17	219	154	160	7	15	11	0	0	1307.6844856739044	6510	115661.92913484573	4480	31.18279569892472	
1.5285724285714284	302.04285714285714	10.871428571428572	92.51428571428572	64.74285714285715	13.0	93	211	379	17	281	196	215	7	18	13	0	0	1339.2596225738525	6580	117001.18875741959	4533	31.109422492401222	
1.8809519571428572	310.12857142857143	10.714285714285714	84.35714285714286	59.18571428571428	13.0	94	212	404	15	187	130	198	7	18	13	0	0	1301.1998090744019	6650	118302.38856649399	4575	31.203007518796994	
1.9095237142857144	310.72857142857146	10.771428571428572	89.55714285714286	62.81428571428572	13.0	95	212	379	16	225	156	249	8	30	22	0	0	1339.0520277023315	6720	119641.44059419632	4626	31.160714285714292	
3.0047618	304.72857142857146	11.0	93.04285714285714	65.21428571428571	13.0	96	212	380	15	225	156	249	8	36	26	0	0	1325.300449848175	6790	120966.7410440445	4676	31.134020618556704	
2.5428571	313.0857142857143	10.985714285714286	92.48571428571428	64.84285714285714	13.0	97	212	415	13	173	120	233	8	28	20	0	0	1325.6652162075043	6860	122292.406260252	4728	31.078717201166185	
3.038096714285714	319.37142857142857	10.771428571428572	89.47142857142858	62.785714285714285	13.0	98	212	421	13	179	124	233	7	28	20	0	0	1323.7344262599945	6930	123616.140686512	4772	31.139971139971152	
2.7952404142857143	308.77142857142854	10.814285714285715	91.64285714285714	64.24285714285715	13.0	99	212	437	17	219	154	233	8	28	20	0	0	1305.2999286651611	7000	124921.44061517715	4818	31.171428571428578	
2.480952428571429	306.6714285714286	10.742857142857142	88.72857142857143	62.15714285714286	13.0	100	213	437	17	146	102	224	8	24	17	0	0	1276.0628008842468	7070	126197.5034160614	4867	31.15983026874116	
2.385713385714286	308.5	10.5	82.95714285714286	58.128571428571426	13.0	101	213	437	13	161	111	233	8	24	17	0	0	1287.792443037033	7140	127485.29585909843	4908	31.260504201680675	
2.1999998571428576	302.0571428571429	10.542857142857143	80.88571428571429	56.642857142857146	13.0	102	214	437	16	138	96	233	7	15	11	0	0	1300.0879211425781	7210	128785.38378024101	4952	31.31761442441055	
2.280953242857143	304.37142857142857	10.857142857142858	95.25714285714285	66.62857142857143	13.0	103	214	461	17	271	189	233	7	15	11	0	0	1328.6499333381653	7280	130114.03371357918	5000	31.318681318681314	
2.047620485714286	298.42857142857144	10.571428571428571	88.01428571428572	61.614285714285714	13.0	104	214	376	16	249	174	240	7	15	11	0	0	1310.5832061767578	7350	131424.61691975594	5045	31.360544217687064	
1.4761904714285714	298.07142857142856	10.7	93.84285714285714	65.52857142857142	13.0	105	214	376	16	231	160	205	7	15	11	0	0	1359.4536001682281	7420	132784.07051992416	5096	31.320754716981142	
2.0857157714285712	293.0571428571429	11.17142857142857	100.27142857142857	70.05714285714286	13.0	106	214	396	17	248	172	240	8	39	28	0	0	1336.0138642787933	7490	134120.08438420296	5147	31.28170894526035	
2.1047618142857143	287.3	11.628571428571428	108.47142857142858	75.9	13.0	107	214	368	17	219	154	187	8	39	28	0	0	1368.0896332263947	7560	135488.17401742935	5200	31.216931216931215	
2.9904765714285713	282.8285714285714	11.314285714285715	97.7	68.4	13.0	108	215	456	17	214	149	150	8	39	28	0	0	1276.810084104538	7630	136764.9841015339	5248	31.218872870249015	
2.390476557142857	280.9428571428571	10.871428571428572	92.68571428571428	64.84285714285714	13.0	109	215	456	17	214	149	99	8	43	31	0	0	1309.8918817043304	7700	138074.87598323822	5302	31.14285714285714	
2.5904772285714284	277.4428571428571	11.257142857142858	100.3	70.01428571428572	13.0	110	215	456	16	219	154	99	8	46	32	0	0	1277.79274892807	7770	139352.6687321663	5358	31.04247104247105	
2.4047637571428573	280.01428571428573	10.957142857142857	97.98571428571428	68.62857142857143	13.0	111	216	352	17	219	154	99	8	30	21	0	0	1296.5702781677246	7840	140649.23901033401	5407	31.033163265306115	
2.1714290285714286	275.7142857142857	10.814285714285715	91.01428571428572	63.68571428571428	13.0	112	216	393	17	219	154	187	8	37	26	0	0	1314.0121183395386	7910	141963.25112867355	5453	31.061946902654867	
2.261902857142857	280.57142857142856	10.82857142857143	89.35714285714286	62.52857142857143	13.0	113	216	400	16	200	140	166	7	23	16	0	0	1331.8101580142975	7980	143295.06128668785	5506	31.002506265664167	
2.871427671428571	291.8142857142857	10.7	95.82857142857142	67.17142857142858	13.0	114	216	340	17	234	163	187	7	21	15	0	0	1292.9110412597656	8050	144587.97232794762	5556	30.981366459627324	
2.2857146714285714	290.27142857142854	11.357142857142858	111.15714285714286	77.75714285714285	13.0	115	217	373	17	296	205	193	7	21	15	0	0	1299.0540778636932	8120	145887.0264058113	5609	30.92364532019704	
2.1857133285714285	296.24285714285713	11.82857142857143	115.48571428571428	80.82857142857142	13.0	116	217	426	17	258	180	176	8	55	39	0	0	1315.4279305934906	8190	147202.4543364048	5666	30.818070818070822	
2.7523784714285715	295.7857142857143	11.4	105.34285714285714	73.64285714285714	13.3333	117	218	373	17	221	154	217	7	24	17	0	0	1258.1584024429321	8260	148460.61273884773	5715	30.811138014527856	
2.909520042857143	296.45714285714286	10.985714285714286	93.04285714285714	65.1	13.3333	118	218	381	17	191	133	198	7	18	13	0	0	1277.390130519867	8330	149738.0028693676	5765	30.79231692677071	
2.1333323285714285	293.8	11.085714285714285	97.91428571428571	68.55714285714286	13.3333	119	218	392	17	219	154	190	7	21	15	0	0	1305.6365616321564	8400	151043.63943099976	5817	30.75	
2.2142837571428573	288.2	10.857142857142858	98.77142857142857	69.1	13.3333	120	219	416	17	219	154	198	7	29	20	0	0	1230.9467933177948	8470	152274.58622431755	5869	30.70838252656435	
2.2380947	293.9428571428571	11.042857142857143	96.94285714285714	67.85714285714286	13.3333	121	219	392	17	220	154	186	7	18	13	0	0	1268.1190717220306	8540	153542.70529603958	5924	30.632318501170957	
1.5571419	294.07142857142856	11.385714285714286	105.47142857142858	73.67142857142858	13.3333	122	219	451	17	265	184	181	7	21	15	0	0	1304.3347024917603	8610	154847.03999853134	5975	30.603948896631834	
1.9523789999999999	284.54285714285714	11.128571428571428	101.64285714285714	71.1	13.3333	123	219	392	17	213	148	178	7	26	18	0	0	1329.713101387024	8680	156176.75309991837	6022	30.6221198156682	
2.5095215714285715	293.7857142857143	10.985714285714286	101.57142857142857	71.02857142857142	13.3333	124	220	392	17	229	159	166	7	23	16	0	0	1299.6641244888306	8750	157476.4172244072	6072	30.605714285714285	
2.442855614285714	298.9428571428571	11.071428571428571	100.11428571428571	70.0	13.3333	125	220	434	17	236	165	139	7	29	20	0	0	1354.9529814720154	8820	158831.3702058792	6125	30.555555555555557	
1.9047613285714284	290.77142857142854	11.442857142857143	107.88571428571429	75.41428571428571	13.3333	126	220	404	17	249	173	139	7	15	11	0	0	1321.510204076767	8890	160152.88040995598	6179	30.49493813273341	
1.936273382352941	295.87142857142857	10.794117647058824	97.08823529411765	67.97058823529412	13.3333	127	223	392	17.0	248.0	173.0	139	7.0	20.0	14.0	0	0	1239.8375172615051	8960	161392.71792721748	6226	30.51339285714286	
1.3380932857142855	282.37142857142857	10.471428571428572	89.3	62.371428571428574	13.3333	128	223	392	16	263	183	189	7	20	14	0	0	1314.8005039691925	9030	162707.51843118668	6280	30.45404208194907	
1.5238086714285715	282.14285714285717	10.7	93.64285714285714	65.57142857142857	13.3333	129	223	413	16	263	183	147	7	20	14	0	0	1345.655023574829	9100	164053.1734547615	6337	30.362637362637372	
1.7761895142857143	286.87142857142857	10.714285714285714	92.35714285714286	64.62857142857143	13.3333	130	224	413	16	221	154	147	7	27	19	0	0	1304.531664609909	9170	165357.7051193714	6388	30.338058887677207	
1.4999985714285713	286.5285714285714	10.67142857142857	92.58571428571429	64.62857142857143	13.3333	131	225	406	17	221	154	119	7	24	17	0	0	1270.284866809845	9240	166627.98998618126	6441	30.29220779220779	
1.3428547142857143	285.1142857142857	10.414285714285715	86.54285714285714	60.4	13.3333	132	225	413	16	222	154	155	7	29	20	0	0	1278.6389632225037	9310	167906.62894940376	6492	30.26852846401718	
2.3095223857142857	292.3	10.685714285714285	86.24285714285715	60.357142857142854	13.3333	133	225	443	17	229	158	130	7	24	17	0	0	1295.0485384464264	9380	169201.6774878502	6545	30.223880597014926	
1.5952362000000002	293.4714285714286	10.871428571428572	87.58571428571429	61.24285714285714	13.3333	134	226	437	17	206	145	130	7	24	17	0	0	1272.9350743293762	9450	170474.61256217957	6594	30.222222222222214	
1.8857113714285714	291.95714285714286	11.0	95.55714285714286	66.75714285714285	13.3333	135	226	437	17	236	165	173	7	32	22	0	0	1314.4511342048645	9520	171789.06369638443	6648	30.168067226890756	
2.1571393285714286	300.84285714285716	11.242857142857142	106.5	74.5	13.3333	136	226	465	17	251	175	137	7	32	22	0	0	1320.2593688964844	9590	173109.3230652809	6697	30.166840458811265	
2.542854671428571	292.5857142857143	11.385714285714286	103.9	72.71428571428571	13.3333	137	226	377	17	221	154	170	7	32	22	0	0	1331.940834760666	9660	174441.26390004158	6750	30.124223602484463	
2.4238068999999998	284.64285714285717	11.1	97.04285714285714	67.95714285714286	13.3333	138	226	351	17	220	154	161	8	45	32	0	0	1356.4856495857239	9730	175797.7495496273	6801	30.10277492291881	
2.3238046714285714	296.22857142857146	10.542857142857143	89.35714285714286	62.614285714285714	13.3333	139	227	351	15	197	138	237	7	23	16	0	0	1318.0752544403076	9800	177115.8248040676	6856	30.040816326530617	
1.8809491428571428	296.9	10.8	96.92857142857143	67.82857142857142	13.3333	140	227	352	15	218	154	221	8	36	26	0	0	1320.0590507984161	9870	178435.88385486603	6911	29.979736575481255	
2.495234285714286	297.57142857142856	10.82857142857143	94.51428571428572	66.2	13.3333	141	227	386	17	222	154	173	8	36	25	0	0	1322.86092710495	9940	179758.74478197098	6967	29.90945674044265	
2.0857129571428574	289.98571428571427	10.471428571428572	87.7	61.4	13.3333	142	227	386	14	212	147	173	8	38	27	0	0	1341.8907449245453	10010	181100.63552689552	7019	29.880119880119878	
1.8619024428571427	292.35714285714283	10.757142857142858	90.82857142857142	63.614285714285714	13.3333	143	227	374	17	239	169	224	7	23	16	0	0	1303.179250240326	10080	182403.81477713585	7070	29.861111111111114	
2.271426142857143	293.9714285714286	10.928571428571429	89.35714285714286	62.5	13.3333	144	227	380	17	183	128	199	7	23	16	0	0	1292.5054502487183	10150	183696.32022738457	7123	29.822660098522164	
1.8476171428571428	292.7142857142857	10.714285714285714	85.12857142857143	59.57142857142857	13.3333	145	227	394	15	197	137	199	8	30	21	0	0	1321.1993911266327	10220	185017.5196185112	7176	29.784735812133064	
1.5142833714285713	295.27142857142854	10.928571428571429	94.14285714285714	65.82857142857142	13.3333	146	227	394	17	219	154	236	7	23	16	0	0	1323.541674375534	10290	186341.06129288673	7228	29.757045675413025	
1.9857104714285714	291.9	10.757142857142858	89.65714285714286	62.785714285714285	13.3333	147	227	367	16	196	138	175	8	30	21	0	0	1313.0975868701935	10360	187654.15887975693	7281	29.72007722007723	
1.528568614285714	295.4714285714286	11.042857142857143	97.12857142857143	67.92857142857143	13.3333	148	227	367	17	219	154	237	8	32	22	0	0	1303.0504083633423	10430	188957.20928812027	7337	29.654841802492797	
2.2761872428571426	296.7142857142857	10.814285714285715	91.01428571428572	63.7	13.3333	149	228	390	16	204	142	230	7	23	16	0	0	1311.4251205921173	10500	190268.6344087124	7386	29.65714285714286	
2.376186914285714	288.87142857142857	10.757142857142858	93.11428571428571	65.11428571428571	13.3333	150	228	390	17	220	154	230	7	23	16	0	0	1300.0432024002075	10570	191568.6776111126	7438	29.63103122043519	
2.4809491428571433	299.34285714285716	10.7	94.82857142857142	66.4	13.3333	151	228	404	17	226	158	181	8	35	25	0	0	1329.3901796340942	10640	192898.0677907467	7489	29.614661654135347	
2.004758714285714	298.5857142857143	10.82857142857143	94.38571428571429	66.15714285714286	13.3333	152	228	361	17	219	154	237	8	30	21	0	0	1317.2372863292694	10710	194215.30507707596	7545	29.551820728291318	
2.3333290428571427	302.4142857142857	11.242857142857142	97.45714285714286	68.18571428571428	13.3333	153	228	400	17	220	154	227	8	35	24	0	0	1319.2173655033112	10780	195534.52244257927	7595	29.545454545454547	
3.0428529142857146	297.2142857142857	11.17142857142857	99.14285714285714	69.35714285714286	13.3333	154	229	388	17	220	154	227	8	49	34	0	0	1239.2523114681244	10850	196773.7747540474	7639	29.59447004608296	
2.347615942857143	302.0	11.528571428571428	107.24285714285715	74.9	13.3333	155	229	385	16	229	160	227	8	35	25	0	0	1284.8957118988037	10920	198058.6704659462	7690	29.57875457875457	
3.623803242857143	308.07142857142856	10.957142857142857	93.68571428571428	65.62857142857143	13.3333	156	229	385	15	220	154	245	8	30	21	0	0	1286.9478523731232	10990	199345.61831831932	7738	29.590536851683353	
3.0714244285714285	305.4714285714286	11.2	99.1	69.38571428571429	13.3333	157	229	373	17	231	159	217	8	48	33	0	0	1353.9365701675415	11060	200699.55488848686	7787	29.593128390596746	
2.542852814285714	298.4714285714286	11.128571428571428	99.18571428571428	69.48571428571428	13.3333	158	229	395	15	219	154	217	8	52	36	0	0	1345.2319612503052	11130	202044.78684973717	7842	29.541778975741238	
2.1809503714285716	299.54285714285714	10.885714285714286	98.77142857142857	69.05714285714286	13.3333	159	230	368	15	215	150	237	7	21	15	0	0	1336.8032100200653	11200	203381.59005975723	7897	29.49107142857143	
2.1952358142857142	302.6714285714286	11.5	106.5	74.35714285714286	13.3333	160	230	342	17	240	167	237	9	46	32	0	0	1347.6493740081787	11270	204729.2394337654	7956	29.40550133096717	
1.6476182000000001	303.95714285714286	11.128571428571428	105.65714285714286	73.81428571428572	13.3333	161	230	405	17	277	192	225	8	28	20	0	0	1344.8669564723969	11340	206074.1063902378	8015	29.320987654320987	
1.3952367142857145	308.25714285714287	10.6	91.65714285714286	63.98571428571429	13.3333	162	230	405	15	203	141	240	7	21	15	0	0	1355.146133184433	11410	207429.25252342224	8067	29.298860648553898	
2.3142820428571427	302.75714285714287	11.128571428571428	100.22857142857143	70.02857142857142	13.3333	163	230	405	16	224	156	205	7	23	16	0	0	1297.642528295517	11480	208726.89505171776	8126	29.21602787456446	
1.9476161857142853	298.01428571428573	11.128571428571428	102.21428571428571	71.55714285714286	13.3333	164	230	376	17	232	162	235	8	32	22	0	0	1335.1893944740295	11550	210062.0844461918	8176	29.212121212121218	
1.2548993088235294	293.25714285714287	10.882352941176471	95.01470588235294	66.3529411764706	13.3333	165	233	376	17.0	309.0	214.0	212	7.0	21.0	15.0	0	0	1247.8123953342438	11620	211309.89684152603	8224	29.225473321858857	
1.3190446714285713	293.75714285714287	11.257142857142858	100.62857142857143	70.21428571428571	13.3333	166	233	376	16	245	170	201	7	23	16	0	0	1367.5567541122437	11690	212677.45359563828	8275	29.21300256629597	
2.5809475714285712	295.0	10.728571428571428	89.11428571428571	62.357142857142854	13.3333	167	233	380	15	216	150	204	7	15	11	0	0	1308.4677698612213	11760	213985.9213654995	8328	29.183673469387756	
2.3904741428571428	301.15714285714284	11.128571428571428	94.55714285714286	66.08571428571429	13.3333	168	233	400	16	206	144	243	8	32	22	0	0	1336.858641386032	11830	215322.78000688553	8386	29.112426035502963	
1.833330857142857	299.22857142857146	11.014285714285714	91.87142857142857	64.12857142857143	13.3333	169	234	400	17	225	159	238	8	30	21	0	0	1275.7792282104492	11900	216598.55923509598	8433	29.134453781512605	
1.4666631857142856	298.35714285714283	10.7	92.91428571428571	64.88571428571429	13.3333	170	234	436	16	209	146	229	7	23	16	0	0	1293.043218612671	11970	217891.60245370865	8482	29.13951545530493	
1.338091857142857	309.57142857142856	10.557142857142857	92.7	64.74285714285715	13.3333	171	234	493	16	223	156	204	7	23	16	0	0	1299.5153408050537	12040	219191.1177945137	8531	29.144518272425245	
1.5285695714285714	302.5857142857143	10.728571428571428	94.34285714285714	65.9	13.3333	172	234	464	16	211	147	213	7	21	15	0	0	1303.9433407783508	12110	220495.06113529205	8581	29.141205615194053	
1.9761876999999999	313.2	10.6	92.4	64.64285714285714	13.3333	173	234	495	16	232	162	162	8	30	21	0	0	1332.4479458332062	12180	221827.50908112526	8631	29.13793103448276	
1.461901857142857	300.85714285714283	10.685714285714285	90.9	63.6	13.3333	174	234	409	17	167	117	162	8	30	21	0	0	1332.8692853450775	12250	223160.37836647034	8687	29.085714285714275	
1.952376657142857	297.7142857142857	10.114285714285714	80.94285714285714	56.75714285714286	13.3333	175	234	394	15	167	117	235	8	38	27	0	0	1283.923481464386	12320	224444.30184793472	8737	29.08279220779221	
1.7412906268656716	293.8285714285714	10.611940298507463	90.38805970149254	63.298507462686565	13.3333	176	238	394	15.0	199.0	138.0	228	8.0	36.0	26.0	0	0	1205.8788802623749	12390	225650.1807281971	8789	29.06376109765941	
1.8190443428571428	300.51428571428573	10.557142857142857	92.34285714285714	64.6	13.3333	177	238	428	17	225	158	212	8	36	26	0	0	1287.395483493805	12460	226937.5762116909	8840	29.052969502407706	
1.690473814285714	296.98571428571427	10.542857142857143	88.28571428571429	61.75714285714286	13.3333	178	238	411	16	149	104	169	8	32	22	0	0	1334.4953293800354	12530	228272.07154107094	8890	29.05027932960894	
1.6523795285714287	295.85714285714283	10.557142857142857	89.45714285714286	62.65714285714286	13.3333	179	238	411	17	215	151	162	8	36	26	0	0	1321.468391418457	12600	229593.5399324894	8943	29.02380952380952	
2.2523765714285715	296.6	10.742857142857142	90.52857142857142	63.371428571428574	13.3333	180	238	413	17	221	154	162	7	18	13	0	0	1303.9729404449463	12670	230897.51287293434	8996	28.99763220205209	
1.8476151857142855	299.1142857142857	10.82857142857143	94.08571428571429	65.84285714285714	13.3333	181	238	413	17	215	151	191	7	20	14	0	0	1325.9179894924164	12740	232223.43086242676	9048	28.9795918367347	
2.2809485	308.6857142857143	10.8	93.65714285714286	65.64285714285714	13.3333	182	238	427	16	218	154	254	7	17	12	0	0	1305.2661039829254	12810	233528.69696640968	9103	28.93832943013271	
2.333329385714286	303.35714285714283	11.2	105.74285714285715	74.15714285714286	13.3333	183	238	440	16	231	161	238	7	18	13	0	0	1280.6837878227234	12880	234809.3807542324	9160	28.881987577639762	
2.2476161714285716	303.1142857142857	11.214285714285714	104.27142857142857	73.02857142857142	13.3333	184	238	440	16	257	179	201	7	21	15	0	0	1286.6715681552887	12950	236096.0523223877	9218	28.818532818532816	
2.0857123142857144	295.0285714285714	10.857142857142858	96.88571428571429	67.85714285714286	13.3333	185	238	408	16	231	164	240	7	27	19	0	0	1283.408325433731	13020	237379.46064782143	9267	28.824884792626733	
1.8428538571428572	297.01428571428573	11.3	106.4	74.31428571428572	13.3333	186	239	388	17	215	150	220	8	41	29	0	0	1309.594042301178	13090	238689.0546901226	9324	28.770053475935825	
2.3904719	300.3	11.057142857142857	93.31428571428572	65.27142857142857	13.3333	187	239	403	16	202	141	208	7	27	19	0	0	1301.4630379676819	13160	239990.5177280903	9375	28.76139817629179	
1.6428533857142857	298.54285714285714	10.871428571428572	94.45714285714286	66.07142857142857	13.3333	188	239	403	16	202	140	181	8	39	28	0	0	1341.0368988513947	13230	241331.55462694168	9424	28.767951625094483	
1.4238061857142856	291.4714285714286	10.871428571428572	94.24285714285715	65.94285714285714	13.3333	189	240	403	17	259	181	181	8	30	21	0	0	1328.80774974823	13300	242660.3623766899	9472	28.781954887218035	
2.1666619000000003	293.3142857142857	10.957142857142857	90.91428571428571	63.58571428571429	13.3333	190	240	365	16	204	142	214	7	29	20	0	0	1244.3656830787659	13370	243904.72805976868	9522	28.780852655198203	
2.6047571285714284	295.6	11.028571428571428	96.17142857142858	67.2	13.3333	191	240	367	16	225	156	195	7	29	20	0	0	1228.5600934028625	13440	245133.28815317154	9569	28.80208333333333	
1.8952348428571424	296.3285714285714	10.7	91.74285714285715	64.05714285714286	13.3333	192	240	387	16	238	166	163	7	29	20	0	0	1212.11141705513	13510	246345.39957022667	9615	28.83049592894153	
2.1095210285714288	298.25714285714287	10.457142857142857	85.68571428571428	59.9	13.3333	193	240	358	17	251	175	217	7	23	16	0	0	1183.4062931537628	13580	247528.80586338043	9664	28.836524300441823	
2.3380910428571426	299.8142857142857	10.514285714285714	83.44285714285714	58.3	13.3333	194	240	383	16	199	137	223	7	24	17	0	0	1216.3287546634674	13650	248745.1346180439	9705	28.901098901098905	
2.7809467142857143	303.0285714285714	10.485714285714286	88.54285714285714	61.94285714285714	13.3333	195	240	367	16	196	136	223	8	39	27	0	0	1245.1523904800415	13720	249990.28700852394	9756	28.89212827988338	
2.5523752285714285	302.0	10.8	91.2	63.97142857142857	13.3333	196	241	345	17	225	158	257	8	50	36	0	0	1291.0582950115204	13790	251281.34530353546	9796	28.963016678752723	
2.4238057142857143	301.6142857142857	10.414285714285715	88.68571428571428	62.1	13.3333	197	241	369	17	219	154	230	8	28	20	0	0	1288.478348493576	13860	252569.82365202904	9846	28.961038961038966	
1.5999961428571428	300.85714285714283	10.885714285714286	97.61428571428571	68.08571428571429	13.3333	198	242	349	17	220	154	231	7	23	16	0	0	1249.3476724624634	13930	253819.1713244915	9898	28.94472361809045	
1.7714266714285714	300.4	10.714285714285714	92.68571428571428	64.75714285714285	13.3333	199	242	373	17	237	166	229	7	23	16	0	0	1211.7686703205109	14000	255030.939994812	9952	28.91428571428571	
2.0285694857142857	295.01428571428573	11.071428571428571	99.24285714285715	69.24285714285715	13.3333	200	242	373	16	229	159	239	8	32	22	0	0	1230.084599018097	14070	256261.0245938301	9997	28.94811656005686	
