best_fitness	avg_fitness
1.66667	0.0714286
1.66667	0.0857143
1.66667	0.104762
1.66667	0.1
1.66667	0.166667
1.66667	0.190476
1.66667	0.133333
1.66667	0.147619
1.66667	0.166667
1.66667	0.119048
1.66667	0.180952
1.66667	0.138095
1.66667	0.157143
1.66667	0.157143
1.66667	0.157143
1.66667	0.114286
1.66667	0.12381
1.66667	0.142857
1.66667	0.138095
1.66667	0.114286
1.66667	0.166667
1.66667	0.157143
1.66667	0.119048
1.66667	0.147619
1.66667	0.142857
1.66667	0.161905
1.66667	0.171429
1.66667	0.190476
1.66667	0.119048
1.66667	0.190476
1.66667	0.142857
1.66667	0.180952
1.66667	0.0904762
1.66667	0.0714286
1.66667	0.128571
1.66667	0.219048
1.66667	0.161905
1.66667	0.209524
1.66667	0.114286
1.66667	0.209524
1.66667	0.157143
1.66667	0.171429
1.66667	0.133333
1.66667	0.157143
1.66667	0.161905
1.66667	0.142857
1.66667	0.157143
1.66667	0.138095
1.66667	0.157143
1.66667	0.247619
1.66667	0.238095
1.66667	0.166667
1.66667	0.242857
1.66667	0.195238
1.66667	0.119048
1.66667	0.104762
1.66667	0.147619
1.66667	0.190476
1.66667	0.114286
1.66667	0.161905
1.66667	0.166667
1.66667	0.180952
1.66667	0.147619
1.66667	0.142857
1.66667	0.161905
1.66667	0.142857
1.66667	0.0857143
1.66667	0.0809524
1.66667	0.142857
1.66667	0.161905
1.66667	0.133333
1.66667	0.0857143
1.66667	0.171429
1.66667	0.142857
1.66667	0.133333
1.66667	0.128571
1.66667	0.242857
1.66667	0.147619
1.66667	0.142857
1.66667	0.142857
1.66667	0.0619048
1.66667	0.166667
1.66667	0.133333
1.66667	0.157143
1.66667	0.0952381
1.66667	0.114286
1.66667	0.1
1.66667	0.128571
1.66667	0.152381
1.66667	0.142857
1.66667	0.152381
1.66667	0.204762
1.66667	0.252381
1.66667	0.142857
1.66667	0.195238
1.66667	0.157143
1.66667	0.0761905
1.66667	0.138095
1.66667	0.104762
1.66667	0.185714
1.66667	0.209524
1.66667	0.171429
1.66667	0.0761905
1.66667	0.1
1.66667	0.2
1.66667	0.128571
1.66667	0.119048
1.66667	0.219048
1.66667	0.233333
1.66667	0.0761905
1.66667	0.161905
1.66667	0.180952
1.66667	0.152381
1.66667	0.157143
1.66667	0.138095
1.66667	0.0952381
1.66667	0.185714
1.66667	0.109524
1.66667	0.109524
1.66667	0.157143
1.66667	0.233333
1.66667	0.1
1.66667	0.128571
1.66667	0.12381
1.66667	0.157143
1.66667	0.295238
1.66667	0.204762
1.66667	0.161905
1.66667	0.185714
1.66667	0.171429
1.66667	0.119048
1.66667	0.157143
1.66667	0.12381
1.66667	0.147619
1.66667	0.171429
1.66667	0.17619
1.66667	0.104762
1.66667	0.0904762
1.66667	0.195238
1.66667	0.204762
1.66667	0.185714
1.66667	0.17619
1.66667	0.12381
1.66667	0.0761905
1.66667	0.166667
1.66667	0.171429
1.66667	0.204762
1.66667	0.119048
1.66667	0.119048
1.66667	0.0857143
1.66667	0.119048
1.66667	0.157143
1.66667	0.190476
1.66667	0.22381
1.66667	0.166667
1.66667	0.133333
1.66667	0.152381
1.66667	0.152381
1.66667	0.128571
1.66667	0.152381
1.66667	0.180952
1.66667	0.119048
1.66667	0.157143
1.66667	0.190476
1.66667	0.133333
1.66667	0.104762
1.66667	0.142857
1.66667	0.195238
1.66667	0.166667
1.66667	0.166667
1.66667	0.161905
1.66667	0.104762
1.66667	0.142857
1.66667	0.161905
1.66667	0.119048
1.66667	0.152381
1.66667	0.147619
1.66667	0.138095
1.66667	0.333333
1.66667	0.157143
1.66667	0.1
1.66667	0.17619
1.66667	0.152381
1.66667	0.12381
1.66667	0.204762
1.66667	0.157143
1.66667	0.166667
1.66667	0.1
1.66667	0.147619
1.66667	0.138095
1.66667	0.190476
1.66667	0.2
1.66667	0.133333
1.66667	0.195238
1.66667	0.12381
1.66667	0.252381
1.66667	0.128571
1.66667	0.17619
1.66667	0.22381
1.66667	0.1
