1.0
0.918519
0.918519
0.918519
0.918519
0.918519
1.0
1.0
1.0
1.0
1.0
1.0
1.0
1.0
1.0
1.0
1.0
1.0
1.0
1.0
1.0
1.0
1.0
1.0
1.0
1.0
1.0
1.0
1.0
1.0
1.0
1.0
1.0
1.0
1.0
1.0
1.0
1.0
1.0
1.0
1.0
1.0
1.0
1.0
1.0
1.0
1.0
1.0
0.932599
0.882126
0.882126
0.882126
0.882126
0.882126
0.882126
0.882126
0.882126
0.882126
0.882126
0.882126
0.882126
0.882126
0.882126
0.882126
0.882126
0.882126
0.882126
0.882126
0.882126
0.882126
0.882126
0.882126
0.882126
0.882126
0.882126
0.882126
0.882126
0.882126
0.882126
0.882126
0.882126
0.882126
0.882126
0.882126
0.882126
0.882126
0.882126
0.882126
0.882126
0.882126
0.882126
0.882126
0.882126
0.882126
0.882126
0.882126
0.882126
0.882126
0.882126
0.882126
0.882126
0.882126
0.882126
0.882126
0.882126
0.882126
0.882126
0.882126
0.882126
0.882126
0.882126
0.882126
0.882126
0.882126
0.882126
0.882126
0.882126
0.882126
0.882126
0.882126
0.943071
0.943071
0.947313
0.947313
0.947313
0.947313
0.947313
0.947313
0.947313
0.947313
0.947313
0.947313
0.947313
0.947313
0.947313
0.947313
0.947313
0.947313
0.947313
0.947313
0.976863
0.976863
0.976863
0.976863
0.976863
0.976863
0.976863
0.976863
0.976863
0.977407
0.977407
0.977407
0.977407
0.977407
0.977407
0.977407
0.977407
0.977407
0.977407
0.977407
0.977407
0.977407
0.977407
0.977407
0.977407
0.977407
0.977407
0.977407
0.977407
0.977407
0.977407
0.977407
0.977407
0.977407
0.977407
0.94988
0.94988
0.94988
0.94988
0.94988
0.94988
1.0
1.0
1.0
1.0
1.0
1.0
1.0
1.0
1.0
1.0
1.0
1.0
1.0
1.0
1.0
1.0
1.0
1.0
1.0
1.0
1.0
1.0
1.0
1.0
1.0
1.0
1.0
1.0
1.0
1.0
1.0
1.0
1.0
1.0
1.0
1.0
1.0
1.0
1.0
1.0
1.0
1.0
1.0
1.0
1.0
1.0
1.0
1.0
1.0
1.0
1.0
1.0
1.0
1.0
1.0
1.0
1.0
1.0
1.0
1.0
1.0
1.0
1.0
1.0
1.0
1.0
1.0
1.0
1.0
1.0
1.0
1.0
1.0
1.0
1.0
1.0
1.0
1.0
1.0
1.0
1.0
1.0
1.0
1.0
1.0
1.0
1.0
1.0
1.0
1.0
1.0
1.0
1.0
1.0
1.0
1.0
1.0
1.0
1.0
1.0
1.0
1.0
1.0
1.0
1.0
1.0
1.0
1.0
1.0
1.0
1.0
1.0
1.0
1.0
1.0
1.0
1.0
1.0
1.0
1.0
1.0
1.0
1.0
1.0
1.0
1.0
1.0
1.0
1.0
1.0
1.0
1.0
1.0
1.0
1.0
1.0
1.0
1.0
1.0
1.0
1.0
1.0
1.0
1.0
1.0
1.0
1.0
1.0
1.0
1.0
1.0
1.0
1.0
1.0
1.0
1.0
1.0
1.0
1.0
1.0
1.0
1.0
1.0
1.0
1.0
1.0
1.0
1.0
1.0
1.0
1.0
1.0
1.0
1.0
1.0
1.0
1.0
1.0
1.0
1.0
1.0
1.0
1.0
1.0
1.0
1.0
1.0
1.0
1.0
1.0
1.0
1.0
1.0
1.0
1.0
1.0
1.0
1.0
1.0
1.0
1.0
1.0
1.0
1.0
1.0
1.0
1.0
1.0
1.0
1.0
1.0
1.0
1.0
1.0
1.0
1.0
1.0
1.0
1.0
