1.0
1.0
1.0
1.0
0.966183
1.0
1.0
1.0
1.0
1.0
1.0
1.0
1.0
1.0
1.0
1.0
0.937959
0.937959
0.937959
0.937959
0.937959
0.937959
0.937959
0.937959
0.937959
0.937959
0.937959
0.937959
0.937959
0.937959
0.937959
0.937959
0.937959
0.937959
0.937959
0.937959
0.937959
0.937959
0.937959
0.937959
0.937959
0.937959
0.937959
0.986316
0.986316
0.986316
0.986316
0.986316
0.986316
0.986316
0.986316
0.986316
0.986316
0.986316
0.986316
0.986316
0.986316
0.986316
0.986316
0.986316
0.986316
0.986316
0.986316
0.986316
0.986316
0.986316
0.986316
0.986316
0.986316
0.986316
0.986316
0.986316
0.986316
0.986316
0.986316
0.986316
0.986316
0.986316
0.986316
0.986316
0.986316
0.986316
0.986316
0.986316
0.986316
0.986316
0.986316
0.986316
0.986316
0.986316
0.986316
0.986316
0.986316
0.986316
0.986316
0.986316
0.986316
0.986316
0.986316
0.986316
0.986316
0.986316
0.986316
0.986316
0.986316
0.986316
0.986316
0.986316
0.986316
0.986316
0.986316
0.986316
0.986316
0.986316
0.986316
0.986316
0.986316
0.986316
0.986316
0.986316
0.986316
0.986316
0.986316
0.986316
0.986316
0.986316
0.986316
0.986316
0.986316
0.986316
0.986316
0.986316
0.986316
0.986316
0.986316
0.986316
0.986316
0.986316
0.986316
0.986316
0.986316
0.986316
0.986316
0.986316
0.986316
0.986316
0.986316
0.986316
0.986316
0.986316
0.986316
0.986316
0.986316
0.986316
0.986316
0.986316
0.986316
0.986316
0.986316
0.986316
0.986316
0.986316
0.986316
0.986316
0.986316
0.986316
0.986316
0.986316
0.986316
0.986316
0.986316
0.986316
0.986316
0.986316
0.986316
0.986316
0.986316
0.986316
0.986316
0.986316
0.986316
0.986316
0.986316
0.986316
0.986316
0.986316
0.986316
0.986316
0.986316
0.986316
0.986316
0.986316
0.986316
0.986316
0.986316
0.986316
0.986316
0.986316
0.986316
0.986316
0.986316
0.986316
0.986316
0.986316
0.986316
0.986316
0.986316
0.986316
0.986316
0.986316
0.986316
0.986316
0.986316
0.986316
0.986316
0.986316
0.986316
0.986316
0.986316
0.986316
0.986316
0.986316
0.986316
0.986316
0.986316
0.986316
0.986316
0.986316
0.986316
0.986316
0.986316
0.986316
0.986316
0.986316
0.986316
0.986316
0.986316
0.986316
0.986316
0.986316
0.986316
0.986316
0.986316
0.986316
0.986316
0.986316
0.986316
0.986316
0.986316
0.986316
0.986316
0.986316
0.986316
0.986316
0.986316
0.986316
0.986316
0.986316
0.986316
0.986316
0.986316
0.986316
0.986316
0.986316
0.986316
0.986316
0.986316
0.986316
0.986316
0.986316
0.986316
0.986316
0.986316
0.986316
0.986316
0.986316
0.986316
0.986316
0.986316
0.986316
0.986316
0.986316
0.986316
0.986316
0.986316
0.986316
0.986316
0.986316
0.986316
0.986316
0.986316
0.986316
0.986316
0.986316
0.986316
0.986316
0.986316
0.986316
0.986316
0.986316
0.986316
0.986316
0.986316
0.986316
0.986316
0.986316
0.986316
0.986316
0.986316
0.986316
0.986316
0.986316
0.986316
0.986316
0.986316
0.986316
0.986316
0.986316
0.986316
0.986316
0.986316
0.986316
0.986316
0.986316
0.986316
0.986316
0.986316
0.986316
0.986316
0.986316
0.986316
0.986316
0.986316
0.986316
0.986316
0.986316
0.986316
0.986316
0.986316
0.986316
0.986316
0.986316
0.986316
0.986316
0.986316
0.986316
0.986316
0.986316
0.986316
0.986316
0.986316
0.986316
0.986316
0.986316
0.986316
0.986316
0.986316
0.986316
0.986316
0.986316
0.986316
0.986316
0.986316
0.986316
0.986316
0.986316
0.986316
0.986316
0.986316
0.986316
0.986316
0.986316
0.986316
0.986316
0.986316
0.986316
0.986316
0.986316
0.986316
0.986316
0.986316
0.986316
0.986316
0.986316
0.986316
0.986316
0.986316
0.986316
0.986316
0.986316
0.986316
0.986316
0.986316
0.986316
0.986316
0.986316
0.986316
0.986316
0.986316
0.986316
