ave_fitness	ave_genome_length	ave_tree_depth	ave_tree_nodes	ave_used_codons	best_fitness	gen	invalids	max_genome_length	max_tree_depth	max_tree_nodes	max_used_codons	min_genome_length	min_tree_depth	min_tree_nodes	min_used_codons	runtime_error	time_adjust	time_taken	total_inds	total_time	unique_inds	unused_search	
0.02857142857142857	50.57142857142857	8.228571428571428	48.5	33.84285714285714	2.0	0	0	186	10	180	124	16	7	15	11	0	0	1291.927946805954	70	1291.927946805954	70	0.0	
0.041666666666666664	56.285714285714285	8.75	42.3125	29.5625	2.0	1	23	147	15.0	111.0	77.0	11	7.0	15.0	11.0	0	0	754.1079018115997	140	2046.0358486175537	105	25.0	
0.03225806451612903	56.15714285714286	8.741935483870968	46.774193548387096	32.70967741935484	2.0	2	32	217	15.0	159.0	111.0	16	7.0	15.0	11.0	0	0	1026.4561054706573	210	3072.491954088211	145	30.95238095238095	
0.031746031746031744	65.98571428571428	8.746031746031745	51.12698412698413	35.82539682539682	2.0	3	40	165	15.0	173.0	121.0	16	7.0	15.0	11.0	0	0	1046.7261910438538	280	4119.218145132065	178	36.42857142857143	
0.03125	65.88571428571429	8.46875	44.078125	30.9375	2.0	4	47	174	12.0	152.0	106.0	9	7.0	15.0	11.0	0	0	1071.0192563533783	350	5190.237401485443	212	39.42857142857142	
0.029411764705882353	80.51428571428572	8.705882352941176	47.5735294117647	33.36764705882353	2.0	5	50	176	14.0	152.0	106.0	16	7.0	15.0	11.0	0	0	1143.0838420391083	420	6333.321243524551	249	40.714285714285715	
0.03125	77.64285714285714	8.859375	47.890625	33.5625	2.0	6	57	187	13.0	116.0	80.0	16	7.0	15.0	11.0	0	0	1130.974868774414	490	7464.296112298965	289	41.02040816326531	
0.030303030303030304	75.97142857142858	8.651515151515152	47.60606060606061	33.333333333333336	2.0	7	62	187	13.0	188.0	132.0	16	7.0	15.0	11.0	0	0	1119.2184369564056	560	8583.514549255371	327	41.607142857142854	
0.03225806451612903	72.95714285714286	8.903225806451612	53.04838709677419	37.03225806451613	2.0	8	71	159	13.0	167.0	117.0	16	7.0	15.0	11.0	0	0	1052.0241057872772	630	9635.538655042648	355	43.65079365079365	
0.03333333333333333	67.8	8.683333333333334	49.38333333333333	34.56666666666667	2.0	9	82	171	13.0	164.0	114.0	16	7.0	15.0	11.0	0	0	1027.5029666423798	700	10663.041621685028	389	44.42857142857143	
0.03225806451612903	70.6	8.774193548387096	52.82258064516129	36.935483870967744	2.0	10	91	177	12.0	168.0	117.0	15	7.0	15.0	11.0	0	0	1105.392745733261	770	11768.43436741829	429	44.285714285714285	
0.030303030303030304	70.95714285714286	8.666666666666666	51.166666666666664	35.833333333333336	2.0	11	96	159	17.0	182.0	127.0	12	7.0	15.0	11.0	0	0	1170.1902678012848	840	12938.624635219574	464	44.76190476190476	
0.03125	64.24285714285715	8.28125	42.28125	29.609375	2.0	12	103	165	13.0	153.0	106.0	12	7.0	15.0	11.0	0	0	1139.8288807868958	910	14078.45351600647	496	45.494505494505496	
0.03125	60.81428571428572	8.109375	35.5	25.015625	2.0	13	110	139	13.0	115.0	80.0	16	7.0	15.0	11.0	0	0	1117.1680707931519	980	15195.621586799622	530	45.91836734693877	
0.031746031746031744	62.642857142857146	7.888888888888889	31.206349206349206	21.96825396825397	2.0	14	118	138	13.0	115.0	80.0	16	7.0	15.0	11.0	0	0	1074.3263359069824	1050	16269.947922706604	555	47.14285714285714	
0.03278688524590164	57.0	8.081967213114755	37.114754098360656	26.016393442622952	2.0	15	128	152	13.0	170.0	119.0	11	7.0	15.0	11.0	0	0	1009.5990464687347	1120	17279.54696917534	587	47.58928571428571	
0.029411764705882353	64.74285714285715	8.058823529411764	36.44117647058823	25.529411764705884	2.0	16	131	138	13.0	150.0	105.0	14	7.0	15.0	11.0	0	0	1125.160061120987	1190	18404.707030296326	619	47.98319327731092	
0.03076923076923077	54.34285714285714	7.923076923076923	32.47692307692308	22.846153846153847	2.0	17	137	138	11.0	137.0	96.0	14	7.0	15.0	11.0	0	0	1084.1828565597534	1260	19488.88988685608	641	49.12698412698413	
0.03571428571428571	54.6	7.821428571428571	30.589285714285715	21.517857142857142	2.0	18	152	130	11.0	93.0	64.0	11	7.0	15.0	11.0	0	0	933.8603115081787	1330	20422.750198364258	664	50.07518796992481	
0.03125	71.05714285714286	8.5625	39.03125	27.328125	2.0	19	159	141	16.0	103.0	73.0	16	7.0	15.0	11.0	0	0	1101.2606246471405	1400	21524.0108230114	691	50.642857142857146	
0.03125	61.15714285714286	8.578125	38.703125	27.15625	2.0	20	166	149	16.0	134.0	93.0	16	7.0	15.0	11.0	0	0	1136.392217874527	1470	22660.403040885925	717	51.224489795918366	
0.03125	64.27142857142857	8.109375	34.78125	24.4375	2.0	21	173	149	13.0	139.0	97.0	11	7.0	15.0	11.0	0	0	1115.1065933704376	1540	23775.509634256363	754	51.03896103896104	
0.03076923076923077	72.84285714285714	8.323076923076924	40.15384615384615	28.138461538461538	2.0	22	179	149	14.0	139.0	97.0	9	7.0	15.0	11.0	0	0	1114.8649668693542	1610	24890.374601125717	783	51.36645962732919	
0.030303030303030304	74.3	8.106060606060606	36.59090909090909	25.681818181818183	2.0	23	184	183	14.0	139.0	97.0	12	7.0	15.0	11.0	0	0	1145.1712012290955	1680	26035.545802354813	811	51.726190476190474	
0.030303030303030304	69.44285714285714	7.696969696969697	27.666666666666668	19.5	2.0	24	189	183	11.0	80.0	56.0	11	7.0	15.0	11.0	0	0	1162.359534740448	1750	27197.90533709526	842	51.885714285714286	
0.031746031746031744	61.67142857142857	7.777777777777778	27.96825396825397	19.682539682539684	2.0	25	197	167	13.0	100.0	70.0	9	7.0	15.0	11.0	0	0	1053.5891542434692	1820	28251.49449133873	870	52.1978021978022	
0.029850746268656716	63.25714285714286	8.134328358208956	31.134328358208954	21.791044776119403	2.0	26	201	167	15.0	115.0	80.0	16	7.0	15.0	11.0	0	0	1110.801197052002	1890	29362.29568839073	908	51.957671957671955	
0.03125	64.08571428571429	8.25	33.296875	23.296875	2.0	27	208	167	13.0	118.0	82.0	14	7.0	15.0	11.0	0	0	1057.5528790950775	1960	30419.84856748581	935	52.295918367346935	
0.03381642028985508	69.32857142857142	8.492753623188406	36.42028985507246	25.536231884057973	2.0	28	210	179	14.0	148.0	102.0	16	7.0	15.0	11.0	0	0	1169.9239463806152	2030	31589.772513866425	964	52.51231527093596	
0.052910031746031747	64.87142857142857	8.19047619047619	33.22222222222222	23.3015873015873	2.0	29	218	167	12.0	98.0	69.0	16	7.0	15.0	11.0	0	0	1064.6509673595428	2100	32654.423481225967	989	52.904761904761905	
0.05970146268656717	76.2	8.64179104477612	37.417910447761194	26.16417910447761	2.0	30	222	179	12.0	100.0	70.0	6	7.0	15.0	11.0	0	0	1095.6716420650482	2170	33750.095123291016	1018	53.08755760368663	
0.05970146268656717	89.98571428571428	8.761194029850746	38.059701492537314	26.582089552238806	2.0	31	226	182	13.0	116.0	80.0	24	7.0	15.0	11.0	0	0	1094.1457583904266	2240	34844.24088168144	1052	53.035714285714285	
0.06666663076923075	93.15714285714286	9.046153846153846	40.815384615384616	28.584615384615386	2.0	32	232	194	14.0	132.0	92.0	28	7.0	15.0	11.0	0	0	1107.6275250911713	2310	35951.86840677261	1088	52.9004329004329	
0.06965170149253731	87.77142857142857	9.17910447761194	49.134328358208954	34.32835820895522	2.0	33	236	210	15.0	209.0	145.0	25	7.0	15.0	11.0	0	0	1163.6515638828278	2380	37115.51997065544	1127	52.64705882352941	
0.08095232857142858	90.97142857142858	9.457142857142857	50.81428571428572	35.6	2.0	34	237	210	16	269	189	36	7	15	11	0	0	1222.6433441638947	2450	38338.163314819336	1164	52.48979591836735	
0.10144920289855071	68.98571428571428	9.144927536231885	42.26086956521739	29.594202898550726	2.0	35	239	166	11.0	127.0	88.0	23	7.0	15.0	11.0	0	0	1235.629118680954	2520	39573.79243350029	1202	52.3015873015873	
0.1111110606060606	70.57142857142857	9.257575757575758	44.81818181818182	31.318181818181817	2.0	36	244	166	15.0	121.0	84.0	44	7.0	15.0	11.0	0	0	1187.4484276771545	2590	40761.240861177444	1234	52.35521235521235	
0.14062496875	64.88571428571429	9.171875	43.5	30.40625	2.0	37	251	158	13.0	136.0	95.0	11	7.0	15.0	11.0	0	0	1156.0381681919098	2660	41917.279029369354	1263	52.51879699248121	
0.15920398507462688	61.42857142857143	8.940298507462687	43.44776119402985	30.417910447761194	2.0	38	255	102	12.0	90.0	63.0	31	7.0	15.0	11.0	0	0	1159.695151090622	2730	43076.974180459976	1293	52.63736263736264	
0.23076924615384614	62.42857142857143	9.2	41.41538461538462	28.96923076923077	2.0	39	261	96	16.0	103.0	72.0	35	7.0	15.0	11.0	0	0	1108.715786933899	2800	44185.689967393875	1329	52.535714285714285	
0.21393037313432833	59.17142857142857	9.08955223880597	40.08955223880597	28.0	2.0	40	265	97	13.0	106.0	74.0	17	7.0	15.0	11.0	0	0	1155.355221271515	2870	45341.04518866539	1359	52.64808362369338	
0.17619048571428572	61.94285714285714	9.157142857142857	38.01428571428571	26.571428571428573	2.0	41	266	107	14	106	74	34	7	15	11	0	0	1234.957675933838	2940	46576.00286459923	1401	52.3469387755102	
0.18571428571428572	61.97142857142857	9.1	37.885714285714286	26.52857142857143	2.0	42	267	107	15	115	80	28	7	15	11	0	0	1224.0451323986053	3010	47800.04799699783	1435	52.325581395348834	
0.21739128985507244	66.11428571428571	9.159420289855072	38.42028985507246	26.869565217391305	2.0	43	269	107	13.0	104.0	73.0	33	7.0	15.0	11.0	0	0	1218.0070192813873	3080	49018.05501627922	1469	52.3051948051948	
0.25120772463768115	65.75714285714285	8.927536231884059	35.43478260869565	24.82608695652174	2.0	44	271	99	14.0	80.0	56.0	33	7.0	15.0	11.0	0	0	1239.4335248470306	3150	50257.48854112625	1499	52.41269841269841	
0.25238095714285713	66.04285714285714	8.971428571428572	36.642857142857146	25.728571428571428	2.0	45	272	100	14	80	56	19	7	15	11	0	0	1247.367589712143	3220	51504.856130838394	1533	52.391304347826086	
0.22380952857142858	63.128571428571426	8.957142857142857	37.34285714285714	26.185714285714287	2.0	46	272	101	12	80	56	19	7	15	11	0	0	1246.0037686824799	3290	52750.859899520874	1567	52.37082066869301	
0.2935323432835821	66.5	9.149253731343284	40.32835820895522	28.253731343283583	2.0	47	276	107	14.0	90.0	64.0	25	7.0	15.0	11.0	0	0	1173.714955329895	3360	53924.57485485077	1597	52.470238095238095	
0.2051282153846154	70.68571428571428	9.215384615384615	42.83076923076923	29.96923076923077	2.0	48	282	107	16.0	113.0	79.0	30	7.0	15.0	11.0	0	0	1119.7662312984467	3430	55044.341086149216	1633	52.390670553935855	
0.22380952857142858	74.62857142857143	9.242857142857142	42.68571428571428	29.942857142857143	2.0	49	283	107	16	113	79	45	7	15	11	0	0	1247.4555282592773	3500	56291.79661440849	1672	52.22857142857143	
0.2828282878787879	74.91428571428571	8.878787878787879	38.484848484848484	26.939393939393938	2.0	50	288	113	14.0	116.0	81.0	46	7.0	15.0	11.0	0	0	1159.224515914917	3570	57451.02113032341	1703	52.296918767507	
0.2657004347826087	74.04285714285714	8.898550724637682	35.05797101449275	24.565217391304348	2.0	51	290	117	16.0	80.0	57.0	47	7.0	15.0	11.0	0	0	1220.0430343151093	3640	58671.06416463852	1734	52.362637362637365	
0.23039210294117646	73.94285714285714	8.529411764705882	32.55882352941177	22.808823529411764	2.0	52	293	115	13.0	80.0	56.0	47	7.0	15.0	11.0	0	0	1167.2871882915497	3710	59838.35135293007	1754	52.722371967654986	
0.295238	71.65714285714286	8.67142857142857	34.22857142857143	23.957142857142856	2.0	53	294	107	13	100	69	52	7	15	11	0	0	1209.753422498703	3780	61048.10477542877	1782	52.85714285714286	
0.2380951	69.3	8.985714285714286	40.3	28.12857142857143	2.0	54	294	95	13	115	80	53	7	15	11	0	0	1249.9646260738373	3850	62298.06940150261	1820	52.72727272727273	
0.36231847826086955	67.52857142857142	8.710144927536232	35.869565217391305	25.07246376811594	2.0	55	296	99	13.0	115.0	80.0	44	7.0	15.0	11.0	0	0	1168.2881753444672	3920	63466.35757684708	1846	52.90816326530612	
0.36318353731343284	67.68571428571428	8.626865671641792	34.40298507462686	24.104477611940297	2.0	56	300	99	13.0	119.0	82.0	42	7.0	15.0	11.0	0	0	1165.0074560642242	3990	64631.3650329113	1874	53.03258145363409	
0.30952328571428567	64.98571428571428	8.771428571428572	36.08571428571429	25.271428571428572	2.0	57	301	113	13	135	93	29	7	15	11	0	0	1219.2064502239227	4060	65850.57148313522	1910	52.95566502463054	
0.35353480303030305	63.371428571428574	8.590909090909092	32.75757575757576	22.924242424242426	2.0	58	306	91	13.0	88.0	61.0	29	7.0	15.0	11.0	0	0	1129.1301846504211	4130	66979.70166778564	1934	53.17191283292978	
0.24637646376811595	64.07142857142857	8.53623188405797	32.72463768115942	22.92753623188406	2.0	59	308	85	13.0	80.0	56.0	29	7.0	17.0	12.0	0	0	1204.0749852657318	4200	68183.77665305138	1962	53.285714285714285	
0.218749734375	65.51428571428572	8.609375	35.625	24.875	2.0	60	315	108	14.0	145.0	101.0	35	7.0	15.0	11.0	0	0	1068.2652802467346	4270	69252.04193329811	1991	53.37236533957845	
0.3068777777777778	64.22857142857143	8.920634920634921	39.76190476190476	27.666666666666668	2.0	61	323	108	14.0	145.0	101.0	35	7.0	21.0	15.0	0	0	1061.238872051239	4340	70313.28080534935	2022	53.41013824884793	
0.35353480303030305	64.87142857142857	9.227272727272727	42.31818181818182	29.454545454545453	2.0	62	328	110	14.0	108.0	74.0	33	7.0	17.0	12.0	0	0	1156.2210898399353	4410	71469.50189518929	2054	53.42403628117914	
0.4999990735294117	62.68571428571428	9.073529411764707	37.98529411764706	26.485294117647058	2.0	63	331	110	13.0	106.0	73.0	18	7.0	15.0	11.0	0	0	1177.2711131572723	4480	72646.77300834656	2073	53.72767857142857	
0.42327984126984125	66.12857142857143	9.063492063492063	36.87301587301587	25.761904761904763	2.0	64	339	95	15.0	118.0	82.0	33	7.0	15.0	11.0	0	0	1079.7649891376495	4550	73726.5379974842	2097	53.91208791208791	
0.39613497101449274	62.24285714285714	8.81159420289855	35.79710144927536	25.043478260869566	2.0	65	341	90	14.0	97.0	68.0	15	7.0	15.0	11.0	0	0	1168.0754919052124	4620	74894.61348938942	2126	53.98268398268398	
0.4328355223880597	65.58571428571429	9.014925373134329	36.776119402985074	25.746268656716417	2.0	66	345	110	14.0	97.0	68.0	21	7.0	15.0	11.0	0	0	1122.4310204982758	4690	76017.0445098877	2153	54.09381663113007	
0.31343283582089554	67.15714285714286	9.164179104477611	41.74626865671642	29.16417910447761	2.0	67	349	110	13.0	97.0	68.0	37	7.0	21.0	15.0	0	0	1104.9570248126984	4760	77122.0015347004	2186	54.075630252100844	
0.26570062318840576	64.24285714285715	9.043478260869565	37.42028985507246	26.18840579710145	2.0	68	351	110	15.0	80.0	56.0	41	7.0	15.0	11.0	0	0	1198.5839338302612	4830	78320.58546853065	2214	54.161490683229815	
0.283582447761194	66.62857142857143	8.850746268656716	34.6865671641791	24.223880597014926	2.0	69	355	119	15.0	80.0	56.0	32	7.0	17.0	12.0	0	0	1166.1591348648071	4900	79486.74460339546	2247	54.142857142857146	
0.4215691323529412	65.72857142857143	8.867647058823529	37.588235294117645	26.25	2.0	70	358	98	13.0	116.0	80.0	28	7.0	15.0	11.0	0	0	1199.5899648666382	4970	80686.3345682621	2281	54.1046277665996	
0.5265704347826087	64.65714285714286	8.768115942028986	34.47826086956522	24.10144927536232	2.0	71	360	98	14.0	115.0	80.0	38	7.0	17.0	12.0	0	0	1191.866760969162	5040	81878.20132923126	2311	54.1468253968254	
0.4714287142857143	66.1	9.057142857142857	36.542857142857144	25.542857142857144	2.0	72	361	104	15	115	80	43	7	15	11	0	0	1184.9531841278076	5110	83063.15451335907	2343	54.148727984344426	
0.5761904142857143	70.68571428571428	9.271428571428572	35.97142857142857	25.15714285714286	2.0	73	362	126	15	80	56	43	7	15	11	0	0	1210.9136157035828	5180	84274.06812906265	2370	54.24710424710425	
0.38235280882352946	72.74285714285715	9.044117647058824	34.61764705882353	24.191176470588236	2.0	74	365	112	15.0	80.0	56.0	45	7.0	15.0	11.0	0	0	1178.4590859413147	5250	85452.52721500397	2410	54.095238095238095	
0.47619027142857145	75.32857142857142	9.0	34.44285714285714	24.071428571428573	2.0	75	365	110	15	80	56	43	7	15	11	0	0	1207.4554433822632	5320	86659.98265838623	2438	54.17293233082707	
0.7523810142857142	80.45714285714286	9.071428571428571	35.15714285714286	24.571428571428573	2.0	76	365	102	13	80	56	48	7	15	11	0	0	1211.6762697696686	5390	87871.6589281559	2467	54.23005565862709	
0.5523809571428572	80.44285714285714	9.257142857142858	37.642857142857146	26.32857142857143	2.0	77	365	114	15	100	70	48	7	15	11	0	0	1246.0156393051147	5460	89117.67456746101	2497	54.26739926739927	
0.6476190142857143	86.82857142857142	9.428571428571429	39.84285714285714	27.87142857142857	2.0	78	365	127	14	111	78	48	7	15	11	0	0	1260.6165173053741	5530	90378.29108476639	2530	54.249547920434	
0.5904762	92.55714285714286	9.571428571428571	40.9	28.62857142857143	2.0	79	366	140	13	86	60	53	7	15	11	0	0	1250.4490723609924	5600	91628.74015712738	2563	54.232142857142854	
0.5952380857142857	94.1	9.357142857142858	39.07142857142857	27.32857142857143	2.0	80	366	119	13	91	63	55	7	15	11	0	0	1277.9646635055542	5670	92906.70482063293	2593	54.26807760141094	
0.5428571285714286	91.97142857142858	9.17142857142857	36.58571428571429	25.571428571428573	2.0	81	366	117	13	80	56	55	7	15	11	0	0	1248.1159603595734	5740	94154.82078099251	2618	54.390243902439025	
0.4142857142857143	93.48571428571428	9.142857142857142	37.142857142857146	25.942857142857143	2.0	82	367	128	13	80	56	56	7	15	11	0	0	1225.6257076263428	5810	95380.44648861885	2654	54.32013769363167	
0.27053140579710144	94.5	9.231884057971014	39.31884057971015	27.420289855072465	2.0	83	369	122	13.0	98.0	68.0	43	7.0	15.0	11.0	0	0	1220.2395658493042	5880	96600.68605446815	2686	54.31972789115646	
0.2401960294117647	95.54285714285714	9.5	41.14705882352941	28.75	2.0	84	372	117	15.0	92.0	64.0	49	7.0	15.0	11.0	0	0	1280.9347240924835	5950	97881.62077856064	2719	54.30252100840336	
0.4047619	97.15714285714286	9.728571428571428	40.957142857142856	28.614285714285714	2.0	85	372	129	15	83	58	49	7	15	11	0	0	1302.6345133781433	6020	99184.25529193878	2754	54.25249169435216	
0.29523814285714284	93.94285714285714	9.17142857142857	37.2	26.042857142857144	2.0	86	372	124	14	80	56	49	7	15	11	0	0	1321.4482111930847	6090	100505.70350313187	2790	54.187192118226605	
0.3872549558823529	95.61428571428571	9.147058823529411	39.5	27.647058823529413	2.0	87	375	126	13.0	80.0	56.0	49	7.0	15.0	11.0	0	0	1245.5636415481567	6160	101751.26714468002	2828	54.090909090909086	
0.5190476142857142	96.21428571428571	9.32857142857143	42.857142857142854	29.928571428571427	2.0	88	376	124	13	93	64	39	7	15	11	0	0	1249.1659185886383	6230	103000.43306326866	2865	54.012841091492774	
0.5120772463768116	96.55714285714286	9.043478260869565	38.79710144927536	27.130434782608695	2.0	89	378	139	12.0	127.0	88.0	38	7.0	15.0	11.0	0	0	1231.3124742507935	6300	104231.74553751945	2897	54.01587301587302	
0.4523807142857143	97.9	9.371428571428572	40.81428571428572	28.52857142857143	2.0	90	378	162	13	138	96	38	7	15	11	0	0	1234.992742061615	6370	105466.73827958107	2929	54.01883830455259	
0.42995153623188404	100.25714285714285	9.81159420289855	43.971014492753625	30.73913043478261	2.33333	91	380	162	15.0	170.0	119.0	38	7.0	15.0	11.0	0	0	1237.4567494392395	6440	106704.19502902031	2966	53.94409937888199	
0.3999998	99.48571428571428	9.1	37.542857142857144	26.2	2.33333	92	380	165	13	161	111	46	7	15	11	0	0	1235.0647687911987	6510	107939.25979781151	2995	53.993855606758835	
0.2205880294117647	96.42857142857143	9.397058823529411	42.75	29.808823529411764	2.33333	93	383	173	13.0	163.0	113.0	66	7.0	15.0	11.0	0	0	1235.5694017410278	6580	109174.82919955254	3033	53.90577507598785	
0.29047584285714284	100.68571428571428	9.414285714285715	41.1	28.65714285714286	2.33333	94	384	175	13	163	113	46	7	15	11	0	0	1275.508947134018	6650	110450.33814668655	3065	53.909774436090224	
0.30917833333333333	95.81428571428572	9.26086956521739	37.79710144927536	26.434782608695652	2.33333	95	386	173	13.0	101.0	70.0	61	7.0	15.0	11.0	0	0	1232.54793715477	6720	111682.88608384132	3099	53.88392857142857	
0.30952337142857145	95.42857142857143	9.414285714285715	36.94285714285714	25.814285714285713	2.33333	96	386	173	15	86	59	66	7	15	11	0	0	1276.479304075241	6790	112959.36538791656	3132	53.87334315169367	
0.4333327571428572	99.67142857142858	9.585714285714285	39.01428571428571	27.257142857142856	2.33333	97	387	173	15	86	59	69	7	15	11	0	0	1224.8455872535706	6860	114184.21097517014	3161	53.92128279883382	
0.5190469428571429	99.05714285714286	9.32857142857143	36.857142857142854	25.84285714285714	2.33333	98	387	173	12	78	55	69	7	15	11	0	0	1220.1068863868713	6930	115404.317861557	3183	54.069264069264065	
0.6476180857142857	98.51428571428572	9.285714285714286	37.25714285714286	26.114285714285714	2.33333	99	387	173	11	80	56	69	7	15	11	0	0	1234.577754497528	7000	116638.89561605453	3207	54.18571428571429	
0.7142848	98.1	9.485714285714286	38.457142857142856	26.914285714285715	2.33333	100	387	118	13	68	48	69	7	15	11	0	0	1227.2730259895325	7070	117866.16864204407	3238	54.2008486562942	
0.5904753714285714	99.95714285714286	9.471428571428572	39.9	27.9	2.33333	101	387	136	13	78	55	60	7	15	11	0	0	1260.5792026519775	7140	119126.74784469604	3263	54.299719887955185	
0.4761898428571429	102.52857142857142	9.885714285714286	45.042857142857144	31.442857142857143	2.33333	102	387	139	13	112	78	63	7	15	11	0	0	1265.9247813224792	7210	120392.67262601852	3299	54.24410540915395	
0.6238086571428572	100.81428571428572	9.8	42.72857142857143	29.9	2.33333	103	387	153	14	106	73	55	7	15	11	0	0	1262.4160401821136	7280	121655.08866620064	3331	54.244505494505496	
0.5380945142857143	102.35714285714286	9.357142857142858	37.385714285714286	26.214285714285715	2.33333	104	387	151	12	78	55	77	7	15	11	0	0	1249.6570343971252	7350	122904.74570059776	3363	54.244897959183675	
0.49999938571428576	100.27142857142857	8.957142857142857	34.98571428571429	24.585714285714285	2.33333	105	387	151	13	78	55	67	7	15	11	0	0	1271.9197137355804	7420	124176.66541433334	3392	54.285714285714285	
0.4571422428571429	99.78571428571429	9.014285714285714	35.27142857142857	24.685714285714287	2.33333	106	387	151	13	72	50	67	7	15	11	0	0	1236.9239435195923	7490	125413.58935785294	3429	54.21895861148197	
0.30476147142857146	100.2	8.842857142857143	34.542857142857144	24.271428571428572	2.33333	107	387	131	13	88	61	64	7	17	12	0	0	1253.278305530548	7560	126666.86766338348	3463	54.1931216931217	
0.3238091	101.52857142857142	9.142857142857142	36.24285714285714	25.485714285714284	2.33333	108	387	136	13	111	77	64	7	15	11	0	0	1254.7852056026459	7630	127921.65286898613	3493	54.22018348623853	
0.3904757714285714	94.94285714285714	8.8	31.742857142857144	22.3	2.33333	109	387	123	11	49	34	64	7	15	11	0	0	1231.9184560775757	7700	129153.5713250637	3523	54.24675324675325	
0.5428565714285715	96.54285714285714	9.242857142857142	37.47142857142857	26.185714285714287	2.33333	110	387	130	13	78	55	45	7	15	11	0	0	1232.2219738960266	7770	130385.79329895973	3558	54.20849420849421	
0.7142847571428571	98.78571428571429	9.557142857142857	39.457142857142856	27.614285714285714	2.33333	111	387	136	13	91	64	62	7	15	11	0	0	1213.2444269657135	7840	131599.03772592545	3581	54.32397959183673	
0.5238087571428571	96.65714285714286	9.514285714285714	40.0	28.014285714285716	2.33333	112	387	130	14	89	62	62	7	15	11	0	0	1293.2956087589264	7910	132892.33333468437	3615	54.29835651074589	
0.4809517142857143	96.25714285714285	9.7	42.614285714285714	29.9	2.33333	113	387	132	14	89	62	44	7	15	11	0	0	1297.010418176651	7980	134189.34375286102	3647	54.29824561403509	
0.5999991857142858	94.48571428571428	9.271428571428572	39.457142857142856	27.62857142857143	3.0	114	387	136	14	110	77	44	7	15	11	0	0	1268.242089509964	8050	135457.585842371	3677	54.32298136645963	
0.5714279571428572	97.27142857142857	9.014285714285714	36.77142857142857	25.65714285714286	3.0	115	388	137	13	84	58	44	7	15	11	0	0	1189.0724251270294	8120	136646.65826749802	3710	54.310344827586206	
0.623809	95.84285714285714	9.128571428571428	37.871428571428574	26.442857142857143	3.0	116	388	128	13	80	56	57	7	15	11	0	0	1199.042843580246	8190	137845.70111107826	3743	54.2979242979243	
0.7190474714285714	97.48571428571428	9.242857142857142	39.52857142857143	27.6	3.0	117	388	137	13	82	57	59	7	15	11	0	0	1210.0890188217163	8260	139055.79012989998	3776	54.285714285714285	
0.7619043285714285	97.74285714285715	9.257142857142858	38.042857142857144	26.614285714285714	3.0	118	388	132	13	81	56	68	7	15	11	0	0	1207.3945155143738	8330	140263.18464541435	3810	54.26170468187274	
0.6619045714285714	99.81428571428572	8.8	33.57142857142857	23.585714285714285	3.0	119	388	131	13	78	55	75	7	15	11	0	0	1236.051102399826	8400	141499.23574781418	3841	54.273809523809526	
0.9190475714285715	98.04285714285714	9.014285714285714	33.51428571428571	23.557142857142857	3.0	120	388	138	13	78	55	65	7	15	11	0	0	1244.1796967983246	8470	142743.4154446125	3859	54.439197166469896	
0.9047618999999999	98.05714285714286	9.642857142857142	39.81428571428572	27.9	3.0	121	388	138	15	81	56	58	7	15	11	0	0	1257.516414642334	8540	144000.93185925484	3887	54.4847775175644	
0.9333333714285714	95.55714285714286	9.3	36.042857142857144	25.3	3.0	122	388	138	13	77	55	56	7	15	11	0	0	1254.1694946289062	8610	145255.10135388374	3916	54.51800232288037	
1.1999998428571428	97.95714285714286	9.385714285714286	36.042857142857144	25.285714285714285	3.0	123	389	126	13	65	45	58	7	15	11	0	0	1237.7781207561493	8680	146492.8794746399	3939	54.61981566820276	
0.6571427142857142	100.72857142857143	9.3	35.81428571428572	25.071428571428573	3.0	124	389	137	13	66	45	79	7	15	11	0	0	1317.1545436382294	8750	147810.03401827812	3966	54.674285714285716	
0.6380951428571429	99.74285714285715	9.442857142857143	36.871428571428574	25.84285714285714	3.0	125	389	137	13	83	58	76	7	15	11	0	0	1275.0724499225616	8820	149085.10646820068	4002	54.625850340136054	
0.6857142428571429	97.31428571428572	9.157142857142857	33.91428571428571	23.742857142857144	3.0	126	389	137	12	49	34	75	7	15	11	0	0	1240.6320481300354	8890	150325.73851633072	4030	54.6681664791901	
0.8095237142857142	98.54285714285714	9.071428571428571	34.628571428571426	24.257142857142856	3.0	127	389	137	13	78	55	77	7	15	11	0	0	1242.7071828842163	8960	151568.44569921494	4063	54.654017857142854	
0.8523808142857143	96.68571428571428	8.971428571428572	35.18571428571428	24.785714285714285	3.0	128	389	124	12	79	56	72	7	15	11	0	0	1262.3508040904999	9030	152830.79650330544	4090	54.70653377630122	
0.8714284857142858	97.28571428571429	9.285714285714286	36.02857142857143	25.285714285714285	3.0	129	389	124	13	90	63	75	7	15	11	0	0	1263.599666595459	9100	154094.3961699009	4120	54.72527472527472	
0.6190474714285714	99.35714285714286	9.157142857142857	35.08571428571429	24.62857142857143	3.0	130	390	136	13	78	55	71	7	15	11	0	0	1282.0775108337402	9170	155376.47368073463	4148	54.76553980370774	
0.6857141857142858	100.1	9.371428571428572	38.67142857142857	27.1	3.0	131	390	141	13	112	78	78	7	15	11	0	0	1295.7522337436676	9240	156672.2259144783	4177	54.794372294372295	
0.8857141428571429	99.0	9.4	36.542857142857144	25.6	3.0	132	390	124	13	71	49	78	7	15	11	0	0	1251.0910892486572	9310	157923.31700372696	4199	54.897959183673464	
0.6809522428571428	99.68571428571428	9.214285714285714	36.0	25.242857142857144	3.0	133	390	121	14	74	51	75	7	15	11	0	0	1266.8294351100922	9380	159190.14643883705	4224	54.9680170575693	
0.8190475714285714	99.31428571428572	9.528571428571428	38.27142857142857	26.757142857142856	3.0	134	390	121	15	85	58	70	7	15	11	0	0	1293.5693175792694	9450	160483.71575641632	4245	55.079365079365076	
1.1095238571428572	97.98571428571428	9.442857142857143	37.65714285714286	26.32857142857143	3.0	135	390	122	12	78	55	82	7	15	11	0	0	1262.2217333316803	9520	161745.937489748	4267	55.17857142857142	
1.0476190428571428	98.31428571428572	9.685714285714285	38.871428571428574	27.142857142857142	3.0	136	390	124	13	80	56	72	7	15	11	0	0	1216.7482414245605	9590	162962.68573117256	4294	55.22419186652763	
0.5904761	99.38571428571429	9.542857142857143	40.457142857142856	28.285714285714285	3.0	137	390	140	13	112	78	72	7	15	11	0	0	1278.7702450752258	9660	164241.4559762478	4333	55.14492753623188	
0.6476188571428572	100.37142857142857	9.414285714285715	39.81428571428572	27.785714285714285	3.0	138	391	159	13	116	81	63	7	15	11	0	0	1234.7187373638153	9730	165476.1747136116	4368	55.10791366906475	
0.47619044285714285	103.01428571428572	9.285714285714286	40.8	28.514285714285716	3.0	139	392	159	13	116	81	72	7	15	11	0	0	1239.0319962501526	9800	166715.20670986176	4394	55.16326530612245	
0.8142856142857143	100.94285714285714	9.842857142857143	44.0	30.785714285714285	3.0	140	392	183	16	127	89	64	7	15	11	0	0	1281.8082768917084	9870	167997.01498675346	4421	55.20770010131712	
0.6857141428571428	100.01428571428572	9.428571428571429	39.75714285714286	27.87142857142857	3.0	141	392	140	13	118	84	72	7	15	11	0	0	1243.8864588737488	9940	169240.9014456272	4450	55.23138832997988	
0.6142856142857144	100.4	9.485714285714286	41.17142857142857	28.84285714285714	3.0	142	393	140	17	124	87	66	7	15	11	0	0	1239.8915593624115	10010	170480.79300498962	4478	55.264735264735265	
0.7342994202898551	100.47142857142858	9.710144927536232	41.927536231884055	29.333333333333332	3.0	143	395	140	17.0	119.0	84.0	72	7.0	15.0	11.0	0	0	1216.4135372638702	10080	171697.2065422535	4505	55.307539682539684	
0.8857142285714286	99.64285714285714	9.814285714285715	44.48571428571429	31.085714285714285	3.0	144	395	140	13	118	84	72	7	15	11	0	0	1259.2112083435059	10150	172956.417750597	4533	55.33990147783251	
0.5714284571428572	98.75714285714285	9.742857142857142	39.128571428571426	27.385714285714286	3.0	145	395	140	13	112	78	73	7	15	11	0	0	1319.8980963230133	10220	174276.31584692	4564	55.342465753424655	
0.7809524142857143	99.42857142857143	9.485714285714286	38.08571428571429	26.65714285714286	3.0	146	395	126	13	68	47	85	7	15	11	0	0	1283.0635061264038	10290	175559.37935304642	4587	55.42274052478134	
0.6714286142857143	99.18571428571428	9.757142857142858	42.1	29.428571428571427	3.0	147	395	126	13	81	56	64	7	15	11	0	0	1358.9022619724274	10360	176918.28161501884	4616	55.44401544401544	
0.8761905714285714	98.32857142857142	9.514285714285714	41.25714285714286	28.84285714285714	3.0	148	395	121	13	81	56	79	7	15	11	0	0	1308.1570789813995	10430	178226.43869400024	4643	55.48418024928092	
0.5857142428571429	95.41428571428571	9.642857142857142	40.871428571428574	28.571428571428573	3.0	149	395	123	14	88	61	62	7	15	11	0	0	1313.615656375885	10500	179540.05435037613	4679	55.43809523809524	
0.5049019705882353	98.2	9.147058823529411	37.64705882352941	26.36764705882353	3.0	150	398	121	15.0	88.0	61.0	72	7.0	15.0	11.0	0	0	1273.4291071891785	10570	180813.4834575653	4709	55.44938505203406	
0.5476190428571428	97.12857142857143	9.142857142857142	37.542857142857144	26.257142857142856	3.0	151	398	132	13	75	52	44	7	15	11	0	0	1308.477035999298	10640	182121.9604935646	4743	55.42293233082707	
0.6904761285714286	98.68571428571428	9.028571428571428	34.357142857142854	24.085714285714285	3.0	152	398	121	13	65	45	72	7	15	11	0	0	1260.557162284851	10710	183382.51765584946	4762	55.53688141923436	
0.7380952857142856	99.4	9.085714285714285	35.08571428571429	24.614285714285714	3.0	153	398	129	13	77	54	81	7	15	11	0	0	1245.6836519241333	10780	184628.2013077736	4784	55.62152133580705	
0.5666666571428571	100.34285714285714	8.971428571428572	34.3	23.97142857142857	3.0	154	398	129	11	59	40	76	7	15	11	0	0	1235.2572417259216	10850	185863.4585494995	4809	55.67741935483871	
0.5952379857142857	98.45714285714286	8.82857142857143	32.44285714285714	22.728571428571428	3.0	155	398	132	11	51	35	76	7	15	11	0	0	1257.7614278793335	10920	187121.21997737885	4832	55.75091575091575	
0.5380951285714285	98.35714285714286	8.642857142857142	34.4	24.057142857142857	3.0	156	398	129	12	105	73	74	7	15	11	0	0	1207.857387304306	10990	188329.07736468315	4854	55.832575068243855	
0.6000000428571428	100.67142857142858	9.157142857142857	35.84285714285714	25.071428571428573	3.0	157	398	139	12	86	60	73	7	15	11	0	0	1227.1082470417023	11060	189556.18561172485	4889	55.79566003616637	
0.6142856428571428	101.85714285714286	9.5	39.75714285714286	27.785714285714285	3.0	158	398	140	12	106	74	75	7	15	11	0	0	1260.4989113807678	11130	190816.68452310562	4918	55.81311769991015	
0.5523809714285715	101.92857142857143	9.228571428571428	35.871428571428574	25.071428571428573	3.0	159	398	139	13	66	45	75	7	15	11	0	0	1225.6607751846313	11200	192042.34529829025	4938	55.910714285714285	
0.5333332571428571	99.78571428571429	8.82857142857143	35.042857142857144	24.485714285714284	3.0	160	398	141	12	113	78	85	7	15	11	0	0	1196.668928861618	11270	193239.01422715187	4964	55.953859804791485	
0.6859902753623188	100.58571428571429	9.159420289855072	40.130434782608695	28.043478260869566	3.0	161	400	163	13.0	120.0	83.0	81	7.0	15.0	11.0	0	0	1218.0312314033508	11340	194457.04545855522	4993	55.970017636684304	
0.7809524142857143	100.98571428571428	9.028571428571428	34.92857142857143	24.5	3.0	162	400	199	13	108	76	40	7	15	11	0	0	1251.4599931240082	11410	195708.50545167923	5022	55.98597721297108	
0.48095232857142856	100.68571428571428	8.857142857142858	32.32857142857143	22.642857142857142	3.0	163	400	146	13	65	45	76	7	15	11	0	0	1272.3604311943054	11480	196980.86588287354	5050	56.01045296167248	
0.39523815714285715	103.0	8.657142857142857	31.542857142857144	22.142857142857142	3.0	164	400	158	12	108	76	68	7	15	11	0	0	1293.0989091396332	11550	198273.96479201317	5077	56.04329004329004	
0.48571418571428576	102.31428571428572	8.82857142857143	34.05714285714286	23.87142857142857	3.0	165	400	158	13	78	55	68	7	15	11	0	0	1306.236330986023	11620	199580.2011229992	5106	56.05851979345955	
0.3952381	101.97142857142858	9.1	36.18571428571428	25.3	3.0	166	400	146	13	78	55	66	7	15	11	0	0	1305.9593737125397	11690	200886.16049671173	5138	56.047904191616766	
0.40952375714285716	100.31428571428572	9.1	35.24285714285714	24.62857142857143	3.0	167	400	125	13	78	55	74	7	15	11	0	0	1292.4599647521973	11760	202178.62046146393	5168	56.054421768707485	
0.5190476142857142	98.1	9.1	35.41428571428571	24.728571428571428	3.0	168	400	131	17	112	78	74	7	15	11	0	0	1254.8637008666992	11830	203433.48416233063	5200	56.043956043956044	
0.6857142857142857	96.38571428571429	9.257142857142858	38.885714285714286	27.15714285714286	3.0	169	401	118	13	111	78	67	7	15	11	0	0	1270.2555425167084	11900	204703.73970484734	5223	56.109243697478995	
0.8714285714285714	97.25714285714285	9.457142857142857	38.371428571428574	26.814285714285713	3.0	170	402	137	13	70	49	64	7	15	11	0	0	1188.1890931129456	11970	205891.92879796028	5247	56.16541353383459	
1.0619048	95.68571428571428	9.314285714285715	36.47142857142857	25.514285714285716	3.0	171	402	141	13	65	45	66	7	15	11	0	0	1176.656167268753	12040	207068.58496522903	5269	56.237541528239205	
0.8000000428571429	97.77142857142857	9.357142857142858	37.92857142857143	26.542857142857144	3.0	172	402	110	13	78	55	80	7	15	11	0	0	1235.8532691001892	12110	208304.43823432922	5295	56.27580511973576	
0.7714285714285715	99.12857142857143	9.32857142857143	37.5	26.242857142857144	3.0	173	402	120	13	80	55	78	7	15	11	0	0	1054.938771724701	12180	209359.37700605392	5322	56.30541871921182	
0.6190477142857143	96.52857142857142	9.442857142857143	38.1	26.6	3.0	174	402	127	13	80	55	70	7	15	11	0	0	831.7120337486267	12250	210191.08903980255	5352	56.310204081632655	
0.6238094714285715	96.61428571428571	9.528571428571428	38.614285714285714	26.957142857142856	3.0	175	402	128	13	96	67	65	7	15	11	0	0	834.1491677761078	12320	211025.23820757866	5386	56.282467532467535	
0.6809522857142857	96.5	9.385714285714286	38.714285714285715	27.02857142857143	3.0	176	402	123	13	96	67	70	7	15	11	0	0	823.9235849380493	12390	211849.1617925167	5416	56.287328490718316	
0.7095237142857143	96.75714285714285	9.385714285714286	39.042857142857144	27.34285714285714	3.0	177	402	111	14	112	78	68	7	17	12	0	0	822.4750254154205	12460	212671.63681793213	5444	56.30818619582664	
0.452381	97.52857142857142	9.3	35.9	25.142857142857142	3.0	178	403	117	14	79	55	68	7	15	11	0	0	826.9327638149261	12530	213498.56958174706	5468	56.360734237829206	
0.5857142857142857	93.51428571428572	8.814285714285715	32.48571428571429	22.771428571428572	3.0	179	403	117	14	72	50	65	7	15	11	0	0	809.5837452411652	12600	214308.15332698822	5498	56.36507936507936	
0.5714286142857142	94.02857142857142	9.128571428571428	35.05714285714286	24.514285714285716	3.0	180	403	117	15	102	70	65	7	15	11	0	0	828.1624901294708	12670	215136.3158171177	5525	56.393054459352804	
0.6000000428571428	92.88571428571429	8.985714285714286	34.457142857142856	24.142857142857142	3.0	181	403	126	15	112	78	57	7	15	11	0	0	818.2682297229767	12740	215954.58404684067	5560	56.35792778649921	
0.6428571285714286	94.77142857142857	8.957142857142857	34.41428571428571	24.114285714285714	3.0	182	403	129	11	78	55	68	7	15	11	0	0	841.5539503097534	12810	216796.13799715042	5585	56.40124902419984	
0.9476192285714284	100.77142857142857	9.2	36.68571428571428	25.7	3.0	183	403	129	11	78	55	61	7	15	11	0	0	836.5796568393707	12880	217632.7176539898	5611	56.43633540372671	
0.7238095571428571	99.64285714285714	9.242857142857142	36.97142857142857	25.885714285714286	3.0	184	403	133	13	78	55	75	7	15	11	0	0	832.9055187702179	12950	218465.62317276	5637	56.47104247104247	
0.5476190857142857	98.22857142857143	9.428571428571429	38.357142857142854	26.757142857142856	3.0	185	403	135	13	78	55	75	7	15	11	0	0	853.7446894645691	13020	219319.36786222458	5669	56.45929339477726	
0.47142851428571425	99.58571428571429	9.385714285714286	36.77142857142857	25.67142857142857	3.0	186	403	148	13	65	45	75	7	15	11	0	0	853.4285092353821	13090	220172.79637145996	5698	56.470588235294116	
0.7904761714285714	105.05714285714286	9.67142857142857	39.91428571428571	27.82857142857143	3.0	187	403	148	14	88	61	67	7	15	11	0	0	838.1135041713715	13160	221010.90987563133	5729	56.46656534954408	
0.7476190714285714	110.97142857142858	9.642857142857142	39.8	27.8	3.0	188	403	151	13	88	61	85	7	15	11	0	0	864.7957518100739	13230	221875.7056274414	5757	56.48526077097505	
0.7714284857142857	110.44285714285714	9.185714285714285	34.68571428571428	24.3	3.0	189	403	157	13	65	45	83	7	15	11	0	0	849.2931694984436	13300	222724.99879693985	5783	56.5187969924812	
0.6428570571428571	108.65714285714286	9.114285714285714	35.42857142857143	24.82857142857143	3.0	190	403	148	11	80	56	59	7	15	11	0	0	850.5773820877075	13370	223575.57617902756	5805	56.58189977561705	
0.5047619571428571	110.84285714285714	9.285714285714286	36.51428571428571	25.542857142857144	3.0	191	403	155	11	56	38	68	7	15	11	0	0	831.4561638832092	13440	224407.03234291077	5838	56.5625	
0.4571428285714285	106.82857142857142	9.342857142857143	38.128571428571426	26.728571428571428	3.0	192	403	148	13	78	55	62	7	15	11	0	0	836.0062448978424	13510	225243.0385878086	5872	56.5358993338268	
0.7047618	108.4	9.414285714285715	37.285714285714285	26.142857142857142	3.0	193	403	148	13	78	55	77	7	15	11	0	0	814.2217061519623	13580	226057.26029396057	5895	56.59057437407953	
0.8476191	109.07142857142857	9.685714285714285	39.457142857142856	27.62857142857143	3.0	194	403	169	13	93	65	59	7	15	11	0	0	845.683717250824	13650	226902.9440112114	5923	56.608058608058606	
0.9190475714285715	105.37142857142857	9.628571428571428	39.31428571428572	27.457142857142856	3.0	195	403	162	13	86	60	77	7	15	11	0	0	847.3148086071014	13720	227750.2588198185	5953	56.61078717201166	
0.7619047714285715	100.87142857142857	9.2	35.22857142857143	24.714285714285715	3.0	196	403	162	12	71	49	72	7	15	11	0	0	885.6365101337433	13790	228635.89532995224	5973	56.68600435097897	
0.7047619571428572	100.18571428571428	9.314285714285715	35.24285714285714	24.714285714285715	3.0	197	403	134	14	74	51	79	7	15	11	0	0	869.7707133293152	13860	229505.66604328156	5996	56.73881673881674	
0.6523811	99.7	9.357142857142858	37.214285714285715	26.042857142857144	3.0	198	404	133	13	78	55	62	7	15	11	0	0	837.8376648426056	13930	230343.50370812416	6022	56.769562096195266	
0.5857144285714286	98.41428571428571	9.057142857142857	34.285714285714285	24.042857142857144	3.0	199	405	127	13	78	55	68	7	15	11	0	0	815.217395067215	14000	231158.72110319138	6047	56.80714285714286	
0.6047620428571429	98.25714285714285	9.442857142857143	38.27142857142857	26.814285714285713	3.0	200	405	140	14	78	55	77	7	15	11	0	0	837.5108063220978	14070	231996.23190951347	6076	56.81592039800995	
