0.0
0.0
0.0
0.0
0.0
0.0
0.0
0.0
0.0
0.0
0.0
0.0
0.0
0.0
0.0
0.0
0.0
0.0
0.0
0.0
0.0
0.0
0.0
0.0
0.0
0.0
0.0
0.0
0.0
0.0
0.0
0.0
0.0
0.0
0.0
0.0
0.0
0.0
0.0
0.0
0.0
0.0
0.0
0.0
0.0
0.0
0.0
0.0
0.0
0.0
1.0
0.958333
0.620455
0.620455
0.620455
0.620455
0.620455
0.620455
0.620455
0.620455
0.620455
0.620455
0.763533
0.763533
0.763533
0.763533
0.763533
0.763533
0.763533
0.763533
0.763533
0.763533
0.763533
0.763533
0.650794
0.650794
0.650794
0.650794
0.650794
0.650794
0.650794
0.650794
0.650794
0.650794
0.650794
0.650794
0.650794
0.650794
0.650794
0.650794
0.650794
0.650794
0.650794
0.650794
0.650794
0.650794
0.650794
0.650794
0.650794
0.650794
0.650794
0.650794
0.650794
0.650794
0.650794
0.650794
0.650794
0.650794
0.650794
0.650794
0.650794
0.650794
0.650794
0.650794
0.650794
0.650794
0.650794
0.650794
0.650794
0.650794
0.650794
0.650794
