*:*:IS_WANT_OBJECT,false,32;IS_MOTIVATION_1_DEC,true,35;IS_WANT_OBJECT,true,65;B_RANDOM_WALK,98#
*:*:IS_WANT_OBJECT,false,32;IS_WANT_OBJECT,true,35;IS_WANT_OBJECT,true,65;B_RANDOM_WALK,98#
*:*:IS_WANT_OBJECT,false,54;IS_WANT_OBJECT,true,96;B_RANDOM_WALK,97#
*:*:IS_WANT_OBJECT,false,20;B_PHOTOTAXIS,35;B_RANDOM_WALK,42;IS_WANT_OBJECT,true,96;B_RANDOM_WALK,97;IS_MOTIVATION_1_DEC,false,75;B_ANTI_PHOTOTAXIS,14#
*:*:IS_WANT_OBJECT,false,20;B_PHOTOTAXIS,35;B_RANDOM_WALK,42;IS_WANT_OBJECT,true,96;B_RANDOM_WALK,97;IS_MOTIVATION_1_DEC,false,75;B_ANTI_PHOTOTAXIS,14#
*:*:IS_WANT_OBJECT,false,20;B_PHOTOTAXIS,35;B_RANDOM_WALK,25;IS_WANT_OBJECT,true,96;B_RANDOM_WALK,97;IS_MOTIVATION_1_DEC,false,75;B_ANTI_PHOTOTAXIS,14#
*:*:IS_WANT_OBJECT,false,20;B_PHOTOTAXIS,3;B_RANDOM_WALK,42;IS_WANT_OBJECT,true,96;B_RANDOM_WALK,97;IS_MOTIVATION_1_DEC,false,75;B_ANTI_PHOTOTAXIS,14#
*:*:IS_WANT_OBJECT,false,26;B_PHOTOTAXIS,32;B_RANDOM_WALK,25;IS_WANT_OBJECT,true,96;B_RANDOM_WALK,97;IS_MOTIVATION_1_DEC,false,75;B_ANTI_PHOTOTAXIS,14#
*:*:IS_WANT_OBJECT,false,26;B_PHOTOTAXIS,32;B_RANDOM_WALK,25;IS_WANT_OBJECT,true,96;B_RANDOM_WALK,97;IS_MOTIVATION_1_DEC,false,75;B_ANTI_PHOTOTAXIS,14#
*:*:IS_WANT_OBJECT,false,45;B_PHOTOTAXIS,32;B_RANDOM_WALK,25;IS_WANT_OBJECT,true,96;B_RANDOM_WALK,97;IS_MOTIVATION_1_DEC,false,75;B_ANTI_PHOTOTAXIS,14#
*:*:IS_WANT_OBJECT,false,45;B_PHOTOTAXIS,32;B_RANDOM_WALK,25;IS_WANT_OBJECT,true,96;B_RANDOM_WALK,97;IS_MOTIVATION_1_DEC,false,75;B_ANTI_PHOTOTAXIS,14#
*:*:IS_WANT_OBJECT,false,45;B_PHOTOTAXIS,32;B_RANDOM_WALK,25;IS_WANT_OBJECT,true,96;B_RANDOM_WALK,97;IS_MOTIVATION_1_DEC,false,75;B_ANTI_PHOTOTAXIS,14#
*:*:IS_WANT_OBJECT,false,45;B_PHOTOTAXIS,32;B_RANDOM_WALK,25;IS_WANT_OBJECT,true,96;B_RANDOM_WALK,97;IS_MOTIVATION_1_DEC,false,75;B_ANTI_PHOTOTAXIS,14#
*:*:IS_WANT_OBJECT,false,45;B_PHOTOTAXIS,32;B_RANDOM_WALK,25;IS_WANT_OBJECT,true,96;B_RANDOM_WALK,97;IS_MOTIVATION_1_DEC,false,75;B_ANTI_PHOTOTAXIS,14#
*:*:IS_WANT_OBJECT,false,45;B_PHOTOTAXIS,32;B_RANDOM_WALK,25;IS_WANT_OBJECT,true,96;B_RANDOM_WALK,97;IS_MOTIVATION_1_DEC,false,75;B_ANTI_PHOTOTAXIS,14#
*:*:IS_WANT_OBJECT,false,45;B_PHOTOTAXIS,32;B_RANDOM_WALK,25;IS_WANT_OBJECT,true,96;B_RANDOM_WALK,97;IS_MOTIVATION_1_DEC,false,75;B_ANTI_PHOTOTAXIS,14#
*:*:IS_WANT_OBJECT,false,45;B_PHOTOTAXIS,32;B_RANDOM_WALK,26;IS_WANT_OBJECT,true,96;B_RANDOM_WALK,97;IS_MOTIVATION_1_DEC,false,75;B_ANTI_PHOTOTAXIS,14#
*:*:IS_WANT_OBJECT,false,45;B_PHOTOTAXIS,32;B_RANDOM_WALK,26;IS_WANT_OBJECT,true,96;B_RANDOM_WALK,97;IS_MOTIVATION_1_DEC,false,75;B_ANTI_PHOTOTAXIS,14#
*:*:IS_WANT_OBJECT,false,45;B_PHOTOTAXIS,32;B_RANDOM_WALK,26;IS_WANT_OBJECT,true,96;B_RANDOM_WALK,97;IS_MOTIVATION_1_DEC,false,75;B_ANTI_PHOTOTAXIS,14#
*:*:IS_WANT_OBJECT,false,45;B_PHOTOTAXIS,32;B_RANDOM_WALK,26;IS_WANT_OBJECT,true,96;B_RANDOM_WALK,97;IS_MOTIVATION_1_DEC,false,75;B_ANTI_PHOTOTAXIS,14#
*:*:IS_WANT_OBJECT,false,45;B_PHOTOTAXIS,32;B_RANDOM_WALK,26;IS_WANT_OBJECT,true,96;B_RANDOM_WALK,97;IS_MOTIVATION_1_DEC,false,75;B_ANTI_PHOTOTAXIS,14#
*:*:IS_WANT_OBJECT,false,45;B_PHOTOTAXIS,32;B_RANDOM_WALK,26;IS_WANT_OBJECT,true,96;B_RANDOM_WALK,97;IS_MOTIVATION_1_DEC,false,75;B_ANTI_PHOTOTAXIS,14#
*:*:IS_WANT_OBJECT,false,45;B_PHOTOTAXIS,32;B_RANDOM_WALK,26;IS_WANT_OBJECT,true,96;B_RANDOM_WALK,97;IS_MOTIVATION_1_DEC,false,75;B_ANTI_PHOTOTAXIS,14#
*:*:IS_WANT_OBJECT,false,45;B_PHOTOTAXIS,32;B_RANDOM_WALK,26;IS_WANT_OBJECT,true,96;B_RANDOM_WALK,97;IS_MOTIVATION_1_DEC,false,75;B_ANTI_PHOTOTAXIS,14#
*:*:IS_WANT_OBJECT,false,45;B_PHOTOTAXIS,32;B_RANDOM_WALK,26;IS_WANT_OBJECT,true,96;B_RANDOM_WALK,97;IS_MOTIVATION_1_DEC,false,75;B_ANTI_PHOTOTAXIS,14#
*:*:IS_WANT_OBJECT,false,45;B_PHOTOTAXIS,32;B_RANDOM_WALK,26;IS_WANT_OBJECT,true,96;B_RANDOM_WALK,97;IS_MOTIVATION_1_DEC,false,75;B_ANTI_PHOTOTAXIS,14#
*:*:IS_WANT_OBJECT,false,45;B_PHOTOTAXIS,32;B_RANDOM_WALK,26;IS_WANT_OBJECT,true,96;B_RANDOM_WALK,97;IS_MOTIVATION_1_DEC,false,75;B_ANTI_PHOTOTAXIS,14#
*:*:IS_WANT_OBJECT,false,45;B_PHOTOTAXIS,32;B_RANDOM_WALK,26;IS_WANT_OBJECT,true,96;B_RANDOM_WALK,97;IS_MOTIVATION_1_DEC,false,75;B_ANTI_PHOTOTAXIS,14#
*:*:IS_WANT_OBJECT,false,45;B_PHOTOTAXIS,32;B_RANDOM_WALK,26;IS_WANT_OBJECT,true,96;B_RANDOM_WALK,97;IS_MOTIVATION_1_DEC,false,75;B_ANTI_PHOTOTAXIS,14#
*:*:IS_WANT_OBJECT,false,45;B_PHOTOTAXIS,32;B_RANDOM_WALK,26;IS_WANT_OBJECT,true,96;B_RANDOM_WALK,97;IS_MOTIVATION_1_DEC,false,75;B_ANTI_PHOTOTAXIS,14#
*:*:IS_WANT_OBJECT,false,45;B_PHOTOTAXIS,32;B_RANDOM_WALK,26;IS_WANT_OBJECT,true,96;B_RANDOM_WALK,97;IS_MOTIVATION_1_DEC,false,75;B_ANTI_PHOTOTAXIS,14#
*:*:IS_WANT_OBJECT,false,45;B_PHOTOTAXIS,32;B_RANDOM_WALK,26;IS_WANT_OBJECT,true,96;B_RANDOM_WALK,97;IS_MOTIVATION_1_DEC,false,75;B_ANTI_PHOTOTAXIS,14#
*:*:IS_WANT_OBJECT,false,45;B_PHOTOTAXIS,32;B_RANDOM_WALK,26;IS_WANT_OBJECT,true,96;B_RANDOM_WALK,97;IS_MOTIVATION_1_DEC,false,75;B_ANTI_PHOTOTAXIS,14#
*:*:IS_WANT_OBJECT,false,45;B_PHOTOTAXIS,32;B_RANDOM_WALK,26;IS_WANT_OBJECT,true,96;B_RANDOM_WALK,97;IS_MOTIVATION_1_DEC,false,75;B_ANTI_PHOTOTAXIS,14#
*:*:IS_WANT_OBJECT,false,45;B_PHOTOTAXIS,32;B_RANDOM_WALK,26;IS_WANT_OBJECT,true,96;B_RANDOM_WALK,97;IS_MOTIVATION_1_DEC,false,75;B_ANTI_PHOTOTAXIS,14#
*:*:IS_WANT_OBJECT,false,45;B_PHOTOTAXIS,32;B_RANDOM_WALK,26;IS_WANT_OBJECT,true,96;B_RANDOM_WALK,97;IS_MOTIVATION_1_DEC,false,75;B_ANTI_PHOTOTAXIS,14#
*:*:IS_WANT_OBJECT,false,45;B_PHOTOTAXIS,32;B_RANDOM_WALK,26;IS_WANT_OBJECT,true,96;B_RANDOM_WALK,97;IS_MOTIVATION_1_DEC,false,75;B_ANTI_PHOTOTAXIS,14#
*:*:IS_WANT_OBJECT,false,45;B_PHOTOTAXIS,32;B_RANDOM_WALK,26;IS_WANT_OBJECT,true,96;B_RANDOM_WALK,97;IS_MOTIVATION_1_DEC,false,75;B_ANTI_PHOTOTAXIS,14#
*:*:IS_WANT_OBJECT,false,45;B_PHOTOTAXIS,32;B_RANDOM_WALK,26;IS_WANT_OBJECT,true,96;B_RANDOM_WALK,97;IS_MOTIVATION_1_DEC,false,75;B_ANTI_PHOTOTAXIS,14#
*:*:IS_WANT_OBJECT,false,45;B_PHOTOTAXIS,32;B_RANDOM_WALK,26;IS_WANT_OBJECT,true,96;B_RANDOM_WALK,97;IS_MOTIVATION_1_DEC,false,75;B_ANTI_PHOTOTAXIS,14#
*:*:IS_WANT_OBJECT,false,45;B_PHOTOTAXIS,32;B_RANDOM_WALK,26;IS_WANT_OBJECT,true,96;B_RANDOM_WALK,97;IS_MOTIVATION_1_DEC,false,75;B_ANTI_PHOTOTAXIS,14#
*:*:IS_WANT_OBJECT,false,45;B_PHOTOTAXIS,32;B_RANDOM_WALK,26;IS_WANT_OBJECT,true,96;B_RANDOM_WALK,97;IS_MOTIVATION_1_DEC,false,75;B_ANTI_PHOTOTAXIS,14#
*:*:IS_WANT_OBJECT,false,45;B_PHOTOTAXIS,32;B_RANDOM_WALK,26;IS_WANT_OBJECT,true,96;B_RANDOM_WALK,97;IS_MOTIVATION_1_DEC,false,75;B_ANTI_PHOTOTAXIS,14#
*:*:IS_WANT_OBJECT,false,45;B_PHOTOTAXIS,32;B_RANDOM_WALK,26;IS_WANT_OBJECT,true,96;B_RANDOM_WALK,97;IS_MOTIVATION_1_DEC,false,75;B_ANTI_PHOTOTAXIS,14#
*:*:IS_WANT_OBJECT,false,45;B_PHOTOTAXIS,32;B_RANDOM_WALK,26;IS_WANT_OBJECT,true,96;B_RANDOM_WALK,97;IS_MOTIVATION_1_DEC,false,75;B_ANTI_PHOTOTAXIS,14#
*:*:IS_WANT_OBJECT,false,45;B_PHOTOTAXIS,32;B_RANDOM_WALK,26;IS_WANT_OBJECT,true,96;B_RANDOM_WALK,97;IS_MOTIVATION_1_DEC,false,75;B_ANTI_PHOTOTAXIS,14#
*:*:IS_WANT_OBJECT,false,45;B_PHOTOTAXIS,32;B_RANDOM_WALK,26;IS_WANT_OBJECT,true,96;B_RANDOM_WALK,97;IS_MOTIVATION_1_DEC,false,75;B_ANTI_PHOTOTAXIS,14#
*:*:IS_WANT_OBJECT,false,45;B_PHOTOTAXIS,32;B_RANDOM_WALK,26;IS_WANT_OBJECT,true,96;B_RANDOM_WALK,97;IS_MOTIVATION_1_DEC,false,75;B_ANTI_PHOTOTAXIS,14#
*:*:IS_WANT_OBJECT,false,45;B_PHOTOTAXIS,32;B_RANDOM_WALK,26;IS_WANT_OBJECT,true,96;B_RANDOM_WALK,97;IS_MOTIVATION_1_DEC,false,75;B_ANTI_PHOTOTAXIS,14#
*:*:IS_WANT_OBJECT,false,45;B_PHOTOTAXIS,32;B_RANDOM_WALK,26;IS_WANT_OBJECT,true,96;B_RANDOM_WALK,97;IS_MOTIVATION_1_DEC,false,75;B_ANTI_PHOTOTAXIS,14#
*:*:IS_WANT_OBJECT,false,45;B_PHOTOTAXIS,32;B_RANDOM_WALK,26;IS_WANT_OBJECT,true,96;B_RANDOM_WALK,97;IS_MOTIVATION_1_DEC,false,75;B_ANTI_PHOTOTAXIS,14#
*:*:IS_WANT_OBJECT,false,45;B_PHOTOTAXIS,32;B_RANDOM_WALK,26;IS_WANT_OBJECT,true,96;B_RANDOM_WALK,97;IS_MOTIVATION_1_DEC,false,75;B_ANTI_PHOTOTAXIS,14#
*:*:IS_WANT_OBJECT,false,45;B_PHOTOTAXIS,32;B_RANDOM_WALK,26;IS_WANT_OBJECT,true,96;B_RANDOM_WALK,97;IS_MOTIVATION_1_DEC,false,75;B_ANTI_PHOTOTAXIS,14#
*:*:IS_WANT_OBJECT,false,45;B_PHOTOTAXIS,32;B_RANDOM_WALK,26;IS_WANT_OBJECT,true,96;B_RANDOM_WALK,97;IS_MOTIVATION_1_DEC,false,75;B_ANTI_PHOTOTAXIS,14#
*:*:IS_WANT_OBJECT,false,45;B_PHOTOTAXIS,32;B_RANDOM_WALK,26;IS_WANT_OBJECT,true,96;B_RANDOM_WALK,97;IS_MOTIVATION_1_DEC,false,75;B_ANTI_PHOTOTAXIS,14#
*:*:IS_WANT_OBJECT,false,45;B_PHOTOTAXIS,32;B_RANDOM_WALK,26;IS_WANT_OBJECT,true,96;B_RANDOM_WALK,97;IS_MOTIVATION_1_DEC,false,75;B_ANTI_PHOTOTAXIS,14#
*:*:IS_WANT_OBJECT,false,45;B_PHOTOTAXIS,32;B_RANDOM_WALK,26;IS_WANT_OBJECT,true,96;B_RANDOM_WALK,97;IS_MOTIVATION_1_DEC,false,75;B_ANTI_PHOTOTAXIS,14#
*:*:IS_WANT_OBJECT,false,45;B_PHOTOTAXIS,32;B_RANDOM_WALK,26;IS_WANT_OBJECT,true,96;B_RANDOM_WALK,97;IS_MOTIVATION_1_DEC,false,75;B_ANTI_PHOTOTAXIS,14#
*:*:IS_WANT_OBJECT,false,45;B_PHOTOTAXIS,32;B_RANDOM_WALK,26;IS_WANT_OBJECT,true,96;B_RANDOM_WALK,97;IS_MOTIVATION_1_DEC,false,75;B_ANTI_PHOTOTAXIS,14#
*:*:IS_WANT_OBJECT,false,45;B_PHOTOTAXIS,32;B_RANDOM_WALK,26;IS_WANT_OBJECT,true,96;B_RANDOM_WALK,97;IS_MOTIVATION_1_DEC,false,75;B_ANTI_PHOTOTAXIS,14#
*:*:IS_WANT_OBJECT,false,45;B_PHOTOTAXIS,32;B_RANDOM_WALK,26;IS_WANT_OBJECT,true,96;B_RANDOM_WALK,97;IS_MOTIVATION_1_DEC,false,75;B_ANTI_PHOTOTAXIS,14#
*:*:IS_WANT_OBJECT,false,45;B_PHOTOTAXIS,32;B_RANDOM_WALK,26;IS_WANT_OBJECT,true,96;B_RANDOM_WALK,97;IS_MOTIVATION_1_DEC,false,75;B_ANTI_PHOTOTAXIS,14#
*:*:IS_WANT_OBJECT,false,45;B_PHOTOTAXIS,32;B_RANDOM_WALK,26;IS_WANT_OBJECT,true,96;B_RANDOM_WALK,97;IS_MOTIVATION_1_DEC,false,75;B_ANTI_PHOTOTAXIS,14#
*:*:IS_WANT_OBJECT,false,45;B_PHOTOTAXIS,32;B_RANDOM_WALK,26;IS_WANT_OBJECT,true,96;B_RANDOM_WALK,97;IS_MOTIVATION_1_DEC,false,75;B_ANTI_PHOTOTAXIS,14#
*:*:IS_WANT_OBJECT,false,80;B_PHOTOTAXIS,32;B_RANDOM_WALK,26;IS_WANT_OBJECT,true,96;B_RANDOM_WALK,97;IS_MOTIVATION_1_DEC,false,75;B_ANTI_PHOTOTAXIS,14#
*:*:IS_WANT_OBJECT,false,80;B_PHOTOTAXIS,32;B_RANDOM_WALK,26;IS_WANT_OBJECT,true,96;B_RANDOM_WALK,97;IS_MOTIVATION_1_DEC,false,75;B_ANTI_PHOTOTAXIS,14#
*:*:IS_WANT_OBJECT,false,80;B_PHOTOTAXIS,32;B_RANDOM_WALK,26;IS_WANT_OBJECT,true,96;B_RANDOM_WALK,97;IS_MOTIVATION_1_DEC,false,75;B_ANTI_PHOTOTAXIS,14#
*:*:IS_WANT_OBJECT,false,80;B_PHOTOTAXIS,32;B_RANDOM_WALK,26;IS_WANT_OBJECT,true,96;B_RANDOM_WALK,97;IS_MOTIVATION_1_DEC,false,75;B_ANTI_PHOTOTAXIS,14#
*:*:IS_WANT_OBJECT,false,80;B_PHOTOTAXIS,32;B_RANDOM_WALK,26;IS_WANT_OBJECT,true,96;B_RANDOM_WALK,97;IS_MOTIVATION_1_DEC,false,75;B_ANTI_PHOTOTAXIS,14#
*:*:IS_WANT_OBJECT,false,80;B_PHOTOTAXIS,32;B_RANDOM_WALK,26;IS_WANT_OBJECT,true,96;B_RANDOM_WALK,97;IS_MOTIVATION_1_DEC,false,75;B_ANTI_PHOTOTAXIS,14#
*:*:IS_WANT_OBJECT,false,80;B_PHOTOTAXIS,32;B_RANDOM_WALK,26;IS_WANT_OBJECT,true,96;B_RANDOM_WALK,97;IS_MOTIVATION_1_DEC,false,75;B_ANTI_PHOTOTAXIS,14#
*:*:IS_WANT_OBJECT,false,80;B_PHOTOTAXIS,32;B_RANDOM_WALK,26;IS_WANT_OBJECT,true,96;B_RANDOM_WALK,97;IS_MOTIVATION_1_DEC,false,75;B_ANTI_PHOTOTAXIS,14#
*:*:IS_WANT_OBJECT,false,80;B_PHOTOTAXIS,32;B_RANDOM_WALK,26;IS_WANT_OBJECT,true,96;B_RANDOM_WALK,97;IS_MOTIVATION_1_DEC,false,75;B_ANTI_PHOTOTAXIS,14#
*:*:IS_WANT_OBJECT,false,80;B_PHOTOTAXIS,32;B_RANDOM_WALK,26;IS_WANT_OBJECT,true,96;B_RANDOM_WALK,97;IS_MOTIVATION_1_DEC,false,75;B_ANTI_PHOTOTAXIS,14#
*:*:IS_WANT_OBJECT,false,80;B_PHOTOTAXIS,32;B_RANDOM_WALK,26;IS_WANT_OBJECT,true,96;B_RANDOM_WALK,97;IS_MOTIVATION_1_DEC,false,75;B_ANTI_PHOTOTAXIS,14#
*:*:IS_WANT_OBJECT,false,80;B_PHOTOTAXIS,32;B_RANDOM_WALK,26;IS_WANT_OBJECT,true,96;B_RANDOM_WALK,97;IS_MOTIVATION_1_DEC,false,75;B_ANTI_PHOTOTAXIS,14#
*:*:IS_WANT_OBJECT,false,80;B_PHOTOTAXIS,32;B_RANDOM_WALK,26;IS_WANT_OBJECT,true,96;B_RANDOM_WALK,97;IS_MOTIVATION_1_DEC,false,75;B_ANTI_PHOTOTAXIS,14#
*:*:IS_WANT_OBJECT,false,80;B_PHOTOTAXIS,32;B_RANDOM_WALK,26;IS_WANT_OBJECT,true,96;B_RANDOM_WALK,97;IS_MOTIVATION_1_DEC,false,75;B_ANTI_PHOTOTAXIS,14#
*:*:IS_WANT_OBJECT,false,80;B_PHOTOTAXIS,32;B_RANDOM_WALK,26;IS_WANT_OBJECT,true,96;B_RANDOM_WALK,97;IS_MOTIVATION_1_DEC,false,75;B_ANTI_PHOTOTAXIS,14#
*:*:IS_WANT_OBJECT,false,80;B_PHOTOTAXIS,32;B_RANDOM_WALK,26;IS_WANT_OBJECT,true,96;B_RANDOM_WALK,97;IS_MOTIVATION_1_DEC,false,75;B_ANTI_PHOTOTAXIS,14#
*:*:IS_WANT_OBJECT,false,80;B_PHOTOTAXIS,32;B_RANDOM_WALK,26;IS_WANT_OBJECT,true,96;B_RANDOM_WALK,97;IS_MOTIVATION_1_DEC,false,75;B_ANTI_PHOTOTAXIS,14#
*:*:IS_WANT_OBJECT,false,80;B_PHOTOTAXIS,32;B_RANDOM_WALK,26;IS_WANT_OBJECT,true,96;B_RANDOM_WALK,97;IS_MOTIVATION_1_DEC,false,75;B_ANTI_PHOTOTAXIS,14#
*:*:IS_WANT_OBJECT,false,80;B_PHOTOTAXIS,32;B_RANDOM_WALK,26;IS_WANT_OBJECT,true,96;B_RANDOM_WALK,97;IS_MOTIVATION_1_DEC,false,75;B_ANTI_PHOTOTAXIS,14#
*:*:IS_WANT_OBJECT,false,80;B_PHOTOTAXIS,32;B_RANDOM_WALK,26;IS_WANT_OBJECT,true,96;B_RANDOM_WALK,97;IS_MOTIVATION_1_DEC,false,75;B_ANTI_PHOTOTAXIS,14#
*:*:IS_WANT_OBJECT,false,80;B_PHOTOTAXIS,32;B_RANDOM_WALK,26;IS_WANT_OBJECT,true,96;B_RANDOM_WALK,97;IS_MOTIVATION_1_DEC,false,75;B_ANTI_PHOTOTAXIS,14#
*:*:IS_WANT_OBJECT,false,80;B_PHOTOTAXIS,32;B_RANDOM_WALK,26;IS_WANT_OBJECT,true,96;B_RANDOM_WALK,97;IS_MOTIVATION_1_DEC,false,75;B_ANTI_PHOTOTAXIS,14#
*:*:IS_WANT_OBJECT,false,80;B_PHOTOTAXIS,32;B_RANDOM_WALK,26;IS_WANT_OBJECT,true,96;B_RANDOM_WALK,97;IS_MOTIVATION_1_DEC,false,75;B_ANTI_PHOTOTAXIS,14#
*:*:IS_WANT_OBJECT,false,80;B_PHOTOTAXIS,32;B_RANDOM_WALK,26;IS_WANT_OBJECT,true,96;B_RANDOM_WALK,97;IS_MOTIVATION_1_DEC,false,75;B_ANTI_PHOTOTAXIS,14#
*:*:IS_WANT_OBJECT,false,80;B_PHOTOTAXIS,32;B_RANDOM_WALK,26;IS_WANT_OBJECT,true,96;B_RANDOM_WALK,97;IS_MOTIVATION_1_DEC,false,75;B_ANTI_PHOTOTAXIS,14#
*:*:IS_WANT_OBJECT,false,80;B_PHOTOTAXIS,32;B_RANDOM_WALK,26;IS_WANT_OBJECT,true,96;B_RANDOM_WALK,97;IS_MOTIVATION_1_DEC,false,75;B_ANTI_PHOTOTAXIS,14#
*:*:IS_WANT_OBJECT,false,80;B_PHOTOTAXIS,32;B_RANDOM_WALK,26;IS_WANT_OBJECT,true,96;B_RANDOM_WALK,97;IS_MOTIVATION_1_DEC,false,75;B_ANTI_PHOTOTAXIS,14#
*:*:IS_WANT_OBJECT,false,80;B_PHOTOTAXIS,32;B_RANDOM_WALK,26;IS_WANT_OBJECT,true,96;B_RANDOM_WALK,97;IS_MOTIVATION_1_DEC,false,75;B_ANTI_PHOTOTAXIS,14#
*:*:IS_WANT_OBJECT,false,80;B_PHOTOTAXIS,32;B_RANDOM_WALK,26;IS_WANT_OBJECT,true,96;B_RANDOM_WALK,97;IS_MOTIVATION_1_DEC,false,75;B_ANTI_PHOTOTAXIS,14#
*:*:IS_WANT_OBJECT,false,80;B_PHOTOTAXIS,32;B_RANDOM_WALK,26;IS_WANT_OBJECT,true,96;B_RANDOM_WALK,97;IS_MOTIVATION_1_DEC,false,75;B_ANTI_PHOTOTAXIS,14#
*:*:IS_WANT_OBJECT,false,80;B_PHOTOTAXIS,32;B_RANDOM_WALK,26;IS_WANT_OBJECT,true,96;B_RANDOM_WALK,97;IS_MOTIVATION_1_DEC,false,75;B_ANTI_PHOTOTAXIS,14#
*:*:IS_WANT_OBJECT,false,80;B_PHOTOTAXIS,32;B_RANDOM_WALK,26;IS_WANT_OBJECT,true,96;B_RANDOM_WALK,97;IS_MOTIVATION_1_DEC,false,75;B_ANTI_PHOTOTAXIS,14#
*:*:IS_WANT_OBJECT,false,80;B_PHOTOTAXIS,32;B_RANDOM_WALK,26;IS_WANT_OBJECT,true,96;B_RANDOM_WALK,97;IS_MOTIVATION_1_DEC,false,75;B_ANTI_PHOTOTAXIS,14#
