ave_fitness	ave_genome_length	ave_tree_depth	ave_tree_nodes	ave_used_codons	best_fitness	gen	invalids	max_genome_length	max_tree_depth	max_tree_nodes	max_used_codons	min_genome_length	min_tree_depth	min_tree_nodes	min_used_codons	runtime_error	time_adjust	time_taken	total_inds	total_time	unique_inds	unused_search	
0.0	46.15714285714286	7.928571428571429	44.31428571428572	30.928571428571427	0.0	0	0	132	10	127	88	16	7	15	11	0	0	1144.9897847175598	70	1144.9897847175598	70	0.0	
0.0	49.52857142857143	9.18	49.06	34.26	0.0	1	21	132	14.0	126.0	87.0	14	7.0	15.0	11.0	0	0	778.5163443088531	140	1923.506129026413	112	20.0	
0.0	50.4	8.770491803278688	45.131147540983605	31.459016393442624	0.0	2	31	130	14.0	95.0	67.0	16	7.0	15.0	11.0	0	0	909.0015239715576	210	2832.5076529979706	144	31.42857142857143	
0.0	45.98571428571429	8.5	40.734375	28.453125	0.0	3	38	130	14.0	99.0	68.0	13	7.0	15.0	11.0	0	0	958.6681683063507	280	3791.1758213043213	183	34.64285714285714	
0.0	37.9	7.984375	31.75	22.171875	0.0	4	45	130	12.0	74.0	51.0	12	7.0	15.0	11.0	0	0	940.6127192974091	350	4731.78854060173	210	40.0	
0.0	38.67142857142857	7.887096774193548	28.661290322580644	20.096774193548388	0.0	5	54	131	11.0	68.0	48.0	12	7.0	15.0	11.0	0	0	899.0486600399017	420	5630.837200641632	239	43.095238095238095	
0.0	39.97142857142857	7.9523809523809526	28.92063492063492	20.26984126984127	0.0	6	62	136	11.0	63.0	44.0	10	7.0	15.0	11.0	0	0	947.0290923118591	490	6577.866292953491	263	46.326530612244895	
0.0	43.0	7.7936507936507935	25.3015873015873	17.793650793650794	0.0	7	70	156	15.0	77.0	54.0	10	7.0	15.0	11.0	0	0	945.2052958011627	560	7523.071588754654	291	48.035714285714285	
0.0	46.55714285714286	7.6911764705882355	24.33823529411765	17.08823529411765	0.0	8	73	134	11.0	56.0	40.0	13	7.0	15.0	11.0	0	0	1005.6372590065002	630	8528.708847761154	310	50.7936507936508	
0.0	43.2	7.575757575757576	23.772727272727273	16.651515151515152	0.0	9	78	133	11.0	51.0	35.0	13	7.0	15.0	11.0	0	0	927.5719192028046	700	9456.280766963959	333	52.42857142857143	
0.0	50.128571428571426	7.6911764705882355	25.323529411764707	17.779411764705884	0.0	10	81	139	11.0	51.0	35.0	12	7.0	15.0	11.0	0	0	978.8132402896881	770	10435.094007253647	356	53.76623376623377	
0.0	38.01428571428571	7.676470588235294	25.11764705882353	17.676470588235293	0.0	11	84	131	12.0	54.0	38.0	12	7.0	15.0	11.0	0	0	990.0626447200775	840	11425.156651973724	382	54.523809523809526	
0.0	36.55714285714286	7.621212121212121	23.848484848484848	16.757575757575758	0.0	12	89	147	13.0	72.0	50.0	7	7.0	15.0	11.0	0	0	965.6293694972992	910	12390.786021471024	409	55.05494505494505	
0.0	34.57142857142857	7.571428571428571	24.285714285714285	17.063492063492063	0.0	13	97	134	13.0	72.0	50.0	10	7.0	15.0	11.0	0	0	905.5207538604736	980	13296.306775331497	431	56.02040816326531	
0.0	34.5	7.532258064516129	24.596774193548388	17.258064516129032	0.0	14	106	145	10.0	48.0	33.0	9	7.0	15.0	11.0	0	0	873.0238173007965	1050	14169.330592632294	459	56.285714285714285	
0.0	29.857142857142858	7.491803278688525	23.19672131147541	16.327868852459016	0.0	15	116	103	10.0	47.0	32.0	12	7.0	15.0	11.0	0	0	888.5420362949371	1120	15057.87262892723	478	57.32142857142858	
0.0	35.285714285714285	7.46969696969697	24.12121212121212	17.015151515151516	0.0	16	121	109	9.0	56.0	39.0	10	7.0	15.0	11.0	0	0	977.9248507022858	1190	16035.797479629517	497	58.23529411764706	
0.0	48.07142857142857	7.537313432835821	25.149253731343283	17.761194029850746	0.0	17	125	121	10.0	71.0	50.0	3	7.0	15.0	11.0	0	0	989.9798130989075	1260	17025.777292728424	520	58.730158730158735	
0.0	48.92857142857143	7.82258064516129	29.35483870967742	20.629032258064516	0.0	18	134	127	16.0	139.0	97.0	3	7.0	15.0	11.0	0	0	876.2211194038391	1330	17901.998412132263	543	59.17293233082707	
0.0	49.457142857142856	7.476923076923077	23.307692307692307	16.369230769230768	0.0	19	140	121	10.0	48.0	33.0	12	7.0	15.0	11.0	0	0	939.2374112606049	1400	18841.235823392868	567	59.5	
0.0	50.08571428571429	7.446153846153846	22.584615384615386	15.876923076923077	0.0	20	146	127	10.0	48.0	33.0	4	7.0	15.0	11.0	0	0	937.5780801773071	1470	19778.813903570175	585	60.204081632653065	
0.0	47.97142857142857	7.378787878787879	21.90909090909091	15.409090909090908	0.0	21	151	121	10.0	48.0	33.0	3	7.0	15.0	11.0	0	0	937.6141676902771	1540	20716.428071260452	606	60.649350649350644	
0.0	53.65714285714286	7.514705882352941	23.36764705882353	16.38235294117647	0.0	22	154	121	10.0	76.0	53.0	16	7.0	15.0	11.0	0	0	947.787392616272	1610	21664.215463876724	631	60.80745341614907	
0.0	56.8	7.681159420289855	24.869565217391305	17.405797101449274	0.0	23	156	118	17.0	105.0	72.0	16	7.0	15.0	11.0	0	0	960.1601784229279	1680	22624.375642299652	663	60.535714285714285	
0.0	65.0	7.863636363636363	27.939393939393938	19.515151515151516	0.0	24	161	119	12.0	80.0	55.0	16	7.0	15.0	11.0	0	0	947.6309444904327	1750	23572.006586790085	689	60.628571428571426	
0.0	70.0	7.957142857142857	29.4	20.52857142857143	0.0	25	161	121	14	78	54	15	7	15	11	0	0	1028.1618330478668	1820	24600.16841983795	720	60.43956043956044	
0.0	66.04285714285714	8.25	31.75	22.235294117647058	0.0	26	164	114	14.0	82.0	57.0	15	7.0	15.0	11.0	0	0	1031.9616808891296	1890	25632.13010072708	749	60.37037037037037	
0.010582015873015873	64.1	8.222222222222221	30.285714285714285	21.285714285714285	0.666667	27	172	116	14.0	80.0	56.0	16	7.0	15.0	11.0	0	0	936.2583904266357	1960	26568.388491153717	780	60.204081632653065	
0.019323681159420292	63.142857142857146	8.333333333333334	30.782608695652176	21.63768115942029	0.666667	28	174	120	15.0	80.0	56.0	16	7.0	15.0	11.0	0	0	1067.166128396988	2030	27635.554619550705	814	59.90147783251232	
0.09523808571428571	62.01428571428571	9.514285714285714	39.542857142857144	27.62857142857143	2.0	29	175	125	15	79	55	16	7	15	11	0	0	1060.3139598369598	2100	28695.868579387665	850	59.523809523809526	
0.10784316176470587	52.75714285714286	9.279411764705882	35.85294117647059	25.014705882352942	2.0	30	178	97	15.0	79.0	55.0	15	7.0	17.0	12.0	0	0	1009.7278368473053	2170	29705.59641623497	884	59.26267281105991	
0.18840582608695652	54.67142857142857	9.246376811594203	36.768115942028984	25.608695652173914	2.0	31	180	97	14.0	74.0	51.0	12	7.0	15.0	11.0	0	0	1017.7499625682831	2240	30723.346378803253	911	59.330357142857146	
0.22857145714285718	54.8	9.442857142857143	39.27142857142857	27.37142857142857	2.0	32	181	97	13	65	45	16	7	15	11	0	0	1071.2531373500824	2310	31794.599516153336	945	59.090909090909086	
0.21904758571428573	60.22857142857143	9.928571428571429	42.24285714285714	29.442857142857143	2.0	33	182	89	14	74	51	25	7	15	11	0	0	1121.319058895111	2380	32915.91857504845	989	58.4453781512605	
0.252381	59.614285714285714	10.428571428571429	45.371428571428574	31.542857142857144	2.0	34	183	117	15	79	55	25	7	15	11	0	0	1108.5636641979218	2450	34024.48223924637	1032	57.87755102040816	
0.23671500000000004	60.58571428571429	10.028985507246377	41.869565217391305	29.10144927536232	2.0	35	185	98	14.0	74.0	51.0	35	7.0	15.0	11.0	0	0	1086.0135428905487	2520	35110.49578213692	1070	57.53968253968254	
0.3904762	58.01428571428571	10.785714285714286	48.74285714285714	33.81428571428572	2.0	36	185	87	15	90	62	31	7	17	12	0	0	1146.4600267410278	2590	36256.955808877945	1108	57.22007722007722	
0.5392158088235294	57.542857142857144	10.617647058823529	47.86764705882353	33.23529411764706	2.0	37	188	105	14.0	88.0	61.0	23	7.0	15.0	11.0	0	0	1063.0573275089264	2660	37320.01313638687	1140	57.142857142857146	
0.5353536969696969	54.871428571428574	10.363636363636363	43.84848484848485	30.515151515151516	2.0	38	193	85	13.0	65.0	45.0	20	7.0	15.0	11.0	0	0	1030.4743201732635	2730	38350.487456560135	1174	56.99633699633699	
0.4179106119402985	56.44285714285714	10.26865671641791	43.52238805970149	30.208955223880597	2.0	39	197	94	13.0	67.0	46.0	22	7.0	15.0	11.0	0	0	996.8379399776459	2800	39347.32539653778	1212	56.71428571428571	
0.32843138235294117	57.885714285714286	10.397058823529411	45.14705882352941	31.33823529411765	2.0	40	200	98	13.0	80.0	56.0	24	7.0	15.0	11.0	0	0	1079.939654827118	2870	40427.2650513649	1251	56.41114982578397	
0.3428570714285714	59.97142857142857	10.485714285714286	47.72857142857143	33.128571428571426	2.0	41	201	93	14	98	68	34	7	17	12	0	0	1134.8604674339294	2940	41562.12551879883	1293	56.02040816326531	
0.3671497246376812	59.97142857142857	10.681159420289855	48.44927536231884	33.608695652173914	2.0	42	203	85	15.0	83.0	57.0	41	7.0	17.0	12.0	0	0	1102.5078094005585	3010	42664.63332819939	1333	55.714285714285715	
0.3838384242424242	60.44285714285714	11.545454545454545	54.25757575757576	37.60606060606061	2.0	43	208	77	15.0	83.0	57.0	42	7.0	15.0	11.0	0	0	1078.8361420631409	3080	43743.46947026253	1371	55.48701298701298	
0.416666705882353	61.07142857142857	11.264705882352942	52.13235294117647	36.13235294117647	2.0	44	211	110	17.0	99.0	68.0	25	7.0	17.0	12.0	0	0	1127.0461876392365	3150	44870.515657901764	1411	55.20634920634921	
0.512077231884058	60.4	11.18840579710145	51.10144927536232	35.47826086956522	2.0	45	213	110	15.0	79.0	55.0	29	7.0	17.0	12.0	0	0	1133.4683964252472	3220	46003.98405432701	1449	55.0	
0.42647050000000003	60.457142857142856	11.235294117647058	51.161764705882355	35.51470588235294	2.0	46	216	102	14.0	74.0	51.0	16	7.0	22.0	16.0	0	0	1083.586002588272	3290	47087.57005691528	1485	54.86322188449848	
0.3526569275362319	61.957142857142856	10.36231884057971	44.7536231884058	31.10144927536232	2.0	47	218	104	13.0	69.0	47.0	27	7.0	17.0	12.0	0	0	1081.4587545394897	3360	48169.02881145477	1525	54.61309523809524	
0.4205128153846154	60.17142857142857	11.153846153846153	50.276923076923076	34.93846153846154	2.0	48	224	91	15.0	83.0	57.0	27	7.0	17.0	12.0	0	0	1024.2572894096375	3430	49193.28610086441	1559	54.548104956268226	
0.2904762	60.82857142857143	10.757142857142858	46.52857142857143	32.41428571428571	2.0	49	225	91	14	74	51	29	7	15	11	0	0	1086.0237307548523	3500	50279.30983161926	1593	54.48571428571429	
0.27450976470588234	59.98571428571429	10.941176470588236	48.69117647058823	33.86764705882353	2.0	50	228	89	15.0	81.0	56.0	29	7.0	17.0	12.0	0	0	1056.9680795669556	3570	51336.27791118622	1635	54.20168067226891	
0.3131313333333334	60.81428571428572	10.56060606060606	44.93939393939394	31.242424242424242	2.0	51	233	103	15.0	81.0	56.0	32	7.0	17.0	12.0	0	0	994.8087136745453	3640	52331.08662486076	1668	54.175824175824175	
0.391304347826087	66.68571428571428	10.623188405797102	46.15942028985507	32.072463768115945	2.0	52	235	122	16.0	94.0	64.0	32	7.0	15.0	11.0	0	0	1040.5257861614227	3710	53371.612411022186	1706	54.01617250673855	
0.3574876811594203	61.957142857142856	10.27536231884058	43.14492753623188	30.10144927536232	2.0	53	237	131	15.0	79.0	55.0	26	7.0	15.0	11.0	0	0	1034.3595073223114	3780	54405.9719183445	1738	54.02116402116402	
0.36231878260869566	60.371428571428574	10.391304347826088	44.15942028985507	30.71014492753623	2.0	54	239	103	15.0	81.0	56.0	33	7.0	17.0	12.0	0	0	1002.4611024856567	3850	55408.433020830154	1777	53.84415584415584	
0.36274510294117646	61.857142857142854	10.558823529411764	45.76470588235294	31.823529411764707	2.0	55	242	103	16.0	90.0	62.0	30	7.0	15.0	11.0	0	0	1020.5176661014557	3920	56428.95068693161	1812	53.775510204081634	
0.3384615384615385	61.614285714285714	10.646153846153846	47.12307692307692	32.723076923076924	2.0	56	248	120	16.0	122.0	84.0	20	7.0	15.0	11.0	0	0	950.6144864559174	3990	57379.56517338753	1847	53.709273182957396	
0.43961346376811594	63.285714285714285	10.420289855072463	44.27536231884058	30.768115942028984	2.0	57	250	105	17.0	97.0	67.0	28	7.0	15.0	11.0	0	0	894.2306051254272	4060	58273.795778512955	1881	53.669950738916256	
0.3989898484848485	64.27142857142857	10.696969696969697	46.303030303030305	32.18181818181818	2.0	58	255	124	17.0	97.0	67.0	33	7.0	17.0	12.0	0	0	817.0378220081329	4130	59090.83360052109	1912	53.7046004842615	
0.3484849090909091	65.04285714285714	10.257575757575758	43.04545454545455	29.939393939393938	2.0	59	260	124	13.0	65.0	45.0	35	7.0	17.0	12.0	0	0	792.3887386322021	4200	59883.22233915329	1946	53.66666666666667	
0.38095241428571425	63.65714285714286	10.342857142857143	44.31428571428572	30.87142857142857	2.0	60	261	112	16	88	61	35	7	15	11	0	0	865.5021739006042	4270	60748.724513053894	1980	53.62997658079625	
0.3134328507462687	61.542857142857144	10.0	43.04477611940298	29.955223880597014	2.0	61	265	119	16.0	92.0	63.0	30	7.0	15.0	11.0	0	0	815.0839219093323	4340	61563.808434963226	2013	53.617511520737324	
0.3480391176470588	60.32857142857143	9.867647058823529	41.029411764705884	28.573529411764707	2.0	62	268	111	15.0	83.0	57.0	29	7.0	15.0	11.0	0	0	808.1827161312103	4410	62371.99115109444	2041	53.718820861678005	
0.29292915151515153	60.97142857142857	10.227272727272727	43.42424242424242	30.196969696969695	2.0	63	273	111	15.0	83.0	57.0	32	7.0	15.0	11.0	0	0	754.6688125133514	4480	63126.65996360779	2076	53.660714285714285	
0.20772942028985508	61.3	10.231884057971014	44.31884057971015	30.81159420289855	2.0	64	275	97	14.0	72.0	50.0	21	7.0	15.0	11.0	0	0	801.7359755039215	4550	63928.39593911171	2110	53.62637362637363	
0.20952371428571429	62.57142857142857	10.1	45.05714285714286	31.32857142857143	2.0	65	276	99	13	76	54	23	7	15	11	0	0	800.177531003952	4620	64728.57347011566	2140	53.679653679653676	
0.3781094029850746	62.02857142857143	10.223880597014926	45.492537313432834	31.686567164179106	2.0	66	280	99	15.0	83.0	58.0	23	7.0	15.0	11.0	0	0	768.2208964824677	4690	65496.79436659813	2174	53.646055437100216	
0.3333331363636363	62.214285714285715	11.045454545454545	51.46969696969697	35.78787878787879	2.0	67	285	95	15.0	79.0	55.0	23	7.0	17.0	12.0	0	0	804.3047194480896	4760	66301.09908604622	2206	53.65546218487395	
0.4292928636363636	62.77142857142857	10.818181818181818	48.515151515151516	33.666666666666664	2.0	68	290	95	14.0	91.0	63.0	26	7.0	15.0	11.0	0	0	789.3201415538788	4830	67090.4192276001	2236	53.70600414078675	
0.3761904714285714	64.6	11.085714285714285	51.3	35.55714285714286	2.0	69	290	108	16	90	62	16	7	17	12	0	0	849.943067073822	4900	67940.36229467392	2275	53.57142857142857	
0.3719806666666667	65.17142857142858	10.768115942028986	48.11594202898551	33.3768115942029	2.0	70	292	111	14.0	74.0	51.0	16	7.0	17.0	12.0	0	0	802.2008397579193	4970	68742.56313443184	2315	53.420523138833	
0.3719807101449275	60.0	10.855072463768115	47.69565217391305	33.130434782608695	2.0	71	294	92	14.0	74.0	51.0	16	7.0	15.0	11.0	0	0	806.6020956039429	5040	69549.16523003578	2342	53.53174603174603	
0.32843141176470586	61.44285714285714	10.838235294117647	48.23529411764706	33.470588235294116	2.0	72	297	106	15.0	82.0	57.0	16	7.0	15.0	11.0	0	0	795.1559998989105	5110	70344.32122993469	2377	53.483365949119374	
0.4999999848484849	60.81428571428572	11.348484848484848	51.53030303030303	35.78787878787879	2.0	73	302	116	15.0	83.0	57.0	17	7.0	15.0	11.0	0	0	804.743768453598	5180	71149.06499838829	2409	53.49420849420849	
0.3666666428571429	63.02857142857143	11.785714285714286	55.51428571428571	38.51428571428571	2.0	74	303	121	16	90	62	32	7	15	11	0	0	855.8773865699768	5250	72004.94238495827	2448	53.37142857142857	
0.3140096666666667	60.18571428571428	11.391304347826088	51.971014492753625	36.08695652173913	2.0	75	305	101	15.0	81.0	56.0	23	7.0	17.0	12.0	0	0	834.5095343589783	5320	72839.45191931725	2491	53.17669172932331	
0.388059671641791	62.05714285714286	10.880597014925373	49.014925373134325	34.04477611940298	2.0	76	309	112	16.0	88.0	61.0	27	7.0	15.0	11.0	0	0	787.3399639129639	5390	73626.79188323021	2523	53.191094619666046	
0.4179103880597015	59.98571428571429	10.835820895522389	48.850746268656714	33.92537313432836	2.0	77	313	84	16.0	88.0	61.0	38	7.0	17.0	12.0	0	0	815.6519050598145	5460	74442.44378829002	2559	53.13186813186813	
0.374999953125	61.642857142857146	11.046875	48.96875	34.015625	2.0	78	320	104	15.0	79.0	55.0	33	7.0	17.0	12.0	0	0	750.5746121406555	5530	75193.01840043068	2589	53.18264014466546	
0.30392142647058823	66.1	11.0	49.044117647058826	34.088235294117645	2.0	79	323	107	15.0	79.0	55.0	20	7.0	15.0	11.0	0	0	810.4755339622498	5600	76003.49393439293	2629	53.05357142857143	
0.33333321739130434	70.41428571428571	10.782608695652174	47.6231884057971	33.14492753623188	2.0	80	325	117	15.0	79.0	55.0	39	7.0	17.0	12.0	0	0	825.2411391735077	5670	76828.73507356644	2673	52.85714285714286	
0.26865671641791045	63.17142857142857	10.447761194029852	45.985074626865675	31.925373134328357	2.0	81	329	109	15.0	79.0	55.0	32	7.0	17.0	12.0	0	0	772.048885345459	5740	77600.7839589119	2705	52.87456445993031	
0.24285715714285716	62.4	10.485714285714286	46.385714285714286	32.22857142857143	2.0	82	330	117	15	79	55	29	7	17	12	0	0	812.3436543941498	5810	78413.12761330605	2738	52.87435456110155	
0.28985508695652173	63.9	9.797101449275363	41.3768115942029	28.768115942028984	2.0	83	332	122	15.0	81.0	56.0	22	7.0	15.0	11.0	0	0	777.2401876449585	5880	79190.367800951	2771	52.874149659863946	
0.4901960588235294	63.47142857142857	10.779411764705882	48.220588235294116	33.470588235294116	2.0	84	335	126	14.0	78.0	53.0	19	7.0	15.0	11.0	0	0	765.5640444755554	5950	79955.93184542656	2805	52.85714285714286	
0.3725491029411765	62.6	11.014705882352942	50.161764705882355	34.838235294117645	2.0	85	338	131	15.0	80.0	56.0	27	7.0	17.0	12.0	0	0	769.1834614276886	6020	80725.11530685425	2835	52.906976744186046	
0.294686	61.385714285714286	10.927536231884059	48.82608695652174	33.971014492753625	2.0	86	340	131	15.0	79.0	55.0	24	7.0	17.0	12.0	0	0	793.982574224472	6090	81519.09788107872	2873	52.82430213464696	
0.37745100000000004	60.42857142857143	11.352941176470589	51.39705882352941	35.6764705882353	2.0	87	343	131	15.0	79.0	55.0	21	7.0	15.0	11.0	0	0	790.4376268386841	6160	82309.5355079174	2907	52.80844155844156	
0.36410258461538464	59.2	11.276923076923078	50.52307692307692	35.07692307692308	2.0	88	349	131	15.0	79.0	55.0	26	7.0	15.0	11.0	0	0	776.0279512405396	6230	83085.56345915794	2936	52.87319422150883	
0.47692307692307695	60.01428571428571	11.430769230769231	51.96923076923077	36.04615384615385	2.0	89	355	97	14.0	76.0	52.0	26	7.0	15.0	11.0	0	0	783.5494611263275	6300	83869.11292028427	2968	52.88888888888889	
0.22058817647058823	58.114285714285714	10.764705882352942	47.88235294117647	33.23529411764706	2.0	90	358	85	15.0	79.0	55.0	23	7.0	15.0	11.0	0	0	800.2605562210083	6370	84669.37347650528	3014	52.68445839874411	
0.2476191	60.0	10.485714285714286	45.72857142857143	31.771428571428572	2.0	91	359	113	15	79	55	21	7	15	11	0	0	802.0348966121674	6440	85471.40837311745	3049	52.65527950310559	
0.23671492753623188	60.385714285714286	10.318840579710145	44.98550724637681	31.231884057971016	2.0	92	361	113	15.0	79.0	55.0	21	7.0	15.0	11.0	0	0	786.5203146934509	6510	86257.9286878109	3081	52.67281105990783	
0.23529411764705882	61.114285714285714	9.691176470588236	40.970588235294116	28.455882352941178	2.0	93	364	115	15.0	79.0	55.0	21	7.0	15.0	11.0	0	0	752.9317591190338	6580	87010.86044692993	3101	52.87234042553192	
0.45454546969696974	57.357142857142854	10.196969696969697	43.15151515151515	30.0	2.0	94	369	111	13.0	79.0	55.0	21	7.0	15.0	11.0	0	0	723.9292323589325	6650	87734.78967928886	3129	52.94736842105263	
0.3961351739130435	54.3	10.289855072463768	45.7536231884058	31.840579710144926	2.0	95	371	106	15.0	85.0	59.0	17	7.0	15.0	11.0	0	0	786.442528963089	6720	88521.23220825195	3165	52.901785714285715	
0.3781093731343284	57.08571428571429	10.701492537313433	48.014925373134325	33.343283582089555	2.0	96	375	86	14.0	85.0	59.0	20	7.0	15.0	11.0	0	0	781.8412585258484	6790	89303.0734667778	3193	52.97496318114875	
0.4952379142857143	58.27142857142857	10.614285714285714	46.457142857142856	32.3	2.0	97	375	105	16	90	62	20	7	15	11	0	0	826.8729479312897	6860	90129.94641470909	3219	53.075801749271136	
0.5920398208955224	56.371428571428574	10.895522388059701	48.56716417910448	33.776119402985074	2.0	98	379	91	16.0	92.0	63.0	20	7.0	15.0	11.0	0	0	767.5953288078308	6930	90897.54174351692	3253	53.05916305916306	
0.34871795384615384	56.542857142857144	10.430769230769231	44.6	31.076923076923077	2.0	99	385	94	15.0	79.0	55.0	17	7.0	15.0	11.0	0	0	757.0884637832642	7000	91654.63020730019	3283	53.1	
0.3571429	60.642857142857146	10.157142857142857	41.3	28.814285714285713	2.0	100	386	94	15	79	55	33	7	15	11	0	0	817.3572728633881	7070	92471.98748016357	3300	53.32390381895332	
0.4142857285714286	58.957142857142856	10.742857142857142	46.7	32.457142857142856	2.0	101	387	94	15	81	56	22	7	15	11	0	0	782.8972396850586	7140	93254.88471984863	3331	53.34733893557423	
0.6212120757575758	58.97142857142857	11.5	52.54545454545455	36.46969696969697	2.0	102	392	94	13.0	74.0	51.0	22	7.0	15.0	11.0	0	0	770.6146357059479	7210	94025.49935555458	3358	53.4257975034674	
0.6568626911764706	62.871428571428574	11.397058823529411	51.26470588235294	35.60294117647059	2.0	103	395	103	13.0	67.0	46.0	23	7.0	20.0	14.0	0	0	815.5087149143219	7280	94841.0080704689	3390	53.434065934065934	
0.4901961323529412	59.214285714285715	10.911764705882353	48.01470588235294	33.36764705882353	2.0	104	398	116	13.0	67.0	46.0	20	7.0	24.0	17.0	0	0	814.4005427360535	7350	95655.40861320496	3425	53.40136054421769	
0.4166667205882353	58.857142857142854	10.514705882352942	43.61764705882353	30.397058823529413	2.0	105	401	98	13.0	65.0	45.0	20	7.0	15.0	11.0	0	0	798.3447470664978	7420	96453.75336027145	3451	53.490566037735846	
0.4782609855072464	65.52857142857142	10.55072463768116	44.57971014492754	31.057971014492754	2.0	106	403	123	14.0	82.0	57.0	43	7.0	15.0	11.0	0	0	771.1766455173492	7490	97224.9300057888	3480	53.538050734312414	
0.6029411470588236	64.64285714285714	10.779411764705882	47.838235294117645	33.25	2.0	107	406	135	13.0	70.0	49.0	31	7.0	18.0	13.0	0	0	779.8620626926422	7560	98004.79206848145	3505	53.63756613756614	
0.5942026666666667	61.91428571428571	11.057971014492754	49.89855072463768	34.666666666666664	2.0	108	408	143	15.0	83.0	57.0	34	7.0	18.0	13.0	0	0	776.1971604824066	7630	98780.98922896385	3532	53.70904325032765	
0.5490194705882354	64.25714285714285	11.073529411764707	50.294117647058826	34.9264705882353	2.0	109	411	179	15.0	79.0	55.0	23	7.0	17.0	12.0	0	0	774.3769564628601	7700	99555.36618542671	3565	53.7012987012987	
0.3619046714285714	68.2	10.457142857142857	44.77142857142857	31.12857142857143	2.0	110	412	149	15	79	55	31	7	15	11	0	0	815.5554623603821	7770	100370.9216477871	3602	53.64221364221364	
0.4343433484848485	67.27142857142857	10.969696969696969	50.121212121212125	34.81818181818182	2.0	111	417	142	16.0	90.0	62.0	20	7.0	15.0	11.0	0	0	771.2763230800629	7840	101142.19797086716	3630	53.69897959183674	
0.4595960303030303	62.01428571428571	11.454545454545455	53.18181818181818	37.015151515151516	2.0	112	422	154	15.0	79.0	55.0	8	8.0	22.0	16.0	0	0	798.9563934803009	7910	101941.15436434746	3666	53.65360303413401	
0.4577112537313433	59.785714285714285	11.447761194029852	52.582089552238806	36.492537313432834	2.0	113	426	87	16.0	90.0	62.0	31	7.0	17.0	12.0	0	0	805.3281419277191	7980	102746.48250627518	3704	53.583959899749374	
0.4852940294117647	60.7	10.911764705882353	48.205882352941174	33.529411764705884	2.0	114	429	105	16.0	90.0	62.0	30	7.0	15.0	11.0	0	0	806.8550775051117	8050	103553.33758378029	3730	53.66459627329193	
0.42380952857142856	61.042857142857144	10.885714285714286	48.7	33.82857142857143	2.0	115	430	103	15	81	56	27	7	17	12	0	0	813.6662862300873	8120	104367.00387001038	3768	53.59605911330049	
0.3731343432835821	64.58571428571429	11.298507462686567	52.149253731343286	36.208955223880594	2.0	116	434	119	17.0	95.0	66.0	27	7.0	17.0	12.0	0	0	790.3819584846497	8190	105157.38582849503	3806	53.52869352869353	
0.3961352608695652	68.91428571428571	11.26086956521739	51.072463768115945	35.46376811594203	2.0	117	436	152	17.0	97.0	67.0	26	7.0	15.0	11.0	0	0	822.5082836151123	8260	105979.89411211014	3846	53.43825665859564	
0.42857147142857144	68.42857142857143	11.342857142857143	52.01428571428571	36.07142857142857	2.0	118	436	145	17	97	67	33	7	15	11	0	0	828.34432721138	8330	106808.23843932152	3878	53.445378151260506	
0.5217390869565217	66.9	11.666666666666666	54.57971014492754	37.869565217391305	2.0	119	438	148	13.0	69.0	47.0	21	7.0	15.0	11.0	0	0	811.2926480770111	8400	107619.53108739853	3904	53.523809523809526	
0.31400963768115947	69.51428571428572	10.985507246376812	49.391304347826086	34.36231884057971	2.0	120	440	145	15.0	84.0	59.0	25	7.0	15.0	11.0	0	0	828.8165221214294	8470	108448.34760951996	3938	53.506493506493506	
0.2537312985074627	67.7	10.626865671641792	45.88059701492537	31.940298507462686	2.0	121	444	147	17.0	97.0	67.0	22	7.0	15.0	11.0	0	0	789.4284000396729	8540	109237.77600955963	3978	53.4192037470726	
0.24285711428571424	67.54285714285714	10.528571428571428	45.18571428571428	31.485714285714284	2.0	122	445	156	15	81	56	21	7	15	11	0	0	803.8754796981812	8610	110041.65148925781	4010	53.426248548199766	
0.2537313731343283	69.48571428571428	10.626865671641792	45.92537313432836	32.02985074626866	2.0	123	449	156	15.0	97.0	67.0	14	7.0	15.0	11.0	0	0	788.5648074150085	8680	110830.21629667282	4048	53.36405529953917	
0.23880592537313433	72.07142857142857	10.432835820895523	44.91044776119403	31.238805970149254	2.0	124	453	121	13.0	67.0	46.0	22	7.0	15.0	11.0	0	0	766.024836063385	8750	111596.2411327362	4086	53.30285714285714	
0.29850735820895524	66.11428571428571	10.417910447761194	44.985074626865675	31.28358208955224	2.0	125	457	129	15.0	81.0	56.0	16	7.0	15.0	11.0	0	0	781.6920368671417	8820	112377.93316960335	4119	53.29931972789116	
0.39898989393939394	68.22857142857143	10.212121212121213	42.81818181818182	29.742424242424242	2.0	126	462	141	16.0	90.0	62.0	20	7.0	15.0	11.0	0	0	763.6975729465485	8890	113141.6307425499	4150	53.318335208098986	
0.2990196029411765	77.87142857142857	10.102941176470589	41.89705882352941	29.16176470588235	2.0	127	465	166	16.0	90.0	62.0	36	7.0	15.0	11.0	0	0	788.3007025718689	8960	113929.93144512177	4173	53.426339285714285	
0.3333332985074627	81.52857142857142	9.835820895522389	40.53731343283582	28.26865671641791	2.0	128	469	161	16.0	90.0	62.0	17	7.0	15.0	11.0	0	0	773.7179808616638	9030	114703.64942598343	4196	53.53266888150609	
0.3188405362318841	89.78571428571429	10.028985507246377	42.94202898550725	29.92753623188406	2.0	129	471	158	16.0	92.0	64.0	27	7.0	17.0	12.0	0	0	787.9775865077972	9100	115491.62701249123	4220	53.62637362637363	
0.21739126086956523	85.54285714285714	9.304347826086957	36.52173913043478	25.536231884057973	2.0	130	473	167	14.0	92.0	64.0	31	7.0	15.0	11.0	0	0	776.8535289764404	9170	116268.48054146767	4251	53.6423118865867	
0.2020201666666667	68.94285714285714	9.166666666666666	35.10606060606061	24.53030303030303	2.0	131	478	167	15.0	81.0	56.0	18	7.0	15.0	11.0	0	0	727.7842092514038	9240	116996.26475071907	4278	53.7012987012987	
0.23809524285714287	78.71428571428571	9.142857142857142	35.214285714285715	24.67142857142857	2.0	132	479	167	14	102	71	31	7	15	11	0	0	772.6808397769928	9310	117768.94559049606	4314	53.662728249194416	
0.2657004927536232	75.85714285714286	9.985507246376812	42.3768115942029	29.6231884057971	2.0	133	481	190	15.0	102.0	71.0	31	7.0	15.0	11.0	0	0	802.1255884170532	9380	118571.07117891312	4341	53.720682302771856	
0.3084577164179105	78.27142857142857	9.507462686567164	38.62686567164179	26.970149253731343	2.0	134	485	177	14.0	76.0	53.0	19	7.0	15.0	11.0	0	0	769.1910841464996	9450	119340.26226305962	4376	53.69312169312169	
0.34848481818181815	68.7	9.909090909090908	41.57575757575758	28.954545454545453	2.0	135	490	170	14.0	115.0	80.0	18	7.0	15.0	11.0	0	0	795.168114900589	9520	120135.4303779602	4404	53.739495798319325	
0.41176475000000007	58.55714285714286	10.426470588235293	45.35294117647059	31.514705882352942	2.0	136	493	167	14.0	70.0	49.0	32	7.0	15.0	11.0	0	0	805.4372596740723	9590	120940.86763763428	4434	53.76433785192909	
0.47826088405797096	62.128571428571426	10.246376811594203	44.56521739130435	30.985507246376812	2.0	137	495	158	13.0	65.0	45.0	23	7.0	15.0	11.0	0	0	812.9599416255951	9660	121753.82757925987	4467	53.757763975155285	
0.3384615384615385	63.1	10.184615384615384	43.47692307692308	30.26153846153846	2.0	138	501	166	13.0	68.0	47.0	23	7.0	15.0	11.0	0	0	735.7101631164551	9730	122489.53774237633	4498	53.77183967112025	
0.32828283333333336	63.17142857142857	10.424242424242424	44.09090909090909	30.696969696969695	2.0	139	506	184	14.0	70.0	49.0	16	7.0	15.0	11.0	0	0	758.3146569728851	9800	123247.85239934921	4523	53.8469387755102	
0.4476189142857143	77.01428571428572	10.614285714285714	46.48571428571429	32.385714285714286	2.0	140	507	184	15	79	55	23	7	15	11	0	0	816.4478392601013	9870	124064.30023860931	4551	53.890577507598785	
0.4734299130434782	69.7	11.072463768115941	51.98550724637681	36.14492753623188	2.0	141	509	184	15.0	87.0	61.0	23	7.0	15.0	11.0	0	0	805.0630707740784	9940	124869.36330938339	4588	53.843058350100605	
0.5784313676470587	59.84285714285714	11.514705882352942	53.4264705882353	37.0735294117647	2.0	142	512	113	16.0	90.0	62.0	23	7.0	15.0	11.0	0	0	791.1623764038086	10010	125660.5256857872	4617	53.87612387612388	
0.5771142388059701	59.1	11.208955223880597	50.73134328358209	35.223880597014926	2.0	143	516	113	14.0	76.0	52.0	26	7.0	15.0	11.0	0	0	798.9635517597198	10080	126459.48923754692	4655	53.81944444444444	
0.322916625	58.7	10.75	47.703125	33.1875	2.0	144	523	97	15.0	107.0	74.0	21	7.0	15.0	11.0	0	0	747.7114660739899	10150	127207.20070362091	4692	53.77339901477832	
0.37254894117647064	59.68571428571428	10.779411764705882	47.01470588235294	32.720588235294116	2.0	145	526	123	15.0	79.0	55.0	23	7.0	15.0	11.0	0	0	794.690593957901	10220	128001.89129757881	4725	53.76712328767123	
0.2892156911764706	62.114285714285714	10.264705882352942	43.529411764705884	30.323529411764707	2.0	146	529	93	15.0	79.0	55.0	18	7.0	15.0	11.0	0	0	778.0798580646515	10290	128779.97115564346	4759	53.751214771622934	
0.2843136911764706	61.74285714285714	10.058823529411764	43.0735294117647	29.970588235294116	2.0	147	532	124	15.0	79.0	55.0	27	7.0	15.0	11.0	0	0	769.5337016582489	10360	129549.50485730171	4787	53.793436293436294	
0.26666658571428575	62.08571428571429	10.485714285714286	45.1	31.34285714285714	2.0	148	532	105	15	79	55	27	7	15	11	0	0	823.1904163360596	10430	130372.69527363777	4823	53.758389261744966	
0.2885571641791045	59.81428571428572	10.552238805970148	44.35820895522388	30.880597014925375	2.0	149	536	113	15.0	79.0	55.0	24	7.0	15.0	11.0	0	0	803.4198651313782	10500	131176.11513876915	4851	53.8	
0.3238095714285714	60.457142857142856	10.242857142857142	41.128571428571426	28.65714285714286	2.0	150	537	89	15	65	45	37	7	15	11	0	0	822.696879863739	10570	131998.8120186329	4879	53.841059602649004	
0.2696078382352941	61.0	10.632352941176471	43.25	30.08823529411765	2.0	151	540	90	15.0	77.0	53.0	37	7.0	15.0	11.0	0	0	754.1714010238647	10640	132752.98341965675	4911	53.84398496240602	
0.41293532835820895	57.75714285714286	10.716417910447761	46.23880597014925	32.149253731343286	2.0	152	544	102	15.0	79.0	55.0	31	7.0	15.0	11.0	0	0	775.3578085899353	10710	133528.3412282467	4941	53.865546218487395	
0.38235279411764705	57.94285714285714	10.264705882352942	43.705882352941174	30.441176470588236	2.0	153	547	89	15.0	83.0	57.0	26	7.0	15.0	11.0	0	0	780.6218464374542	10780	134308.96307468414	4969	53.90538033395176	
0.40909077272727273	58.9	10.969696969696969	48.515151515151516	33.75757575757576	2.0	154	552	102	14.0	70.0	49.0	16	7.0	15.0	11.0	0	0	783.459725856781	10850	135092.42280054092	4996	53.953917050691246	
0.5589743076923077	61.385714285714286	11.169230769230769	50.16923076923077	34.87692307692308	2.0	155	558	108	16.0	92.0	63.0	11	7.0	15.0	11.0	0	0	746.7532455921173	10920	135839.17604613304	5024	53.99267399267399	
0.5539215882352941	65.5	11.058823529411764	49.0735294117647	34.14705882352941	2.0	156	561	108	17.0	97.0	67.0	40	7.0	15.0	11.0	0	0	779.2801086902618	10990	136618.4561548233	5054	54.01273885350319	
0.4927536376811594	63.27142857142857	11.420289855072463	50.79710144927536	35.34782608695652	2.0	157	563	104	17.0	97.0	67.0	27	7.0	15.0	11.0	0	0	804.1345069408417	11060	137422.59066176414	5079	54.07775768535262	
0.4571428714285714	63.01428571428571	11.385714285714286	52.84285714285714	36.7	2.0	158	564	94	15	81	56	37	7	17	12	0	0	817.3257825374603	11130	138239.9164443016	5109	54.097035040431265	
0.39613530434782607	61.2	11.18840579710145	50.710144927536234	35.18840579710145	2.0	159	566	125	13.0	65.0	45.0	27	7.0	17.0	12.0	0	0	782.3487133979797	11200	139022.26515769958	5135	54.151785714285715	
0.5893720289855072	58.17142857142857	11.289855072463768	51.27536231884058	35.57971014492754	2.0	160	568	93	15.0	79.0	55.0	25	7.0	15.0	11.0	0	0	796.8804676532745	11270	139819.14562535286	5170	54.12599822537711	
0.42028982608695653	58.27142857142857	11.289855072463768	52.2463768115942	36.27536231884058	2.0	161	570	93	17.0	113.0	79.0	25	7.0	15.0	11.0	0	0	794.3972566127777	11340	140613.54288196564	5204	54.10934744268078	
0.39800994029850745	58.91428571428571	11.059701492537313	51.46268656716418	35.776119402985074	2.0	162	574	102	14.0	70.0	49.0	22	7.0	17.0	12.0	0	0	800.7299165725708	11410	141414.2727985382	5230	54.16301489921122	
0.5323384626865671	60.214285714285715	11.298507462686567	52.1044776119403	36.17910447761194	2.0	163	578	102	17.0	97.0	67.0	27	7.0	15.0	11.0	0	0	786.8906199932098	11480	142201.16341853142	5254	54.23344947735191	
0.4879226956521739	59.22857142857143	11.014492753623188	48.98550724637681	34.01449275362319	2.0	164	580	130	17.0	97.0	67.0	19	7.0	17.0	12.0	0	0	807.1325044631958	11550	143008.2959229946	5293	54.17316017316017	
0.5980391764705882	59.457142857142856	10.955882352941176	49.23529411764706	34.1764705882353	2.0	165	583	98	13.0	67.0	46.0	27	7.0	17.0	12.0	0	0	773.2521440982819	11620	143781.5480670929	5327	54.1566265060241	
0.37878775757575756	63.94285714285714	10.833333333333334	48.25757575757576	33.53030303030303	2.0	166	588	90	14.0	88.0	61.0	26	7.0	17.0	12.0	0	0	770.7121305465698	11690	144552.26019763947	5349	54.24294268605646	
0.37373737878787877	60.44285714285714	10.272727272727273	42.28787878787879	29.46969696969697	2.0	167	593	107	14.0	76.0	52.0	22	7.0	15.0	11.0	0	0	744.9721672534943	11760	145297.23236489296	5384	54.21768707482993	
0.3619047142857143	58.385714285714286	9.928571428571429	40.9	28.52857142857143	2.0	168	594	96	15	90	62	22	7	15	11	0	0	820.7073154449463	11830	146117.9396803379	5410	54.26880811496196	
0.3838383484848485	58.55714285714286	10.136363636363637	42.57575757575758	29.636363636363637	2.0	169	599	86	13.0	67.0	46.0	25	7.0	15.0	11.0	0	0	742.1089680194855	11900	146860.0486483574	5431	54.36134453781513	
0.2608695072463768	58.457142857142856	9.53623188405797	37.34782608695652	26.028985507246375	2.0	170	601	103	13.0	67.0	46.0	27	7.0	15.0	11.0	0	0	816.3757784366608	11970	147676.42442679405	5456	54.41938178780284	
0.3047618714285714	61.357142857142854	9.871428571428572	40.0	27.885714285714286	2.0	171	602	115	13	65	45	24	7	15	11	0	0	842.1550204753876	12040	148518.57944726944	5480	54.48504983388705	
0.348958171875	59.857142857142854	10.6875	46.734375	32.515625	2.0	172	609	98	15.0	98.0	68.0	20	7.0	15.0	11.0	0	0	755.8962750434875	12110	149274.47572231293	5513	54.475639966969446	
0.22885571641791044	64.27142857142857	10.477611940298507	43.64179104477612	30.34328358208955	2.0	173	613	116	15.0	81.0	56.0	25	7.0	20.0	14.0	0	0	775.0192518234253	12180	150049.49497413635	5546	54.46633825944171	
0.23529411764705882	64.51428571428572	10.323529411764707	43.85294117647059	30.470588235294116	2.0	174	616	98	13.0	65.0	45.0	37	7.0	17.0	12.0	0	0	809.6862366199493	12250	150859.1812107563	5576	54.481632653061226	
0.449495	62.18571428571428	10.424242424242424	46.28787878787879	32.166666666666664	2.0	175	621	93	15.0	80.0	56.0	22	7.0	17.0	12.0	0	0	763.0961153507233	12320	151622.27732610703	5603	54.521103896103895	
0.40909086363636366	57.84285714285714	10.242424242424242	44.86363636363637	31.21212121212121	2.0	176	626	94	15.0	105.0	73.0	22	7.0	15.0	11.0	0	0	756.3363645076752	12390	152378.6136906147	5627	54.58434221146086	
0.4626863582089552	63.98571428571429	10.582089552238806	46.865671641791046	32.582089552238806	2.0	177	630	119	15.0	98.0	68.0	24	7.0	17.0	12.0	0	0	778.1296720504761	12460	153156.74336266518	5654	54.62279293739968	
0.3030300909090909	64.25714285714285	10.348484848484848	44.74242424242424	31.166666666666668	2.0	178	635	104	15.0	79.0	55.0	30	7.0	17.0	12.0	0	0	764.0129768848419	12530	153920.75633955002	5684	54.63687150837988	
0.41293517910447763	64.0	10.686567164179104	46.74626865671642	32.53731343283582	2.0	179	639	102	15.0	79.0	55.0	19	7.0	15.0	11.0	0	0	773.2316932678223	12600	154693.98803281784	5712	54.66666666666667	
0.3582089104477612	63.2	10.552238805970148	45.1044776119403	31.402985074626866	2.0	180	643	99	16.0	92.0	63.0	34	7.0	15.0	11.0	0	0	782.411327123642	12670	155476.39935994148	5738	54.7119179163378	
0.4106280144927536	63.27142857142857	10.420289855072463	43.95652173913044	30.6231884057971	2.0	181	645	126	13.0	65.0	45.0	23	7.0	17.0	12.0	0	0	803.1519491672516	12740	156279.55130910873	5762	54.7723704866562	
0.40796014925373136	61.34285714285714	10.805970149253731	47.656716417910445	33.11940298507463	2.33333	182	649	126	13.0	67.0	46.0	23	7.0	17.0	12.0	0	0	770.2565052509308	12810	157049.80781435966	5795	54.76190476190476	
0.3781094029850746	58.75714285714286	10.477611940298507	44.95522388059702	31.238805970149254	2.33333	183	653	98	15.0	85.0	58.0	21	7.0	15.0	11.0	0	0	762.3176469802856	12880	157812.12546133995	5821	54.80590062111801	
0.285024115942029	60.67142857142857	10.144927536231885	43.14492753623188	30.0	2.33333	184	655	98	14.0	71.0	49.0	21	7.0	15.0	11.0	0	0	765.9579639434814	12950	158578.08342528343	5849	54.833976833976834	
0.26960777941176467	60.114285714285714	10.5	47.63235294117647	33.0735294117647	2.33333	185	658	94	13.0	79.0	55.0	29	7.0	17.0	12.0	0	0	746.1947319507599	13020	159324.2781572342	5888	54.77726574500768	
0.31343271641791043	55.18571428571428	10.059701492537313	42.44776119402985	29.52238805970149	2.33333	186	662	97	13.0	71.0	49.0	19	7.0	17.0	12.0	0	0	739.8651468753815	13090	160064.14330410957	5924	54.7440794499618	
0.3382351617647059	58.55714285714286	10.294117647058824	45.0	31.294117647058822	2.33333	187	665	98	14.0	74.0	51.0	19	7.0	15.0	11.0	0	0	784.9562442302704	13160	160849.09954833984	5957	54.73404255319149	
0.31862739705882354	60.25714285714286	10.926470588235293	49.0735294117647	34.088235294117645	2.33333	188	668	96	14.0	72.0	50.0	22	7.0	17.0	12.0	0	0	835.9530160427094	13230	161685.05256438255	5984	54.76946334089191	
0.3725489705882353	62.27142857142857	11.147058823529411	50.64705882352941	35.1764705882353	2.33333	189	671	96	14.0	72.0	50.0	27	7.0	15.0	11.0	0	0	798.9685463905334	13300	162484.0211107731	6014	54.78195488721804	
0.5343136617647058	61.5	11.073529411764707	50.4264705882353	34.98529411764706	2.33333	190	674	92	15.0	81.0	56.0	27	7.0	17.0	12.0	0	0	782.5816075801849	13370	163266.60271835327	6043	54.80179506357517	
0.4411763235294118	61.08571428571429	11.294117647058824	50.955882352941174	35.338235294117645	2.33333	191	677	98	15.0	81.0	56.0	27	7.0	15.0	11.0	0	0	809.3795237541199	13440	164075.9822421074	6083	54.739583333333336	
0.4444441739130435	61.42857142857143	10.376811594202898	42.81159420289855	29.797101449275363	2.33333	192	679	109	14.0	72.0	50.0	32	7.0	15.0	11.0	0	0	811.6743092536926	13510	164887.65655136108	6109	54.78164322723908	
0.4205126461538462	65.15714285714286	10.569230769230769	45.8	31.861538461538462	2.33333	193	685	118	14.0	76.0	52.0	17	7.0	17.0	12.0	0	0	757.5342283248901	13580	165645.19077968597	6136	54.81590574374079	
0.35238061428571427	65.44285714285714	10.714285714285714	46.457142857142856	32.371428571428574	2.33333	194	685	94	15	83	57	29	7	15	11	0	0	862.8021099567413	13650	166507.99288964272	6173	54.77655677655678	
0.35294085294117644	65.97142857142858	10.573529411764707	45.88235294117647	31.91176470588235	2.33333	195	688	119	15.0	79.0	55.0	21	7.0	15.0	11.0	0	0	786.4529132843018	13720	167294.44580292702	6207	54.75947521865889	
0.4589368115942029	68.62857142857143	11.057971014492754	48.84057971014493	33.95652173913044	2.33333	196	690	98	15.0	83.0	57.0	18	7.0	15.0	11.0	0	0	789.1690468788147	13790	168083.61484980583	6238	54.7643219724438	
0.3476187	72.1	11.314285714285715	52.5	36.4	2.33333	197	691	123	17	103	70	31	7	22	16	0	0	821.8394477367401	13860	168905.45429754257	6287	54.639249639249634	
0.35714248571428575	68.2	11.342857142857143	51.67142857142857	35.785714285714285	2.33333	198	692	119	17	97	67	36	7	15	11	0	0	826.4065828323364	13930	169731.8608803749	6332	54.54414931801866	
0.2745094705882353	65.54285714285714	10.867647058823529	49.51470588235294	34.30882352941177	2.33333	199	695	116	17.0	126.0	87.0	27	7.0	15.0	11.0	0	0	777.7025122642517	14000	170509.56339263916	6374	54.47142857142857	
0.3676465588235294	63.957142857142856	11.132352941176471	50.294117647058826	34.89705882352941	2.33333	200	698	116	17.0	124.0	85.0	29	7.0	15.0	11.0	0	0	806.7297217845917	14070	171316.29311442375	6412	54.42786069651741	
