Generation:
200

Phenotype:
*:*:B_RANDOM_WALK,3;B_ANTI_PHOTOTAXIS,44;B_RANDOM_WALK,86;IS_DROP_OBJECT,true,10;IS_WANT_OBJECT,true,10;IS_DROP_OBJECT,false,80;B_RANDOM_WALK,42;B_ANTI_PHOTOTAXIS,2;B_RANDOM_WALK,19#

Genotype:
[25393, 28677, 39891, 59691, 90875, 28813, 81250, 82962, 69964, 29417, 88883, 61534, 2020, 64074, 53086, 87914, 96540, 56888, 50596, 7880, 14529, 79506, 2465, 2236, 49105, 40366, 96162, 88616, 2465, 45337, 86904, 40366, 96162, 88616, 95067, 31189, 31537, 25649, 95929, 14978, 61534, 2020, 21263, 90942, 47838, 96540, 90525, 82057, 7880, 14529, 79506, 2465, 81239, 49105, 40366, 96162, 24297, 12581, 17511, 42073, 45003, 95929, 64074, 35176, 47838, 96540, 56888, 97927, 7880, 14529, 79506, 2465, 2236, 49105, 40366, 88964, 24297, 12581, 17511, 42073, 45003, 59358, 66568, 63919, 94716, 22561, 2430, 2866, 70509, 16186, 32917, 77255]
Tree:
None

Fitness:
5.8