Generation:
1300

Phenotype:
*:*:IS_MOTIVATION_1_INC,false,19#*:*:IS_WANT_OBJECT,false,15;IS_WANT_OBJECT,true,88;IS_WANT_OBJECT,false,9;IS_WANT_OBJECT,false,9;B_ANTI_PHOTOTAXIS,79;IS_DROP_OBJECT,false,87;B_RANDOM_WALK,93#

Genotype:
[29538, 11119, 12331, 51759, 86169, 41954, 34533, 56419, 15910, 17246, 34191, 38399, 2313, 55098, 84495, 67598, 54251, 28155, 53706, 57907, 16663, 70722, 85911, 90208, 10236, 33437, 20171, 23772, 86162, 33519, 2578, 30907, 99680, 46638, 7489, 87273, 67392, 30907, 99680, 46638, 7489, 87273, 67392, 44836, 382, 32338, 65830, 39228, 3595, 60180, 53041, 19833, 7359, 74711, 60974, 78601, 70580, 88468, 3666, 30094, 83279, 23227, 72188, 76606, 23695, 12006, 72224, 33461, 4254]
Tree:
None

Fitness:
7.33333