Generation:
200

Phenotype:
*:*:IS_DROP_OBJECT,false,71;IS_DROP_OBJECT,false,82;B_PHOTOTAXIS,3;IS_DROP_OBJECT,true,12;IS_DROP_OBJECT,false,85#P_HAS_OBJECT,true;*:*:B_ANTI_PHOTOTAXIS,75#

Genotype:
[56636, 37553, 82027, 69743, 21881, 57802, 54048, 21057, 12235, 95547, 90913, 81477, 76464, 69827, 57200, 82503, 90913, 23716, 63378, 27826, 84971, 32712, 46362, 93232, 19199, 63424, 79093, 7636, 85357, 39209, 50235, 47133, 24517, 67687, 11801, 94073, 13095, 88272, 56757, 26045, 28356, 85357, 32788, 60887, 39887, 60603, 97570, 50235, 36133, 24517, 67687, 11801, 94073, 31252, 95547, 33158, 81477, 45070, 28778, 81727, 72770, 59002, 86190, 19199, 35013, 11605, 7636, 85357, 17777, 50235, 36133, 3485, 67687, 82409, 94073, 39209, 88272, 62219, 70409, 28356, 83831, 55247, 88663, 22432, 582, 36659, 49870, 15591, 43188, 54626, 32889, 7668, 30353, 85357, 63648, 25374, 39887, 85603, 28356, 41361, 50005, 12877, 63653, 64317, 32136, 60407, 42614, 92197, 92348, 53280, 32970, 78089, 5448, 24628, 53978, 60603, 97570, 23296, 19928, 91247, 99090, 89658, 95194, 59963, 34758, 97241, 51053, 42769, 95685, 48388, 61219, 30579, 40813, 46211, 68549, 95735, 68485, 25029, 90441, 95184, 49341, 12771, 1973]
Tree:
None

Fitness:
11.0