ave_fitness	ave_genome_length	ave_tree_depth	ave_tree_nodes	ave_used_codons	best_fitness	gen	invalids	max_genome_length	max_tree_depth	max_tree_nodes	max_used_codons	min_genome_length	min_tree_depth	min_tree_nodes	min_used_codons	runtime_error	time_adjust	time_taken	total_inds	total_time	unique_inds	unused_search	
0.0	47.32	8.2	45.12	31.72	0.0	0	0	117	10	111	78	16	7	15	11	0	0	406.22213912010193	25	406.22213912010193	25	0.0	
0.0	40.44	8.08695652173913	30.217391304347824	21.347826086956523	0.0	1	2	127	10.0	89.0	62.0	16	7.0	15.0	11.0	0	0	318.059015750885	50	724.2811548709869	37	26.0	
0.0	34.04	8.047619047619047	31.095238095238095	21.857142857142858	0.0	2	6	59	10.0	55.0	38.0	16	7.0	15.0	11.0	0	0	235.3836088180542	75	959.6647636890411	43	42.666666666666664	
0.0	32.72	8.0	28.952380952380953	20.476190476190474	0.0	3	10	69	10.0	55.0	38.0	12	7.0	15.0	11.0	0	0	165.9572446346283	100	1125.6220083236694	47	53.0	
0.0	29.88	8.052631578947368	29.736842105263158	20.94736842105263	0.0	4	16	50	12.0	56.0	39.0	12	7.0	15.0	11.0	0	0	167.5171093940735	125	1293.139117717743	56	55.199999999999996	
0.0	32.72	8.181818181818182	30.181818181818183	21.181818181818183	0.0	5	19	50	11.0	50.0	35.0	12	7.0	15.0	11.0	0	0	317.0159764289856	150	1610.1550941467285	64	57.33333333333333	
0.0	33.12	8.391304347826088	31.347826086956523	22.0	0.0	6	21	50	11.0	50.0	35.0	16	7.0	15.0	11.0	0	0	378.8089990615845	175	1988.964093208313	75	57.142857142857146	
0.0	33.12	8.428571428571429	30.38095238095238	21.428571428571427	0.0	7	25	53	11.0	60.0	42.0	13	7.0	15.0	11.0	0	0	276.94751811027527	200	2265.9116113185883	88	56.0	
0.0	32.28	8.238095238095237	30.047619047619047	21.19047619047619	0.0	8	29	53	11.0	60.0	42.0	13	7.0	15.0	11.0	0	0	280.45047187805176	225	2546.36208319664	98	56.44444444444445	
0.0	34.68	8.125	30.583333333333332	21.416666666666668	0.0	9	30	53	10.0	48.0	33.0	16	7.0	15.0	11.0	0	0	319.301570892334	250	2865.663654088974	110	56.0	
0.0	33.44	7.913043478260869	29.782608695652176	20.91304347826087	0.0	10	32	54	10.0	48.0	33.0	12	7.0	15.0	11.0	0	0	318.5945761203766	275	3184.2582302093506	120	56.36363636363637	
0.0	33.76	8.15	32.3	22.55	0.0	11	37	66	13.0	65.0	45.0	12	7.0	15.0	11.0	0	0	223.95673632621765	300	3408.2149665355682	126	58.0	
0.0	37.24	8.428571428571429	34.04761904761905	23.761904761904763	0.0	12	41	68	13.0	65.0	45.0	16	7.0	15.0	11.0	0	0	224.71091032028198	325	3632.92587685585	138	57.53846153846154	
0.0	35.24	8.227272727272727	32.63636363636363	22.818181818181817	0.0	13	44	67	10.0	48.0	33.0	16	7.0	15.0	11.0	0	0	317.2747881412506	350	3950.200664997101	151	56.857142857142854	
0.0	33.92	8.391304347826088	31.652173913043477	22.304347826086957	0.0	14	46	67	10.0	44.0	30.0	16	7.0	15.0	11.0	0	0	317.93937063217163	375	4268.1400356292725	160	57.33333333333333	
0.0	35.2	7.9375	30.5	21.5	0.0	15	55	76	10.0	48.0	33.0	8	7.0	15.0	11.0	0	0	160.1002552509308	400	4428.240290880203	164	59.0	
0.0	27.56	8.428571428571429	31.666666666666668	22.333333333333332	0.0	16	59	48	11.0	49.0	34.0	13	7.0	15.0	11.0	0	0	222.34983825683594	425	4650.590129137039	173	59.294117647058826	
0.0	23.64	8.095238095238095	27.857142857142858	19.714285714285715	0.0	17	63	36	10.0	39.0	28.0	8	7.0	15.0	11.0	0	0	248.59117221832275	450	4899.181301355362	179	60.22222222222222	
0.0	26.24	7.9411764705882355	27.58823529411765	19.41176470588235	0.0	18	71	43	10.0	39.0	28.0	10	7.0	15.0	11.0	0	0	245.03500294685364	475	5144.216304302216	184	61.26315789473684	
0.0	28.52	7.666666666666667	26.285714285714285	18.428571428571427	0.0	19	75	54	10.0	47.0	33.0	7	7.0	15.0	11.0	0	0	171.04505801200867	500	5315.261362314224	194	61.199999999999996	
0.0	30.48	7.681818181818182	26.681818181818183	18.818181818181817	0.0	20	78	46	10.0	39.0	28.0	12	7.0	15.0	11.0	0	0	316.8548696041107	525	5632.116231918335	201	61.714285714285715	
0.0	26.44	8.090909090909092	28.227272727272727	20.0	0.0	21	81	44	10.0	39.0	28.0	6	7.0	15.0	11.0	0	0	317.45547461509705	550	5949.571706533432	209	62.0	
0.0	26.56	7.842105263157895	27.63157894736842	19.57894736842105	0.0	22	87	44	10.0	39.0	28.0	11	7.0	15.0	11.0	0	0	167.95634365081787	575	6117.52805018425	214	62.78260869565217	
0.0	27.64	7.739130434782608	27.217391304347824	19.217391304347824	0.0	23	89	44	9.0	37.0	26.0	10	7.0	15.0	11.0	0	0	326.2950472831726	600	6443.8230974674225	221	63.166666666666664	
0.0	31.44	7.65	24.95	17.6	0.0	24	94	57	10.0	35.0	24.0	10	7.0	15.0	11.0	0	0	247.01102900505066	625	6690.834126472473	228	63.519999999999996	
0.0	39.0	8.0	29.391304347826086	20.47826086956522	0.0	25	96	57	11.0	57.0	39.0	16	7.0	15.0	11.0	0	0	318.8049216270447	650	7009.639048099518	240	63.07692307692307	
0.0	38.04	7.583333333333333	24.583333333333332	17.25	0.0	26	97	57	9.0	35.0	24.0	16	7.0	15.0	11.0	0	0	318.8299958705902	675	7328.469043970108	249	63.111111111111114	
0.0	37.88	7.583333333333333	24.875	17.458333333333332	0.0	27	98	57	9.0	35.0	24.0	16	7.0	15.0	11.0	0	0	318.88092827796936	700	7647.349972248077	256	63.42857142857143	
0.0	30.44	7.545454545454546	24.545454545454547	17.363636363636363	0.0	28	101	57	9.0	35.0	24.0	16	7.0	15.0	11.0	0	0	316.9586925506592	725	7964.308664798737	260	64.13793103448276	
0.0	26.56	7.476190476190476	24.523809523809526	17.333333333333332	0.0	29	105	57	8.0	35.0	24.0	16	7.0	15.0	11.0	0	0	230.97050189971924	750	8195.279166698456	269	64.13333333333333	
0.0	24.2	7.666666666666667	25.761904761904763	18.19047619047619	0.0	30	109	36	9.0	35.0	24.0	16	7.0	15.0	11.0	0	0	231.22148776054382	775	8426.500654459	276	64.38709677419354	
0.0	25.76	7.391304347826087	24.869565217391305	17.52173913043478	0.0	31	111	40	9.0	37.0	26.0	10	7.0	15.0	11.0	0	0	318.9423317909241	800	8745.442986249924	285	64.375	
0.0	27.48	7.2631578947368425	23.263157894736842	16.473684210526315	0.0	32	117	40	8.0	35.0	24.0	16	7.0	15.0	11.0	0	0	230.49902725219727	825	8975.942013502121	288	65.0909090909091	
0.0	26.28	7.363636363636363	24.863636363636363	17.5	0.0	33	120	53	9.0	48.0	33.0	15	7.0	15.0	11.0	0	0	317.4831705093384	850	9293.42518401146	297	65.05882352941177	
0.0	25.8	7.55	25.15	17.75	0.0	34	125	36	10.0	39.0	28.0	16	7.0	15.0	11.0	0	0	261.66781306266785	875	9555.092997074127	304	65.25714285714287	
0.0	27.24	7.666666666666667	25.291666666666668	17.833333333333332	0.0	35	126	43	10.0	39.0	28.0	16	7.0	15.0	11.0	0	0	318.17312026023865	900	9873.266117334366	312	65.33333333333333	
0.0	25.64	8.1	29.35	20.7	0.0	36	131	38	10.0	39.0	28.0	16	7.0	15.0	11.0	0	0	261.899108171463	925	10135.165225505829	318	65.62162162162161	
0.0	27.72	8.19047619047619	29.0	20.61904761904762	0.0	37	135	38	10.0	42.0	30.0	16	7.0	15.0	11.0	0	0	234.0391800403595	950	10369.204405546188	323	66.0	
0.0	29.48	8.368421052631579	31.157894736842106	21.789473684210527	0.0	38	141	53	14.0	75.0	52.0	16	7.0	15.0	11.0	0	0	234.2238907814026	975	10603.428296327591	332	65.94871794871796	
0.0	30.36	7.55	25.15	17.7	0.0	39	146	53	9.0	35.0	24.0	10	7.0	15.0	11.0	0	0	220.60488510131836	1000	10824.03318142891	341	65.9	
0.0	30.44	8.0	27.583333333333332	19.416666666666668	0.0	40	147	56	10.0	39.0	28.0	16	7.0	15.0	11.0	0	0	379.6981751918793	1025	11203.731356620789	346	66.2439024390244	
