Generation:
2000

Phenotype:
*:*:B_ANTI_PHOTOTAXIS,42;IS_WANT_OBJECT,true,75;IS_MOTIVATION_1_DEC,false,74;B_RANDOM_WALK,81;IS_MOTIVATION_1_INC,false,67;IS_DROP_OBJECT,false,36#P_MOTIVATION_2_LT,false;*:*:B_RANDOM_WALK,36;IS_DROP_OBJECT,true,3#P_MOTIVATION_2_GT,true;P_MOTIVATION_2_LT,false;*:B_ANTI_PHOTOTAXIS;B_ANTI_PHOTOTAXIS;B_RANDOM_WALK;*:B_RANDOM_WALK,41#

Genotype:
[85494, 62754, 98363, 56557, 62039, 68080, 38886, 32990, 39239, 93907, 33069, 28942, 92463, 72686, 15150, 66802, 35223, 29120, 8937, 71293, 18843, 69049, 72188, 88814, 10404, 87798, 77786, 87547, 58156, 22201, 20347, 17078, 30093, 5319, 8937, 71293, 55382, 69049, 80365, 79624, 75050, 63492, 74928, 50436, 58156, 44639, 20347, 54985, 52977, 79412, 23258, 21650, 78780, 21458, 95481, 78047, 23409, 54122, 93589, 30290, 87267, 18843, 69049, 84892, 88814, 75050, 63492, 77786, 50436, 58156, 44639, 20347, 5558, 99584, 23032, 95564, 99850, 78780, 21458, 9861, 46117, 2651, 54122, 44639, 17372, 54985, 11673, 23032, 23258, 21650, 78780, 21458, 9861, 46117, 65197, 80517, 30421, 30290, 87267, 63143, 48417, 20167, 24959, 41014, 41740, 75520, 82108, 36557, 87777, 44993, 71592, 20152, 62202, 89646, 72548, 69282, 98181, 56555, 21288, 99058, 72329, 36173, 43255, 40149, 54725, 32273, 85007, 77019, 7941, 6782, 70444, 16288, 26623, 41307, 41492, 91278, 27440, 70700, 85437, 14276, 79663, 98077, 9828, 21029, 14542, 28475, 6319, 4763, 34260, 22193, 16403, 17430, 44282]
Tree:
None

Fitness:
6.4