Generation:
200

Phenotype:
*:*:IS_MOTIVATION_1_INC,true,56;IS_WANT_OBJECT,false,34;IS_DROP_OBJECT,false,79;B_RANDOM_WALK,5#

Genotype:
[42089, 30836, 1893, 50713, 57875, 62189, 88656, 49305, 97139, 12632, 83954, 1369, 50404, 74057, 63041, 50478, 75781, 42555, 50478, 90905, 45139, 86299, 57875, 50478, 64773, 8808, 97646, 87311, 90905, 41639, 86299, 57875, 50478, 64773, 8808, 97646, 87311, 79595, 78355, 94822, 81076, 78049, 71889, 47211, 90905, 18860, 27736, 42585, 4594, 79282, 78857, 88483, 94868, 16878, 61962, 82869, 50717, 28673, 49589, 85942, 60546, 25015, 82670, 25685, 75867, 71350, 72092, 80900, 98489, 42230]
Tree:
None

Fitness:
3.8