ave_fitness	ave_genome_length	ave_tree_depth	ave_tree_nodes	ave_used_codons	best_fitness	gen	invalids	max_genome_length	max_tree_depth	max_tree_nodes	max_used_codons	min_genome_length	min_tree_depth	min_tree_nodes	min_used_codons	runtime_error	time_adjust	time_taken	total_inds	total_time	unique_inds	unused_search	
0.0	56.67142857142857	8.228571428571428	54.32857142857143	37.92857142857143	0.0	0	0	184	10	178	123	16	7	15	11	0	0	1320.9634664058685	70	1320.9634664058685	70	0.0	
0.0	62.6	8.607843137254902	47.13725490196079	33.01960784313726	0.0	1	20	184	13.0	153.0	107.0	12	7.0	15.0	11.0	0	0	853.8134245872498	140	2174.7768909931183	114	18.57142857142857	
0.0	67.72857142857143	8.507936507936508	45.41269841269841	31.61904761904762	0.0	2	28	184	17.0	215.0	148.0	12	7.0	15.0	11.0	0	0	1044.698025226593	210	3219.4749162197113	155	26.19047619047619	
0.0	63.3	8.35593220338983	40.83050847457627	28.47457627118644	0.0	3	40	184	13.0	176.0	121.0	11	7.0	15.0	11.0	0	0	966.4563217163086	280	4185.93123793602	178	36.42857142857143	
0.0	83.4	9.161290322580646	50.54838709677419	35.08064516129032	0.0	4	49	184	17.0	215.0	148.0	6	7.0	15.0	11.0	0	0	1022.0100526809692	350	5207.941290616989	205	41.42857142857142	
0.0	78.21428571428571	9.087719298245615	48.63157894736842	33.73684210526316	0.0	5	63	193	17.0	247.0	171.0	15	7.0	15.0	11.0	0	0	925.5167615413666	420	6133.458052158356	237	43.57142857142857	
0.0	71.15714285714286	8.19672131147541	34.377049180327866	24.0	0.0	6	73	214	13.0	123.0	86.0	13	7.0	15.0	11.0	0	0	1007.62548661232	490	7141.083538770676	272	44.48979591836735	
0.0	75.75714285714285	8.76923076923077	43.707692307692305	30.4	0.0	7	79	206	17.0	215.0	148.0	11	7.0	15.0	11.0	0	0	1088.6579649448395	560	8229.741503715515	302	46.07142857142858	
0.0	61.042857142857144	8.469696969696969	39.03030303030303	27.151515151515152	0.0	8	84	206	11.0	119.0	82.0	15	7.0	15.0	11.0	0	0	1080.2864973545074	630	9310.028001070023	324	48.57142857142858	
0.0	57.05714285714286	8.106060606060606	33.74242424242424	23.5	0.0	9	89	184	11.0	111.0	77.0	15	7.0	15.0	11.0	0	0	1071.437124490738	700	10381.46512556076	353	49.57142857142857	
0.0	62.94285714285714	8.378787878787879	35.71212121212121	24.818181818181817	0.0	10	94	132	13.0	111.0	77.0	15	7.0	15.0	11.0	0	0	1114.9989926815033	770	11496.464118242264	388	49.61038961038962	
0.0	75.27142857142857	8.455882352941176	34.779411764705884	24.147058823529413	0.0	11	97	136	14.0	99.0	68.0	15	7.0	15.0	11.0	0	0	1134.5602095127106	840	12631.024327754974	425	49.404761904761905	
0.0	64.88571428571429	8.307692307692308	33.84615384615385	23.553846153846155	0.0	12	103	136	14.0	98.0	68.0	15	7.0	15.0	11.0	0	0	1097.9292147159576	910	13728.953542470932	458	49.67032967032967	
0.0	60.4	8.046153846153846	35.43076923076923	24.73846153846154	0.0	13	109	151	13.0	147.0	101.0	16	7.0	15.0	11.0	0	0	1092.4528284072876	980	14821.40637087822	494	49.59183673469387	
0.0	61.07142857142857	8.065573770491802	32.78688524590164	22.950819672131146	0.0	14	119	151	13.0	122.0	84.0	16	7.0	15.0	11.0	0	0	1036.4975702762604	1050	15857.90394115448	514	51.047619047619044	
0.0	62.7	8.387096774193548	38.20967741935484	26.677419354838708	0.0	15	128	151	14.0	97.0	68.0	16	7.0	15.0	11.0	0	0	1052.4243931770325	1120	16910.328334331512	543	51.517857142857146	
0.0	62.07142857142857	8.0625	34.03125	23.78125	0.0	16	135	132	13.0	93.0	64.0	16	7.0	15.0	11.0	0	0	1058.8497002124786	1190	17969.17803454399	573	51.84873949579832	
0.0	59.628571428571426	8.048387096774194	32.274193548387096	22.56451612903226	0.0	17	144	124	12.0	87.0	60.0	16	7.0	15.0	11.0	0	0	1032.350106716156	1260	19001.528141260147	604	52.06349206349206	
0.0	49.628571428571426	8.129032258064516	33.83870967741935	23.629032258064516	0.0	18	153	124	10.0	87.0	60.0	16	7.0	15.0	11.0	0	0	1021.7454240322113	1330	20023.27356529236	624	53.08270676691729	
0.0	51.0	8.048387096774194	33.17741935483871	23.161290322580644	0.0	19	162	120	10.0	87.0	60.0	8	7.0	15.0	11.0	0	0	996.7700605392456	1400	21020.043625831604	650	53.57142857142857	
0.0	45.48571428571429	8.0	32.142857142857146	22.464285714285715	0.0	20	177	111	13.0	112.0	79.0	8	7.0	15.0	11.0	0	0	903.8960196971893	1470	21923.939645528793	673	54.21768707482993	
0.0	53.52857142857143	8.11111111111111	31.88888888888889	22.333333333333332	0.0	21	185	129	13.0	112.0	79.0	16	7.0	15.0	11.0	0	0	1004.6715571880341	1540	22928.611202716827	701	54.480519480519476	
0.0	51.27142857142857	8.064516129032258	32.53225806451613	22.838709677419356	0.0	22	194	119	12.0	112.0	79.0	14	7.0	15.0	11.0	0	0	990.9289412498474	1610	23919.540143966675	730	54.6583850931677	
0.0	47.9	7.78125	30.453125	21.328125	0.0	23	201	119	14.0	101.0	70.0	12	7.0	15.0	11.0	0	0	1007.1665966510773	1680	24926.706740617752	759	54.82142857142857	
0.0	55.357142857142854	7.967741935483871	30.596774193548388	21.451612903225808	0.0	24	210	126	12.0	109.0	76.0	13	7.0	15.0	11.0	0	0	976.053827047348	1750	25902.7605676651	785	55.142857142857146	
0.0	51.98571428571429	7.777777777777778	28.92063492063492	20.3015873015873	0.0	25	218	115	12.0	109.0	76.0	12	7.0	15.0	11.0	0	0	1047.8415217399597	1820	26950.60208940506	807	55.659340659340664	
0.0	52.4	7.765625	29.25	20.515625	0.0	26	225	115	13.0	109.0	76.0	10	7.0	15.0	11.0	0	0	1058.9959366321564	1890	28009.598026037216	829	56.13756613756614	
0.0	42.48571428571429	7.555555555555555	26.984126984126984	18.952380952380953	0.0	27	233	109	10.0	55.0	38.0	5	7.0	15.0	11.0	0	0	1024.5299444198608	1960	29034.127970457077	854	56.42857142857143	
0.0	43.214285714285715	7.796875	29.21875	20.5	0.0	28	240	107	10.0	57.0	39.0	12	7.0	15.0	11.0	0	0	1024.4351179599762	2030	30058.563088417053	883	56.50246305418719	
0.0	40.114285714285714	7.785714285714286	29.017857142857142	20.303571428571427	0.0	29	255	114	11.0	51.0	36.0	9	7.0	15.0	11.0	0	0	878.6548364162445	2100	30937.217924833298	900	57.142857142857146	
0.0	43.05714285714286	7.583333333333333	27.1	18.966666666666665	0.0	30	266	114	10.0	62.0	42.0	16	7.0	15.0	11.0	0	0	931.5598964691162	2170	31868.777821302414	921	57.55760368663594	
0.0	40.4	7.476923076923077	27.353846153846153	19.123076923076923	0.0	31	272	114	10.0	50.0	34.0	14	7.0	15.0	11.0	0	0	1013.5895063877106	2240	32882.367327690125	946	57.767857142857146	
0.0	46.457142857142856	7.5	29.080645161290324	20.258064516129032	0.0	32	281	122	11.0	73.0	51.0	10	7.0	15.0	11.0	0	0	966.0883004665375	2310	33848.45562815666	973	57.87878787878788	
0.0	42.98571428571429	7.584615384615384	29.4	20.476923076923075	0.0	33	287	114	11.0	73.0	51.0	14	7.0	15.0	11.0	0	0	1057.6922566890717	2380	34906.147884845734	995	58.193277310924366	
0.0	44.65714285714286	7.569230769230769	28.723076923076924	20.092307692307692	0.0	34	293	117	11.0	77.0	53.0	16	7.0	15.0	11.0	0	0	1083.4782676696777	2450	35989.62615251541	1021	58.326530612244895	
0.0	45.57142857142857	7.640625	27.796875	19.5	0.0	35	300	117	9.0	60.0	41.0	16	7.0	15.0	11.0	0	0	1075.5476763248444	2520	37065.173828840256	1050	58.33333333333333	
0.0	59.48571428571429	7.5	26.9375	18.890625	0.0	36	307	130	9.0	50.0	35.0	3	7.0	15.0	11.0	0	0	1061.6499619483948	2590	38126.82379078865	1072	58.610038610038615	
0.0	60.7	7.8	29.723076923076924	20.8	0.0	37	313	130	12.0	70.0	48.0	3	7.0	15.0	11.0	0	0	1090.8630702495575	2660	39217.68686103821	1098	58.721804511278194	
0.0	51.44285714285714	7.636363636363637	28.318181818181817	19.863636363636363	0.0	38	318	149	11.0	53.0	37.0	16	7.0	15.0	11.0	0	0	1139.9360332489014	2730	40357.62289428711	1124	58.82783882783883	
0.0	61.94285714285714	7.825396825396825	30.015873015873016	21.063492063492063	0.0	39	326	149	10.0	52.0	36.0	6	7.0	15.0	11.0	0	0	1089.5699179172516	2800	41447.19281220436	1144	59.14285714285714	
0.0	60.77142857142857	7.540983606557377	26.950819672131146	18.934426229508198	0.0	40	336	140	9.0	50.0	35.0	9	7.0	15.0	11.0	0	0	1027.7790167331696	2870	42474.97182893753	1168	59.30313588850174	
0.0	76.65714285714286	7.82089552238806	30.71641791044776	21.47761194029851	0.0	41	340	140	11.0	68.0	47.0	16	7.0	15.0	11.0	0	0	1138.0674254894257	2940	43613.039254426956	1201	59.14965986394558	
0.0	70.24285714285715	8.15625	34.25	23.96875	0.0	42	347	142	11.0	73.0	50.0	16	7.0	15.0	11.0	0	0	1054.6770436763763	3010	44667.71629810333	1232	59.06976744186046	
0.0	79.27142857142857	8.125	32.78125	22.9375	0.0	43	354	152	11.0	70.0	48.0	14	7.0	15.0	11.0	0	0	1073.2868783473969	3080	45741.00317645073	1263	58.993506493506494	
0.0	78.35714285714286	8.514705882352942	35.38235294117647	24.75	0.0	44	357	152	16.0	92.0	63.0	9	7.0	15.0	11.0	0	0	1175.926013469696	3150	46916.929189920425	1288	59.11111111111111	
0.0	73.94285714285714	8.388059701492537	31.970149253731343	22.432835820895523	0.0	45	361	152	16.0	78.0	53.0	16	7.0	15.0	11.0	0	0	1124.437739610672	3220	48041.3669295311	1320	59.006211180124225	
0.0	75.68571428571428	8.272727272727273	32.13636363636363	22.484848484848484	0.0	46	366	156	16.0	140.0	96.0	12	7.0	15.0	11.0	0	0	1075.7680623531342	3290	49117.13499188423	1350	58.96656534954408	
0.0	81.25714285714285	8.530303030303031	34.77272727272727	24.242424242424242	0.0	47	371	141	16.0	140.0	96.0	16	7.0	15.0	11.0	0	0	1050.1240510940552	3360	50167.25904297829	1383	58.839285714285715	
0.0	82.91428571428571	8.590909090909092	35.803030303030305	24.863636363636363	0.0	48	376	143	16.0	79.0	55.0	16	7.0	15.0	11.0	0	0	1045.313941001892	3430	51212.57298398018	1414	58.775510204081634	
0.0	80.85714285714286	8.434782608695652	34.31884057971015	23.89855072463768	0.0	49	378	142	16.0	79.0	55.0	16	7.0	15.0	11.0	0	0	1129.8702256679535	3500	52342.44320964813	1444	58.74285714285714	
0.0	76.75714285714285	7.91044776119403	30.865671641791046	21.53731343283582	0.0	50	382	132	14.0	84.0	59.0	13	7.0	15.0	11.0	0	0	1096.7911682128906	3570	53439.23437786102	1474	58.71148459383754	
0.0	76.45714285714286	8.1	32.6	22.728571428571428	0.0	51	382	160	13	91	62	16	7	15	11	0	0	1171.9615335464478	3640	54611.19591140747	1514	58.4065934065934	
0.0	71.27142857142857	8.215384615384615	34.63076923076923	24.092307692307692	0.0	52	388	160	14.0	87.0	60.0	16	7.0	15.0	11.0	0	0	1070.1369171142578	3710	55681.33282852173	1552	58.16711590296496	
0.0	80.94285714285714	8.06060606060606	35.10606060606061	24.439393939393938	0.0	53	393	160	14.0	129.0	89.0	16	7.0	15.0	11.0	0	0	1085.2172811031342	3780	56766.55010962486	1581	58.17460317460317	
0.0	79.88571428571429	7.746268656716418	28.19402985074627	19.80597014925373	0.0	54	397	138	13.0	77.0	53.0	12	7.0	15.0	11.0	0	0	1084.4363589286804	3850	57850.98646855354	1606	58.285714285714285	
0.0	77.05714285714286	7.567164179104478	27.83582089552239	19.492537313432837	0.0	55	401	138	10.0	84.0	58.0	16	7.0	15.0	11.0	0	0	1076.1708171367645	3920	58927.15728569031	1637	58.23979591836735	
0.0	73.15714285714286	7.666666666666667	30.63768115942029	21.36231884057971	0.0	56	403	138	14.0	117.0	82.0	16	7.0	15.0	11.0	0	0	1117.2337381839752	3990	60044.39102387428	1665	58.27067669172932	
0.0	71.8	7.753623188405797	30.18840579710145	21.014492753623188	0.0	57	405	140	14.0	91.0	62.0	16	7.0	15.0	11.0	0	0	1146.4753770828247	4060	61190.86640095711	1695	58.251231527093594	
0.0	75.12857142857143	7.444444444444445	27.603174603174605	19.285714285714285	0.0	58	413	126	11.0	89.0	63.0	15	7.0	15.0	11.0	0	0	1036.448175907135	4130	62227.31457686424	1716	58.450363196125906	
0.0	65.87142857142857	7.666666666666667	27.333333333333332	19.095238095238095	0.0	59	421	126	13.0	82.0	56.0	7	7.0	15.0	11.0	0	0	1058.6321663856506	4200	63285.94674324989	1745	58.45238095238095	
0.0	60.3	7.693548387096774	27.322580645161292	19.080645161290324	0.0	60	430	129	13.0	82.0	56.0	12	7.0	15.0	11.0	0	0	1107.3960409164429	4270	64393.342784166336	1771	58.52459016393443	
0.0	72.31428571428572	7.742424242424242	27.303030303030305	19.09090909090909	0.0	61	435	133	13.0	82.0	56.0	11	7.0	15.0	11.0	0	0	1096.1289207935333	4340	65489.47170495987	1790	58.755760368663594	
0.0	58.01428571428571	7.477611940298507	24.08955223880597	16.880597014925375	0.0	62	439	123	13.0	82.0	56.0	16	7.0	15.0	11.0	0	0	1124.047534942627	4410	66613.5192399025	1812	58.91156462585034	
0.0	50.82857142857143	7.390625	22.578125	15.890625	0.0	63	446	126	10.0	40.0	28.0	15	7.0	15.0	11.0	0	0	1081.2474956512451	4480	67694.76673555374	1834	59.0625	
0.0	56.17142857142857	7.36231884057971	21.89855072463768	15.391304347826088	0.0	64	448	122	10.0	40.0	28.0	16	7.0	15.0	11.0	0	0	1145.7966752052307	4550	68840.56341075897	1854	59.25274725274725	
0.0	57.98571428571429	7.229508196721311	20.18032786885246	14.245901639344263	0.0	65	458	119	10.0	40.0	28.0	4	7.0	15.0	11.0	0	0	1010.522955417633	4620	69851.0863661766	1869	59.54545454545455	
0.0	61.47142857142857	7.424242424242424	22.075757575757574	15.590909090909092	0.0	66	463	131	16.0	92.0	63.0	15	7.0	15.0	11.0	0	0	1091.1533584594727	4690	70942.23972463608	1884	59.82942430703625	
0.0	72.54285714285714	7.430769230769231	22.107692307692307	15.584615384615384	0.0	67	469	117	11.0	49.0	34.0	14	7.0	15.0	11.0	0	0	1088.4198024272919	4760	72030.65952706337	1906	59.95798319327731	
0.0	69.62857142857143	7.636363636363637	23.818181818181817	16.727272727272727	0.0	68	474	106	13.0	76.0	52.0	13	7.0	15.0	11.0	0	0	1091.1973612308502	4830	73121.85688829422	1928	60.082815734989644	
0.0	71.98571428571428	7.794117647058823	24.985294117647058	17.558823529411764	0.0	69	477	119	14.0	74.0	51.0	15	7.0	15.0	11.0	0	0	1131.4103863239288	4900	74253.26727461815	1954	60.12244897959184	
0.0	69.18571428571428	7.575757575757576	23.227272727272727	16.439393939393938	0.0	70	482	113	14.0	87.0	60.0	15	7.0	15.0	11.0	0	0	1148.7502012252808	4970	75402.01747584343	1980	60.160965794768615	
0.0	65.8	7.4	21.892307692307693	15.523076923076923	0.0	71	488	120	13.0	70.0	50.0	16	7.0	15.0	11.0	0	0	1085.5870542526245	5040	76487.60453009605	2000	60.317460317460316	
0.0	64.65714285714286	7.707692307692308	23.984615384615385	16.861538461538462	0.0	72	494	120	15.0	63.0	43.0	16	7.0	15.0	11.0	0	0	1065.085288286209	5110	77552.68981838226	2027	60.33268101761253	
0.0	67.04285714285714	7.492537313432836	22.26865671641791	15.746268656716419	0.0	73	498	133	13.0	52.0	36.0	16	7.0	15.0	11.0	0	0	1111.3749041557312	5180	78664.064722538	2044	60.54054054054054	
0.0	68.01428571428572	7.432835820895522	22.074626865671643	15.626865671641792	0.0	74	502	133	13.0	55.0	38.0	16	7.0	15.0	11.0	0	0	1099.732496023178	5250	79763.79721856117	2062	60.72380952380952	
0.0	76.95714285714286	7.642857142857143	23.82857142857143	16.8	0.0	75	503	133	13	68	46	16	7	15	11	0	0	1165.3920667171478	5320	80929.18928527832	2073	61.03383458646617	
0.0	64.77142857142857	7.8059701492537314	26.582089552238806	18.671641791044777	0.0	76	507	141	13.0	68.0	46.0	12	7.0	15.0	11.0	0	0	1081.033774614334	5390	82010.22305989265	2093	61.16883116883117	
0.0	67.02857142857142	7.8	29.15714285714286	20.457142857142856	0.0	77	508	141	13	101	69	16	7	15	11	0	0	1155.6501507759094	5460	83165.87321066856	2116	61.24542124542124	
0.0	62.47142857142857	8.059701492537313	33.76119402985075	23.507462686567163	0.0	78	512	141	13.0	101.0	69.0	16	7.0	15.0	11.0	0	0	1078.528030872345	5530	84244.40124154091	2146	61.19349005424955	
0.0	50.67142857142857	7.757575757575758	28.318181818181817	19.803030303030305	0.0	79	517	114	11.0	67.0	46.0	16	7.0	15.0	11.0	0	0	1071.3144261837006	5600	85315.71566772461	2169	61.26785714285714	
0.0	53.31428571428572	8.092307692307692	32.49230769230769	22.56923076923077	0.0	80	523	120	15.0	79.0	55.0	16	7.0	15.0	11.0	0	0	1070.2041015625	5670	86385.91976928711	2198	61.23456790123456	
0.0	49.9	8.310344827586206	33.741379310344826	23.53448275862069	0.0	81	536	117	15.0	82.0	56.0	9	7.0	15.0	11.0	0	0	945.5246407985687	5740	87331.44441008568	2225	61.23693379790941	
0.0	54.885714285714286	8.35820895522388	34.56716417910448	24.044776119402986	0.0	82	540	115	14.0	82.0	56.0	16	7.0	15.0	11.0	0	0	1113.9049320220947	5810	88445.34934210777	2264	61.03270223752151	
0.0	56.7	8.208955223880597	35.07462686567164	24.417910447761194	0.0	83	544	114	13.0	82.0	56.0	12	7.0	15.0	11.0	0	0	1077.743655204773	5880	89523.09299731255	2303	60.833333333333336	
0.0	65.0	8.164179104477611	35.1044776119403	24.46268656716418	0.0	84	548	135	13.0	84.0	58.0	16	7.0	15.0	11.0	0	0	1081.3570504188538	5950	90604.4500477314	2334	60.773109243697476	
0.0	58.142857142857146	8.333333333333334	36.072463768115945	25.043478260869566	0.0	85	550	127	13.0	82.0	56.0	16	7.0	15.0	11.0	0	0	1091.4442563056946	6020	91695.8943040371	2365	60.714285714285715	
0.0	58.67142857142857	7.984375	33.375	23.171875	0.0	86	557	127	13.0	82.0	56.0	13	7.0	15.0	11.0	0	0	1028.6600511074066	6090	92724.5543551445	2393	60.70607553366174	
0.0	51.357142857142854	8.046153846153846	33.676923076923075	23.415384615384614	0.0	87	563	124	14.0	96.0	67.0	16	7.0	15.0	11.0	0	0	1055.3877866268158	6160	93779.94214177132	2421	60.69805194805195	
0.0	49.871428571428574	7.720588235294118	29.794117647058822	20.779411764705884	0.0	88	566	110	11.0	65.0	45.0	16	7.0	15.0	11.0	0	0	1148.6376976966858	6230	94928.579839468	2442	60.80256821829855	
0.0	55.24285714285714	8.044117647058824	32.279411764705884	22.470588235294116	0.0	89	569	120	12.0	72.0	50.0	16	7.0	15.0	11.0	0	0	1126.9277040958405	6300	96055.50754356384	2479	60.65079365079365	
0.0	50.47142857142857	7.552238805970149	28.35820895522388	19.73134328358209	0.0	90	573	112	11.0	51.0	35.0	16	7.0	15.0	11.0	0	0	1122.4843473434448	6370	97177.99189090729	2500	60.75353218210361	
0.0	56.214285714285715	7.6875	30.1875	20.96875	0.0	91	580	110	10.0	48.0	33.0	16	7.0	15.0	11.0	0	0	1030.9718234539032	6440	98208.96371436119	2515	60.9472049689441	
0.0	61.01428571428571	7.818181818181818	31.454545454545453	21.893939393939394	0.0	92	585	135	11.0	64.0	44.0	13	7.0	15.0	11.0	0	0	1062.8117129802704	6510	99271.77542734146	2542	60.95238095238095	
0.0	64.7	8.323076923076924	35.55384615384615	24.73846153846154	0.0	93	591	131	13.0	84.0	58.0	12	7.0	15.0	11.0	0	0	1055.7085089683533	6580	100327.48393630981	2573	60.89665653495441	
0.0	67.84285714285714	8.615384615384615	38.41538461538462	26.784615384615385	0.0	94	597	124	13.0	79.0	55.0	13	7.0	15.0	11.0	0	0	1085.8640730381012	6650	101413.34800934792	2604	60.8421052631579	
0.0	75.41428571428571	8.333333333333334	35.55072463768116	24.797101449275363	0.0	95	599	141	12.0	63.0	44.0	16	7.0	15.0	11.0	0	0	1144.4552824497223	6720	102557.80329179764	2642	60.68452380952381	
0.0	75.51428571428572	8.515151515151516	36.24242424242424	25.166666666666668	0.0	96	604	145	12.0	78.0	53.0	11	7.0	15.0	11.0	0	0	1100.8924729824066	6790	103658.69576478004	2668	60.706921944035344	
0.0	68.78571428571429	8.287878787878787	33.10606060606061	23.015151515151516	0.0	97	609	132	13.0	75.0	51.0	16	7.0	15.0	11.0	0	0	1073.8838183879852	6860	104732.57958316803	2695	60.714285714285715	
0.029850746268656716	70.68571428571428	8.134328358208956	31.791044776119403	22.19402985074627	1.0	98	613	133	12.0	78.0	56.0	16	7.0	15.0	11.0	0	0	1082.7432503700256	6930	105815.32283353806	2717	60.79365079365079	
0.03589743076923077	72.88571428571429	8.4	33.98461538461538	23.73846153846154	1.0	99	619	133	12.0	111.0	78.0	14	7.0	15.0	11.0	0	0	1080.4954018592834	7000	106895.81823539734	2749	60.72857142857143	
0.0772946231884058	80.41428571428571	8.478260869565217	34.869565217391305	24.391304347826086	1.33333	100	621	143	12.0	156.0	108.0	17	7.0	15.0	11.0	0	0	1179.7563607692719	7070	108075.57459616661	2783	60.63649222065063	
0.13725470588235295	81.82857142857142	8.691176470588236	33.544117647058826	23.485294117647058	1.33333	101	624	143	13.0	75.0	53.0	17	7.0	15.0	11.0	0	0	1193.2264020442963	7140	109268.8009982109	2817	60.54621848739496	
0.3233826417910448	72.41428571428571	8.701492537313433	32.91044776119403	22.970149253731343	1.66667	102	628	132	12.0	59.0	41.0	17	7.0	15.0	11.0	0	0	1167.7200779914856	7210	110436.52107620239	2849	60.48543689320388	
0.3999995384615384	70.98571428571428	8.830769230769231	33.41538461538462	23.307692307692307	1.66667	103	634	137	11.0	53.0	37.0	28	7.0	15.0	11.0	0	0	1123.5336380004883	7280	111560.05471420288	2877	60.48076923076923	
0.4726361641791045	65.47142857142858	9.044776119402986	34.223880597014926	23.865671641791046	1.66667	104	638	132	11.0	66.0	46.0	33	7.0	15.0	11.0	0	0	1147.7852244377136	7350	112707.8399386406	2903	60.50340136054422	
0.4607837205882353	61.714285714285715	9.176470588235293	34.0735294117647	23.794117647058822	1.66667	105	641	136	13.0	65.0	45.0	35	7.0	15.0	11.0	0	0	1198.7403407096863	7420	113906.58027935028	2932	60.485175202156334	
0.5870641791044776	61.285714285714285	9.194029850746269	35.343283582089555	24.686567164179106	1.66667	106	645	140	12.0	79.0	55.0	18	7.0	17.0	12.0	0	0	1161.0032153129578	7490	115067.58349466324	2961	60.467289719626166	
0.6051279538461538	61.357142857142854	9.430769230769231	37.53846153846154	26.16923076923077	1.66667	107	651	128	12.0	91.0	63.0	31	7.0	15.0	11.0	0	0	1155.3012871742249	7560	116222.88478183746	2980	60.58201058201058	
0.5472635373134328	63.67142857142857	9.238805970149254	35.71641791044776	24.940298507462686	1.66667	108	655	128	11.0	58.0	41.0	29	7.0	17.0	12.0	0	0	1189.6632068157196	7630	117412.54798865318	3006	60.602883355176935	
0.42380952857142856	65.25714285714285	9.314285714285715	35.32857142857143	24.714285714285715	1.66667	109	655	128	14	72	50	29	7	15	11	0	0	1305.2743544578552	7700	118717.82234311104	3039	60.532467532467535	
0.4238096571428571	65.34285714285714	9.728571428571428	39.51428571428571	27.614285714285714	2.0	110	655	140	14	79	55	29	7	15	11	0	0	1306.0661838054657	7770	120023.8885269165	3072	60.463320463320464	
0.39215704411764707	60.41428571428571	9.955882352941176	42.455882352941174	29.58823529411765	2.0	111	658	135	14.0	88.0	61.0	30	7.0	15.0	11.0	0	0	1255.166678905487	7840	121279.05520582199	3109	60.34438775510204	
0.3091788405797101	60.042857142857144	10.101449275362318	43.56521739130435	30.28985507246377	2.0	112	660	95	15.0	85.0	58.0	30	7.0	15.0	11.0	0	0	1256.1203479766846	7910	122535.17555379868	3144	60.252844500632115	
0.28502414492753625	59.47142857142857	9.695652173913043	41.56521739130435	29.0	2.0	113	662	89	14.0	81.0	57.0	24	7.0	15.0	11.0	0	0	1261.3155252933502	7980	123796.49107909203	3183	60.11278195488722	
0.3478260724637681	62.48571428571429	9.898550724637682	42.2463768115942	29.507246376811594	2.0	114	664	87	14.0	81.0	57.0	24	7.0	15.0	11.0	0	0	1284.7218570709229	8050	125081.21293616295	3218	60.024844720496894	
0.2952380714285714	62.91428571428571	10.271428571428572	45.15714285714286	31.457142857142856	2.0	115	665	93	14	79	55	29	7	15	11	0	0	1322.036410331726	8120	126403.24934649467	3256	59.90147783251232	
0.3833333166666667	58.47142857142857	10.05	43.166666666666664	30.05	2.0	116	676	105	14.0	79.0	55.0	4	7.0	15.0	11.0	0	0	1050.6605958938599	8190	127453.90994238853	3283	59.914529914529915	
0.4734298405797101	60.24285714285714	10.057971014492754	42.78260869565217	29.840579710144926	2.33333	117	678	106	14.0	79.0	55.0	14	7.0	15.0	11.0	0	0	1245.395271062851	8260	128699.30521345139	3324	59.75786924939467	
0.49743573846153843	60.4	10.076923076923077	42.06153846153846	29.276923076923076	2.33333	118	684	106	16.0	92.0	63.0	25	7.0	15.0	11.0	0	0	1195.597146987915	8330	129894.9023604393	3355	59.72388955582233	
0.5761902142857143	67.92857142857143	10.285714285714286	43.5	30.257142857142856	2.33333	119	684	125	15	83	57	29	7	15	11	0	0	1250.221507549286	8400	131145.1238679886	3393	59.60714285714286	
0.5845408985507246	70.88571428571429	10.26086956521739	43.492753623188406	30.28985507246377	3.66667	120	686	125	13.0	88.0	61.0	35	7.0	15.0	11.0	0	0	1244.3841874599457	8470	132389.50805544853	3430	59.50413223140496	
0.6225485882352941	73.52857142857142	10.294117647058824	46.55882352941177	32.35294117647059	3.66667	121	689	130	14.0	88.0	61.0	13	7.0	15.0	11.0	0	0	1223.9596047401428	8540	133613.46766018867	3473	59.33255269320843	
0.5692303230769231	71.15714285714286	9.923076923076923	43.2	30.076923076923077	3.66667	122	695	126	15.0	85.0	59.0	32	7.0	15.0	11.0	0	0	1163.363204240799	8610	134776.83086442947	3506	59.27990708478513	
0.583333294117647	72.32857142857142	10.088235294117647	46.044117647058826	32.044117647058826	3.66667	123	698	137	14.0	119.0	82.0	8	7.0	15.0	11.0	0	0	1250.1975848674774	8680	136027.02844929695	3547	59.13594470046083	
0.812500109375	66.05714285714286	10.0	43.328125	30.203125	3.66667	124	705	161	14.0	103.0	72.0	10	7.0	15.0	11.0	0	0	1178.599029302597	8750	137205.62747859955	3582	59.06285714285715	
0.5882355882352941	61.82857142857143	9.397058823529411	36.9264705882353	25.808823529411764	3.66667	125	708	140	13.0	65.0	45.0	9	7.0	15.0	11.0	0	0	1236.6074731349945	8820	138442.23495173454	3613	59.03628117913832	
0.6238099428571429	61.94285714285714	9.457142857142857	37.48571428571429	26.185714285714287	3.66667	126	709	140	15	83	57	18	7	15	11	0	0	1282.23850107193	8890	139724.47345280647	3645	58.998875140607424	
0.6410260461538461	57.25714285714286	9.415384615384616	38.10769230769231	26.646153846153847	3.66667	127	715	140	15.0	83.0	57.0	12	7.0	15.0	11.0	0	0	1179.0205428600311	8960	140903.4939956665	3675	58.984375	
0.5147062205882352	67.98571428571428	9.705882352941176	41.51470588235294	29.044117647058822	3.66667	128	718	129	15.0	92.0	64.0	10	7.0	15.0	11.0	0	0	1262.329025030136	9030	142165.82302069664	3715	58.859357696567	
0.9516135483870968	62.55714285714286	10.14516129032258	42.935483870967744	29.887096774193548	3.66667	129	727	125	15.0	92.0	63.0	11	7.0	15.0	11.0	0	0	1114.35835647583	9100	143280.18137717247	3745	58.84615384615385	
0.9452742835820895	59.214285714285715	10.17910447761194	45.014925373134325	31.29850746268657	3.66667	130	731	126	13.0	92.0	63.0	9	7.0	17.0	12.0	0	0	1199.1803324222565	9170	144479.36170959473	3781	58.767720828789535	
0.8978498548387097	50.642857142857146	10.209677419354838	43.225806451612904	30.096774193548388	3.66667	131	740	107	13.0	86.0	59.0	14	7.0	17.0	12.0	0	0	1069.5755016803741	9240	145548.9372112751	3814	58.72294372294372	
0.9687507343749999	48.34285714285714	10.0	42.78125	29.765625	3.66667	132	747	98	13.0	86.0	59.0	19	7.0	15.0	11.0	0	0	1101.8238444328308	9310	146650.76105570793	3847	58.67883995703544	
0.9565225072463769	47.0	9.985507246376812	42.53623188405797	29.594202898550726	3.66667	133	749	98	15.0	103.0	70.0	13	7.0	15.0	11.0	0	0	1208.0942723751068	9380	147858.85532808304	3877	58.66737739872068	
0.8835984126984128	43.385714285714286	10.174603174603174	44.63492063492063	30.984126984126984	3.66667	134	757	100	14.0	116.0	79.0	9	7.0	15.0	11.0	0	0	1072.7812836170197	9450	148931.63661170006	3905	58.67724867724868	
0.9545457575757575	44.57142857142857	10.318181818181818	45.5	31.62121212121212	3.66667	135	762	106	14.0	116.0	79.0	15	7.0	17.0	12.0	0	0	1154.7472739219666	9520	150086.38388562202	3935	58.66596638655462	
0.7419356935483871	41.628571428571426	9.983870967741936	42.854838709677416	29.870967741935484	3.66667	136	771	85	17.0	123.0	84.0	21	7.0	15.0	11.0	0	0	1081.2508370876312	9590	151167.63472270966	3969	58.613138686131386	
0.6051284615384614	39.75714285714286	9.8	39.261538461538464	27.43076923076923	3.66667	137	777	96	17.0	97.0	67.0	7	7.0	15.0	11.0	0	0	1179.2406780719757	9660	152346.87540078163	4000	58.59213250517598	
0.8358976307692307	38.357142857142854	10.138461538461538	41.76923076923077	29.123076923076923	3.66667	138	783	66	14.0	74.0	51.0	18	7.0	15.0	11.0	0	0	1181.4956703186035	9730	153528.37107110023	4027	58.61253854059609	
1.0153848153846152	37.81428571428572	10.169230769230769	43.0	29.93846153846154	3.66667	139	789	78	14.0	74.0	51.0	12	7.0	15.0	11.0	0	0	1148.4713711738586	9800	154676.8424422741	4053	58.64285714285714	
1.1492541791044777	36.42857142857143	10.059701492537313	41.582089552238806	28.970149253731343	3.66667	140	793	78	14.0	72.0	50.0	19	7.0	15.0	11.0	0	0	1195.2170233726501	9870	155872.05946564674	4081	58.65248226950355	
0.7743590769230769	36.91428571428571	9.907692307692308	40.815384615384616	28.384615384615383	3.66667	141	799	78	14.0	68.0	48.0	19	7.0	15.0	11.0	0	0	1181.7340953350067	9940	157053.79356098175	4118	58.57142857142857	
0.60416709375	37.357142857142854	9.859375	40.40625	28.140625	3.66667	142	806	72	12.0	59.0	40.0	10	7.0	17.0	12.0	0	0	1168.047286748886	10010	158221.84084773064	4155	58.49150849150849	
0.9393946060606061	36.357142857142854	9.803030303030303	39.92424242424242	27.833333333333332	3.66667	143	811	65	12.0	58.0	40.0	12	7.0	15.0	11.0	0	0	1176.2672457695007	10080	159398.10809350014	4186	58.47222222222222	
1.0512828769230766	39.05714285714286	10.0	41.66153846153846	28.96923076923077	3.66667	144	817	65	12.0	58.0	40.0	19	7.0	17.0	12.0	0	0	1141.8955731391907	10150	160540.00366663933	4213	58.49261083743843	
0.9595967727272727	35.72857142857143	10.106060606060606	41.95454545454545	29.21212121212121	3.66667	145	822	58	12.0	58.0	40.0	12	7.0	15.0	11.0	0	0	1161.4468438625336	10220	161701.45051050186	4239	58.522504892367905	
0.8888896666666667	33.114285714285714	9.65	37.93333333333333	26.55	3.66667	146	833	58	11.0	49.0	34.0	5	7.0	15.0	11.0	0	0	1045.5786681175232	10290	162747.02917861938	4264	58.56171039844509	
0.8412704603174603	33.77142857142857	9.761904761904763	39.3968253968254	27.555555555555557	3.66667	147	841	67	13.0	67.0	46.0	3	7.0	15.0	11.0	0	0	1065.32146525383	10360	163812.35064387321	4287	58.61969111969112	
0.793651507936508	34.885714285714286	9.317460317460318	35.682539682539684	24.984126984126984	3.66667	148	849	72	12.0	56.0	39.0	8	7.0	15.0	11.0	0	0	1099.1792492866516	10430	164911.52989315987	4314	58.63854266538831	
0.7868860491803278	35.642857142857146	9.459016393442623	37.868852459016395	26.40983606557377	3.66667	149	859	62	13.0	67.0	46.0	8	7.0	17.0	12.0	0	0	1024.7133638858795	10500	165936.24325704575	4337	58.695238095238096	
0.5025644	36.457142857142856	9.676923076923076	39.01538461538462	27.246153846153845	3.66667	150	865	66	15.0	83.0	57.0	11	7.0	17.0	12.0	0	0	1107.2246344089508	10570	167043.4678914547	4363	58.72280037842952	
0.6467667611940298	37.957142857142856	9.880597014925373	41.3134328358209	28.71641791044776	3.66667	151	869	78	15.0	83.0	57.0	12	7.0	15.0	11.0	0	0	1142.6777930259705	10640	168186.14568448067	4392	58.721804511278194	
1.0476199999999998	37.51428571428571	9.682539682539682	39.317460317460316	27.396825396825395	3.66667	152	877	68	12.0	58.0	40.0	18	7.0	15.0	11.0	0	0	1081.5453877449036	10710	169267.69107222557	4410	58.82352941176471	
1.1333343538461538	36.1	9.876923076923077	39.98461538461538	27.861538461538462	3.66667	153	883	68	14.0	72.0	50.0	16	7.0	15.0	11.0	0	0	1132.6872634887695	10780	170400.37833571434	4439	58.821892393320965	
1.0508485254237288	35.01428571428571	9.830508474576272	39.83050847457627	27.728813559322035	3.66667	154	895	73	12.0	56.0	39.0	3	7.0	15.0	11.0	0	0	1012.9526877403259	10850	171413.33102345467	4462	58.87557603686636	
0.7020207575757577	35.97142857142857	9.878787878787879	40.93939393939394	28.5	3.66667	155	900	70	11.0	49.0	34.0	13	7.0	15.0	11.0	0	0	1159.9313957691193	10920	172573.26241922379	4491	58.87362637362637	
0.6813730147058824	36.31428571428572	9.573529411764707	38.6764705882353	27.0	3.66667	156	903	70	13.0	63.0	44.0	17	7.0	15.0	11.0	0	0	1212.5523133277893	10990	173785.81473255157	4521	58.86260236578708	
0.8125004687499999	35.642857142857146	10.03125	41.40625	28.859375	3.66667	157	910	67	13.0	63.0	44.0	14	7.0	15.0	11.0	0	0	1117.4663598537445	11060	174903.28109240532	4550	58.860759493670884	
0.8218393793103449	35.885714285714286	10.137931034482758	42.43103448275862	29.551724137931036	3.66667	158	923	73	13.0	65.0	45.0	13	7.0	15.0	11.0	0	0	1033.690170288086	11130	175936.9712626934	4577	58.876909254267744	
0.8465612698412698	36.357142857142854	10.19047619047619	42.80952380952381	29.80952380952381	3.66667	159	931	55	13.0	65.0	45.0	15	7.0	17.0	12.0	0	0	1085.2730884552002	11200	177022.2443511486	4609	58.848214285714285	
0.8282832424242424	36.32857142857143	10.06060606060606	40.96969696969697	28.606060606060606	3.66667	160	936	72	13.0	56.0	39.0	15	7.0	15.0	11.0	0	0	1206.0579352378845	11270	178228.3022863865	4637	58.85536823425022	
0.857924081967213	37.17142857142857	10.032786885245901	41.34426229508197	28.83606557377049	3.66667	161	946	72	15.0	57.0	39.0	9	7.0	15.0	11.0	0	0	1092.1117877960205	11340	179320.4140741825	4664	58.87125220458554	
1.005650440677966	35.55714285714286	10.101694915254237	42.03389830508475	29.322033898305083	3.66667	162	958	60	13.0	63.0	44.0	5	7.0	15.0	11.0	0	0	1064.0580263137817	11410	180384.4721004963	4684	58.948290972830854	
0.6613760317460318	38.0	9.523809523809524	38.41269841269841	26.80952380952381	3.66667	163	966	68	12.0	60.0	41.0	7	7.0	15.0	11.0	0	0	1123.1283147335052	11480	181507.6004152298	4706	59.00696864111498	
0.8418084067796611	39.02857142857143	10.067796610169491	42.08474576271186	29.322033898305083	3.66667	164	978	68	12.0	56.0	39.0	24	7.0	18.0	13.0	0	0	1032.6344509124756	11550	182540.23486614227	4736	58.995670995671	
0.6875003125	40.08571428571429	9.75	39.421875	27.484375	3.66667	165	985	73	14.0	70.0	49.0	2	7.0	17.0	12.0	0	0	1097.9934713840485	11620	183638.22833752632	4761	59.02753872633391	
0.8279575161290322	40.142857142857146	9.419354838709678	36.88709677419355	25.774193548387096	3.66667	166	994	73	12.0	56.0	39.0	18	7.0	15.0	11.0	0	0	1080.945229291916	11690	184719.17356681824	4781	59.10179640718563	
1.0529108095238096	37.785714285714285	10.015873015873016	41.682539682539684	29.015873015873016	3.66667	167	1002	64	12.0	58.0	40.0	8	7.0	15.0	11.0	0	0	1084.105209827423	11760	185803.27877664566	4801	59.175170068027214	
1.2473127258064516	35.91428571428571	10.209677419354838	43.225806451612904	30.112903225806452	3.66667	168	1011	57	15.0	79.0	55.0	13	7.0	15.0	11.0	0	0	1062.4211134910583	11830	186865.69989013672	4827	59.19695688926458	
0.9777785833333332	38.57142857142857	10.083333333333334	42.583333333333336	29.666666666666668	3.66667	169	1022	63	15.0	79.0	55.0	7	7.0	17.0	12.0	0	0	1044.6965382099152	11900	187910.39642834663	4850	59.2436974789916	
1.2000009846153847	39.142857142857146	10.061538461538461	42.41538461538462	29.553846153846155	3.66667	170	1028	76	11.0	49.0	34.0	7	7.0	15.0	11.0	0	0	1142.207002401352	11970	189052.603430748	4871	59.30659983291562	
1.1290333387096774	38.457142857142856	9.983870967741936	42.11290322580645	29.338709677419356	3.66667	171	1037	68	12.0	60.0	41.0	27	7.0	15.0	11.0	0	0	1081.0985941886902	12040	190133.70202493668	4893	59.36046511627907	
0.8923085538461538	36.128571428571426	9.892307692307693	41.33846153846154	28.815384615384616	3.66667	172	1043	68	13.0	61.0	43.0	5	7.0	15.0	11.0	0	0	1134.7588295936584	12110	191268.46085453033	4914	59.421965317919074	
1.2373748333333332	39.75714285714286	10.227272727272727	44.06060606060606	30.681818181818183	3.66667	173	1048	76	13.0	61.0	43.0	23	7.0	15.0	11.0	0	0	1159.637600183487	12180	192428.09845471382	4935	59.48275862068966	
1.4218761875	37.44285714285714	10.234375	43.375	30.1875	3.66667	174	1055	68	13.0	65.0	45.0	10	7.0	17.0	12.0	0	0	1162.9997572898865	12250	193591.0982120037	4960	59.51020408163265	
1.1827965645161291	39.42857142857143	10.46774193548387	44.75806451612903	31.20967741935484	3.66667	175	1064	84	13.0	65.0	45.0	7	7.0	15.0	11.0	0	0	1123.9407196044922	12320	194715.0389316082	4988	59.51298701298701	
0.9166672666666665	38.371428571428574	10.033333333333333	41.3	28.783333333333335	3.66667	176	1075	68	13.0	65.0	45.0	16	7.0	15.0	11.0	0	0	1086.818968296051	12390	195801.85789990425	5014	59.531880548829704	
0.8578438088235293	40.08571428571429	9.838235294117647	40.529411764705884	28.33823529411765	3.66667	177	1078	71	14.0	74.0	51.0	20	7.0	15.0	11.0	0	0	1274.4531028270721	12460	197076.31100273132	5046	59.5024077046549	
1.130435652173913	37.642857142857146	9.884057971014492	39.869565217391305	27.869565217391305	3.66667	178	1080	67	13.0	63.0	44.0	20	7.0	15.0	11.0	0	0	1255.1603374481201	12530	198331.47134017944	5063	59.59297685554669	
1.3278699999999999	35.52857142857143	10.19672131147541	43.14754098360656	30.016393442622952	3.66667	179	1090	56	12.0	58.0	40.0	12	7.0	15.0	11.0	0	0	1074.8752934932709	12600	199406.3466336727	5080	59.682539682539684	
1.18889005	34.97142857142857	10.116666666666667	42.766666666666666	29.766666666666666	3.66667	180	1101	64	11.0	64.0	44.0	7	7.0	15.0	11.0	0	0	1045.6594517230988	12670	200452.0060853958	5103	59.72375690607735	
1.2307703076923076	35.51428571428571	9.923076923076923	40.90769230769231	28.50769230769231	3.66667	181	1107	64	12.0	56.0	39.0	12	7.0	15.0	11.0	0	0	1153.2432718276978	12740	201605.2493572235	5122	59.79591836734694	
1.253732447761194	36.457142857142856	9.955223880597014	40.44776119402985	28.223880597014926	3.66667	182	1111	64	12.0	56.0	39.0	12	7.0	15.0	11.0	0	0	1209.2738373279572	12810	202814.52319455147	5138	59.89071038251366	
1.010417515625	34.371428571428574	9.828125	39.96875	27.890625	3.66667	183	1118	60	14.0	72.0	50.0	10	7.0	15.0	11.0	0	0	1112.6042981147766	12880	203927.12749266624	5158	59.953416149068325	
1.000000746031746	34.55714285714286	9.88888888888889	40.36507936507937	28.126984126984127	3.66667	184	1126	61	14.0	72.0	50.0	7	7.0	15.0	11.0	0	0	1070.8091661930084	12950	204997.93665885925	5173	60.05405405405405	
1.0000007794117647	36.01428571428571	9.823529411764707	40.044117647058826	27.897058823529413	3.66667	185	1129	63	14.0	72.0	50.0	9	7.0	15.0	11.0	0	0	1115.820547580719	13020	206113.75720643997	5201	60.053763440860216	
0.8535358636363636	34.48571428571429	9.803030303030303	39.89393939393939	27.863636363636363	3.66667	186	1134	57	13.0	67.0	46.0	13	7.0	15.0	11.0	0	0	1074.6861362457275	13090	207188.4433426857	5220	60.122230710466006	
0.9629636666666666	35.08571428571429	9.46031746031746	36.22222222222222	25.38095238095238	3.66667	187	1142	58	12.0	56.0	39.0	15	7.0	15.0	11.0	0	0	1049.8259727954865	13160	208238.2693154812	5239	60.18996960486322	
0.8109459701492537	35.357142857142854	9.477611940298507	36.776119402985074	25.73134328358209	3.66667	188	1146	56	13.0	63.0	44.0	13	7.0	15.0	11.0	0	0	1025.0743715763092	13230	209263.3436870575	5266	60.19652305366591	
0.641414803030303	35.24285714285714	9.272727272727273	35.65151515151515	24.939393939393938	3.66667	189	1151	63	12.0	58.0	40.0	14	7.0	15.0	11.0	0	0	751.8327236175537	13300	210015.17641067505	5293	60.203007518796994	
0.6865677164179105	34.41428571428571	9.447761194029852	36.8955223880597	25.791044776119403	3.66667	190	1155	56	11.0	56.0	39.0	18	7.0	15.0	11.0	0	0	769.6375470161438	13370	210784.8139576912	5310	60.284218399401645	
0.7058828970588236	34.4	9.632352941176471	38.9264705882353	27.147058823529413	3.66667	191	1158	57	13.0	65.0	45.0	13	7.0	15.0	11.0	0	0	779.6255989074707	13440	211564.43955659866	5335	60.305059523809526	
0.8905481044776119	34.31428571428572	9.626865671641792	38.73134328358209	27.0	3.66667	192	1162	57	13.0	61.0	43.0	12	7.0	15.0	11.0	0	0	769.5736699104309	13510	212334.0132265091	5363	60.303478904515174	
1.1311486229508196	35.77142857142857	10.147540983606557	42.967213114754095	29.901639344262296	3.66667	193	1172	57	14.0	74.0	51.0	13	7.0	17.0	12.0	0	0	703.7986738681793	13580	213037.81190037727	5383	60.36082474226804	
0.9726784262295081	37.32857142857143	9.78688524590164	40.049180327868854	27.901639344262296	3.66667	194	1182	59	14.0	74.0	51.0	4	7.0	17.0	12.0	0	0	689.8072824478149	13650	213727.6191828251	5411	60.35897435897436	
1.010257323076923	36.25714285714286	10.046153846153846	41.84615384615385	29.123076923076923	3.66667	195	1188	54	14.0	74.0	51.0	16	7.0	15.0	11.0	0	0	758.1940629482269	13720	214485.81324577332	5434	60.393586005830905	
0.8128663157894737	35.542857142857144	9.842105263157896	40.85964912280702	28.473684210526315	3.66667	196	1202	54	14.0	74.0	51.0	16	7.0	17.0	12.0	0	0	642.3356444835663	13790	215128.14889025688	5458	60.420594633792604	
1.0101019090909091	36.18571428571428	9.818181818181818	40.378787878787875	28.12121212121212	3.66667	197	1207	58	12.0	56.0	39.0	12	7.0	15.0	11.0	0	0	787.1766693592072	13860	215915.3255596161	5480	60.46176046176046	
0.910053761904762	36.31428571428572	10.158730158730158	43.03174603174603	29.96825396825397	3.66667	198	1215	66	16.0	90.0	62.0	9	7.0	15.0	11.0	0	0	721.1800377368927	13930	216636.50559735298	5503	60.49533381191672	
1.0430116451612903	36.05714285714286	10.129032258064516	42.70967741935484	29.741935483870968	3.66667	199	1224	66	16.0	88.0	61.0	18	7.0	17.0	12.0	0	0	706.6767375469208	14000	217343.1823348999	5527	60.52142857142857	
0.994792546875	34.05714285714286	10.140625	41.8125	29.171875	3.66667	200	1231	60	14.0	74.0	51.0	11	7.0	17.0	12.0	0	0	783.6146764755249	14070	218126.79701137543	5556	60.51172707889126	
