best_fitness	avg_fitness
3	2.34286
3	2.34286
3	2.34286
3	2.34286
3	2.34286
3	2.34286
3	2.34286
3	2.34286
3	2.34286
3	2.34286
3	2.34286
3	2.34286
3	2.34286
3	2.34286
3	2.34286
3	2.34286
3	2.34286
3	2.34286
3	2.34286
3	2.34286
3	2.34286
3	2.34286
3	2.34286
3	2.34286
3	2.34286
3	2.34286
3	2.34286
3	2.34286
3	2.34286
3	2.34286
3	2.34286
3	2.34286
3	2.34286
3	2.34286
3	2.34286
3	2.34286
3	2.34286
3	2.34286
3	2.34286
3	2.34286
