Once in the container, source  /opt/argos3/build_simulator/setup_env.sh 
Possible commands:  singularity shell -B /home:/home -B /mnt/lustre:/mnt/lustre /usr/local/argos/3.0.0-beta52/argos.img
Possible commands:  singularity exec -B /home:/home -B /mnt/lustre:/mnt/lustre /usr/local/argos/3.0.0-beta52/argos.img command.sh

Start:	 2019-05-09 08:20:08.846276 

Warning: Grammar contains unit production for production rule <rule>
         Unit productions consume GE codons.
Warning: Grammar contains unit production for production rule <precondition>
         Unit productions consume GE codons.
Warning: Grammar contains unit production for production rule <A_B>
         Unit productions consume GE codons.
Warning: Grammar contains unit production for production rule <A_IS>
         Unit productions consume GE codons.
Warning: Grammar contains unit production for production rule <epsilon>
         Unit productions consume GE codons.
/usr/lib/python3.5/importlib/_bootstrap.py:222: RuntimeWarning: numpy.dtype size changed, may indicate binary incompatibility. Expected 96, got 88
  return f(*args, **kwds)
Evolution: 0% completeEvolution: 0% completeEvolution: 0% completeEvolution: 0% completeEvolution: 0% completeEvolution: 0% completeEvolution: 0% completeEvolution: 0% completeEvolution: 0% completeEvolution: 0% completeEvolution: 0% completeEvolution: 0% completeEvolution: 0% completeEvolution: 0% completeEvolution: 0% completeEvolution: 0% completeEvolution: 0% completeEvolution: 0% completeEvolution: 0% completeEvolution: 0% completeEvolution: 0% completeEvolution: 1% completeEvolution: 1% completeEvolution: 1% completeEvolution: 1% completeEvolution: 1% completeEvolution: 1% completeEvolution: 1% completeEvolution: 1% completeEvolution: 1% completeEvolution: 1% completeEvolution: 1% completeEvolution: 1% completeEvolution: 1% completeEvolution: 1% completeEvolution: 1% completeEvolution: 1% completeEvolution: 1% completeEvolution: 1% completeEvolution: 1% completeOnce in the container, source  /opt/argos3/build_simulator/setup_env.sh 
Possible commands:  singularity shell -B /home:/home -B /mnt/lustre:/mnt/lustre /usr/local/argos/3.0.0-beta52/argos.img
Possible commands:  singularity exec -B /home:/home -B /mnt/lustre:/mnt/lustre /usr/local/argos/3.0.0-beta52/argos.img command.sh
Once in the container, source  /opt/argos3/build_simulator/setup_env.sh 
Possible commands:  singularity shell -B /home:/home -B /mnt/lustre:/mnt/lustre /usr/local/argos/3.0.0-beta52/argos.img
Possible commands:  singularity exec -B /home:/home -B /mnt/lustre:/mnt/lustre /usr/local/argos/3.0.0-beta52/argos.img command.sh
Evolution: 1% complete
Start:	 2019-05-09 09:39:51.381003 

Warning: Grammar contains unit production for production rule <rule>
         Unit productions consume GE codons.
Warning: Grammar contains unit production for production rule <precondition>
         Unit productions consume GE codons.
Warning: Grammar contains unit production for production rule <A_B>
         Unit productions consume GE codons.
Warning: Grammar contains unit production for production rule <A_IS>
         Unit productions consume GE codons.
Warning: Grammar contains unit production for production rule <epsilon>
         Unit productions consume GE codons.

Start:	 2019-05-09 09:39:51.381074 

Warning: Grammar contains unit production for production rule <rule>
         Unit productions consume GE codons.
Warning: Grammar contains unit production for production rule <precondition>
         Unit productions consume GE codons.
Warning: Grammar contains unit production for production rule <A_B>
         Unit productions consume GE codons.
Warning: Grammar contains unit production for production rule <A_IS>
         Unit productions consume GE codons.
Warning: Grammar contains unit production for production rule <epsilon>
         Unit productions consume GE codons.
/usr/lib/python3.5/importlib/_bootstrap.py:222: RuntimeWarning: numpy.dtype size changed, may indicate binary incompatibility. Expected 96, got 88
  return f(*args, **kwds)
/usr/lib/python3.5/importlib/_bootstrap.py:222: RuntimeWarning: numpy.dtype size changed, may indicate binary incompatibility. Expected 96, got 88
  return f(*args, **kwds)
Evolution: 2% completeEvolution: 0% completeEvolution: 0% completeEvolution: 2% completeEvolution: 0% completeEvolution: 0% completeEvolution: 2% completeEvolution: 2% completeEvolution: 0% completeEvolution: 0% completeEvolution: 2% completeEvolution: 0% completeEvolution: 0% completeEvolution: 2% completeEvolution: 0% completeEvolution: 0% completeEvolution: 2% completeEvolution: 0% completeEvolution: 0% completeEvolution: 2% completeEvolution: 0% completeEvolution: 0% completeEvolution: 2% completeEvolution: 0% completeEvolution: 0% completeEvolution: 2% completeEvolution: 2% completeEvolution: 0% completeEvolution: 0% completeEvolution: 2% completeEvolution: 0% completeEvolution: 0% completeEvolution: 2% completeEvolution: 0% completeEvolution: 0% completeEvolution: 2% completeEvolution: 0% completeEvolution: 0% completeEvolution: 2% completeEvolution: 0% completeEvolution: 0% completeEvolution: 2% completeEvolution: 2% completeEvolution: 0% completeEvolution: 0% completeEvolution: 2% completeEvolution: 0% completeEvolution: 0% completeEvolution: 2% completeEvolution: 0% completeEvolution: 2% completeEvolution: 0% completeEvolution: 3% completeEvolution: 0% completeEvolution: 0% completeEvolution: 3% completeEvolution: 0% completeEvolution: 0% completeEvolution: 3% completeEvolution: 0% completeEvolution: 0% completeEvolution: 3% completeEvolution: 0% completeEvolution: 0% completeEvolution: 3% completeEvolution: 0% completeEvolution: 3% completeEvolution: 0% completeEvolution: 3% completeEvolution: 1% completeEvolution: 1% completeEvolution: 3% completeEvolution: 1% completeEvolution: 1% completeEvolution: 3% completeEvolution: 1% completeEvolution: 1% completeEvolution: 3% completeEvolution: 1% completeEvolution: 1% completeEvolution: 3% completeEvolution: 1% completeEvolution: 3% completeEvolution: 1% completeEvolution: 3% completeEvolution: 1% completeEvolution: 1% completeEvolution: 3% completeEvolution: 1% completeEvolution: 1% completeEvolution: 3% completeEvolution: 1% completeEvolution: 1% completeEvolution: 3% completeEvolution: 1% completeEvolution: 3% completeEvolution: 1% completeEvolution: 1% completeEvolution: 3% completeEvolution: 1% completeEvolution: 3% completeEvolution: 1% completeEvolution: 1% completeEvolution: 3% completeEvolution: 1% completeEvolution: 1% completeEvolution: 4% completeEvolution: 1% completeEvolution: 4% completeEvolution: 1% completeEvolution: 1% completeEvolution: 4% completeEvolution: 1% completeEvolution: 4% completeEvolution: 1% completeEvolution: 1% completeEvolution: 4% completeEvolution: 1% completeEvolution: 1% completeEvolution: 4% completeEvolution: 1% completeEvolution: 1% completeEvolution: 4% completeEvolution: 1% completeEvolution: 1% completeEvolution: 4% completeEvolution: 1% completeEvolution: 4% completeEvolution: 1% completeEvolution: 1% completeEvolution: 4% completeEvolution: 1% completeEvolution: 4% completeEvolution: 2% completeEvolution: 2% completeEvolution: 4% completeEvolution: 2% completeEvolution: 2% completeEvolution: 4% completeEvolution: 2% completeEvolution: 2% completeEvolution: 4% completeEvolution: 2% completeEvolution: 2% completeEvolution: 4% completeEvolution: 2% completeEvolution: 4% completeEvolution: 2% completeEvolution: 2% completeEvolution: 4% completeEvolution: 2% completeEvolution: 2% completeEvolution: 4% completeEvolution: 2% completeEvolution: 4% completeEvolution: 2% completeEvolution: 2% completeEvolution: 4% completeEvolution: 2% completeEvolution: 2% completeEvolution: 5% completeEvolution: 2% completeEvolution: 2% completeEvolution: 5% completeEvolution: 2% completeEvolution: 2% completeEvolution: 5% completeEvolution: 2% completeEvolution: 5% completeEvolution: 2% completeEvolution: 2% completeEvolution: 5% completeEvolution: 2% completeEvolution: 2% completeEvolution: 5% completeEvolution: 2% completeEvolution: 5% completeEvolution: 2% completeEvolution: 2% completeEvolution: 5% completeEvolution: 2% completeEvolution: 2% completeEvolution: 5% completeEvolution: 2% completeEvolution: 5% completeEvolution: 2% completeEvolution: 2% completeEvolution: 5% completeEvolution: 2% completeEvolution: 2% completeEvolution: 5% completeEvolution: 2% completeEvolution: 2% completeEvolution: 5% completeEvolution: 2% completeEvolution: 5% completeEvolution: 3% completeEvolution: 3% completeEvolution: 5% completeEvolution: 3% completeEvolution: 5% completeEvolution: 3% completeEvolution: 3% completeEvolution: 5% completeEvolution: 3% completeEvolution: 3% completeEvolution: 5% completeEvolution: 3% completeEvolution: 5% completeEvolution: 3% completeEvolution: 3% completeEvolution: 5% completeEvolution: 3% completeEvolution: 3% completeEvolution: 6% completeEvolution: 3% completeOnce in the container, source  /opt/argos3/build_simulator/setup_env.sh 
Possible commands:  singularity shell -B /home:/home -B /mnt/lustre:/mnt/lustre /usr/local/argos/3.0.0-beta52/argos.img
Possible commands:  singularity exec -B /home:/home -B /mnt/lustre:/mnt/lustre /usr/local/argos/3.0.0-beta52/argos.img command.sh

Start:	 2019-05-09 12:20:27.012889 

Warning: Grammar contains unit production for production rule <rule>
         Unit productions consume GE codons.
Warning: Grammar contains unit production for production rule <precondition>
         Unit productions consume GE codons.
Warning: Grammar contains unit production for production rule <A_B>
         Unit productions consume GE codons.
Warning: Grammar contains unit production for production rule <A_IS>
         Unit productions consume GE codons.
Warning: Grammar contains unit production for production rule <epsilon>
         Unit productions consume GE codons.
/usr/lib/python3.5/importlib/_bootstrap.py:222: RuntimeWarning: numpy.dtype size changed, may indicate binary incompatibility. Expected 96, got 88
  return f(*args, **kwds)
Evolution: 3% completeEvolution: 6% completeEvolution: 3% completeEvolution: 0% completeEvolution: 6% completeEvolution: 3% completeEvolution: 0% completeEvolution: 3% completeEvolution: 6% completeEvolution: 3% completeEvolution: 0% completeEvolution: 3% completeEvolution: 6% completeEvolution: 3% completeEvolution: 0% completeEvolution: 6% completeEvolution: 3% completeEvolution: 0% completeEvolution: 6% completeEvolution: 3% completeEvolution: 3% completeEvolution: 0% completeEvolution: 6% completeEvolution: 3% completeEvolution: 3% completeEvolution: 0% completeEvolution: 6% completeEvolution: 3% completeEvolution: 3% completeEvolution: 0% completeEvolution: 6% completeEvolution: 3% completeEvolution: 6% completeEvolution: 3% completeEvolution: 0% completeEvolution: 3% completeEvolution: 6% completeEvolution: 0% completeEvolution: 3% completeEvolution: 3% completeEvolution: 6% completeEvolution: 0% completeEvolution: 3% completeEvolution: 6% completeEvolution: 3% completeEvolution: 0% completeEvolution: 3% completeEvolution: 6% completeEvolution: 3% completeEvolution: 0% completeEvolution: 3% completeEvolution: 6% completeEvolution: 3% completeEvolution: 0% completeEvolution: 3% completeEvolution: 6% completeEvolution: 0% completeEvolution: 3% completeEvolution: 6% completeEvolution: 4% completeEvolution: 0% completeEvolution: 4% completeEvolution: 6% completeEvolution: 4% completeEvolution: 0% completeEvolution: 6% completeEvolution: 4% completeEvolution: 4% completeEvolution: 0% completeEvolution: 7% completeEvolution: 4% completeEvolution: 4% completeEvolution: 0% completeEvolution: 7% completeEvolution: 4% completeEvolution: 4% completeEvolution: 0% completeEvolution: 7% completeEvolution: 4% completeEvolution: 0% completeEvolution: 4% completeEvolution: 7% completeEvolution: 4% completeEvolution: 1% completeEvolution: 7% completeEvolution: 4% completeEvolution: 7% completeEvolution: 1% completeEvolution: 4% completeEvolution: 4% completeEvolution: 7% completeEvolution: 1% completeEvolution: 4% completeEvolution: 4% completeEvolution: 7% completeEvolution: 1% completeEvolution: 4% completeEvolution: 4% completeEvolution: 7% completeEvolution: 1% completeEvolution: 4% completeEvolution: 7% completeEvolution: 4% completeEvolution: 1% completeEvolution: 4% completeEvolution: 7% completeEvolution: 1% completeEvolution: 4% completeEvolution: 7% completeEvolution: 1% completeEvolution: 4% completeEvolution: 4% completeEvolution: 7% completeEvolution: 1% completeEvolution: 4% completeEvolution: 4% completeEvolution: 7% completeEvolution: 1% completeEvolution: 4% completeEvolution: 4% completeEvolution: 7% completeEvolution: 1% completeEvolution: 4% completeEvolution: 4% completeEvolution: 7% completeEvolution: 1% completeEvolution: 4% completeEvolution: 7% completeEvolution: 4% completeEvolution: 1% completeEvolution: 4% completeEvolution: 7% completeEvolution: 4% completeEvolution: 1% completeEvolution: 7% completeEvolution: 4% completeEvolution: 1% completeEvolution: 4% completeEvolution: 7% completeEvolution: 1% completeEvolution: 4% completeEvolution: 4% completeEvolution: 8% completeEvolution: 1% completeEvolution: 4% completeEvolution: 8% completeEvolution: 5% completeEvolution: 1% completeEvolution: 5% completeEvolution: 8% completeEvolution: 5% completeEvolution: 1% completeEvolution: 8% completeEvolution: 5% completeEvolution: 1% completeEvolution: 5% completeEvolution: 8% completeEvolution: 2% completeEvolution: 5% completeEvolution: 5% completeEvolution: 8% completeEvolution: 2% completeEvolution: 5% completeEvolution: 5% completeEvolution: 8% completeEvolution: 2% completeEvolution: 5% completeEvolution: 5% completeEvolution: 8% completeEvolution: 2% completeEvolution: 5% completeEvolution: 5% completeEvolution: 8% completeEvolution: 2% completeEvolution: 8% completeEvolution: 5% completeEvolution: 5% completeEvolution: 2% completeEvolution: 8% completeEvolution: 2% completeEvolution: 5% completeEvolution: 5% completeEvolution: 2% completeEvolution: 8% completeEvolution: 5% completeEvolution: 5% completeEvolution: 2% completeEvolution: 8% completeEvolution: 5% completeEvolution: 5% completeEvolution: 8% completeEvolution: 2% completeEvolution: 5% completeEvolution: 5% completeEvolution: 8% completeEvolution: 2% completeEvolution: 5% completeEvolution: 5% completeEvolution: 8% completeEvolution: 2% completeEvolution: 5% completeEvolution: 8% completeEvolution: 5% completeEvolution: 2% completeEvolution: 8% completeEvolution: 5% completeEvolution: 5% completeEvolution: 2% completeEvolution: 8% completeEvolution: 5% completeEvolution: 5% completeEvolution: 2% completeEvolution: 8% completeEvolution: 2% completeEvolution: 5% completeEvolution: 5% completeEvolution: 9% completeEvolution: 2% completeEvolution: 5% completeEvolution: 5% completeEvolution: 9% completeEvolution: 2% completeEvolution: 5% completeEvolution: 5% completeEvolution: 9% completeEvolution: 2% completeEvolution: 9% completeEvolution: 5% completeEvolution: 5% completeEvolution: 2% completeEvolution: 9% completeEvolution: 5% completeEvolution: 6% completeEvolution: 3% completeEvolution: 9% completeEvolution: 6% completeEvolution: 6% completeEvolution: 3% completeEvolution: 9% completeEvolution: 6% completeEvolution: 3% completeEvolution: 6% completeEvolution: 9% completeEvolution: 3% completeEvolution: 9% completeEvolution: 6% completeEvolution: 6% completeEvolution: 3% completeEvolution: 9% completeEvolution: 6% completeEvolution: 6% completeEvolution: 3% completeEvolution: 9% completeEvolution: 6% completeEvolution: 6% completeEvolution: 9% completeEvolution: 3% completeEvolution: 6% completeEvolution: 6% completeEvolution: 9% completeEvolution: 3% completeEvolution: 6% completeEvolution: 6% completeEvolution: 9% completeEvolution: 3% completeEvolution: 6% completeEvolution: 9% completeEvolution: 6% completeEvolution: 3% completeEvolution: 9% completeEvolution: 6% completeEvolution: 3% completeEvolution: 6% completeEvolution: 9% completeEvolution: 3% completeEvolution: 6% completeEvolution: 6% completeEvolution: 9% completeEvolution: 3% completeEvolution: 6% completeEvolution: 9% completeEvolution: 6% completeEvolution: 3% completeEvolution: 9% completeEvolution: 6% completeEvolution: 6% completeEvolution: 3% completeEvolution: 10% completeEvolution: 6% completeEvolution: 6% completeEvolution: 3% completeEvolution: 10% completeEvolution: 6% completeEvolution: 6% completeEvolution: 3% completeEvolution: 10% completeEvolution: 6% completeEvolution: 10% completeEvolution: 3% completeEvolution: 6% completeEvolution: 10% completeEvolution: 6% completeEvolution: 3% completeEvolution: 6% completeEvolution: 10% completeEvolution: 3% completeEvolution: 6% completeEvolution: 6% completeEvolution: 10% completeEvolution: 4% completeEvolution: 6% completeEvolution: 10% completeEvolution: 6% completeEvolution: 4% completeEvolution: 10% completeEvolution: 6% completeEvolution: 6% completeEvolution: 4% completeEvolution: 10% completeEvolution: 6% completeEvolution: 7% completeEvolution: 4% completeEvolution: 10% completeEvolution: 7% completeEvolution: 7% completeEvolution: 10% completeEvolution: 4% completeEvolution: 7% completeEvolution: 7% completeEvolution: 10% completeEvolution: 4% completeEvolution: 7% completeEvolution: 7% completeEvolution: 10% completeEvolution: 4% completeEvolution: 10% completeEvolution: 7% completeEvolution: 7% completeEvolution: 4% completeEvolution: 10% completeEvolution: 7% completeEvolution: 7% completeEvolution: 4% completeEvolution: 10% completeEvolution: 4% completeEvolution: 7% completeEvolution: 7% completeEvolution: 10% completeEvolution: 4% completeEvolution: 7% completeEvolution: 7% completeEvolution: 10% completeEvolution: 4% completeEvolution: 7% completeEvolution: 7% completeEvolution: 10% completeEvolution: 4% completeEvolution: 11% completeEvolution: 7% completeEvolution: 7% completeEvolution: 4% completeEvolution: 11% completeEvolution: 7% completeEvolution: 7% completeEvolution: 4% completeEvolution: 11% completeEvolution: 7% completeEvolution: 7% completeEvolution: 4% completeEvolution: 11% completeEvolution: 7% completeEvolution: 4% completeEvolution: 7% completeEvolution: 11% completeEvolution: 11% completeEvolution: 4% completeEvolution: 7% completeEvolution: 7% completeEvolution: 11% completeEvolution: 4% completeEvolution: 7% completeEvolution: 7% completeEvolution: 11% completeEvolution: 4% completeEvolution: 7% completeEvolution: 7% completeEvolution: 11% completeEvolution: 5% completeEvolution: 7% completeEvolution: 7% completeEvolution: 11% completeEvolution: 5% completeEvolution: 11% completeEvolution: 7% completeEvolution: 7% completeEvolution: 5% completeEvolution: 11% completeEvolution: 7% completeEvolution: 7% completeEvolution: 5% completeEvolution: 11% completeEvolution: 7% completeEvolution: 7% completeEvolution: 5% completeEvolution: 11% completeEvolution: 8% completeEvolution: 7% completeEvolution: 5% completeEvolution: 11% completeEvolution: 11% completeEvolution: 5% completeEvolution: 8% completeEvolution: 8% completeEvolution: 11% completeEvolution: 5% completeEvolution: 8% completeEvolution: 8% completeEvolution: 11% completeEvolution: 5% completeEvolution: 8% completeEvolution: 8% completeEvolution: 11% completeEvolution: 5% completeEvolution: 8% completeEvolution: 8% completeEvolution: 11% completeEvolution: 5% completeEvolution: 12% completeEvolution: 5% completeEvolution: 8% completeEvolution: 8% completeEvolution: 12% completeEvolution: 5% completeEvolution: 8% completeEvolution: 8% completeEvolution: 12% completeEvolution: 5% completeEvolution: 8% completeEvolution: 8% completeEvolution: 12% completeEvolution: 5% completeEvolution: 8% completeEvolution: 8% completeEvolution: 12% completeEvolution: 5% completeEvolution: 12% completeEvolution: 8% completeEvolution: 5% completeEvolution: 8% completeEvolution: 12% completeEvolution: 5% completeEvolution: 8% completeEvolution: 8% completeEvolution: 12% completeEvolution: 5% completeEvolution: 8% completeEvolution: 8% completeEvolution: 12% completeEvolution: 5% completeEvolution: 8% completeEvolution: 12% completeEvolution: 8% completeEvolution: 6% completeEvolution: 12% completeEvolution: 8% completeEvolution: 6% completeEvolution: 8% completeEvolution: 12% completeEvolution: 6% completeEvolution: 8% completeEvolution: 8% completeEvolution: 12% completeEvolution: 6% completeEvolution: 8% completeEvolution: 8% completeEvolution: 12% completeEvolution: 6% completeEvolution: 8% completeEvolution: 8% completeEvolution: 12% completeEvolution: 6% completeEvolution: 8% completeEvolution: 12% completeEvolution: 8% completeEvolution: 6% completeEvolution: 12% completeEvolution: 8% completeEvolution: 8% completeEvolution: 6% completeEvolution: 12% completeEvolution: 8% completeEvolution: 6% completeEvolution: 8% completeEvolution: 12% completeEvolution: 6% completeEvolution: 9% completeEvolution: 8% completeEvolution: 12% completeEvolution: 6% completeEvolution: 9% completeEvolution: 9% completeEvolution: 13% completeEvolution: 6% completeEvolution: 9% completeEvolution: 13% completeEvolution: 9% completeEvolution: 6% completeEvolution: 9% completeEvolution: 13% completeEvolution: 6% completeEvolution: 9% completeEvolution: 9% completeEvolution: 13% completeEvolution: 6% completeEvolution: 9% completeEvolution: 9% completeEvolution: 13% completeEvolution: 6% completeEvolution: 9% completeEvolution: 9% completeEvolution: 13% completeEvolution: 6% completeEvolution: 9% completeEvolution: 13% completeEvolution: 9% completeEvolution: 6% completeEvolution: 13% completeEvolution: 9% completeEvolution: 6% completeEvolution: 9% completeEvolution: 13% completeEvolution: 6% completeEvolution: 9% completeEvolution: 9% completeEvolution: 13% completeEvolution: 7% completeEvolution: 9% completeEvolution: 9% completeEvolution: 13% completeEvolution: 7% completeEvolution: 9% completeEvolution: 13% completeEvolution: 9% completeEvolution: 7% completeEvolution: 9% completeEvolution: 13% completeEvolution: 7% completeEvolution: 9% completeEvolution: 9% completeEvolution: 13% completeEvolution: 7% completeEvolution: 9% completeEvolution: 9% completeEvolution: 13% completeEvolution: 7% completeEvolution: 9% completeEvolution: 9% completeEvolution: 13% completeEvolution: 7% completeEvolution: 9% completeEvolution: 9% completeEvolution: 13% completeEvolution: 7% completeEvolution: 9% completeEvolution: 13% completeEvolution: 9% completeEvolution: 7% completeEvolution: 9% completeEvolution: 13% completeEvolution: 7% completeEvolution: 9% completeEvolution: 13% completeEvolution: 9% completeEvolution: 7% completeEvolution: 9% completeEvolution: 10% completeEvolution: 14% completeEvolution: 7% completeEvolution: 7% completeEvolution: 9% completeEvolution: 10% completeEvolution: 14% completeEvolution: 7% completeEvolution: 10% completeEvolution: 9% completeEvolution: 14% completeEvolution: 7% completeEvolution: 10% completeEvolution: 14% completeEvolution: 9% completeEvolution: 7% completeEvolution: 10% completeEvolution: 14% completeEvolution: 10% completeEvolution: 7% completeEvolution: 10% completeEvolution: 14% completeEvolution: 7% completeEvolution: 10% completeEvolution: 10% completeEvolution: 14% completeEvolution: 7% completeEvolution: 10% completeEvolution: 10% completeEvolution: 14% completeEvolution: 7% completeEvolution: 10% completeEvolution: 14% completeEvolution: 10% completeEvolution: 8% completeEvolution: 14% completeEvolution: 10% completeEvolution: 8% completeEvolution: 10% completeEvolution: 14% completeEvolution: 10% completeEvolution: 8% completeEvolution: 10% completeEvolution: 14% completeEvolution: 10% completeEvolution: 8% completeEvolution: 14% completeEvolution: 10% completeEvolution: 8% completeEvolution: 10% completeEvolution: 14% completeEvolution: 8% completeEvolution: 10% completeEvolution: 10% completeEvolution: 14% completeEvolution: 8% completeEvolution: 10% completeEvolution: 10% completeEvolution: 14% completeEvolution: 8% completeEvolution: 10% completeEvolution: 14% completeEvolution: 10% completeEvolution: 8% completeEvolution: 14% completeEvolution: 10% completeEvolution: 10% completeEvolution: 8% completeEvolution: 14% completeEvolution: 10% completeEvolution: 8% completeEvolution: 10% completeEvolution: 14% completeEvolution: 10% completeEvolution: 8% completeEvolution: 10% completeEvolution: 15% completeEvolution: 10% completeEvolution: 8% completeEvolution: 15% completeEvolution: 10% completeEvolution: 11% completeEvolution: 8% completeEvolution: 15% completeEvolution: 10% completeEvolution: 11% completeEvolution: 8% completeEvolution: 15% completeEvolution: 8% completeEvolution: 11% completeEvolution: 10% completeEvolution: 15% completeEvolution: 8% completeEvolution: 11% completeEvolution: 10% completeEvolution: 15% completeEvolution: 8% completeEvolution: 11% completeEvolution: 15% completeEvolution: 10% completeEvolution: 8% completeEvolution: 11% completeEvolution: 15% completeEvolution: 10% completeEvolution: 8% completeEvolution: 11% completeEvolution: 15% completeEvolution: 9% completeEvolution: 10% completeEvolution: 11% completeEvolution: 15% completeEvolution: 9% completeEvolution: 11% completeEvolution: 11% completeEvolution: 9% completeEvolution: 15% completeEvolution: 11% completeEvolution: 11% completeEvolution: 9% completeEvolution: 15% completeEvolution: 11% completeEvolution: 9% completeEvolution: 11% completeEvolution: 15% completeEvolution: 9% completeEvolution: 11% completeEvolution: 15% completeEvolution: 11% completeEvolution: 9% completeEvolution: 11% completeEvolution: 15% completeEvolution: 11% completeEvolution: 9% completeEvolution: 15% completeEvolution: 11% completeEvolution: 9% completeEvolution: 11% completeEvolution: 15% completeEvolution: 11% completeEvolution: 9% completeEvolution: 11% completeEvolution: 15% completeEvolution: 11% completeEvolution: 9% completeEvolution: 15% completeEvolution: 11% completeEvolution: 11% completeEvolution: 9% completeEvolution: 15% completeEvolution: 11% completeEvolution: 11% completeEvolution: 9% completeEvolution: 16% completeEvolution: 11% completeEvolution: 9% completeEvolution: 11% completeEvolution: 16% completeEvolution: 9% completeEvolution: 11% completeEvolution: 16% completeEvolution: 11% completeEvolution: 9% completeEvolution: 12% completeEvolution: 16% completeEvolution: 9% completeEvolution: 11% completeEvolution: 16% completeEvolution: 12% completeEvolution: 9% completeEvolution: 11% completeEvolution: 16% completeEvolution: 12% completeEvolution: 9% completeEvolution: 16% completeEvolution: 11% completeEvolution: 9% completeEvolution: 12% completeEvolution: 16% completeEvolution: 10% completeEvolution: 11% completeEvolution: 12% completeEvolution: 16% completeEvolution: 10% completeEvolution: 11% completeEvolution: 12% completeEvolution: 16% completeEvolution: 10% completeEvolution: 12% completeEvolution: 11% completeEvolution: 16% completeEvolution: 10% completeEvolution: 12% completeEvolution: 16% completeEvolution: 11% completeEvolution: 10% completeEvolution: 16% completeEvolution: 12% completeEvolution: 11% completeEvolution: 10% completeEvolution: 16% completeEvolution: 12% completeEvolution: 10% completeEvolution: 11% completeEvolution: 16% completeEvolution: 12% completeEvolution: 10% completeEvolution: 12% completeEvolution: 16% completeEvolution: 12% completeEvolution: 10% completeEvolution: 16% completeEvolution: 12% completeEvolution: 12% completeEvolution: 10% completeEvolution: 16% completeEvolution: 12% completeEvolution: 10% completeEvolution: 12% completeEvolution: 16% completeEvolution: 10% completeEvolution: 12% completeEvolution: 12% completeEvolution: 16% completeEvolution: 10% completeEvolution: 12% completeEvolution: 12% completeEvolution: 17% completeEvolution: 10% completeEvolution: 12% completeEvolution: 17% completeEvolution: 12% completeEvolution: 10% completeEvolution: 17% completeEvolution: 12% completeEvolution: 10% completeEvolution: 12% completeEvolution: 17% completeEvolution: 10% completeEvolution: 12% completeEvolution: 12% completeEvolution: 17% completeEvolution: 10% completeEvolution: 12% completeEvolution: 12% completeEvolution: 17% completeEvolution: 10% completeEvolution: 13% completeEvolution: 17% completeEvolution: 12% completeEvolution: 10% completeEvolution: 13% completeEvolution: 17% completeEvolution: 11% completeEvolution: 12% completeEvolution: 13% completeEvolution: 17% completeEvolution: 11% completeEvolution: 12% completeEvolution: 17% completeEvolution: 13% completeEvolution: 11% completeEvolution: 12% completeEvolution: 17% completeEvolution: 13% completeEvolution: 11% completeEvolution: 17% completeEvolution: 12% completeEvolution: 11% completeEvolution: 13% completeEvolution: 17% completeEvolution: 12% completeEvolution: 11% completeEvolution: 13% completeEvolution: 17% completeEvolution: 11% completeEvolution: 12% completeEvolution: 13% completeEvolution: 17% completeEvolution: 11% completeEvolution: 12% completeEvolution: 13% completeEvolution: 17% completeEvolution: 11% completeEvolution: 17% completeEvolution: 13% completeEvolution: 12% completeEvolution: 11% completeEvolution: 17% completeEvolution: 13% completeEvolution: 11% completeEvolution: 12% completeEvolution: 17% completeEvolution: 11% completeEvolution: 13% completeEvolution: 12% completeEvolution: 17% completeEvolution: 11% completeEvolution: 13% completeEvolution: 13% completeEvolution: 18% completeEvolution: 11% completeEvolution: 13% completeEvolution: 18% completeEvolution: 13% completeEvolution: 11% completeEvolution: 18% completeEvolution: 13% completeEvolution: 11% completeEvolution: 13% completeEvolution: 18% completeEvolution: 13% completeEvolution: 11% completeEvolution: 13% completeEvolution: 18% completeEvolution: 13% completeEvolution: 11% completeEvolution: 13% completeEvolution: 18% completeEvolution: 11% completeEvolution: 13% completeEvolution: 13% completeEvolution: 18% completeEvolution: 11% completeEvolution: 13% completeEvolution: 18% completeEvolution: 12% completeEvolution: 13% completeEvolution: 13% completeEvolution: 18% completeEvolution: 12% completeEvolution: 13% completeEvolution: 14% completeEvolution: 18% completeEvolution: 12% completeEvolution: 13% completeEvolution: 18% completeEvolution: 14% completeEvolution: 12% completeEvolution: 13% completeEvolution: 18% completeEvolution: 12% completeEvolution: 14% completeEvolution: 18% completeEvolution: 13% completeEvolution: 12% completeEvolution: 14% completeEvolution: 18% completeEvolution: 12% completeEvolution: 13% completeEvolution: 14% completeEvolution: 18% completeEvolution: 12% completeEvolution: 13% completeEvolution: 18% completeEvolution: 14% completeEvolution: 12% completeEvolution: 13% completeEvolution: 18% completeEvolution: 14% completeEvolution: 12% completeEvolution: 18% completeEvolution: 12% completeEvolution: 13% completeEvolution: 14% completeEvolution: 18% completeEvolution: 12% completeEvolution: 14% completeEvolution: 13% completeEvolution: 18% completeEvolution: 12% completeEvolution: 14% completeEvolution: 13% completeEvolution: 19% completeEvolution: 12% completeEvolution: 14% completeEvolution: 19% completeEvolution: 12% completeEvolution: 13% completeEvolution: 12% completeEvolution: 19% completeEvolution: 14% completeEvolution: 13% completeEvolution: 12% completeEvolution: 19% completeEvolution: 14% completeEvolution: 13% completeEvolution: 19% completeEvolution: 12% completeEvolution: 14% completeEvolution: 14% completeEvolution: 19% completeEvolution: 12% completeEvolution: 14% completeEvolution: 19% completeEvolution: 12% completeEvolution: 14% completeEvolution: 14% completeEvolution: 19% completeEvolution: 13% completeEvolution: 14% completeEvolution: 14% completeEvolution: 19% completeEvolution: 13% completeEvolution: 14% completeEvolution: 14% completeEvolution: 19% completeEvolution: 13% completeEvolution: 14% completeEvolution: 19% completeEvolution: 13% completeEvolution: 14% completeEvolution: 19% completeEvolution: 13% completeEvolution: 14% completeEvolution: 14% completeEvolution: 19% completeEvolution: 13% completeEvolution: 14% completeEvolution: 15% completeEvolution: 19% completeEvolution: 13% completeEvolution: 14% completeEvolution: 15% completeEvolution: 19% completeEvolution: 13% completeEvolution: 14% completeEvolution: 15% completeEvolution: 19% completeEvolution: 13% completeEvolution: 19% completeEvolution: 13% completeEvolution: 15% completeEvolution: 14% completeEvolution: 19% completeEvolution: 13% completeEvolution: 15% completeEvolution: 14% completeEvolution: 19% completeEvolution: 13% completeEvolution: 15% completeEvolution: 14% completeEvolution: 19% completeEvolution: 13% completeEvolution: 15% completeEvolution: 20% completeEvolution: 13% completeEvolution: 14% completeEvolution: 15% completeEvolution: 20% completeEvolution: 13% completeEvolution: 14% completeEvolution: 20% completeEvolution: 15% completeEvolution: 13% completeEvolution: 14% completeEvolution: 20% completeEvolution: 13% completeEvolution: 15% completeEvolution: 14% completeEvolution: 13% completeEvolution: 20% completeEvolution: 15% completeEvolution: 13% completeEvolution: 20% completeEvolution: 14% completeEvolution: 15% completeEvolution: 13% completeEvolution: 20% completeEvolution: 14% completeEvolution: 15% completeEvolution: 14% completeEvolution: 20% completeEvolution: 14% completeEvolution: 14% completeEvolution: 15% completeEvolution: 20% completeEvolution: 14% completeEvolution: 14% completeEvolution: 20% completeEvolution: 15% completeEvolution: 14% completeEvolution: 20% completeEvolution: 15% completeEvolution: 15% completeEvolution: 14% completeEvolution: 20% completeEvolution: 15% completeEvolution: 15% completeEvolution: 14% completeEvolution: 20% completeEvolution: 15% completeEvolution: 14% completeEvolution: 15% completeEvolution: 20% completeEvolution: 15% completeEvolution: 14% completeEvolution: 20% completeEvolution: 15% completeEvolution: 14% completeEvolution: 20% completeEvolution: 15% completeEvolution: 15% completeEvolution: 14% completeEvolution: 20% completeEvolution: 15% completeEvolution: 16% completeEvolution: 14% completeEvolution: 20% completeEvolution: 15% completeEvolution: 14% completeEvolution: 16% completeEvolution: 20% completeEvolution: 15% completeEvolution: 14% completeEvolution: 20% completeEvolution: 16% completeEvolution: 14% completeEvolution: 21% completeEvolution: 15% completeEvolution: 16% completeEvolution: 21% completeEvolution: 14% completeEvolution: 15% completeEvolution: 16% completeEvolution: 21% completeEvolution: 14% completeEvolution: 15% completeEvolution: 21% completeEvolution: 14% completeEvolution: 16% completeEvolution: 15% completeEvolution: 21% completeEvolution: 14% completeEvolution: 16% completeEvolution: 21% completeEvolution: 15% completeEvolution: 14% completeEvolution: 16% completeEvolution: 21% completeEvolution: 14% completeEvolution: 15% completeEvolution: 16% completeEvolution: 21% completeEvolution: 15% completeEvolution: 15% completeEvolution: 16% completeEvolution: 21% completeEvolution: 15% completeEvolution: 15% completeEvolution: 21% completeEvolution: 15% completeEvolution: 16% completeEvolution: 21% completeEvolution: 15% completeEvolution: 15% completeEvolution: 16% completeEvolution: 21% completeEvolution: 15% completeEvolution: 15% completeEvolution: 16% completeEvolution: 21% completeEvolution: 15% completeEvolution: 16% completeEvolution: 15% completeEvolution: 21% completeEvolution: 15% completeEvolution: 16% completeEvolution: 21% completeEvolution: 15% completeEvolution: 15% completeEvolution: 16% completeEvolution: 15% completeEvolution: 21% completeEvolution: 16% completeEvolution: 21% completeEvolution: 15% completeEvolution: 16% completeEvolution: 16% completeEvolution: 21% completeEvolution: 15% completeEvolution: 16% completeEvolution: 16% completeEvolution: 21% completeEvolution: 15% completeEvolution: 16% completeEvolution: 16% completeEvolution: 21% completeEvolution: 15% completeEvolution: 16% completeEvolution: 22% completeEvolution: 15% completeEvolution: 16% completeEvolution: 17% completeEvolution: 22% completeEvolution: 15% completeEvolution: 16% completeEvolution: 17% completeEvolution: 22% completeEvolution: 15% completeEvolution: 16% completeEvolution: 22% completeEvolution: 17% completeEvolution: 15% completeEvolution: 16% completeEvolution: 22% completeEvolution: 15% completeEvolution: 17% completeEvolution: 22% completeEvolution: 15% completeEvolution: 16% completeEvolution: 17% completeEvolution: 15% completeEvolution: 22% completeEvolution: 16% completeEvolution: 17% completeEvolution: 16% completeEvolution: 22% completeEvolution: 16% completeEvolution: 16% completeEvolution: 22% completeEvolution: 17% completeEvolution: 16% completeEvolution: 16% completeEvolution: 22% completeEvolution: 17% completeEvolution: 16% completeEvolution: 22% completeEvolution: 16% completeEvolution: 17% completeEvolution: 16% completeEvolution: 22% completeEvolution: 16% completeEvolution: 17% completeEvolution: 16% completeEvolution: 22% completeEvolution: 16% completeEvolution: 16% completeEvolution: 17% completeEvolution: 22% completeEvolution: 16% completeEvolution: 22% completeEvolution: 16% completeEvolution: 17% completeEvolution: 16% completeEvolution: 22% completeEvolution: 16% completeEvolution: 17% completeEvolution: 22% completeEvolution: 16% completeEvolution: 16% completeEvolution: 17% completeEvolution: 22% completeEvolution: 16% completeEvolution: 16% completeEvolution: 17% completeEvolution: 16% completeEvolution: 22% completeEvolution: 16% completeEvolution: 16% completeEvolution: 22% completeEvolution: 17% completeEvolution: 16% completeEvolution: 17% completeEvolution: 23% completeEvolution: 17% completeEvolution: 16% completeEvolution: 23% completeEvolution: 17% completeEvolution: 17% completeEvolution: 16% completeEvolution: 23% completeEvolution: 17% completeEvolution: 16% completeEvolution: 17% completeEvolution: 23% completeEvolution: 17% completeEvolution: 16% completeEvolution: 17% completeEvolution: 23% completeEvolution: 16% completeEvolution: 17% completeEvolution: 18% completeEvolution: 23% completeEvolution: 16% completeEvolution: 23% completeEvolution: 17% completeEvolution: 18% completeEvolution: 17% completeEvolution: 23% completeEvolution: 17% completeEvolution: 18% completeEvolution: 17% completeEvolution: 23% completeEvolution: 18% completeEvolution: 17% completeEvolution: 17% completeEvolution: 23% completeEvolution: 18% completeEvolution: 17% completeEvolution: 17% completeEvolution: 23% completeEvolution: 17% completeEvolution: 18% completeEvolution: 23% completeEvolution: 17% completeEvolution: 17% completeEvolution: 18% completeEvolution: 23% completeEvolution: 17% completeEvolution: 17% completeEvolution: 23% completeEvolution: 18% completeEvolution: 17% completeEvolution: 17% completeEvolution: 23% completeEvolution: 18% completeEvolution: 17% completeEvolution: 23% completeEvolution: 17% completeEvolution: 18% completeEvolution: 17% completeEvolution: 23% completeEvolution: 17% completeEvolution: 17% completeEvolution: 18% completeEvolution: 23% completeEvolution: 17% completeEvolution: 17% completeEvolution: 18% completeEvolution: 23% completeEvolution: 17% completeEvolution: 17% completeEvolution: 18% completeEvolution: 23% completeEvolution: 17% completeEvolution: 17% completeEvolution: 24% completeEvolution: 18% completeEvolution: 17% completeEvolution: 17% completeEvolution: 24% completeEvolution: 18% completeEvolution: 17% completeEvolution: 24% completeEvolution: 17% completeEvolution: 17% completeEvolution: 18% completeEvolution: 24% completeEvolution: 17% completeEvolution: 17% completeEvolution: 18% completeEvolution: 24% completeEvolution: 17% completeEvolution: 18% completeEvolution: 18% completeEvolution: 24% completeEvolution: 17% completeEvolution: 18% completeEvolution: 18% completeEvolution: 24% completeEvolution: 18% completeEvolution: 24% completeEvolution: 18% completeEvolution: 18% completeEvolution: 18% completeEvolution: 24% completeEvolution: 18% completeEvolution: 19% completeEvolution: 18% completeEvolution: 24% completeEvolution: 18% completeEvolution: 19% completeEvolution: 18% completeEvolution: 24% completeEvolution: 18% completeEvolution: 19% completeEvolution: 18% completeEvolution: 24% completeEvolution: 18% completeEvolution: 19% completeEvolution: 18% completeEvolution: 24% completeEvolution: 18% completeEvolution: 19% completeEvolution: 24% completeEvolution: 18% completeEvolution: 18% completeEvolution: 19% completeEvolution: 24% completeEvolution: 18% completeEvolution: 18% completeEvolution: 24% completeEvolution: 19% completeEvolution: 18% completeEvolution: 18% completeEvolution: 24% completeEvolution: 18% completeEvolution: 19% completeEvolution: 24% completeEvolution: 18% completeEvolution: 18% completeEvolution: 19% completeEvolution: 24% completeEvolution: 18% completeEvolution: 19% completeEvolution: 18% completeEvolution: 24% completeEvolution: 18% completeEvolution: 19% completeEvolution: 18% completeEvolution: 25% completeEvolution: 18% completeEvolution: 25% completeEvolution: 19% completeEvolution: 18% completeEvolution: 18% completeEvolution: 25% completeEvolution: 19% completeEvolution: 18% completeEvolution: 18% completeEvolution: 25% completeEvolution: 19% completeEvolution: 18% completeEvolution: 18% completeEvolution: 25% completeEvolution: 18% completeEvolution: 19% completeEvolution: 18% completeEvolution: 25% completeEvolution: 18% completeEvolution: 19% completeEvolution: 25% completeEvolution: 18% completeEvolution: 19% completeEvolution: 25% completeEvolution: 19% completeEvolution: 19% completeEvolution: 18% completeEvolution: 25% completeEvolution: 19% completeEvolution: 19% completeEvolution: 18% completeEvolution: 25% completeEvolution: 19% completeEvolution: 19% completeEvolution: 19% completeEvolution: 25% completeEvolution: 19% completeEvolution: 19% completeEvolution: 25% completeEvolution: 19% completeEvolution: 19% completeEvolution: 20% completeEvolution: 25% completeEvolution: 19% completeEvolution: 19% completeEvolution: 25% completeEvolution: 20% completeEvolution: 19% completeEvolution: 19% completeEvolution: 25% completeEvolution: 20% completeEvolution: 19% completeEvolution: 19% completeEvolution: 25% completeEvolution: 20% completeEvolution: 19% completeEvolution: 25% completeEvolution: 19% completeEvolution: 20% completeEvolution: 19% completeEvolution: 25% completeEvolution: 19% completeEvolution: 19% completeEvolution: 20% completeEvolution: 25% completeEvolution: 19% completeEvolution: 19% completeEvolution: 20% completeEvolution: 25% completeEvolution: 19% completeEvolution: 19% completeEvolution: 26% completeEvolution: 20% completeEvolution: 19% completeEvolution: 26% completeEvolution: 19% completeEvolution: 20% completeEvolution: 19% completeEvolution: 26% completeEvolution: 20% completeEvolution: 19% completeEvolution: 19% completeEvolution: 26% completeEvolution: 20% completeEvolution: 19% completeEvolution: 19% completeEvolution: 26% completeEvolution: 19% completeEvolution: 20% completeEvolution: 26% completeEvolution: 19% completeEvolution: 19% completeEvolution: 20% completeEvolution: 26% completeEvolution: 19% completeEvolution: 20% completeEvolution: 26% completeEvolution: 20% completeEvolution: 19% completeEvolution: 20% completeEvolution: 26% completeEvolution: 20% completeEvolution: 20% completeEvolution: 19% completeEvolution: 26% completeEvolution: 20% completeEvolution: 20% completeEvolution: 26% completeEvolution: 19% completeEvolution: 20% completeEvolution: 20% completeEvolution: 26% completeEvolution: 19% completeEvolution: 20% completeEvolution: 20% completeEvolution: 26% completeEvolution: 19% completeEvolution: 20% completeEvolution: 20% completeEvolution: 26% completeEvolution: 19% completeEvolution: 20% completeEvolution: 26% completeEvolution: 20% completeEvolution: 20% completeEvolution: 26% completeEvolution: 20% completeEvolution: 21% completeEvolution: 20% completeEvolution: 26% completeEvolution: 20% completeEvolution: 21% completeEvolution: 20% completeEvolution: 26% completeEvolution: 21% completeEvolution: 20% completeEvolution: 20% completeEvolution: 26% completeEvolution: 21% completeEvolution: 20% completeEvolution: 20% completeEvolution: 26% completeEvolution: 20% completeEvolution: 21% completeEvolution: 27% completeEvolution: 20% completeEvolution: 20% completeEvolution: 27% completeEvolution: 21% completeEvolution: 20% completeEvolution: 20% completeEvolution: 27% completeEvolution: 21% completeEvolution: 20% completeEvolution: 20% completeEvolution: 27% completeEvolution: 21% completeEvolution: 20% completeEvolution: 20% completeEvolution: 27% completeEvolution: 20% completeEvolution: 21% completeEvolution: 27% completeEvolution: 20% completeEvolution: 20% completeEvolution: 21% completeEvolution: 27% completeEvolution: 20% completeEvolution: 21% completeEvolution: 27% completeEvolution: 21% completeEvolution: 20% completeEvolution: 21% completeEvolution: 27% completeEvolution: 21% completeEvolution: 21% completeEvolution: 20% completeEvolution: 27% completeEvolution: 21% completeEvolution: 21% completeEvolution: 27% completeEvolution: 20% completeEvolution: 21% completeEvolution: 21% completeEvolution: 27% completeEvolution: 20% completeEvolution: 21% completeEvolution: 27% completeEvolution: 21% completeEvolution: 21% completeEvolution: 20% completeEvolution: 27% completeEvolution: 21% completeEvolution: 21% completeEvolution: 27% completeEvolution: 20% completeEvolution: 21% completeEvolution: 21% completeEvolution: 27% completeEvolution: 20% completeEvolution: 21% completeEvolution: 21% completeEvolution: 27% completeEvolution: 20% completeEvolution: 21% completeEvolution: 21% completeEvolution: 27% completeEvolution: 21% completeEvolution: 20% completeEvolution: 21% completeEvolution: 27% completeEvolution: 22% completeEvolution: 20% completeEvolution: 21% completeEvolution: 27% completeEvolution: 22% completeEvolution: 21% completeEvolution: 21% completeEvolution: 28% completeEvolution: 21% completeEvolution: 22% completeEvolution: 28% completeEvolution: 21% completeEvolution: 21% completeEvolution: 28% completeEvolution: 22% completeEvolution: 21% completeEvolution: 21% completeEvolution: 28% completeEvolution: 22% completeEvolution: 21% completeEvolution: 21% completeEvolution: 28% completeEvolution: 22% completeEvolution: 21% completeEvolution: 28% completeEvolution: 21% completeEvolution: 22% completeEvolution: 21% completeEvolution: 28% completeEvolution: 21% completeEvolution: 22% completeEvolution: 22% completeEvolution: 28% completeEvolution: 21% completeEvolution: 22% completeEvolution: 22% completeEvolution: 28% completeEvolution: 21% completeEvolution: 22% completeEvolution: 22% completeEvolution: 28% completeEvolution: 22% completeEvolution: 21% completeEvolution: 28% completeEvolution: 22% completeEvolution: 22% completeEvolution: 28% completeEvolution: 21% completeEvolution: 22% completeEvolution: 22% completeEvolution: 28% completeEvolution: 22% completeEvolution: 21% completeEvolution: 22% completeEvolution: 28% completeEvolution: 22% completeEvolution: 22% completeEvolution: 21% completeEvolution: 28% completeEvolution: 22% completeEvolution: 22% completeEvolution: 28% completeEvolution: 21% completeEvolution: 22% completeEvolution: 28% completeEvolution: 22% completeEvolution: 21% completeEvolution: 22% completeEvolution: 28% completeEvolution: 22% completeEvolution: 21% completeEvolution: 22% completeEvolution: 28% completeEvolution: 22% completeEvolution: 22% completeEvolution: 21% completeEvolution: 28% completeEvolution: 22% completeEvolution: 22% completeEvolution: 29% completeEvolution: 21% completeEvolution: 22% completeEvolution: 29% completeEvolution: 22% completeEvolution: 21% completeEvolution: 22% completeEvolution: 29% completeEvolution: 23% completeEvolution: 21% completeEvolution: 22% completeEvolution: 29% completeEvolution: 23% completeEvolution: 22% completeEvolution: 21% completeEvolution: 29% completeEvolution: 23% completeEvolution: 22% completeEvolution: 29% completeEvolution: 22% completeEvolution: 23% completeEvolution: 22% completeEvolution: 29% completeEvolution: 22% completeEvolution: 23% completeEvolution: 23% completeEvolution: 29% completeEvolution: 22% completeEvolution: 23% completeEvolution: 23% completeEvolution: 29% completeEvolution: 23% completeEvolution: 22% completeEvolution: 23% completeEvolution: 29% completeEvolution: 23% completeEvolution: 29% completeEvolution: 23% completeEvolution: 22% completeEvolution: 23% completeEvolution: 29% completeEvolution: 23% completeEvolution: 22% completeEvolution: 23% completeEvolution: 29% completeEvolution: 23% completeEvolution: 22% completeEvolution: 23% completeEvolution: 29% completeEvolution: 23% completeEvolution: 22% completeEvolution: 23% completeEvolution: 29% completeEvolution: 23% completeEvolution: 23% completeEvolution: 29% completeEvolution: 22% completeEvolution: 23% completeEvolution: 23% completeEvolution: 29% completeEvolution: 22% completeEvolution: 23% completeEvolution: 29% completeEvolution: 23% completeEvolution: 22% completeEvolution: 23% completeEvolution: 29% completeEvolution: 23% completeEvolution: 22% completeEvolution: 23% completeEvolution: 29% completeEvolution: 23% completeEvolution: 23% completeEvolution: 22% completeEvolution: 30% completeEvolution: 23% completeEvolution: 23% completeEvolution: 30% completeEvolution: 22% completeEvolution: 23% completeEvolution: 23% completeEvolution: 30% completeEvolution: 22% completeEvolution: 23% completeEvolution: 23% completeEvolution: 30% completeEvolution: 22% completeEvolution: 23% completeEvolution: 23% completeEvolution: 30% completeEvolution: 23% completeEvolution: 22% completeEvolution: 30% completeEvolution: 24% completeEvolution: 23% completeEvolution: 30% completeEvolution: 22% completeEvolution: 24% completeEvolution: 24% completeEvolution: 30% completeEvolution: 24% completeEvolution: 22% completeEvolution: 24% completeEvolution: 30% completeEvolution: 24% completeEvolution: 22% completeEvolution: 24% completeEvolution: 30% completeEvolution: 24% completeEvolution: 24% completeEvolution: 23% completeEvolution: 30% completeEvolution: 24% completeEvolution: 24% completeEvolution: 23% completeEvolution: 30% completeEvolution: 24% completeEvolution: 30% completeEvolution: 24% completeEvolution: 23% completeEvolution: 24% completeslurmstepd: error: *** JOB 4016879 ON hc11 CANCELLED AT 2019-05-10T15:19:43 ***
slurmstepd: error: *** JOB 4016893 ON mi09 CANCELLED AT 2019-05-10T15:19:43 ***
slurmstepd: error: *** JOB 4016894 ON mi10 CANCELLED AT 2019-05-10T15:19:43 ***
slurmstepd: error: *** JOB 4017134 ON hc02 CANCELLED AT 2019-05-10T15:20:07 ***
