ave_fitness	ave_genome_length	ave_tree_depth	ave_tree_nodes	ave_used_codons	best_fitness	gen	invalids	max_genome_length	max_tree_depth	max_tree_nodes	max_used_codons	min_genome_length	min_tree_depth	min_tree_nodes	min_used_codons	runtime_error	time_adjust	time_taken	total_inds	total_time	unique_inds	unused_search	
0.0	54.357142857142854	8.142857142857142	52.01428571428571	36.44285714285714	0.0	0	0	160	10	156	107	16	7	15	11	0	0	1347.065630197525	70	1347.065630197525	70	0.0	
0.0	49.07142857142857	8.681818181818182	47.95454545454545	33.59090909090909	0.0	1	27	144	12.0	146.0	102.0	16	7.0	15.0	11.0	0	0	715.9039030075073	140	2062.9695332050323	101	27.85714285714286	
0.0	64.25714285714285	8.893939393939394	41.63636363636363	29.242424242424242	0.0	2	32	144	13.0	131.0	92.0	16	7.0	15.0	11.0	0	0	1123.358880519867	210	3186.3284137248993	140	33.33333333333334	
0.0	65.05714285714286	8.507246376811594	41.17391304347826	28.855072463768117	0.0	3	34	119	13.0	146.0	101.0	16	7.0	15.0	11.0	0	0	1149.768762588501	280	4336.0971763134	174	37.857142857142854	
0.0	58.9	8.836065573770492	41.32786885245902	28.885245901639344	0.0	4	44	118	15.0	153.0	106.0	12	7.0	15.0	11.0	0	0	1030.3485140800476	350	5366.445690393448	207	40.85714285714286	
0.0	51.44285714285714	8.4375	36.078125	25.1875	0.0	5	51	118	12.0	98.0	68.0	16	7.0	15.0	11.0	0	0	1078.8646054267883	420	6445.310295820236	235	44.047619047619044	
0.0	48.08571428571429	8.586206896551724	36.327586206896555	25.32758620689655	0.0	6	64	103	12.0	94.0	66.0	7	7.0	15.0	11.0	0	0	971.228077173233	490	7416.538372993469	267	45.51020408163266	
0.0	50.128571428571426	8.161290322580646	33.25806451612903	23.225806451612904	0.0	7	73	121	12.0	68.0	47.0	8	7.0	15.0	11.0	0	0	1016.7951090335846	560	8433.333482027054	304	45.714285714285715	
0.0	57.31428571428572	8.347826086956522	34.130434782608695	23.89855072463768	0.0	8	75	108	12.0	71.0	48.0	11	7.0	15.0	11.0	0	0	1185.344547510147	630	9618.678029537201	330	47.61904761904761	
0.0	61.128571428571426	8.075757575757576	33.36363636363637	23.53030303030303	0.0	9	80	127	12.0	87.0	61.0	11	7.0	15.0	11.0	0	0	1125.2890405654907	700	10743.967070102692	365	47.857142857142854	
0.0	54.92857142857143	8.419354838709678	34.37096774193548	24.193548387096776	0.0	10	89	97	13.0	87.0	61.0	10	7.0	15.0	11.0	0	0	1045.5309791564941	770	11789.498049259186	388	49.61038961038962	
0.015384615384615385	56.47142857142857	8.446153846153846	36.07692307692308	25.276923076923076	1.0	11	95	108	13.0	102.0	71.0	11	7.0	15.0	11.0	0	0	1090.4254291057587	840	12879.923478364944	414	50.71428571428571	
0.016129032258064516	50.82857142857143	8.209677419354838	32.58064516129032	22.741935483870968	1.0	12	104	104	13.0	102.0	71.0	12	7.0	15.0	11.0	0	0	1030.811859369278	910	13910.735337734222	443	51.31868131868132	
0.014285714285714285	52.81428571428572	8.3	32.371428571428574	22.7	1.0	13	105	104	13	73	51	16	7	15	11	0	0	1177.1968488693237	980	15087.932186603546	471	51.93877551020408	
0.014925373134328358	55.72857142857143	8.402985074626866	35.149253731343286	24.65671641791045	1.0	14	109	96	13.0	76.0	53.0	16	7.0	15.0	11.0	0	0	1118.988733291626	1050	16206.920919895172	500	52.38095238095239	
0.05747125862068966	50.75714285714286	8.379310344827585	38.58620689655172	26.879310344827587	1.0	15	122	92	13.0	103.0	71.0	9	7.0	15.0	11.0	0	0	937.9682531356812	1120	17144.889173030853	525	53.125	
0.1111111	50.08571428571429	8.866666666666667	45.56666666666667	31.716666666666665	1.0	16	133	93	13.0	97.0	67.0	13	7.0	15.0	11.0	0	0	1002.5579483509064	1190	18147.44712138176	563	52.689075630252105	
0.23655906451612904	55.0	9.016129032258064	54.774193548387096	38.24193548387097	3.33333	17	142	98	12.0	97.0	67.0	18	7.0	17.0	12.0	0	0	1035.2822687625885	1260	19182.729390144348	597	52.61904761904762	
0.2380951904761905	59.4	9.34920634920635	59.34920634920635	41.3968253968254	3.33333	18	150	103	15.0	124.0	85.0	24	7.0	15.0	11.0	0	0	1061.020807504654	1330	20243.750197649002	637	52.10526315789474	
0.36781586206896555	62.214285714285715	9.362068965517242	62.05172413793103	43.293103448275865	3.33333	19	163	118	13.0	113.0	78.0	27	7.0	15.0	11.0	0	0	959.583226442337	1400	21203.33342409134	674	51.857142857142854	
0.4999997121212122	61.72857142857143	9.212121212121213	60.22727272727273	42.07575757575758	3.33333	20	168	113	14.0	106.0	73.0	20	7.0	15.0	11.0	0	0	1132.9664096832275	1470	22336.299833774567	709	51.7687074829932	
0.5343911111111112	62.97142857142857	9.238095238095237	61.666666666666664	43.095238095238095	3.33333	21	176	113	13.0	99.0	71.0	20	7.0	17.0	12.0	0	0	1082.1849822998047	1540	23418.48481607437	744	51.688311688311686	
0.7688167580645162	63.31428571428572	9.258064516129032	61.53225806451613	43.04838709677419	3.66667	22	185	113	13.0	104.0	71.0	20	7.0	15.0	11.0	0	0	1059.4837152957916	1610	24477.968531370163	773	51.98757763975156	
0.8602145645161291	67.78571428571429	9.419354838709678	66.48387096774194	46.61290322580645	4.0	23	194	118	12.0	156.0	107.0	20	7.0	15.0	11.0	0	0	1080.0556619167328	1680	25558.024193286896	808	51.904761904761905	
0.6774193548387096	71.8	9.516129032258064	66.56451612903226	46.645161290322584	4.0	24	203	131	12.0	98.0	69.0	17	7.0	15.0	11.0	0	0	1076.4717767238617	1750	26634.495970010757	843	51.82857142857143	
0.760416625	74.5	9.453125	66.546875	46.734375	4.0	25	210	108	12.0	98.0	69.0	43	7.0	15.0	11.0	0	0	1115.788325548172	1820	27750.28429555893	885	51.37362637362637	
0.7513228412698412	77.04285714285714	9.507936507936508	68.87301587301587	48.41269841269841	4.0	26	218	109	12.0	100.0	70.0	41	7.0	15.0	11.0	0	0	1096.3254787921906	1890	28846.60977435112	928	50.8994708994709	
0.6919192727272727	75.9	9.409090909090908	68.04545454545455	47.84848484848485	4.0	27	223	133	12.0	98.0	69.0	21	7.0	15.0	11.0	0	0	1166.1735129356384	1960	30012.78328728676	964	50.816326530612244	
0.9797980000000001	77.28571428571429	9.227272727272727	67.83333333333333	47.74242424242424	4.0	28	228	133	11.0	107.0	74.0	46	7.0	15.0	11.0	0	0	1201.2291622161865	2030	31214.012449502945	1004	50.54187192118227	
1.3749998392857143	78.54285714285714	9.428571428571429	68.58928571428571	48.232142857142854	4.33333	29	243	119	12.0	107.0	74.0	35	7.0	15.0	11.0	0	0	973.9941132068634	2100	32188.00656270981	1035	50.71428571428571	
1.1144277611940299	79.91428571428571	9.447761194029852	68.82089552238806	48.3134328358209	4.33333	30	247	156	12.0	138.0	96.0	42	7.0	15.0	11.0	0	0	1153.5880119800568	2170	33341.594574689865	1074	50.50691244239631	
0.9032256774193548	76.18571428571428	9.32258064516129	64.3225806451613	45.193548387096776	4.66667	31	256	135	12.0	109.0	75.0	33	7.0	15.0	11.0	0	0	1081.5227982997894	2240	34423.117372989655	1109	50.49107142857142	
1.111111	75.54285714285714	9.253968253968255	66.03174603174604	46.42857142857143	4.66667	32	264	115	12.0	98.0	69.0	36	7.0	15.0	11.0	0	0	1084.3423001766205	2310	35507.459673166275	1143	50.51948051948052	
1.00000015625	71.6	9.125	60.25	42.359375	5.66667	33	271	105	11.0	98.0	68.0	36	7.0	15.0	11.0	0	0	1099.9533078670502	2380	36607.412981033325	1178	50.50420168067227	
0.9949496969696969	75.64285714285714	9.454545454545455	65.43939393939394	46.0	5.66667	34	276	111	13.0	116.0	82.0	40	7.0	15.0	11.0	0	0	1143.0470173358917	2450	37750.45999836922	1217	50.326530612244895	
1.0052912222222223	77.7	9.88888888888889	69.7936507936508	48.96825396825397	5.66667	35	284	120	13.0	116.0	82.0	31	7.0	15.0	11.0	0	0	1101.0065791606903	2520	38851.46657752991	1255	50.198412698412696	
0.9607846176470588	78.45714285714286	9.647058823529411	69.26470588235294	48.63235294117647	5.66667	36	287	120	12.0	107.0	76.0	35	7.0	15.0	11.0	0	0	1208.688144683838	2590	40060.154722213745	1295	50.0	
0.8253970476190476	77.62857142857143	9.444444444444445	63.285714285714285	44.507936507936506	5.66667	37	295	112	14.0	127.0	90.0	35	7.0	15.0	11.0	0	0	1120.061857700348	2660	41180.21657991409	1329	50.037593984962406	
0.73888915	78.04285714285714	9.6	65.53333333333333	46.06666666666667	5.66667	38	306	128	13.0	108.0	76.0	34	7.0	15.0	11.0	0	0	1046.457593679428	2730	42226.67417359352	1370	49.81684981684982	
1.467742419354839	77.65714285714286	9.564516129032258	68.7741935483871	48.306451612903224	5.66667	39	315	137	12.0	103.0	72.0	30	7.0	15.0	11.0	0	0	1082.2378227710724	2800	43308.91199636459	1405	49.82142857142857	
1.2580649193548386	81.78571428571429	10.016129032258064	73.80645161290323	51.725806451612904	6.33333	40	324	131	12.0	121.0	84.0	32	8.0	24.0	17.0	0	0	1096.5705053806305	2870	44405.482501745224	1443	49.7212543554007	
0.962963253968254	81.17142857142858	9.841269841269842	71.38095238095238	50.0	6.33333	41	332	131	12.0	104.0	73.0	34	7.0	24.0	17.0	0	0	1082.7385656833649	2940	45488.22106742859	1486	49.455782312925166	
0.979167	85.4	9.8125	73.515625	51.40625	6.33333	42	339	131	13.0	129.0	90.0	34	8.0	24.0	17.0	0	0	1107.9049496650696	3010	46596.12601709366	1534	49.036544850498345	
1.047619482142857	81.9	10.0	76.76785714285714	53.767857142857146	6.33333	43	354	131	13.0	123.0	86.0	28	8.0	35.0	25.0	0	0	986.8287572860718	3080	47582.95477437973	1573	48.92857142857143	
1.415384692307692	91.61428571428571	10.36923076923077	81.16923076923077	56.784615384615385	6.33333	44	360	144	13.0	142.0	99.0	42	7.0	15.0	11.0	0	0	1106.374448299408	3150	48689.32922267914	1612	48.82539682539683	
1.2205877647058823	87.88571428571429	10.176470588235293	79.07352941176471	55.36764705882353	6.33333	45	363	155	13.0	147.0	102.0	23	7.0	15.0	11.0	0	0	1199.2347750663757	3220	49888.563997745514	1652	48.69565217391304	
1.2205123999999998	86.72857142857143	10.169230769230769	76.66153846153846	53.63076923076923	6.33333	46	369	139	13.0	143.0	99.0	23	7.0	15.0	11.0	0	0	1191.767976284027	3290	51080.33197402954	1695	48.48024316109423	
1.2055551333333334	88.32857142857142	10.383333333333333	80.2	56.03333333333333	6.33333	47	380	153	13.0	151.0	105.0	21	7.0	18.0	13.0	0	0	1059.73787856102	3360	52140.06985259056	1727	48.60119047619048	
1.432291171875	106.05714285714286	10.78125	86.703125	60.625	6.33333	48	387	154	13.0	152.0	105.0	18	7.0	18.0	13.0	0	0	1159.2193114757538	3430	53299.289164066315	1767	48.48396501457726	
1.4705875147058824	104.75714285714285	10.911764705882353	87.33823529411765	60.911764705882355	6.33333	49	390	167	16.0	130.0	90.0	50	7.0	15.0	11.0	0	0	1202.1459827423096	3500	54501.435146808624	1816	48.11428571428571	
1.1323525882352943	108.68571428571428	10.764705882352942	90.25	62.94117647058823	9.0	50	393	187	17.0	146.0	102.0	60	7.0	15.0	11.0	0	0	1201.0918140411377	3570	55702.52696084976	1864	47.78711484593837	
0.8743958405797102	111.65714285714286	10.594202898550725	87.18840579710145	60.89855072463768	9.0	51	395	208	13.0	161.0	113.0	60	7.0	15.0	11.0	0	0	1251.9754774570465	3640	56954.50243830681	1915	47.39010989010989	
1.3961350144927536	118.84285714285714	11.231884057971014	95.91304347826087	66.82608695652173	10.0	52	397	208	15.0	147.0	102.0	70	9.0	48.0	34.0	0	0	1228.2880609035492	3710	58182.79049921036	1963	47.08894878706199	
0.9411763235294117	115.45714285714286	10.779411764705882	88.88235294117646	62.044117647058826	10.0	53	400	208	15.0	230.0	159.0	46	7.0	15.0	11.0	0	0	1218.8472907543182	3780	59401.637789964676	2011	46.7989417989418	
1.0579710144927537	114.74285714285715	10.44927536231884	79.85507246376811	55.84057971014493	10.0	54	402	215	15.0	126.0	87.0	72	7.0	15.0	11.0	0	0	1238.151392698288	3850	60639.789182662964	2058	46.54545454545455	
1.3333332352941178	112.11428571428571	10.5	81.22058823529412	56.75	10.0	55	405	152	13.0	125.0	87.0	72	7.0	15.0	11.0	0	0	1224.7417211532593	3920	61864.53090381622	2100	46.42857142857143	
1.2990193088235296	113.68571428571428	10.617647058823529	89.54411764705883	62.55882352941177	10.0	56	408	200	13.0	183.0	127.0	76	7.0	15.0	11.0	0	0	1551.4221682548523	3990	63415.953072071075	2148	46.16541353383459	
1.4095231857142856	114.11428571428571	10.857142857142858	88.28571428571429	61.6	10.3333	57	409	177	15	209	145	49	7	15	11	0	0	1309.3813090324402	4060	64725.334381103516	2199	45.83743842364532	
1.1207721304347829	113.52857142857142	10.115942028985508	74.92753623188406	52.507246376811594	10.3333	58	411	177	14.0	154.0	108.0	49	7.0	15.0	11.0	0	0	1280.0197727680206	4130	66005.35415387154	2246	45.61743341404358	
1.1642499999999998	111.1	10.289855072463768	82.0	57.492753623188406	10.3333	59	413	176	14.0	151.0	105.0	47	7.0	15.0	11.0	0	0	1278.0911486148834	4200	67283.44530248642	2294	45.38095238095238	
1.0686263382352943	110.78571428571429	10.323529411764707	78.69117647058823	55.10294117647059	10.3333	60	416	176	14.0	149.0	104.0	54	7.0	15.0	11.0	0	0	1279.7839970588684	4270	68563.22929954529	2342	45.15222482435597	
1.1542278208955223	111.67142857142858	10.432835820895523	79.11940298507463	55.38805970149254	10.3333	61	420	198	14.0	149.0	103.0	57	7.0	15.0	11.0	0	0	1256.2966542243958	4340	69819.52595376968	2391	44.90783410138249	
1.7860681492537316	113.74285714285715	10.776119402985074	83.53731343283582	58.55223880597015	11.6667	62	424	198	14.0	193.0	134.0	54	7.0	15.0	11.0	0	0	1261.5789563655853	4410	71081.10491013527	2440	44.67120181405896	
1.396134347826087	113.2	10.565217391304348	82.34782608695652	57.710144927536234	11.6667	63	426	198	15.0	154.0	106.0	60	8.0	33.0	24.0	0	0	1295.6818807125092	4480	72376.78679084778	2483	44.57589285714286	
2.014923880597015	113.68571428571428	10.925373134328359	90.53731343283582	63.28358208955224	12.0	64	430	188	14.0	198.0	137.0	32	7.0	15.0	11.0	0	0	1264.4502799510956	4550	73641.23707079887	2532	44.35164835164835	
1.7303941176470587	113.18571428571428	10.941176470588236	86.51470588235294	60.455882352941174	12.0	65	433	182	17.0	178.0	124.0	46	7.0	15.0	11.0	0	0	1304.1969935894012	4620	74945.43406438828	2583	44.09090909090909	
1.7810975074626867	114.07142857142857	10.925373134328359	82.74626865671642	57.850746268656714	12.0	66	437	183	17.0	137.0	95.0	42	7.0	15.0	11.0	0	0	1270.3712139129639	4690	76215.80527830124	2629	43.944562899786774	
2.420293768115942	114.05714285714286	11.159420289855072	86.89855072463769	60.73913043478261	12.0	67	439	184	17.0	219.0	152.0	57	7.0	15.0	11.0	0	0	1335.6994371414185	4760	77551.50471544266	2671	43.88655462184874	
2.220590779411765	117.02857142857142	11.132352941176471	87.95588235294117	61.44117647058823	12.0	68	442	211	17.0	189.0	132.0	29	7.0	15.0	11.0	0	0	1256.4031720161438	4830	78807.9078874588	2716	43.768115942028984	
1.9751270597014927	117.45714285714286	10.91044776119403	82.94029850746269	57.95522388059702	12.0	69	446	201	17.0	189.0	132.0	41	7.0	15.0	11.0	0	0	1211.9413032531738	4900	80019.84919071198	2759	43.69387755102041	
3.1442797014925374	117.22857142857143	11.597014925373134	88.44776119402985	61.76119402985075	12.3333	70	450	201	17.0	189.0	132.0	44	7.0	15.0	11.0	0	0	1178.658721446991	4970	81198.50791215897	2805	43.561368209255534	
2.117647544117647	118.21428571428571	11.485294117647058	94.27941176470588	65.75	12.3333	71	453	201	17.0	185.0	128.0	54	7.0	15.0	11.0	0	0	1213.9432380199432	5040	82412.45115017891	2850	43.452380952380956	
1.8153826615384614	115.31428571428572	11.353846153846154	91.03076923076924	63.50769230769231	12.3333	72	459	196	17.0	172.0	118.0	60	7.0	15.0	11.0	0	0	1206.809803724289	5110	83619.2609539032	2893	43.38551859099804	
2.1014482608695655	118.4	11.18840579710145	90.97101449275362	63.47826086956522	12.3333	73	461	200	17.0	179.0	123.0	64	7.0	15.0	11.0	0	0	1261.8015463352203	5180	84881.06250023842	2948	43.08880308880308	
1.7727252575757575	121.58571428571429	11.045454545454545	87.01515151515152	60.621212121212125	12.3333	74	466	197	17.0	179.0	123.0	43	7.0	15.0	11.0	0	0	1226.417851448059	5250	86107.48035168648	2999	42.87619047619048	
2.656715970149254	119.08571428571429	11.507462686567164	93.83582089552239	65.44776119402985	12.3333	75	470	203	17.0	170.0	119.0	44	7.0	15.0	11.0	0	0	1219.4116778373718	5320	87326.89202952385	3049	42.68796992481203	
1.9641001999999999	117.97142857142858	12.061538461538461	98.63076923076923	68.75384615384615	12.3333	76	476	209	17.0	170.0	119.0	55	7.0	15.0	11.0	0	0	1219.1690685749054	5390	88546.06109809875	3094	42.5974025974026	
1.2769199999999998	119.25714285714285	11.692307692307692	99.41538461538461	69.46153846153847	12.3333	77	482	191	17.0	197.0	136.0	55	7.0	15.0	11.0	0	0	1266.1226971149445	5460	89812.1837952137	3140	42.490842490842496	
2.313428298507463	117.84285714285714	11.462686567164178	95.55223880597015	66.65671641791045	12.3333	78	486	194	17.0	198.0	136.0	29	7.0	15.0	11.0	0	0	1256.3209726810455	5530	91068.50476789474	3188	42.35081374321881	
1.4477585970149254	111.71428571428571	11.104477611940299	87.25373134328358	60.97014925373134	12.3333	79	490	185	17.0	198.0	136.0	42	7.0	15.0	11.0	0	0	1312.9994280338287	5600	92381.50419592857	3233	42.267857142857146	
1.3236681594202897	111.58571428571429	11.072463768115941	88.72463768115942	62.01449275362319	12.3333	80	492	185	17.0	151.0	104.0	42	7.0	15.0	11.0	0	0	1328.3026161193848	5670	93709.80681204796	3284	42.08112874779542	
1.4974340000000002	115.72857142857143	11.36923076923077	95.2	66.47692307692307	12.3333	81	498	216	17.0	167.0	117.0	46	7.0	15.0	11.0	0	0	1234.8055078983307	5740	94944.61231994629	3336	41.8815331010453	
1.7486328852459017	115.08571428571429	11.098360655737705	87.98360655737704	61.49180327868852	12.3333	82	508	221	17.0	151.0	104.0	20	7.0	15.0	11.0	0	0	1135.703996181488	5810	96080.31631612778	3383	41.77280550774527	
2.1384584153846156	121.45714285714286	11.292307692307693	94.01538461538462	65.72307692307692	12.3333	83	514	221	17.0	178.0	124.0	79	7.0	15.0	11.0	0	0	1246.9080715179443	5880	97327.22438764572	3430	41.666666666666664	
2.3497229016393444	117.7	11.688524590163935	89.09836065573771	62.295081967213115	12.3333	84	524	208	17.0	165.0	115.0	56	7.0	15.0	11.0	0	0	1125.6039748191833	5950	98452.8283624649	3474	41.61344537815126	
1.9901937794117648	118.94285714285714	11.691176470588236	88.77941176470588	62.05882352941177	12.3333	85	527	259	17.0	165.0	115.0	53	7.0	15.0	11.0	0	0	1277.0531854629517	6020	99729.88154792786	3520	41.5282392026578	
2.2272696363636366	122.5	11.393939393939394	87.10606060606061	60.84848484848485	12.3333	86	532	248	17.0	167.0	117.0	15	7.0	15.0	11.0	0	0	1206.6257498264313	6090	100936.50729775429	3568	41.41215106732348	
2.328279696969697	121.42857142857143	11.287878787878787	82.78787878787878	57.77272727272727	12.6667	87	537	205	17.0	166.0	115.0	48	7.0	15.0	11.0	0	0	1220.9571785926819	6160	102157.46447634697	3614	41.33116883116883	
2.460781867647059	123.54285714285714	11.529411764705882	87.25	61.01470588235294	12.6667	88	540	219	17.0	165.0	115.0	30	7.0	15.0	11.0	0	0	1288.8203735351562	6230	103446.28484988213	3666	41.15569823434993	
1.9841252222222219	115.2	11.142857142857142	90.68253968253968	63.3968253968254	12.6667	89	548	209	17.0	167.0	118.0	56	7.0	15.0	11.0	0	0	1184.299167394638	6300	104630.58401727676	3716	41.01587301587302	
2.2769203538461538	116.47142857142858	11.061538461538461	84.27692307692308	58.98461538461538	12.6667	90	554	207	17.0	161.0	114.0	56	7.0	15.0	11.0	0	0	1219.2792320251465	6370	105849.86324930191	3760	40.97331240188383	
2.5223850746268655	119.81428571428572	11.417910447761194	89.08955223880596	62.32835820895522	12.6667	91	558	195	17.0	143.0	100.0	56	7.0	15.0	11.0	0	0	1249.4506106376648	6440	107099.31385993958	3804	40.931677018633536	
2.8518492539682536	117.11428571428571	11.746031746031745	92.41269841269842	64.53968253968254	12.6667	92	566	229	17.0	146.0	102.0	62	7.0	15.0	11.0	0	0	1162.8894288539886	6510	108262.20328879356	3848	40.89093701996928	
2.353533924242424	111.31428571428572	11.393939393939394	91.51515151515152	64.06060606060606	12.6667	93	571	181	17.0	138.0	96.0	41	7.0	15.0	11.0	0	0	1238.8775334358215	6580	109501.08082222939	3899	40.74468085106383	
2.10937453125	113.72857142857143	11.75	93.5625	65.390625	12.6667	94	578	176	17.0	188.0	131.0	39	7.0	15.0	11.0	0	0	1206.1252250671387	6650	110707.20604729652	3948	40.63157894736842	
2.296295873015873	113.52857142857142	11.80952380952381	94.63492063492063	66.07936507936508	12.6667	95	586	203	17.0	196.0	137.0	36	7.0	15.0	11.0	0	0	1189.48472738266	6720	111896.69077467918	3993	40.58035714285714	
2.164104153846154	111.64285714285714	12.107692307692307	90.98461538461538	63.53846153846154	12.6667	96	592	191	17.0	158.0	110.0	46	7.0	15.0	11.0	0	0	1212.25332570076	6790	113108.94410037994	4038	40.53019145802651	
2.3854198437500003	109.34285714285714	11.71875	93.9375	65.625	12.6667	97	599	173	17.0	169.0	117.0	55	7.0	15.0	11.0	0	0	1180.7498874664307	6860	114289.69398784637	4079	40.539358600583085	
1.9191945	112.9	11.409090909090908	83.78787878787878	58.59090909090909	12.6667	98	604	188	17.0	171.0	119.0	35	7.0	15.0	11.0	0	0	1243.2026903629303	6930	115532.8966782093	4124	40.490620490620486	
2.3131342424242427	112.14285714285714	11.303030303030303	81.4090909090909	56.89393939393939	12.6667	99	609	180	17.0	137.0	95.0	37	7.0	15.0	11.0	0	0	1219.2125039100647	7000	116752.10918211937	4173	40.38571428571428	
1.6363656515151517	122.72857142857143	11.0	78.75757575757575	55.015151515151516	12.6667	100	614	197	17.0	150.0	104.0	45	7.0	15.0	11.0	0	0	1252.8984265327454	7070	118005.00760865211	4222	40.28288543140028	
2.323078461538461	121.4	10.938461538461539	75.03076923076924	52.47692307692308	12.6667	101	620	237	17.0	206.0	144.0	31	7.0	15.0	11.0	0	0	1213.2108380794525	7140	119218.21844673157	4264	40.280112044817926	
2.154230791044776	122.42857142857143	11.029850746268657	78.07462686567165	54.56716417910448	12.6667	102	624	197	17.0	218.0	152.0	46	7.0	15.0	11.0	0	0	1288.1924397945404	7210	120506.41088652611	4304	40.30513176144244	
2.0333365	110.62857142857143	10.966666666666667	75.71666666666667	52.916666666666664	12.6667	103	635	197	17.0	141.0	99.0	46	7.0	15.0	11.0	0	0	1144.958508491516	7280	121651.36939501762	4341	40.370879120879124	
2.1666702741935486	108.2	10.951612903225806	81.74193548387096	57.145161290322584	12.6667	104	644	199	17.0	196.0	137.0	37	7.0	15.0	11.0	0	0	1189.6203212738037	7350	122840.98971629143	4382	40.38095238095239	
2.317710828125	110.72857142857143	11.421875	86.046875	60.171875	12.6667	105	651	200	17.0	137.0	95.0	41	7.0	15.0	11.0	0	0	1267.2526724338531	7420	124108.24238872528	4419	40.444743935309965	
2.604168171875	108.5	11.9375	92.03125	64.359375	12.6667	106	658	181	17.0	138.0	97.0	27	7.0	15.0	11.0	0	0	1239.400616645813	7490	125347.6430053711	4465	40.387182910547395	
2.2512124492753625	106.44285714285714	11.652173913043478	87.7536231884058	61.30434782608695	12.6667	107	660	183	17.0	137.0	95.0	27	7.0	15.0	11.0	0	0	1335.7302558422089	7560	126683.3732612133	4512	40.317460317460316	
2.239587078125	120.0	12.03125	92.71875	64.734375	12.6667	108	667	233	17.0	162.0	113.0	40	7.0	15.0	11.0	0	0	1221.1239511966705	7630	127904.49721240997	4564	40.183486238532105	
2.1128251230769233	117.01428571428572	11.692307692307692	92.03076923076924	64.18461538461538	12.6667	109	673	296	17.0	161.0	112.0	43	7.0	15.0	11.0	0	0	1232.3662793636322	7700	129136.8634917736	4605	40.19480519480519	
2.0611145	117.75714285714285	11.316666666666666	88.05	61.36666666666667	12.6667	110	684	248	17.0	172.0	119.0	25	7.0	18.0	13.0	0	0	1090.707213640213	7770	130227.57070541382	4646	40.20592020592021	
1.6338825081967212	110.57142857142857	11.180327868852459	88.09836065573771	61.442622950819676	12.6667	111	694	248	17.0	154.0	107.0	33	7.0	15.0	11.0	0	0	1101.2102279663086	7840	131328.78093338013	4687	40.21683673469387	
1.939396863636364	126.78571428571429	11.621212121212121	93.71212121212122	65.45454545454545	12.6667	112	699	248	17.0	158.0	109.0	33	7.0	15.0	11.0	0	0	1220.8002507686615	7910	132549.5811841488	4738	40.10113780025284	
1.7025664615384615	129.15714285714284	11.538461538461538	91.98461538461538	64.26153846153846	12.6667	113	705	257	17.0	200.0	140.0	22	7.0	15.0	11.0	0	0	1234.6507484912872	7980	133784.23193264008	4787	40.0125313283208	
1.88021078125	122.98571428571428	11.296875	87.984375	61.546875	12.6667	114	712	228	17.0	144.0	100.0	39	7.0	15.0	11.0	0	0	1236.197100162506	8050	135020.42903280258	4828	40.0248447204969	
1.8958360937499998	119.5	10.921875	87.453125	61.125	12.6667	115	719	228	17.0	143.0	99.0	79	7.0	15.0	11.0	0	0	1225.3152015209198	8120	136245.7442343235	4866	40.073891625615765	
1.8434369242424242	111.42857142857143	10.984848484848484	84.01515151515152	58.75757575757576	12.6667	116	724	215	17.0	174.0	120.0	52	7.0	15.0	11.0	0	0	1269.6705887317657	8190	137515.41482305527	4912	40.024420024420024	
2.487565641791045	122.81428571428572	12.26865671641791	96.61194029850746	67.53731343283582	12.6667	117	728	215	17.0	162.0	112.0	31	7.0	15.0	11.0	0	0	1244.1513624191284	8260	138759.5661854744	4962	39.927360774818396	
3.171879859375	113.81428571428572	12.546875	99.6875	69.5625	12.6667	118	735	231	17.0	174.0	120.0	41	7.0	15.0	11.0	0	0	1182.008458852768	8330	139941.57464432716	5009	39.867947178871546	
3.6190519365079363	110.44285714285714	12.492063492063492	99.63492063492063	69.57142857142857	12.6667	119	743	180	17.0	164.0	115.0	34	7.0	15.0	11.0	0	0	1205.9860770702362	8400	141147.5607213974	5048	39.90476190476191	
4.333335578125	122.22857142857143	12.921875	102.421875	71.390625	12.6667	120	750	209	17.0	137.0	95.0	50	7.0	15.0	11.0	0	0	1202.425112247467	8470	142349.98583364487	5094	39.858323494687134	
2.885059362068966	132.15714285714284	12.39655172413793	100.13793103448276	69.98275862068965	13.0	121	763	228	17.0	216.0	149.0	24	7.0	15.0	11.0	0	0	1106.7775139808655	8540	143456.76334762573	5138	39.8360655737705	
3.0461569846153846	131.75714285714287	12.584615384615384	98.52307692307693	68.70769230769231	13.0	122	769	209	17.0	163.0	113.0	95	7.0	15.0	11.0	0	0	1240.8339269161224	8610	144697.59727454185	5178	39.860627177700344	
2.538462553846154	125.58571428571429	12.123076923076923	99.73846153846154	69.56923076923077	13.0	123	775	211	17.0	215.0	149.0	19	7.0	15.0	11.0	0	0	1241.7025320529938	8680	145939.29980659485	5214	39.93087557603686	
2.994709365079365	121.65714285714286	12.317460317460318	100.26984126984127	69.96825396825396	13.0	124	783	211	17.0	215.0	149.0	82	7.0	15.0	11.0	0	0	1205.9792096614838	8750	147145.27901625633	5257	39.92	
2.2139313880597014	116.01428571428572	11.686567164179104	93.50746268656717	65.28358208955224	13.0	125	787	165	17.0	154.0	107.0	69	7.0	15.0	11.0	0	0	1279.72567653656	8820	148425.0046927929	5299	39.920634920634924	
2.923498836065574	117.74285714285715	12.049180327868852	96.01639344262296	66.93442622950819	13.0	126	797	216	17.0	180.0	124.0	22	9.0	45.0	32.0	0	0	1119.575436592102	8890	149544.580129385	5339	39.94375703037121	
2.4858769491525425	121.31428571428572	11.915254237288135	95.52542372881356	66.57627118644068	13.0	127	809	224	17.0	180.0	124.0	21	7.0	15.0	11.0	0	0	1070.938908815384	8960	150615.51903820038	5379	39.96651785714286	
2.1774206451612903	116.82857142857142	11.709677419354838	92.54838709677419	64.56451612903226	13.0	128	818	183	17.0	170.0	119.0	61	7.0	15.0	11.0	0	0	1118.46928024292	9030	151733.9883184433	5424	39.93355481727575	
2.3888909090909096	119.81428571428572	11.727272727272727	90.78787878787878	63.43939393939394	13.0	129	823	224	17.0	141.0	99.0	41	7.0	15.0	11.0	0	0	1202.1143238544464	9100	152936.10264229774	5468	39.91208791208791	
1.4477626417910447	122.75714285714285	11.582089552238806	91.02985074626865	63.56716417910448	13.0	130	827	224	17.0	173.0	119.0	59	7.0	15.0	11.0	0	0	1221.6186192035675	9170	154157.7212615013	5519	39.81461286804798	
1.4863403278688527	119.04285714285714	11.311475409836065	87.90163934426229	61.377049180327866	13.0	131	837	223	17.0	233.0	163.0	28	7.0	20.0	14.0	0	0	1117.0167882442474	9240	155274.73804974556	5562	39.80519480519481	
1.3825152950819672	110.5	11.21311475409836	83.85245901639344	58.59016393442623	13.0	132	847	250	17.0	152.0	105.0	25	7.0	15.0	11.0	0	0	1135.4350607395172	9310	156410.17311048508	5603	39.817400644468314	
1.7222239333333333	113.92857142857143	11.116666666666667	81.13333333333334	56.71666666666667	13.0	133	858	221	17.0	137.0	95.0	28	7.0	15.0	11.0	0	0	1124.0821175575256	9380	157534.2552280426	5643	39.840085287846485	
1.8095249206349204	113.51428571428572	11.222222222222221	80.26984126984127	56.15873015873016	13.0	134	866	239	17.0	151.0	105.0	28	7.0	15.0	11.0	0	0	1154.6269264221191	9450	158688.88215446472	5684	39.85185185185185	
2.8232327272727273	110.07142857142857	12.030303030303031	87.3030303030303	60.984848484848484	13.0	135	871	239	17.0	137.0	95.0	28	7.0	17.0	12.0	0	0	1216.6208937168121	9520	159905.50304818153	5728	39.831932773109244	
3.333333384615385	107.14285714285714	12.2	91.86153846153846	64.21538461538462	13.0	136	877	193	17.0	159.0	112.0	28	7.0	15.0	11.0	0	0	1219.9367156028748	9590	161125.4397637844	5769	39.84358706986444	
2.9010413125	111.8	12.109375	92.40625	64.5625	13.0	137	884	173	17.0	159.0	112.0	49	7.0	15.0	11.0	0	0	1221.5280756950378	9660	162346.96783947945	5812	39.834368530020704	
2.7641034923076924	110.24285714285715	11.861538461538462	95.93846153846154	67.0923076923077	13.0	138	890	180	17.0	183.0	128.0	34	7.0	15.0	11.0	0	0	1259.9497067928314	9730	163606.91754627228	5860	39.77389516957862	
2.97222395	109.84285714285714	12.633333333333333	102.95	71.93333333333334	13.0	139	901	191	17.0	154.0	108.0	45	7.0	17.0	12.0	0	0	1128.390040397644	9800	164735.30758666992	5900	39.795918367346935	
3.5833340000000002	107.1	12.616666666666667	99.35	69.28333333333333	13.0	140	912	157	17.0	137.0	95.0	57	7.0	15.0	11.0	0	0	1122.1233513355255	9870	165857.43093800545	5938	39.83789260385006	
2.9470898412698414	107.6	12.126984126984127	94.3015873015873	65.9047619047619	13.0	141	920	189	17.0	137.0	95.0	27	7.0	15.0	11.0	0	0	1191.638649225235	9940	167049.06958723068	5978	39.859154929577464	
2.3050834406779663	110.04285714285714	11.898305084745763	94.23728813559322	65.89830508474576	13.0	142	932	210	17.0	140.0	98.0	27	8.0	36.0	26.0	0	0	1116.6802368164062	10010	168165.7498240471	6019	39.870129870129865	
2.0055566000000002	109.52857142857142	11.966666666666667	96.26666666666667	67.31666666666666	13.0	143	943	195	17.0	137.0	95.0	19	8.0	30.0	22.0	0	0	1104.174887418747	10080	169269.92471146584	6063	39.85119047619048	
2.0645161774193546	108.84285714285714	11.67741935483871	91.69354838709677	64.1774193548387	13.0	144	952	169	17.0	157.0	110.0	52	7.0	15.0	11.0	0	0	1157.748611688614	10150	170427.67332315445	6103	39.871921182266014	
2.0343146470588236	109.98571428571428	11.720588235294118	95.66176470588235	66.86764705882354	13.0	145	955	198	17.0	235.0	164.0	55	7.0	15.0	11.0	0	0	1298.5358741283417	10220	171726.2091972828	6146	39.863013698630134	
1.7540987868852458	112.94285714285714	11.163934426229508	88.29508196721312	61.80327868852459	13.0	146	965	198	17.0	172.0	119.0	44	7.0	15.0	11.0	0	0	1168.6736972332	10290	172894.882894516	6185	39.89310009718173	
1.65104046875	119.77142857142857	11.3125	88.765625	62.09375	13.0	147	972	176	17.0	196.0	137.0	68	7.0	15.0	11.0	0	0	1262.7099783420563	10360	174157.59287285805	6234	39.826254826254825	
1.7128205076923075	122.11428571428571	11.184615384615384	84.27692307692308	58.92307692307692	13.0	148	978	188	17.0	180.0	127.0	40	7.0	15.0	11.0	0	0	1253.1278312206268	10430	175410.72070407867	6278	39.808245445829336	
2.257575696969697	112.51428571428572	11.469696969696969	90.37878787878788	63.22727272727273	13.0	149	983	190	17.0	212.0	149.0	23	8.0	27.0	19.0	0	0	1238.0204315185547	10500	176648.74113559723	6323	39.780952380952385	
2.671795061538462	110.58571428571429	12.123076923076923	92.98461538461538	64.93846153846154	13.0	150	989	208	17.0	137.0	95.0	46	7.0	15.0	11.0	0	0	1221.45476770401	10570	177870.19590330124	6363	39.80132450331125	
2.035352409090909	115.4	12.181818181818182	95.71212121212122	66.9090909090909	13.0	151	994	208	17.0	189.0	133.0	23	7.0	15.0	11.0	0	0	1287.4259490966797	10640	179157.62185239792	6405	39.80263157894737	
1.7473119354838709	118.81428571428572	11.758064516129032	97.24193548387096	68.06451612903226	13.0	152	1003	220	17.0	241.0	169.0	46	7.0	15.0	11.0	0	0	1202.9291536808014	10710	180360.55100607872	6447	39.80392156862745	
1.9947090476190477	116.32857142857142	11.523809523809524	89.34920634920636	62.476190476190474	13.0	153	1011	245	17.0	145.0	102.0	46	7.0	15.0	11.0	0	0	1192.1333558559418	10780	181552.68436193466	6485	39.842300556586274	
2.085859242424242	134.12857142857143	11.196969696969697	88.27272727272727	61.68181818181818	13.0	154	1016	265	17.0	159.0	111.0	46	7.0	15.0	11.0	0	0	1262.5693216323853	10850	182815.25368356705	6532	39.79723502304148	
2.83333296875	137.45714285714286	11.546875	87.9375	61.546875	13.0	155	1023	242	17.0	148.0	104.0	54	7.0	15.0	11.0	0	0	1197.9332971572876	10920	184013.18698072433	6573	39.807692307692314	
3.7956998387096776	116.9	12.080645161290322	94.3225806451613	65.95161290322581	13.0	156	1032	227	17.0	137.0	95.0	21	7.0	15.0	11.0	0	0	1168.151206254959	10990	185181.3381869793	6609	39.86351228389445	
3.39062578125	115.84285714285714	12.234375	98.203125	68.671875	13.0	157	1039	227	17.0	195.0	138.0	25	7.0	15.0	11.0	0	0	1213.0420048236847	11060	186394.38019180298	6650	39.87341772151899	
2.5692322	115.08571428571429	11.723076923076922	94.06153846153846	65.75384615384615	13.0	158	1045	212	17.0	172.0	119.0	43	7.0	15.0	11.0	0	0	1237.7425651550293	11130	187632.122756958	6688	39.91015274034142	
2.967741387096775	117.82857142857142	12.290322580645162	96.61290322580645	67.48387096774194	13.0	159	1054	241	17.0	156.0	109.0	33	7.0	15.0	11.0	0	0	1188.376719236374	11200	188820.49947619438	6735	39.86607142857142	
2.8615384153846155	117.98571428571428	11.676923076923076	87.72307692307692	61.36923076923077	13.0	160	1060	275	17.0	154.0	108.0	61	7.0	15.0	11.0	0	0	1225.7840077877045	11270	190046.2834839821	6784	39.80479148181012	
3.0454546969696965	125.11428571428571	11.651515151515152	92.33333333333333	64.51515151515152	13.0	161	1065	241	17.0	204.0	143.0	65	7.0	15.0	11.0	0	0	1233.095206975937	11340	191279.37869095802	6831	39.761904761904766	
2.767678575757576	129.87142857142857	11.757575757575758	93.1969696969697	65.12121212121212	13.0	162	1070	286	17.0	232.0	163.0	39	7.0	15.0	11.0	0	0	1247.2608709335327	11410	192526.63956189156	6876	39.73707274320771	
3.015626140625	126.65714285714286	11.703125	87.328125	61.03125	13.0	163	1077	294	17.0	139.0	99.0	40	7.0	15.0	11.0	0	0	1233.932998418808	11480	193760.57256031036	6916	39.75609756097561	
3.1060590909090915	136.11428571428573	11.590909090909092	88.95454545454545	62.166666666666664	13.0	164	1082	310	17.0	139.0	99.0	23	7.0	15.0	11.0	0	0	1309.5327551364899	11550	195070.10531544685	6964	39.70562770562771	
2.203124578125	141.5857142857143	11.015625	80.78125	56.515625	13.0	165	1089	310	17.0	170.0	118.0	32	7.0	15.0	11.0	0	0	1235.3007817268372	11620	196305.4060971737	7007	39.69879518072289	
1.8111116666666665	156.15714285714284	11.55	94.15	65.88333333333334	13.0	166	1100	352	17.0	201.0	140.0	26	7.0	15.0	11.0	0	0	1153.54110121727	11690	197458.94719839096	7053	39.66638152266895	
2.1960787647058826	143.75714285714287	11.955882352941176	96.3529411764706	67.3970588235294	13.0	167	1103	352	17.0	172.0	120.0	32	7.0	15.0	11.0	0	0	1305.7242720127106	11760	198764.67147040367	7100	39.62585034013606	
2.555555454545454	138.7	12.848484848484848	110.06060606060606	76.8030303030303	13.0	168	1108	310	17.0	148.0	103.0	63	9.0	52.0	37.0	0	0	1288.3620965480804	11830	200053.03356695175	7152	39.543533389687234	
2.372548970588235	140.44285714285715	12.352941176470589	105.76470588235294	74.0	13.0	169	1111	309	17.0	194.0	136.0	50	7.0	15.0	11.0	0	0	1317.2767617702484	11900	201370.310328722	7203	39.470588235294116	
3.0	146.14285714285714	12.56060606060606	105.96969696969697	74.06060606060606	13.0	170	1116	348	17.0	265.0	186.0	44	8.0	34.0	24.0	0	0	1260.3849141597748	11970	202630.69524288177	7247	39.45697577276525	
2.6078436764705883	136.1	12.205882352941176	98.80882352941177	69.07352941176471	13.0	171	1119	395	17.0	271.0	190.0	42	7.0	15.0	11.0	0	0	1308.0640218257904	12040	203938.75926470757	7291	39.443521594684384	
1.786458328125	129.04285714285714	11.640625	90.703125	63.484375	13.0	172	1126	395	17.0	148.0	104.0	50	7.0	15.0	11.0	0	0	1173.1698100566864	12110	205111.92907476425	7333	39.4467382328654	
2.0211646031746033	126.61428571428571	11.238095238095237	83.92063492063492	58.74603174603175	13.0	173	1134	348	17.0	155.0	110.0	45	7.0	17.0	12.0	0	0	1065.6892127990723	12180	206177.61828756332	7372	39.47454844006568	
1.6666666666666667	125.01428571428572	10.727272727272727	71.53030303030303	49.984848484848484	13.0	174	1139	353	17.0	186.0	131.0	32	7.0	15.0	11.0	0	0	1078.441222190857	12250	207256.05950975418	7417	39.453061224489794	
1.7076928153846154	125.75714285714285	11.092307692307692	83.35384615384615	58.23076923076923	13.0	175	1145	396	17.0	200.0	139.0	45	7.0	15.0	11.0	0	0	1116.0564515590668	12320	208372.11596131325	7458	39.464285714285715	
1.3131312575757577	136.78571428571428	10.969696969696969	83.87878787878788	58.666666666666664	13.0	176	1150	396	17.0	206.0	143.0	48	7.0	15.0	11.0	0	0	1018.9131500720978	12390	209391.02911138535	7499	39.47538337368846	
1.1640211111111112	128.8	10.476190476190476	71.4920634920635	50.142857142857146	13.0	177	1158	435	17.0	177.0	124.0	28	7.0	15.0	11.0	0	0	778.7545301914215	12460	210169.78364157677	7541	39.47833065810594	
1.6818187878787878	116.94285714285714	10.969696969696969	82.12121212121212	57.484848484848484	13.0	178	1163	406	17.0	150.0	105.0	28	7.0	15.0	11.0	0	0	830.843425989151	12530	211000.62706756592	7577	39.52913008778931	
1.8131323181818182	122.52857142857142	10.878787878787879	82.07575757575758	57.46969696969697	13.0	179	1168	261	17.0	147.0	103.0	32	7.0	15.0	11.0	0	0	835.7396805286407	12600	211836.36674809456	7611	39.595238095238095	
1.174129343283582	121.6	10.611940298507463	83.86567164179104	58.656716417910445	13.0	180	1172	203	17.0	171.0	120.0	58	7.0	15.0	11.0	0	0	826.3973882198334	12670	212662.7641363144	7653	39.59747434885556	
1.4444447826086955	128.55714285714285	11.202898550724637	93.68115942028986	65.44927536231884	13.0	181	1174	211	17.0	171.0	119.0	58	8.0	33.0	24.0	0	0	866.8106038570404	12740	213529.57474017143	7702	39.5447409733124	
1.7538462461538462	124.44285714285714	11.446153846153846	91.1076923076923	63.723076923076924	13.0	182	1180	286	17.0	137.0	95.0	21	7.0	15.0	11.0	0	0	821.0530183315277	12810	214350.62775850296	7755	39.46135831381733	
1.642156705882353	145.37142857142857	11.352941176470589	93.0	65.1470588235294	13.0	183	1183	286	17.0	201.0	143.0	65	7.0	15.0	11.0	0	0	864.3606898784637	12880	215214.98844838142	7804	39.409937888198755	
1.4410250769230768	139.7	10.584615384615384	84.64615384615385	59.246153846153845	13.0	184	1189	270	17.0	201.0	141.0	61	7.0	15.0	11.0	0	0	792.3350238800049	12950	216007.32347226143	7852	39.36679536679537	
1.353846153846154	134.55714285714285	11.446153846153846	95.66153846153846	66.93846153846154	13.0	185	1195	270	17.0	201.0	141.0	36	7.0	21.0	15.0	0	0	812.7289772033691	13020	216820.0524494648	7900	39.324116743471585	
1.484375	133.0142857142857	11.3125	87.203125	60.984375	13.0	186	1202	298	17.0	146.0	101.0	49	7.0	15.0	11.0	0	0	787.2187547683716	13090	217607.27120423317	7936	39.37356760886173	
1.3064516129032258	145.2	11.5	94.30645161290323	65.98387096774194	13.0	187	1211	256	17.0	183.0	128.0	57	7.0	15.0	11.0	0	0	776.1092376708984	13160	218383.38044190407	7980	39.36170212765957	
2.9949500454545452	146.64285714285714	11.742424242424242	89.84848484848484	62.75757575757576	13.0	188	1216	331	17.0	195.0	136.0	22	7.0	15.0	11.0	0	0	814.7793056964874	13230	219198.15974760056	8025	39.342403628117914	
2.54166625	144.81428571428572	11.796875	93.234375	65.109375	13.0	189	1223	276	17.0	196.0	138.0	34	7.0	15.0	11.0	0	0	776.1372246742249	13300	219974.29697227478	8070	39.32330827067669	
2.2486777619047618	141.4142857142857	11.825396825396826	92.4920634920635	64.5079365079365	13.0	190	1231	264	17.0	197.0	136.0	54	7.0	15.0	11.0	0	0	745.718843460083	13370	220720.01581573486	8110	39.341810022438295	
2.3232323181818177	138.88571428571427	11.893939393939394	97.4090909090909	68.10606060606061	13.0	191	1236	267	17.0	150.0	105.0	43	7.0	15.0	11.0	0	0	821.0763828754425	13440	221541.0921986103	8157	39.308035714285715	
3.212120712121212	127.5	12.56060606060606	101.3030303030303	70.83333333333333	13.0	192	1241	267	17.0	213.0	151.0	42	7.0	15.0	11.0	0	0	844.0695276260376	13510	222385.16172623634	8198	39.319022945965955	
2.338309552238806	120.15714285714286	11.417910447761194	90.05970149253731	63.04477611940298	13.0	193	1245	264	17.0	143.0	100.0	35	7.0	15.0	11.0	0	0	854.575709104538	13580	223239.73743534088	8243	39.30044182621503	
2.6190482539682542	116.47142857142858	11.746031746031745	93.33333333333333	65.15873015873017	13.0	194	1253	279	17.0	178.0	124.0	47	7.0	15.0	11.0	0	0	791.9161591529846	13650	224031.65359449387	8289	39.27472527472528	
3.15624890625	109.8	12.1875	94.765625	66.203125	13.0	195	1260	241	17.0	137.0	95.0	46	7.0	15.0	11.0	0	0	816.4729351997375	13720	224848.1265296936	8330	39.28571428571429	
2.8095226984126986	111.07142857142857	12.587301587301587	100.53968253968254	70.2063492063492	13.0	196	1268	284	17.0	137.0	95.0	54	7.0	15.0	11.0	0	0	806.8894488811493	13790	225655.01597857475	8374	39.27483683828862	
2.1666666718750003	109.11428571428571	12.078125	93.09375	65.0	13.0	197	1275	191	17.0	137.0	95.0	54	7.0	15.0	11.0	0	0	818.0762505531311	13860	226473.09222912788	8416	39.27849927849928	
2.2203384745762715	118.28571428571429	11.88135593220339	92.91525423728814	64.98305084745763	13.0	198	1287	226	17.0	160.0	113.0	39	7.0	15.0	11.0	0	0	740.9098780155182	13930	227214.0021071434	8450	39.33955491744436	
1.6169155223880598	120.1	11.791044776119403	93.95522388059702	65.73134328358209	13.0	199	1291	260	17.0	206.0	145.0	31	7.0	15.0	11.0	0	0	869.7201457023621	14000	228083.72225284576	8496	39.31428571428571	
1.8258702537313432	116.14285714285714	11.074626865671641	85.02985074626865	59.46268656716418	13.0	200	1295	218	17.0	137.0	95.0	31	7.0	15.0	11.0	0	0	833.5720224380493	14070	228917.2942752838	8538	39.317697228144986	
