best_fitness	avg_fitness
1.66667	0.0666667
1.66667	0.233333
1.66667	1.2381
1.66667	1.12381
1.66667	1.09048
1.66667	1.08095
1.66667	1.20952
1.66667	1.14286
1.66667	1.10952
1.66667	1.07619
1.66667	1.09524
1.66667	1.17143
1.66667	1.14286
1.66667	1.18095
1.66667	1.12381
1.66667	1.1
1.66667	1.2
1.66667	1.1381
1.66667	1.19524
1.66667	1.24286
1.66667	1.18571
1.66667	1.15238
1.66667	1.13333
1.66667	1.15238
1.66667	1.24762
1.66667	1.19048
1.66667	1.22857
1.66667	1.16667
1.66667	1.15714
1.66667	1.2
1.66667	1.11905
1.66667	1.17143
1.66667	1.18571
1.66667	1.11905
1.66667	1.13333
1.66667	1.19048
1.66667	1.15714
1.66667	1.12857
1.66667	1.09524
1.66667	1.21905
1.66667	1.1619
1.66667	1.18571
1.66667	1.21905
1.66667	1.16667
1.66667	1.15238
1.66667	1.14762
1.66667	1.16667
1.66667	1.13333
1.66667	1.20952
1.66667	1.24762
1.66667	1.17143
1.66667	1.21429
1.66667	1.16667
1.66667	1.1
1.66667	1.23333
1.66667	1.2381
1.66667	1.11905
1.66667	1.1619
1.66667	1.14762
1.66667	1.18095
1.66667	1.1619
1.66667	1.15714
1.66667	1.18095
1.66667	1.22381
1.66667	1.15238
1.66667	1.14286
1.66667	1.1381
1.66667	1.09524
1.66667	1.1
1.66667	1.14286
1.66667	1.2
1.66667	1.18571
1.66667	1.12381
1.66667	1.13333
1.66667	1.18095
1.66667	1.14762
1.66667	1.15238
1.66667	1.2
1.66667	1.21905
1.66667	1.16667
1.66667	1.11905
1.66667	1.20476
1.66667	1.12857
1.66667	1.18095
1.66667	1.14762
1.66667	1.2381
1.66667	1.12381
1.66667	1.21429
1.66667	1.16667
1.66667	1.14762
1.66667	1.09524
1.66667	1.15238
1.66667	1.12857
1.66667	1.22381
1.66667	1.18571
1.66667	1.1
1.66667	1.20476
1.66667	1.20952
1.66667	1.23333
1.66667	1.22381
1.66667	1.21905
1.66667	1.15714
1.66667	1.18095
1.66667	1.19524
1.66667	1.18095
1.66667	1.19524
1.66667	1.14286
1.66667	1.09524
1.66667	1.21429
1.66667	1.19524
1.66667	1.1619
1.66667	1.11429
1.66667	1.12381
1.66667	1.15714
1.66667	1.18571
1.66667	1.1619
1.66667	1.0619
1.66667	1.20476
1.66667	1.0381
1.66667	1.17143
1.66667	1.2381
1.66667	1.17143
1.66667	1.1381
1.66667	1.15714
1.66667	1.08095
1.66667	1.19048
1.66667	1.21429
1.66667	1.14286
1.66667	1.21429
1.66667	1.15714
1.66667	1.1
1.66667	1.23333
1.66667	1.10476
1.66667	1.19524
1.66667	1.2
1.66667	1.09524
1.66667	1.19524
1.66667	1.13333
1.66667	1.10476
1.66667	1.2381
1.66667	1.18571
1.66667	1.17619
1.66667	1.10476
1.66667	1.13333
1.66667	1.19048
1.66667	1.14762
1.66667	1.20952
1.66667	1.19048
1.66667	1.1619
1.66667	1.1381
1.66667	1.17619
1.66667	1.21429
1.66667	1.12857
1.66667	1.21429
1.66667	1.17619
1.66667	1.2381
1.66667	1.12857
1.66667	1.2
1.66667	1.10476
1.66667	1.18571
1.66667	1.13333
1.66667	1.2
1.66667	1.2
1.66667	1.10476
1.66667	1.22381
1.66667	1.17143
1.66667	1.18571
1.66667	1.1381
1.66667	1.06667
1.66667	1.11905
1.66667	1.19524
1.66667	1.2
1.66667	1.2381
1.66667	1.18095
1.66667	1.20952
1.66667	1.19524
1.66667	1.12857
1.66667	1.20476
1.66667	1.21429
1.66667	1.16667
1.66667	1.19048
1.66667	1.1619
1.66667	1.20476
1.66667	1.15238
1.66667	1.21429
1.66667	1.21429
1.66667	1.23333
1.66667	1.20952
1.66667	1.20476
1.66667	1.23333
1.66667	1.28095
1.66667	1.16667
1.66667	1.14286
1.66667	1.12857
1.66667	1.19524
1.66667	1.15714
1.66667	1.24286
1.66667	1.21905
1.66667	1.19048
1.66667	1.12857
