best_fitness	avg_fitness
2.33333	0.0952381
3.33333	0.171429
3.33333	2.34762
3.33333	2.35238
3.33333	2.67619
3.33333	2.67619
3.33333	2.67619
3.33333	2.67619
3.33333	2.67619
3.33333	2.67619
3.33333	2.67619
3.33333	2.67619
3.33333	2.67619
3.33333	2.67619
3.33333	2.67619
3.33333	2.67619
3.33333	2.67619
3.33333	2.67619
3.33333	2.67619
3.33333	2.67619
3.33333	2.67619
3.33333	2.67619
3.33333	2.67619
3.33333	2.67619
3.33333	2.67619
3.33333	2.67619
3.33333	2.67619
3.33333	2.67619
3.33333	2.67619
3.33333	2.67619
3.33333	2.67619
3.33333	2.67619
3.33333	2.67619
3.33333	2.67619
3.33333	2.67619
3.33333	2.67619
3.33333	2.67619
3.33333	2.67619
3.33333	2.67619
3.33333	2.67619
3.33333	2.67619
3.33333	2.67619
3.33333	2.67619
3.33333	2.67619
3.33333	2.67619
3.33333	2.67619
3.33333	2.67619
3.33333	2.67619
3.33333	2.67619
3.33333	2.67619
3.33333	2.67619
3.33333	2.67619
3.33333	2.67619
3.33333	2.67619
3.33333	2.67619
3.33333	2.67619
3.33333	2.67619
3.33333	2.67619
3.33333	2.67619
3.33333	2.67619
3.33333	2.67619
3.33333	2.67619
3.33333	2.67619
3.33333	2.67619
3.33333	2.67619
3.33333	2.67619
3.33333	2.67619
3.33333	2.67619
3.33333	2.67619
3.33333	2.67619
3.33333	2.67619
3.33333	2.67619
3.33333	2.67619
3.33333	2.67619
3.33333	2.67619
3.33333	2.67619
3.33333	2.67619
3.33333	2.67619
3.33333	2.67619
3.33333	2.67619
3.33333	2.67619
3.33333	2.67619
3.33333	2.67619
3.33333	2.67619
3.33333	2.67619
3.33333	2.67619
3.33333	2.67619
3.33333	2.67619
3.33333	2.67619
3.33333	2.67619
3.33333	2.67619
3.33333	2.67619
3.33333	2.67619
3.33333	2.67619
3.33333	2.67619
3.33333	2.67619
3.33333	2.67619
3.33333	2.67619
3.33333	2.67619
3.33333	2.67619
3.33333	2.67619
3.33333	2.67619
3.33333	2.67619
3.33333	2.67619
3.33333	2.67619
3.33333	2.67619
3.33333	2.67619
3.33333	2.67619
3.33333	2.67619
3.33333	2.67619
3.33333	2.67619
3.33333	2.67619
3.33333	2.67619
3.33333	2.67619
3.33333	2.67619
3.33333	2.67619
3.33333	2.67619
3.33333	2.67619
3.33333	2.67619
3.33333	2.67619
3.33333	2.67619
3.33333	2.67619
3.33333	2.67619
3.33333	2.67619
3.33333	2.67619
3.33333	2.67619
3.33333	2.67619
3.33333	2.67619
3.33333	2.67619
3.33333	2.67619
3.33333	2.67619
3.33333	2.67619
3.33333	2.67619
3.33333	2.67619
3.33333	2.67619
3.33333	2.67619
3.33333	2.67619
3.33333	2.67619
3.33333	2.67619
3.33333	2.67619
3.33333	2.67619
3.33333	2.67619
3.33333	2.67619
3.33333	2.67619
3.33333	2.67619
3.33333	2.67619
3.33333	2.67619
3.33333	2.67619
3.33333	2.67619
3.33333	2.67619
3.33333	2.67619
3.33333	2.67619
3.33333	2.67619
3.33333	2.67619
3.33333	2.67619
3.33333	2.67619
3.33333	2.67619
3.33333	2.67619
3.33333	2.67619
3.33333	2.67619
3.33333	2.67619
3.33333	2.67619
3.33333	2.67619
3.33333	2.67619
3.33333	2.67619
3.33333	2.67619
3.33333	2.67619
3.33333	2.67619
3.33333	2.67619
3.33333	2.67619
3.33333	2.67619
3.33333	2.67619
3.33333	2.67619
3.33333	2.67619
3.33333	2.67619
3.33333	2.67619
3.33333	2.67619
3.33333	2.67619
3.33333	2.67619
3.33333	2.67619
3.33333	2.67619
3.33333	2.67619
3.33333	2.67619
3.33333	2.67619
3.33333	2.67619
3.33333	2.67619
3.33333	2.67619
3.33333	2.67619
3.33333	2.67619
3.33333	2.67619
3.33333	2.67619
3.33333	2.67619
3.33333	2.67619
3.33333	2.67619
3.33333	2.67619
3.33333	2.67619
3.33333	2.67619
3.33333	2.67619
3.33333	2.67619
3.33333	2.67619
