Generation:
200

Phenotype:
*:*:B_RANDOM_WALK,99;B_RANDOM_WALK,99;IS_WANT_OBJECT,true,17;IS_DROP_OBJECT,true,9;IS_DROP_OBJECT,false,68#

Genotype:
[53441, 70150, 29009, 40019, 70467, 44064, 80188, 26922, 1617, 54254, 79889, 80188, 26922, 25466, 54254, 79889, 54776, 13049, 7863, 24098, 80762, 98896, 6982, 45785, 48931, 19723, 72280, 12735, 66507, 25885, 1468, 78651, 13763, 42185, 69340, 95386, 80108, 92797, 23470, 58685, 33805, 98920, 61599, 2067, 32579, 15519, 33578, 80185, 43698]
Tree:
None

Fitness:
2.0