Generation:
200

Phenotype:
*:*:B_RANDOM_WALK,90;IS_DROP_OBJECT,false,74;IS_DROP_OBJECT,true,18;IS_WANT_OBJECT,true,76#

Genotype:
[85453, 52048, 26227, 28474, 15745, 93653, 95028, 77122, 17625, 86924, 88061, 90812, 1241, 89578, 48079, 61579, 86732, 48964, 76631, 30192, 37827, 65556, 35469, 6245, 72881, 21596, 9228, 95600, 95117, 5516, 26702, 94445, 48461, 80590, 49797, 35669]
Tree:
None

Fitness:
2.33333