ave_fitness	ave_genome_length	ave_tree_depth	ave_tree_nodes	ave_used_codons	best_fitness	gen	invalids	max_genome_length	max_tree_depth	max_tree_nodes	max_used_codons	min_genome_length	min_tree_depth	min_tree_nodes	min_used_codons	runtime_error	time_adjust	time_taken	total_inds	total_time	unique_inds	unused_search	
0.0	53.81428571428572	8.2	51.48571428571429	36.042857142857144	0.0	0	0	141	10	136	94	16	7	15	11	0	0	1281.5065512657166	70	1281.5065512657166	70	0.0	
0.0	43.8	7.914893617021277	36.212765957446805	25.361702127659573	0.0	1	24	135	13.0	155.0	108.0	15	7.0	15.0	11.0	0	0	728.4953157901764	140	2010.001867055893	106	24.285714285714292	
0.0	37.857142857142854	7.584615384615384	29.4	20.615384615384617	0.0	2	30	124	11.0	80.0	56.0	5	7.0	15.0	11.0	0	0	1058.176094532013	210	3068.177961587906	135	35.71428571428571	
0.0	36.285714285714285	7.737704918032787	29.262295081967213	20.524590163934427	0.0	3	40	124	11.0	74.0	51.0	15	7.0	15.0	11.0	0	0	1004.2612528800964	280	4072.4392144680023	159	43.214285714285715	
0.0050504999999999994	38.371428571428574	8.136363636363637	34.13636363636363	23.848484848484848	0.333333	4	45	124	11.0	100.0	70.0	13	7.0	15.0	11.0	0	0	1089.33820104599	350	5161.777415513992	195	44.285714285714285	
0.0153846	40.65714285714286	8.169230769230769	33.56923076923077	23.384615384615383	0.333333	5	51	141	12.0	100.0	70.0	14	7.0	15.0	11.0	0	0	1051.669432401657	420	6213.446847915649	229	45.47619047619048	
0.0222222	43.08571428571429	8.15	31.9	22.266666666666666	0.333333	6	62	124	12.0	79.0	55.0	9	7.0	15.0	11.0	0	0	959.0145027637482	490	7172.461350679398	252	48.57142857142858	
0.036458296875	44.97142857142857	8.609375	35.328125	24.609375	0.333333	7	69	121	12.0	86.0	58.0	17	7.0	15.0	11.0	0	0	1063.2799446582794	560	8235.741295337677	281	49.82142857142857	
0.049751194029850745	54.72857142857143	8.985074626865671	38.0	26.46268656716418	0.333333	8	73	155	14.0	161.0	110.0	6	7.0	15.0	11.0	0	0	1135.940022468567	630	9371.681317806244	315	50.0	
0.0974358923076923	46.614285714285714	9.03076923076923	38.89230769230769	27.046153846153846	1.66667	9	79	155	13.0	143.0	99.0	17	7.0	15.0	11.0	0	0	1109.4667432308197	700	10481.148061037064	349	50.142857142857146	
0.13846161538461538	38.457142857142856	8.876923076923077	35.292307692307695	24.6	1.66667	10	85	110	13.0	143.0	99.0	4	7.0	15.0	11.0	0	0	1132.495079278946	770	11613.64314031601	369	52.07792207792208	
0.23737398484848485	35.628571428571426	8.909090909090908	33.89393939393939	23.606060606060606	1.66667	11	90	110	13.0	143.0	99.0	13	7.0	17.0	12.0	0	0	1116.6808931827545	840	12730.324033498764	398	52.61904761904762	
0.2903230322580645	39.58571428571429	9.064516129032258	35.03225806451613	24.322580645161292	1.66667	12	99	114	13.0	125.0	87.0	13	7.0	17.0	12.0	0	0	1050.7389588356018	910	13781.062992334366	426	53.18681318681319	
0.3333339016393443	35.57142857142857	8.78688524590164	31.688524590163933	22.0327868852459	1.66667	13	109	102	13.0	60.0	41.0	11	7.0	17.0	12.0	0	0	1004.7854025363922	980	14785.848394870758	449	54.183673469387756	
0.4358981846153846	36.1	8.923076923076923	32.84615384615385	22.846153846153847	1.66667	14	115	60	11.0	51.0	35.0	14	7.0	15.0	11.0	0	0	1125.5142390727997	1050	15911.362633943558	476	54.66666666666667	
0.5505059393939394	37.52857142857143	9.121212121212121	34.65151515151515	24.09090909090909	1.66667	15	120	66	11.0	51.0	35.0	12	7.0	15.0	11.0	0	0	1165.9570252895355	1120	17077.319659233093	503	55.089285714285715	
0.4603181111111111	38.25714285714286	9.158730158730158	34.317460317460316	23.936507936507937	1.66667	16	128	55	11.0	51.0	35.0	16	7.0	15.0	11.0	0	0	1115.9100997447968	1190	18193.22975897789	532	55.29411764705882	
0.3913050289855073	40.47142857142857	9.028985507246377	33.79710144927536	23.55072463768116	1.66667	17	130	69	12.0	60.0	41.0	16	7.0	15.0	11.0	0	0	1207.698119878769	1260	19400.92787885666	557	55.7936507936508	
0.4920642857142857	37.628571428571426	9.142857142857142	34.333333333333336	23.936507936507937	1.66667	18	138	71	12.0	60.0	41.0	11	7.0	15.0	11.0	0	0	1113.7139670848846	1330	20514.641845941544	580	56.390977443609025	
0.4444451515151515	37.714285714285715	9.257575757575758	35.65151515151515	24.833333333333332	1.66667	19	143	71	12.0	60.0	41.0	8	7.0	15.0	11.0	0	0	1156.523449897766	1400	21671.16529583931	610	56.42857142857143	
0.40625064062500005	38.68571428571428	9.296875	35.609375	24.8125	1.66667	20	150	94	12.0	60.0	41.0	10	7.0	15.0	11.0	0	0	1130.5202941894531	1470	22801.685590028763	642	56.326530612244895	
0.35265755072463767	41.57142857142857	9.057971014492754	35.15942028985507	24.434782608695652	1.66667	21	152	117	12.0	60.0	41.0	18	7.0	15.0	11.0	0	0	1173.7163469791412	1540	23975.401937007904	677	56.03896103896104	
0.380208859375	41.385714285714286	9.46875	39.15625	27.078125	1.66667	22	159	86	13.0	67.0	46.0	19	7.0	15.0	11.0	0	0	1076.9156234264374	1610	25052.31756043434	708	56.024844720496894	
0.3961359565217391	40.4	9.434782608695652	38.391304347826086	26.6231884057971	1.66667	23	161	66	13.0	72.0	49.0	18	7.0	15.0	11.0	0	0	1191.6095259189606	1680	26243.927086353302	744	55.714285714285715	
0.45098111764705884	40.114285714285714	9.455882352941176	37.30882352941177	25.91176470588235	1.66667	24	164	68	13.0	69.0	48.0	16	7.0	15.0	11.0	0	0	1173.3608963489532	1750	27417.287982702255	770	56.0	
0.48205221538461535	39.3	9.6	38.30769230769231	26.615384615384617	1.66667	25	170	66	13.0	67.0	46.0	18	7.0	15.0	11.0	0	0	1129.4155735969543	1820	28546.70355629921	794	56.37362637362637	
0.42328111111111116	38.47142857142857	9.857142857142858	40.19047619047619	27.88888888888889	1.66667	26	178	59	13.0	67.0	46.0	13	7.0	15.0	11.0	0	0	1098.8476705551147	1890	29645.551226854324	817	56.77248677248677	
0.4055562166666667	39.97142857142857	9.75	39.2	27.283333333333335	1.66667	27	189	72	13.0	65.0	45.0	13	7.0	15.0	11.0	0	0	1044.66179561615	1960	30690.213022470474	841	57.09183673469388	
0.5252534545454547	39.92857142857143	9.621212121212121	38.72727272727273	26.893939393939394	1.66667	28	194	65	13.0	67.0	46.0	17	7.0	17.0	12.0	0	0	1153.7632682323456	2030	31843.97629070282	861	57.58620689655172	
0.4307699384615385	38.25714285714286	9.169230769230769	34.90769230769231	24.323076923076922	1.66667	29	200	65	11.0	53.0	36.0	26	7.0	15.0	11.0	0	0	1112.975477695465	2100	32956.951768398285	886	57.80952380952381	
0.3166670833333333	38.01428571428571	9.183333333333334	34.416666666666664	23.966666666666665	1.66667	30	211	65	11.0	53.0	36.0	24	7.0	15.0	11.0	0	0	1039.1192553043365	2170	33996.07102370262	914	57.88018433179724	
0.2820517230769231	38.05714285714286	9.184615384615384	34.50769230769231	24.092307692307692	1.66667	31	217	65	12.0	58.0	40.0	14	7.0	15.0	11.0	0	0	1116.2924818992615	2240	35112.36350560188	945	57.8125	
0.3582095223880597	37.72857142857143	9.149253731343284	34.67164179104478	24.149253731343283	1.66667	32	221	60	10.0	44.0	30.0	18	7.0	17.0	12.0	0	0	1183.655191898346	2310	36296.01869750023	974	57.83549783549783	
0.4843758125	39.07142857142857	9.265625	36.640625	25.453125	1.66667	33	228	59	12.0	58.0	40.0	18	7.0	15.0	11.0	0	0	1101.9287815093994	2380	37397.94747900963	997	58.10924369747899	
0.4731190161290323	37.68571428571428	9.451612903225806	37.29032258064516	25.903225806451612	1.66667	34	237	67	14.0	74.0	51.0	15	7.0	15.0	11.0	0	0	1062.4565052986145	2450	38460.40398430824	1022	58.285714285714285	
0.5970159850746269	38.05714285714286	9.298507462686567	36.07462686567164	25.08955223880597	1.66667	35	241	54	11.0	49.0	34.0	25	7.0	15.0	11.0	0	0	1153.2739262580872	2520	39613.67791056633	1039	58.76984126984127	
0.45000065	37.08571428571429	9.216666666666667	35.016666666666666	24.433333333333334	2.0	36	252	59	11.0	49.0	34.0	13	7.0	15.0	11.0	0	0	1030.298083782196	2590	40643.975994348526	1063	58.95752895752896	
0.5024160434782609	36.81428571428572	9.246376811594203	35.710144927536234	24.869565217391305	2.0	37	254	54	12.0	58.0	40.0	24	7.0	15.0	11.0	0	0	1204.2028946876526	2660	41848.17888903618	1091	58.98496240601504	
0.26562521875	38.32857142857143	9.0625	34.578125	24.125	2.0	38	261	65	12.0	60.0	41.0	19	7.0	15.0	11.0	0	0	1147.0835661888123	2730	42995.26245522499	1117	59.08424908424909	
0.3770495081967213	38.05714285714286	9.0	34.377049180327866	23.901639344262296	2.0	39	271	71	12.0	60.0	41.0	9	7.0	15.0	11.0	0	0	1064.2630066871643	2800	44059.525461912155	1139	59.32142857142857	
0.6666672222222222	38.371428571428574	9.26984126984127	36.15873015873016	25.11111111111111	2.0	40	279	71	12.0	58.0	40.0	19	7.0	15.0	11.0	0	0	1056.1502051353455	2870	45115.6756670475	1155	59.756097560975604	
0.6565657727272727	36.614285714285714	9.272727272727273	35.878787878787875	24.954545454545453	2.0	41	284	71	11.0	47.0	33.0	21	7.0	15.0	11.0	0	0	1146.2222425937653	2940	46261.897909641266	1171	60.17006802721088	
0.8055557	35.57142857142857	9.45	37.2	25.833333333333332	2.0	42	295	49	11.0	49.0	34.0	23	7.0	15.0	11.0	0	0	1046.8178539276123	3010	47308.71576356888	1197	60.23255813953489	
0.7474748636363636	36.32857142857143	9.409090909090908	37.53030303030303	26.075757575757574	2.0	43	300	57	12.0	58.0	40.0	25	7.0	15.0	11.0	0	0	1142.5000667572021	3080	48451.21583032608	1224	60.259740259740255	
0.5885418124999999	37.0	9.25	36.203125	25.171875	2.0	44	307	60	12.0	60.0	41.0	18	7.0	15.0	11.0	0	0	1099.6291556358337	3150	49550.844985961914	1247	60.41269841269841	
0.5649717288135593	36.25714285714286	9.220338983050848	35.59322033898305	24.76271186440678	2.0	45	319	46	11.0	47.0	33.0	22	7.0	15.0	11.0	0	0	1032.8169422149658	3220	50583.66192817688	1272	60.49689440993789	
0.7971014347826088	36.714285714285715	9.376811594202898	36.43478260869565	25.347826086956523	2.0	46	321	60	12.0	56.0	39.0	12	7.0	15.0	11.0	0	0	1210.6945443153381	3290	51794.35647249222	1292	60.72948328267477	
0.6243386031746031	37.042857142857144	9.301587301587302	36.17460317460318	25.126984126984127	2.0	47	329	67	11.0	49.0	34.0	14	7.0	15.0	11.0	0	0	1064.0687499046326	3360	52858.42522239685	1316	60.833333333333336	
0.6153845538461538	38.24285714285714	9.246153846153845	36.46153846153846	25.353846153846153	2.0	48	335	67	13.0	63.0	44.0	17	7.0	15.0	11.0	0	0	1125.5667276382446	3430	53983.991950035095	1342	60.87463556851312	
0.5671642238805971	36.94285714285714	9.223880597014926	36.11940298507463	25.104477611940297	2.0	49	339	57	10.0	42.0	29.0	14	7.0	15.0	11.0	0	0	1147.1999952793121	3500	55131.19194531441	1364	61.028571428571425	
0.5376344838709677	36.52857142857143	8.96774193548387	33.96774193548387	23.64516129032258	2.0	50	348	57	10.0	44.0	30.0	14	7.0	15.0	11.0	0	0	1070.9381093978882	3570	56202.130054712296	1384	61.232492997198875	
0.3830845820895522	36.92857142857143	8.73134328358209	31.73134328358209	22.119402985074625	2.0	51	352	57	11.0	54.0	37.0	14	7.0	15.0	11.0	0	0	1169.8450837135315	3640	57371.97513842583	1403	61.456043956043956	
0.4393939393939394	37.357142857142854	8.818181818181818	33.93939393939394	23.575757575757574	2.0	52	357	58	13.0	65.0	45.0	16	7.0	15.0	11.0	0	0	1128.1066908836365	3710	58500.08182930946	1426	61.5633423180593	
0.4972678032786885	38.67142857142857	8.80327868852459	33.80327868852459	23.557377049180328	2.0	53	367	73	11.0	54.0	37.0	10	7.0	15.0	11.0	0	0	1051.074785232544	3780	59551.15661454201	1447	61.71957671957672	
0.5948717230769232	39.17142857142857	9.169230769230769	36.6	25.46153846153846	2.0	54	373	80	11.0	49.0	34.0	22	7.0	15.0	11.0	0	0	1120.8554825782776	3850	60672.012097120285	1473	61.74025974025974	
0.6284152950819671	38.51428571428571	9.01639344262295	36.34426229508197	25.278688524590162	2.0	55	383	69	11.0	49.0	34.0	16	7.0	15.0	11.0	0	0	1088.6453824043274	3920	61760.65747952461	1499	61.76020408163265	
0.6402116349206348	40.22857142857143	9.142857142857142	38.38095238095238	26.666666666666668	2.0	56	391	66	13.0	65.0	45.0	21	7.0	17.0	12.0	0	0	1113.6704664230347	3990	62874.32794594765	1527	61.72932330827068	
0.5925925396825398	40.65714285714286	9.015873015873016	38.22222222222222	26.523809523809526	2.0	57	399	71	13.0	65.0	45.0	24	7.0	15.0	11.0	0	0	1100.363651752472	4060	63974.69159770012	1558	61.6256157635468	
0.7333332166666667	38.97142857142857	9.416666666666666	38.93333333333333	27.016666666666666	2.0	58	410	71	12.0	64.0	45.0	10	7.0	15.0	11.0	0	0	1032.7184028625488	4130	65007.41000056267	1580	61.743341404358354	
0.484375015625	42.457142857142856	9.34375	38.609375	26.84375	2.0	59	417	84	12.0	87.0	60.0	22	7.0	15.0	11.0	0	0	1123.9998536109924	4200	66131.40985417366	1616	61.523809523809526	
0.6424242545454546	38.81428571428572	9.418181818181818	37.90909090909091	26.30909090909091	2.0	60	433	77	11.0	83.0	58.0	13	7.0	15.0	11.0	0	0	954.0446383953094	4270	67085.45449256897	1630	61.82669789227167	
0.729166609375	38.58571428571429	9.484375	39.0	27.125	2.0	61	440	65	11.0	70.0	49.0	20	7.0	15.0	11.0	0	0	1114.5823760032654	4340	68200.03686857224	1653	61.91244239631337	
0.6218905671641791	36.05714285714286	9.253731343283581	37.223880597014926	25.895522388059703	2.0	62	444	57	13.0	66.0	46.0	15	7.0	15.0	11.0	0	0	1164.9631283283234	4410	69364.99999690056	1682	61.859410430839	
0.59895834375	36.15714285714286	9.484375	37.34375	25.953125	2.0	63	451	57	11.0	64.0	45.0	16	7.0	15.0	11.0	0	0	1147.9511232376099	4480	70512.95112013817	1701	62.03125	
0.598958296875	37.17142857142857	9.265625	36.265625	25.21875	2.0	64	458	68	11.0	64.0	45.0	14	7.0	15.0	11.0	0	0	1169.0250115394592	4550	71681.97613167763	1726	62.065934065934066	
0.5101008939393938	35.9	9.045454545454545	33.77272727272727	23.515151515151516	2.0	65	463	64	11.0	51.0	35.0	16	7.0	15.0	11.0	0	0	1183.3622784614563	4620	72865.33841013908	1751	62.099567099567096	
0.592592253968254	35.32857142857143	8.952380952380953	34.07936507936508	23.6984126984127	2.0	66	471	62	11.0	69.0	48.0	14	7.0	15.0	11.0	0	0	1096.2870206832886	4690	73961.62543082237	1766	62.3454157782516	
0.5820892537313433	37.357142857142854	9.059701492537313	35.44776119402985	24.611940298507463	2.0	67	475	62	12.0	58.0	40.0	16	7.0	15.0	11.0	0	0	1143.8564071655273	4760	75105.4818379879	1788	62.436974789915965	
0.5519122459016393	38.7	9.180327868852459	35.01639344262295	24.39344262295082	2.0	68	485	63	12.0	58.0	40.0	12	7.0	15.0	11.0	0	0	1070.4542682170868	4830	76175.93610620499	1808	62.56728778467909	
0.6078427500000001	39.25714285714286	9.088235294117647	34.44117647058823	23.985294117647058	2.0	69	488	68	12.0	58.0	40.0	16	7.0	15.0	11.0	0	0	1186.5677258968353	4900	77362.50383210182	1828	62.693877551020414	
0.6565654242424243	36.98571428571429	8.924242424242424	33.378787878787875	23.242424242424242	2.0	70	493	74	12.0	60.0	41.0	8	7.0	15.0	11.0	0	0	1139.4659645557404	4970	78501.96979665756	1844	62.89738430583501	
0.7948714153846154	37.98571428571429	9.430769230769231	37.16923076923077	25.8	2.0	71	499	58	14.0	74.0	51.0	14	7.0	15.0	11.0	0	0	1139.6735970973969	5040	79641.64339375496	1862	63.05555555555556	
0.582010365079365	36.74285714285714	9.26984126984127	36.53968253968254	25.396825396825395	2.0	72	507	58	14.0	74.0	51.0	14	7.0	15.0	11.0	0	0	1088.2443618774414	5110	80729.8877556324	1878	63.24853228962818	
0.51111105	36.82857142857143	9.566666666666666	37.7	26.266666666666666	2.0	73	518	74	14.0	76.0	52.0	11	7.0	15.0	11.0	0	0	1087.0064105987549	5180	81816.89416623116	1897	63.37837837837838	
0.6120219016393443	37.72857142857143	9.344262295081966	36.67213114754098	25.524590163934427	2.0	74	528	68	14.0	76.0	52.0	11	7.0	15.0	11.0	0	0	1074.023952960968	5250	82890.91811919212	1920	63.42857142857143	
0.7089947460317461	36.3	9.285714285714286	36.285714285714285	25.22222222222222	2.0	75	536	61	13.0	65.0	45.0	14	7.0	15.0	11.0	0	0	1104.4439401626587	5320	83995.36205935478	1938	63.57142857142858	
0.5291004444444445	38.44285714285714	9.222222222222221	36.07936507936508	25.11111111111111	2.0	76	544	58	11.0	51.0	35.0	19	7.0	15.0	11.0	0	0	1096.7532851696014	5390	85092.11534452438	1961	63.6178107606679	
0.520201893939394	39.34285714285714	9.242424242424242	35.95454545454545	25.045454545454547	2.0	77	549	67	12.0	56.0	39.0	14	7.0	15.0	11.0	0	0	1155.018792629242	5460	86247.13413715363	1988	63.58974358974359	
0.8457711343283582	36.5	9.537313432835822	38.1044776119403	26.44776119402985	2.0	78	553	57	11.0	49.0	34.0	24	7.0	15.0	11.0	0	0	1168.4972188472748	5530	87415.6313560009	2011	63.63471971066908	
0.6818181212121212	36.01428571428571	9.393939393939394	36.621212121212125	25.484848484848484	2.0	79	558	53	11.0	49.0	34.0	19	7.0	15.0	11.0	0	0	1148.9400506019592	5600	88564.57140660286	2033	63.69642857142857	
0.63541665625	35.8	9.3125	36.28125	25.234375	2.0	80	565	55	11.0	51.0	35.0	17	7.0	15.0	11.0	0	0	1118.9155957698822	5670	89683.48700237274	2056	63.738977072310405	
0.38333335	37.47142857142857	9.233333333333333	35.45	24.683333333333334	2.0	81	576	63	11.0	51.0	35.0	14	7.0	15.0	11.0	0	0	1052.6188056468964	5740	90736.10580801964	2083	63.710801393728225	
0.5737704426229508	37.857142857142854	9.229508196721312	35.59016393442623	24.75409836065574	2.0	82	586	76	11.0	51.0	35.0	13	7.0	15.0	11.0	0	0	1040.7345023155212	5810	91776.84031033516	2108	63.71772805507746	
0.6368158358208956	36.94285714285714	9.373134328358208	36.417910447761194	25.328358208955223	2.0	83	590	60	13.0	67.0	46.0	19	7.0	15.0	11.0	0	0	1157.3129546642303	5880	92934.15326499939	2136	63.6734693877551	
0.6717170606060606	38.01428571428571	9.045454545454545	33.84848484848485	23.62121212121212	2.0	84	595	60	11.0	47.0	33.0	23	7.0	15.0	11.0	0	0	1112.7422842979431	5950	94046.89554929733	2150	63.865546218487395	
0.6461535384615384	36.4	9.03076923076923	33.6	23.46153846153846	2.0	85	601	70	11.0	47.0	33.0	15	7.0	15.0	11.0	0	0	1135.8136050701141	6020	95182.70915436745	2174	63.88704318936877	
0.5707069696969697	36.857142857142854	8.772727272727273	32.57575757575758	22.71212121212121	2.0	86	606	70	12.0	60.0	41.0	18	7.0	15.0	11.0	0	0	1175.3513252735138	6090	96358.06047964096	2197	63.92446633825944	
0.5666665	38.18571428571428	8.866666666666667	33.75	23.533333333333335	2.0	87	617	70	11.0	48.0	33.0	11	7.0	15.0	11.0	0	0	1052.0972826480865	6160	97410.15776228905	2220	63.961038961038966	
0.6363635303030304	38.214285714285715	9.0	34.25757575757576	23.893939393939394	2.0	88	622	73	11.0	48.0	33.0	15	7.0	15.0	11.0	0	0	1117.493825674057	6230	98527.6515879631	2236	64.1091492776886	
0.43010748387096776	41.68571428571428	9.225806451612904	35.983870967741936	25.112903225806452	2.0	89	631	90	11.0	61.0	42.0	13	7.0	15.0	11.0	0	0	1075.4749550819397	6300	99603.12654304504	2260	64.12698412698413	
0.4051281538461538	39.98571428571429	9.2	35.96923076923077	25.046153846153846	2.0	90	637	116	12.0	60.0	41.0	13	7.0	15.0	11.0	0	0	1161.765352010727	6370	100764.89189505577	2287	64.09733124018838	
0.484374875	41.628571428571426	9.09375	35.84375	24.921875	2.0	91	644	116	11.0	51.0	35.0	14	7.0	15.0	11.0	0	0	1100.916165113449	6440	101865.80806016922	2308	64.16149068322981	
0.4129352686567164	43.44285714285714	8.985074626865671	34.582089552238806	24.059701492537314	2.0	92	648	116	12.0	60.0	41.0	16	7.0	15.0	11.0	0	0	1158.2841856479645	6510	103024.09224581718	2340	64.0552995391705	
0.2892156323529412	48.44285714285714	8.691176470588236	31.61764705882353	22.08823529411765	2.0	93	651	116	11.0	49.0	34.0	11	7.0	15.0	11.0	0	0	1195.0703790187836	6580	104219.16262483597	2368	64.01215805471125	
0.35416659375	44.92857142857143	8.640625	31.640625	22.125	2.0	94	658	143	11.0	64.0	45.0	18	7.0	15.0	11.0	0	0	1102.2892813682556	6650	105321.45190620422	2392	64.03007518796993	
0.3382352794117647	44.51428571428571	8.676470588235293	32.205882352941174	22.470588235294116	2.0	95	661	143	14.0	76.0	52.0	16	7.0	15.0	11.0	0	0	1191.4228432178497	6720	106512.87474942207	2411	64.12202380952381	
0.362318768115942	50.17142857142857	8.840579710144928	34.289855072463766	23.92753623188406	2.0	96	663	143	12.0	64.0	45.0	20	7.0	15.0	11.0	0	0	1228.0415465831757	6790	107740.91629600525	2433	64.16789396170839	
0.35937498437500004	49.27142857142857	9.046875	34.90625	24.328125	2.0	97	670	143	12.0	58.0	40.0	9	7.0	15.0	11.0	0	0	1096.2844879627228	6860	108837.20078396797	2463	64.09620991253644	
0.4871794769230769	46.714285714285715	9.307692307692308	36.44615384615385	25.353846153846153	2.0	98	676	157	12.0	58.0	40.0	14	7.0	15.0	11.0	0	0	1124.3583133220673	6930	109961.55909729004	2486	64.12698412698413	
0.6084656349206349	44.957142857142856	9.587301587301587	38.22222222222222	26.555555555555557	2.0	99	684	157	12.0	60.0	41.0	24	7.0	22.0	16.0	0	0	1092.5188405513763	7000	111054.07793784142	2509	64.15714285714286	
0.5101008787878788	41.01428571428571	9.454545454545455	37.56060606060606	26.075757575757574	2.0	100	689	163	12.0	58.0	40.0	18	7.0	15.0	11.0	0	0	1173.2367086410522	7070	112227.31464648247	2526	64.27157001414426	
0.6075267580645161	39.42857142857143	9.112903225806452	36.645161290322584	25.387096774193548	2.0	101	698	163	12.0	60.0	41.0	9	7.0	15.0	11.0	0	0	1086.1248753070831	7140	113313.43952178955	2542	64.39775910364145	
0.41798936507936507	41.3	8.968253968253968	35.888888888888886	24.92063492063492	2.0	102	706	163	11.0	51.0	35.0	12	7.0	15.0	11.0	0	0	1093.3696355819702	7210	114406.80915737152	2564	64.4382801664355	
0.3111111	39.98571428571429	9.116666666666667	34.983333333333334	24.4	2.0	103	717	110	13.0	67.0	46.0	14	7.0	15.0	11.0	0	0	1088.9095141887665	7280	115495.71867156029	2596	64.34065934065934	
0.4848484696969697	41.142857142857146	9.242424242424242	36.07575757575758	25.136363636363637	2.0	104	722	110	13.0	67.0	46.0	15	7.0	15.0	11.0	0	0	1167.7755370140076	7350	116663.4942085743	2613	64.44897959183675	
0.5858585757575757	38.51428571428571	9.06060606060606	34.196969696969695	23.833333333333332	2.0	105	727	110	13.0	67.0	46.0	10	7.0	15.0	11.0	0	0	1171.0899810791016	7420	117834.5841896534	2631	64.54177897574124	
0.5076923076923077	36.457142857142856	9.015384615384615	33.66153846153846	23.49230769230769	2.0	106	733	75	11.0	49.0	34.0	13	7.0	15.0	11.0	0	0	1132.2493824958801	7490	118966.83357214928	2646	64.67289719626169	
0.8159204029850747	38.58571428571429	9.567164179104477	38.37313432835821	26.64179104477612	2.0	107	737	75	11.0	49.0	34.0	5	7.0	15.0	11.0	0	0	1176.4861121177673	7560	120143.31968426704	2666	64.73544973544973	
0.53125	38.2	9.515625	37.6875	26.1875	2.0	108	744	75	12.0	58.0	40.0	19	7.0	15.0	11.0	0	0	1131.8206584453583	7630	121275.1403427124	2689	64.75753604193972	
0.48958328125	39.628571428571426	9.15625	35.25	24.546875	2.0	109	751	82	12.0	58.0	40.0	22	7.0	15.0	11.0	0	0	1129.668939113617	7700	122404.80928182602	2714	64.75324675324674	
0.6455026507936509	38.0	9.301587301587302	35.507936507936506	24.761904761904763	2.0	110	759	63	12.0	58.0	40.0	9	7.0	15.0	11.0	0	0	1136.8575134277344	7770	123541.66679525375	2735	64.8005148005148	
0.7487179538461539	37.57142857142857	9.4	36.292307692307695	25.26153846153846	2.0	111	765	54	10.0	42.0	29.0	27	7.0	15.0	11.0	0	0	1141.929688692093	7840	124683.59648394585	2761	64.78316326530611	
0.9635416250000001	36.642857142857146	9.34375	36.40625	25.28125	2.0	112	772	67	12.0	60.0	41.0	18	7.0	15.0	11.0	0	0	1101.1250014305115	7910	125784.72148537636	2776	64.90518331226296	
0.7263681641791045	35.32857142857143	9.149253731343284	34.32835820895522	23.91044776119403	2.0	113	776	69	10.0	42.0	29.0	15	7.0	15.0	11.0	0	0	1163.677805185318	7980	126948.39929056168	2791	65.02506265664161	
0.6666666268656716	36.65714285714286	9.164179104477611	34.8955223880597	24.29850746268657	2.0	114	780	66	10.0	42.0	29.0	23	7.0	15.0	11.0	0	0	1161.4234142303467	8050	128109.82270479202	2811	65.08074534161491	
0.6129032903225807	36.74285714285714	9.17741935483871	35.11290322580645	24.43548387096774	2.0	115	789	63	11.0	51.0	35.0	20	7.0	15.0	11.0	0	0	1062.8986601829529	8120	129172.72136497498	2825	65.20935960591133	
0.6414141515151516	37.8	9.287878787878787	36.04545454545455	25.045454545454547	2.0	116	794	77	11.0	51.0	35.0	15	7.0	15.0	11.0	0	0	1133.720475435257	8190	130306.44184041023	2851	65.18925518925519	
0.5794872461538462	38.857142857142854	9.353846153846154	37.15384615384615	25.83076923076923	2.0	117	800	77	12.0	74.0	51.0	19	7.0	15.0	11.0	0	0	1144.2235765457153	8260	131450.66541695595	2877	65.16949152542372	
0.6169155820895522	38.81428571428572	9.194029850746269	38.07462686567164	26.44776119402985	2.0	118	804	67	12.0	81.0	56.0	9	7.0	15.0	11.0	0	0	1163.885989665985	8330	132614.55140662193	2896	65.23409363745498	
0.38888887878787876	38.8	8.969696969696969	36.74242424242424	25.53030303030303	2.0	119	809	67	12.0	81.0	56.0	20	7.0	15.0	11.0	0	0	1092.2644674777985	8400	133706.81587409973	2921	65.22619047619048	
0.5364583593750001	36.01428571428571	9.078125	35.015625	24.359375	2.0	120	816	67	13.0	81.0	56.0	20	7.0	15.0	11.0	0	0	1074.5593810081482	8470	134781.37525510788	2941	65.27744982290437	
0.6393442131147541	37.142857142857146	9.491803278688524	38.01639344262295	26.360655737704917	2.0	121	826	55	13.0	69.0	47.0	21	7.0	15.0	11.0	0	0	1030.4801890850067	8540	135811.8554441929	2960	65.33957845433255	
0.7514123389830507	38.6	9.830508474576272	40.33898305084746	27.983050847457626	2.0	122	838	69	13.0	65.0	45.0	19	7.0	15.0	11.0	0	0	1030.1914703845978	8610	136842.04691457748	2980	65.38908246225319	
0.8307690153846153	39.785714285714285	9.738461538461538	39.815384615384616	27.630769230769232	2.33333	123	844	69	13.0	65.0	45.0	16	7.0	15.0	11.0	0	0	1109.8510921001434	8680	137951.89800667763	2999	65.44930875576037	
0.6718746875	39.42857142857143	9.375	36.5	25.390625	2.33333	124	851	69	13.0	65.0	45.0	20	7.0	15.0	11.0	0	0	1109.0580134391785	8750	139060.9560201168	3018	65.50857142857143	
0.6368154626865671	42.74285714285714	9.835820895522389	40.11940298507463	27.895522388059703	2.33333	125	855	74	16.0	90.0	62.0	28	7.0	17.0	12.0	0	0	1212.057338476181	8820	140273.013358593	3043	65.49886621315193	
0.6084650317460317	40.77142857142857	9.698412698412698	39.3968253968254	27.41269841269841	2.33333	126	863	74	16.0	90.0	62.0	16	7.0	15.0	11.0	0	0	1114.9156556129456	8890	141387.92901420593	3073	65.43307086614173	
0.6719570793650794	39.142857142857146	9.238095238095237	36.34920634920635	25.285714285714285	2.33333	127	871	84	14.0	76.0	52.0	18	7.0	15.0	11.0	0	0	1096.186832666397	8960	142484.11584687233	3094	65.46875	
0.7301579523809523	37.9	9.714285714285714	39.317460317460316	27.238095238095237	2.33333	128	879	68	14.0	78.0	53.0	13	7.0	17.0	12.0	0	0	1112.2117178440094	9030	143596.32756471634	3117	65.48172757475083	
0.6666660625	37.371428571428574	9.328125	36.0625	25.0625	2.33333	129	886	68	14.0	78.0	53.0	20	7.0	15.0	11.0	0	0	1109.9510703086853	9100	144706.27863502502	3137	65.52747252747253	
0.8333323035714286	36.22857142857143	9.160714285714286	34.82142857142857	24.25	2.33333	130	901	59	12.0	56.0	39.0	17	7.0	15.0	11.0	0	0	974.7391219139099	9170	145681.01775693893	3155	65.59432933478735	
0.624999296875	35.48571428571429	9.15625	35.515625	24.65625	2.33333	131	908	59	13.0	67.0	46.0	13	7.0	15.0	11.0	0	0	1102.7289655208588	9240	146783.7467224598	3177	65.61688311688312	
0.8939384393939395	36.02857142857143	9.075757575757576	35.13636363636363	24.424242424242426	2.33333	132	913	59	10.0	51.0	36.0	13	7.0	15.0	11.0	0	0	1134.6705799102783	9310	147918.41730237007	3200	65.6283566058002	
0.8961738196721312	37.08571428571429	9.229508196721312	35.67213114754098	24.78688524590164	2.33333	133	923	59	12.0	58.0	40.0	17	7.0	15.0	11.0	0	0	1043.122219800949	9380	148961.53952217102	3218	65.69296375266524	
0.96874884375	37.27142857142857	9.40625	37.109375	25.75	2.33333	134	930	59	12.0	58.0	40.0	14	7.0	15.0	11.0	0	0	1095.4672629833221	9450	150057.00678515434	3230	65.82010582010582	
1.03124859375	37.9	9.578125	39.015625	27.03125	2.33333	135	937	58	12.0	58.0	40.0	17	7.0	15.0	11.0	0	0	1088.3605225086212	9520	151145.36730766296	3245	65.91386554621849	
0.7910437313432837	38.48571428571429	9.388059701492537	37.17910447761194	25.83582089552239	2.33333	136	941	67	14.0	74.0	51.0	14	7.0	15.0	11.0	0	0	1153.4279825687408	9590	152298.7952902317	3269	65.91240875912408	
0.6505368064516128	36.357142857142854	9.193548387096774	35.67741935483871	24.806451612903224	2.33333	137	950	70	10.0	42.0	29.0	17	7.0	15.0	11.0	0	0	1060.627613067627	9660	153359.42290329933	3293	65.91097308488612	
0.6440669661016949	35.75714285714286	9.220338983050848	35.389830508474574	24.64406779661017	2.33333	138	962	57	10.0	42.0	29.0	24	7.0	17.0	12.0	0	0	1005.7787721157074	9730	154365.20167541504	3310	65.98150051387461	
0.827956	35.97142857142857	9.370967741935484	36.95161290322581	25.677419354838708	2.33333	139	971	55	12.0	58.0	40.0	17	7.0	15.0	11.0	0	0	1070.7642645835876	9800	155435.96593999863	3334	65.9795918367347	
0.852457786885246	35.92857142857143	9.131147540983607	34.91803278688525	24.311475409836067	2.33333	140	981	61	12.0	58.0	40.0	11	7.0	15.0	11.0	0	0	1073.4496376514435	9870	156509.41557765007	3350	66.05876393110435	
0.8256400307692308	40.142857142857146	9.246153846153845	36.04615384615385	25.046153846153846	2.33333	141	987	68	11.0	47.0	33.0	12	7.0	15.0	11.0	0	0	1113.9577085971832	9940	157623.37328624725	3370	66.09657947686117	
0.8153836307692308	42.0	9.676923076923076	39.06153846153846	27.107692307692307	2.33333	142	993	64	13.0	67.0	46.0	18	7.0	15.0	11.0	0	0	1150.2907819747925	10010	158773.66406822205	3391	66.12387612387613	
0.9303470149253732	44.1	9.701492537313433	39.28358208955224	27.238805970149254	2.33333	143	997	65	12.0	58.0	40.0	11	7.0	15.0	11.0	0	0	1180.2440321445465	10080	159953.9081003666	3419	66.0813492063492	
0.640624140625	44.65714285714286	9.25	35.640625	24.78125	2.33333	144	1004	78	12.0	60.0	41.0	13	7.0	15.0	11.0	0	0	1118.8280456066132	10150	161072.7361459732	3446	66.04926108374384	
0.6467652686567165	45.785714285714285	9.208955223880597	35.76119402985075	24.850746268656717	2.33333	145	1008	82	12.0	60.0	41.0	19	7.0	15.0	11.0	0	0	1203.0825929641724	10220	162275.81873893738	3464	66.10567514677103	
0.6885236393442624	42.48571428571429	9.344262295081966	36.60655737704918	25.459016393442624	2.33333	146	1018	67	13.0	67.0	46.0	19	7.0	15.0	11.0	0	0	1074.5583865642548	10290	163350.37712550163	3482	66.16132167152576	
0.5343130735294118	43.628571428571426	9.455882352941176	37.85294117647059	26.25	2.33333	147	1021	70	13.0	67.0	46.0	24	7.0	15.0	11.0	0	0	1221.665431022644	10360	164572.04255652428	3500	66.21621621621622	
0.626864985074627	43.67142857142857	9.343283582089553	37.32835820895522	25.955223880597014	2.33333	148	1025	90	13.0	67.0	46.0	24	7.0	15.0	11.0	0	0	1204.5093703269958	10430	165776.55192685127	3523	66.22243528283796	
0.502731655737705	43.9	9.426229508196721	38.295081967213115	26.62295081967213	2.33333	149	1035	79	12.0	73.0	51.0	10	7.0	15.0	11.0	0	0	1118.1833982467651	10500	166894.73532509804	3548	66.2095238095238	
0.6974349846153847	41.74285714285714	9.338461538461539	36.86153846153846	25.661538461538463	2.33333	150	1041	77	14.0	70.0	49.0	22	7.0	15.0	11.0	0	0	1175.6319506168365	10570	168070.36727571487	3574	66.18732261116367	
0.7580634838709678	39.24285714285714	9.096774193548388	35.516129032258064	24.693548387096776	2.33333	151	1050	66	14.0	76.0	52.0	20	7.0	15.0	11.0	0	0	1066.2591590881348	10640	169136.626434803	3593	66.23120300751879	
0.8333322	39.1	9.083333333333334	36.0	25.066666666666666	2.33333	152	1061	66	11.0	71.0	50.0	16	7.0	15.0	11.0	0	0	1039.4987046718597	10710	170176.12513947487	3611	66.28384687208217	
0.8282816515151515	38.142857142857146	9.348484848484848	38.21212121212121	26.53030303030303	2.33333	153	1066	68	12.0	71.0	50.0	16	7.0	17.0	12.0	0	0	1144.1773464679718	10780	171320.30248594284	3632	66.30797773654916	
0.786884131147541	37.6	9.344262295081966	37.049180327868854	25.75409836065574	2.33333	154	1076	65	12.0	60.0	41.0	18	7.0	15.0	11.0	0	0	1034.0373072624207	10850	172354.33979320526	3647	66.38709677419355	
0.6505368064516128	36.128571428571426	9.14516129032258	35.274193548387096	24.580645161290324	2.33333	155	1085	67	12.0	58.0	40.0	21	7.0	15.0	11.0	0	0	1053.056829214096	10920	173407.39662241936	3666	66.42857142857143	
0.48529345588235295	38.457142857142856	9.0	34.19117647058823	23.86764705882353	2.33333	156	1088	69	12.0	58.0	40.0	24	7.0	15.0	11.0	0	0	1193.1023581027985	10990	174600.49898052216	3687	66.45131938125569	
0.4925367462686567	39.9	8.940298507462687	33.701492537313435	23.53731343283582	2.33333	157	1092	68	15.0	83.0	57.0	15	7.0	15.0	11.0	0	0	1190.182850599289	11060	175790.68183112144	3709	66.46473779385173	
0.5179480461538462	39.51428571428571	8.646153846153846	30.923076923076923	21.630769230769232	2.33333	158	1098	61	10.0	62.0	43.0	11	7.0	15.0	11.0	0	0	1130.5446062088013	11130	176921.22643733025	3731	66.47798742138366	
0.4607837205882353	42.0	8.852941176470589	32.05882352941177	22.41176470588235	2.33333	159	1101	74	10.0	47.0	32.0	23	7.0	15.0	11.0	0	0	1206.343471288681	11200	178127.56990861893	3755	66.47321428571429	
0.7499990937500001	40.457142857142856	9.09375	34.875	24.25	2.33333	160	1108	70	12.0	60.0	41.0	10	7.0	15.0	11.0	0	0	1091.8864977359772	11270	179219.4564063549	3774	66.51286601597161	
0.5555548787878788	39.92857142857143	9.106060606060606	34.84848484848485	24.21212121212121	2.33333	161	1113	68	11.0	49.0	34.0	23	7.0	15.0	11.0	0	0	1149.228425502777	11340	180368.68483185768	3789	66.5873015873016	
0.604165859375	38.957142857142856	9.21875	35.578125	24.734375	2.33333	162	1120	72	13.0	63.0	44.0	20	7.0	15.0	11.0	0	0	1137.1903412342072	11410	181505.8751730919	3809	66.61700262927258	
0.7795687903225806	36.42857142857143	9.451612903225806	36.87096774193548	25.612903225806452	2.33333	163	1129	60	10.0	42.0	29.0	18	7.0	15.0	11.0	0	0	1106.390925168991	11480	182612.26609826088	3826	66.67247386759581	
0.8412687460317461	36.72857142857143	9.476190476190476	37.682539682539684	26.142857142857142	2.33333	164	1137	60	12.0	54.0	38.0	16	7.0	15.0	11.0	0	0	1104.7273807525635	11550	183716.99347901344	3843	66.72727272727272	
0.7377040163934425	36.98571428571429	9.360655737704919	37.032786885245905	25.704918032786885	2.33333	165	1147	60	12.0	54.0	38.0	12	7.0	17.0	12.0	0	0	1042.6698756217957	11620	184759.66335463524	3859	66.79001721170397	
0.876342870967742	37.77142857142857	9.580645161290322	38.83870967741935	26.967741935483872	2.33333	166	1156	60	13.0	63.0	44.0	16	7.0	21.0	15.0	0	0	1079.9318642616272	11690	185839.59521889687	3873	66.86911890504705	
0.7126427413793104	35.785714285714285	9.379310344827585	36.793103448275865	25.56896551724138	2.33333	167	1169	57	11.0	49.0	34.0	10	7.0	15.0	11.0	0	0	1024.5971512794495	11760	186864.19237017632	3892	66.9047619047619	
0.6769222461538462	36.44285714285714	9.184615384615384	35.69230769230769	24.815384615384616	2.33333	168	1175	53	10.0	42.0	29.0	22	7.0	15.0	11.0	0	0	1121.1195831298828	11830	187985.3119533062	3911	66.93998309382926	
0.9516116451612903	35.84285714285714	9.483870967741936	37.74193548387097	26.193548387096776	2.33333	169	1184	52	12.0	58.0	40.0	20	7.0	15.0	11.0	0	0	1047.9472637176514	11900	189033.25921702385	3932	66.9579831932773	
0.7076915384615384	36.614285714285714	9.246153846153845	35.13846153846154	24.476923076923075	2.33333	170	1190	60	12.0	56.0	39.0	15	7.0	15.0	11.0	0	0	1119.1380634307861	11970	190152.39728045464	3952	66.98412698412699	
0.6461530153846154	36.34285714285714	9.2	35.56923076923077	24.73846153846154	2.33333	171	1196	76	14.0	76.0	52.0	11	7.0	15.0	11.0	0	0	1104.0693814754486	12040	191256.46666193008	3967	67.0514950166113	
0.7128195692307693	35.9	9.076923076923077	34.276923076923076	23.907692307692308	2.33333	172	1202	69	12.0	56.0	39.0	18	7.0	15.0	11.0	0	0	1134.3031566143036	12110	192390.7698185444	3984	67.10156895127993	
0.717947723076923	36.52857142857143	9.292307692307693	36.0	25.046153846153846	2.33333	173	1208	52	11.0	49.0	34.0	27	7.0	15.0	11.0	0	0	1149.416027545929	12180	193540.18584609032	4002	67.14285714285714	
1.0099489402985073	36.1	9.343283582089553	36.149253731343286	25.149253731343283	2.33333	174	1212	53	13.0	67.0	46.0	19	7.0	15.0	11.0	0	0	1157.9970376491547	12250	194698.18288373947	4016	67.21632653061225	
0.9404750000000001	36.642857142857146	9.482142857142858	37.30357142857143	25.946428571428573	2.33333	175	1227	54	13.0	67.0	46.0	18	7.0	15.0	11.0	0	0	992.212361574173	12320	195690.39524531364	4033	67.2646103896104	
0.69791584375	36.6	9.34375	36.28125	25.25	2.33333	176	1234	66	13.0	67.0	46.0	16	7.0	15.0	11.0	0	0	1138.605946302414	12390	196829.00119161606	4050	67.31234866828086	
0.8620678103448276	36.385714285714286	9.39655172413793	36.793103448275865	25.603448275862068	2.33333	177	1247	59	11.0	61.0	43.0	14	7.0	15.0	11.0	0	0	1005.8904826641083	12460	197834.89167428017	4062	67.39967897271268	
0.8666654307692307	36.07142857142857	9.2	35.13846153846154	24.46153846153846	2.33333	178	1253	52	11.0	51.0	35.0	20	7.0	15.0	11.0	0	0	1157.5601069927216	12530	198992.4517812729	4084	67.40622505985635	
0.6559130000000001	36.32857142857143	9.0	34.645161290322584	24.129032258064516	2.33333	179	1262	59	11.0	51.0	35.0	13	7.0	15.0	11.0	0	0	1075.7913706302643	12600	200068.24315190315	4108	67.39682539682539	
0.689264627118644	37.42857142857143	9.389830508474576	37.69491525423729	26.220338983050848	2.33333	180	1274	58	11.0	51.0	35.0	18	7.0	15.0	11.0	0	0	1066.7859044075012	12670	201135.02905631065	4129	67.41120757695344	
0.5692301076923078	37.457142857142856	9.092307692307692	35.93846153846154	24.93846153846154	2.33333	181	1280	62	11.0	51.0	35.0	15	7.0	15.0	11.0	0	0	1128.4850041866302	12740	202263.51406049728	4148	67.44113029827315	
0.541665984375	39.214285714285715	9.53125	38.546875	26.75	2.33333	182	1287	70	13.0	67.0	46.0	19	7.0	17.0	12.0	0	0	1122.0992102622986	12810	203385.61327075958	4170	67.44730679156909	
0.6666658196721311	36.82857142857143	9.426229508196721	37.885245901639344	26.278688524590162	2.33333	183	1297	70	13.0	67.0	46.0	19	7.0	15.0	11.0	0	0	1054.9317224025726	12880	204440.54499316216	4195	67.43012422360249	
0.7333323	36.9	9.15	37.233333333333334	25.8	2.33333	184	1308	62	13.0	67.0	46.0	11	7.0	15.0	11.0	0	0	996.1753263473511	12950	205436.7203195095	4214	67.45945945945945	
0.7096765967741936	37.44285714285714	9.209677419354838	36.32258064516129	25.258064516129032	2.33333	185	1317	67	13.0	67.0	46.0	22	7.0	15.0	11.0	0	0	1040.2201144695282	13020	206476.94043397903	4233	67.48847926267281	
0.7641015538461539	38.02857142857143	9.092307692307692	35.01538461538462	24.369230769230768	2.33333	186	1323	53	13.0	67.0	46.0	20	7.0	15.0	11.0	0	0	1096.2314817905426	13090	207573.17191576958	4251	67.5248281130634	
0.9642844285714285	37.44285714285714	9.5	38.089285714285715	26.428571428571427	2.33333	187	1338	62	13.0	67.0	46.0	15	7.0	15.0	11.0	0	0	968.8960807323456	13160	208542.06799650192	4267	67.57598784194529	
0.9218738281250001	39.05714285714286	9.703125	39.3125	27.296875	2.33333	188	1345	68	13.0	67.0	46.0	12	7.0	15.0	11.0	0	0	1112.5245072841644	13230	209654.5925037861	4287	67.59637188208617	
0.9562829180327869	39.371428571428574	9.868852459016393	40.32786885245902	28.0	2.33333	189	1355	94	13.0	65.0	45.0	15	7.0	15.0	11.0	0	0	1068.7465419769287	13300	210723.33904576302	4303	67.64661654135338	
0.98360531147541	37.75714285714286	9.508196721311476	38.032786885245905	26.442622950819672	2.33333	190	1365	94	12.0	75.0	52.0	8	7.0	15.0	11.0	0	0	1070.3851840496063	13370	211793.72422981262	4321	67.68137621540762	
0.8535343181818182	38.457142857142856	9.530303030303031	38.196969696969695	26.575757575757574	2.33333	191	1370	74	13.0	65.0	45.0	23	7.0	15.0	11.0	0	0	1155.9262170791626	13440	212949.65044689178	4338	67.72321428571428	
0.9312156507936509	36.1	9.46031746031746	37.698412698412696	26.174603174603174	2.33333	192	1378	69	12.0	57.0	39.0	15	7.0	15.0	11.0	0	0	1085.31338429451	13510	214034.9638311863	4356	67.75721687638786	
0.9646451818181818	35.55714285714286	9.409090909090908	37.56060606060606	26.045454545454547	2.33333	193	1383	57	11.0	57.0	39.0	10	7.0	15.0	11.0	0	0	1165.484560251236	13580	215200.44839143753	4367	67.84241531664212	
0.9195390000000001	36.41428571428571	9.5	37.93103448275862	26.310344827586206	2.33333	194	1396	63	11.0	51.0	35.0	9	7.0	15.0	11.0	0	0	1010.3912773132324	13650	216210.83966875076	4385	67.87545787545787	
0.8448265344827586	36.17142857142857	9.5	37.5	26.051724137931036	2.33333	195	1409	58	13.0	67.0	46.0	14	7.0	15.0	11.0	0	0	1013.6437714099884	13720	217224.48344016075	4402	67.91545189504373	
0.7846143538461539	37.75714285714286	9.23076923076923	35.16923076923077	24.49230769230769	2.33333	196	1415	76	11.0	49.0	34.0	12	7.0	15.0	11.0	0	0	1164.2638928890228	13790	218388.74733304977	4418	67.962291515591	
0.8655902419354838	36.1	9.161290322580646	34.66129032258065	24.14516129032258	2.33333	197	1424	62	11.0	51.0	35.0	10	7.0	15.0	11.0	0	0	1104.321545124054	13860	219493.06887817383	4441	67.95815295815297	
0.8677234920634921	37.17142857142857	9.333333333333334	36.17460317460318	25.19047619047619	2.33333	198	1432	62	13.0	67.0	46.0	10	7.0	15.0	11.0	0	0	1143.4058904647827	13930	220636.4747686386	4458	67.99712849964106	
0.6666656190476191	38.285714285714285	9.19047619047619	35.26984126984127	24.53968253968254	2.33333	199	1440	81	13.0	65.0	45.0	13	7.0	15.0	11.0	0	0	1087.1447880268097	14000	221723.61955666542	4478	68.01428571428572	
0.963540203125	39.957142857142856	9.40625	36.8125	25.578125	2.33333	200	1447	69	12.0	60.0	41.0	19	7.0	15.0	11.0	0	0	1112.7637255191803	14070	222836.3832821846	4493	68.06680881307747	
