Generation:
200

Phenotype:
P_ON_NEST,true;*:*:IS_WANT_OBJECT,false,70;IS_DROP_OBJECT,false,86;B_RANDOM_WALK,44;B_RANDOM_WALK,55#*:*:B_ANTI_PHOTOTAXIS,7#P_HAS_OBJECT,false;*:*:B_PHOTOTAXIS,61;B_RANDOM_WALK,65;IS_DROP_OBJECT,false,43;B_PHOTOTAXIS,36#

Genotype:
[69216, 59597, 49554, 28064, 38422, 94556, 24663, 47598, 95301, 50296, 20226, 85807, 48617, 35434, 68861, 60367, 4160, 26097, 20088, 33749, 81783, 49273, 51640, 80844, 41909, 68324, 9033, 10723, 58844, 60001, 70868, 56009, 45656, 45446, 27973, 78725, 70825, 63097, 2453, 93006, 83285, 10960, 60001, 99843, 61609, 15610, 31133, 79106, 78725, 12303, 89877, 56269, 63590, 36666, 15424, 23107, 30150, 28240, 45644, 59694, 37741, 14213, 26123, 31612, 23533, 58535, 44179, 52459, 51957, 22571, 84750, 44850, 24639, 64373, 94182, 95551, 35874, 86135, 761, 3123, 75869, 78057, 75934, 40479, 2762, 37853, 1240, 85606, 1382, 84176, 30952, 3985, 47708, 88066, 18908, 96041, 15886, 6183, 47598, 95301, 28859, 20226, 11594, 48617, 73490, 68861, 60367, 4160, 26097, 20088, 82187, 44384, 70692, 97026, 92075, 60367, 4160, 26097, 20088, 61, 64439, 26518, 83134, 57538, 41909, 6148, 2230, 58177, 25781, 60001, 48784, 19842, 45656, 45446, 27973, 78725, 70825, 12874, 57385, 77750, 28568, 5195, 23107, 70819, 36622, 45644, 7603, 40175, 49214, 24617, 31612, 23533, 67951, 44179, 85278, 66170, 2263, 26446, 11106, 24639, 83034, 94182, 95551, 88106, 98778, 761, 16582, 47795, 26121, 68545, 21081, 2762, 37853, 31348, 85606, 50953, 84176, 86651, 3985, 47708, 88066, 19558, 66679, 15886, 56631, 3952, 62626, 39422, 7485, 11257, 81824, 14407, 92076, 26097, 20088, 33116, 81783, 26303, 83134, 57538, 13592, 50127, 93006, 10723, 25781, 60001, 23998, 19842, 45656, 94139, 27973, 78725, 70825, 12874, 57385, 77750, 28568, 5195, 23107, 70819, 36622, 45644, 59694, 40175, 49214, 40389, 31612, 23533, 67951, 44179, 59147, 51957, 51890, 26446, 11106, 24639, 83034, 94182, 95551, 88106, 22788, 761, 3123, 75869, 26121, 68545, 21081, 2762, 37853, 31348, 85606, 50953, 84176, 86651, 3985, 47708, 88066, 11234, 66679, 15886, 56631, 3952, 62626, 39422, 7485, 11257, 81824, 14407, 92076, 80398, 38241, 69513, 52780, 1518, 6898, 64431, 68142, 2914, 93404, 66692, 36841, 93266, 35859, 93442, 80124, 28958, 36113, 12208, 59704, 55522, 94052, 76997, 42688, 44273, 85442]
Tree:
None

Fitness:
13.3333