best_fitness	avg_fitness
1.66667	1.66667
1.66667	1.66667
1.66667	1.66667
1.66667	1.66667
1.66667	1.66667
1.66667	1.66667
1.66667	1.66667
1.66667	1.66667
1.66667	1.66667
1.66667	1.66667
1.66667	1.66667
1.66667	1.66667
1.66667	1.66667
1.66667	1.66667
1.66667	1.66667
1.66667	1.66667
1.66667	1.66667
1.66667	1.66667
1.66667	1.66667
1.66667	1.66667
1.66667	1.66667
1.66667	1.66667
1.66667	1.66667
1.66667	1.66667
1.66667	1.66667
1.66667	1.66667
1.66667	1.66667
1.66667	1.66667
1.66667	1.66667
1.66667	1.66667
1.66667	1.66667
1.66667	1.66667
1.66667	1.66667
1.66667	1.66667
1.66667	1.66667
1.66667	1.66667
1.66667	1.66667
1.66667	1.66667
1.66667	1.66667
1.66667	1.66667
