Generation:
200

Phenotype:
P_ON_NEST,true;*:B_PHOTOTAXIS;B_RANDOM_WALK;B_PHOTOTAXIS;B_ANTI_PHOTOTAXIS;*:IS_WANT_OBJECT,false,72#P_HAS_OBJECT,false;*:*:IS_DROP_OBJECT,false,30;IS_DROP_OBJECT,true,59;IS_WANT_OBJECT,true,64;IS_DROP_OBJECT,true,81;B_RANDOM_WALK,36;IS_WANT_OBJECT,false,33#*:*:B_PHOTOTAXIS,2#*:B_RANDOM_WALK;*:IS_DROP_OBJECT,false,32;B_PHOTOTAXIS,32#P_HAS_OBJECT,true;*:*:B_ANTI_PHOTOTAXIS,76#

Genotype:
[19264, 15655, 8890, 93363, 77077, 2062, 98781, 91351, 50976, 30300, 43910, 87644, 35508, 71805, 74754, 85882, 74785, 67861, 46657, 70145, 5075, 76784, 58997, 47946, 90088, 17937, 43910, 80395, 92651, 37545, 19443, 59172, 17891, 53359, 38652, 77811, 14796, 5075, 71277, 88809, 47508, 3161, 47465, 54781, 19220, 76718, 54886, 33507, 36962, 3266, 14604, 46322, 64250, 33507, 34511, 19791, 23198, 3919, 74178, 58148, 7402, 40151, 26296, 84609, 28107, 70573, 40232, 5267, 87802, 4086, 9234, 69225, 41503, 70749, 86803, 2383, 85838, 72092, 12516, 67571, 34756, 99940, 84369, 37096, 77696, 18995, 82691, 74718, 788, 26695, 43910, 96825, 26575, 63662, 30717, 73682, 12659, 90510, 4375, 3677, 7372, 85882, 17197, 13046, 78772, 98781, 45106, 60337, 92903, 60145, 74718, 23198, 26695, 43910, 14118, 86221, 12659, 44004, 48614, 24589, 10354, 85882, 89625, 20324, 43910, 74718, 2067, 30517, 64944, 3722, 53708, 58138, 20261, 44505, 69023, 96543, 50796, 25381, 53359, 88189, 74971, 18897, 51416, 85323, 21652, 47917, 97822, 47465, 54781, 41117, 44782, 80562, 33507, 36962, 55126, 23198, 46322, 68180, 23198, 10672, 44004, 59172, 82495, 26460, 44774, 8640, 38652, 15967, 60628, 63830, 70736, 931, 9767, 29060, 47465, 54781, 86029, 9451, 42376, 85882, 89824, 38652, 55984, 87424, 59451, 69337, 76497, 58337, 95653, 36962, 3266, 23198, 46322, 68180, 5712, 12659, 44004, 59172, 17891, 24436, 68278, 53359, 38652, 44093, 89755, 5075, 57852, 931, 18549, 39500, 52764, 26695, 43910, 29882, 2067, 95553, 44004, 59172, 56790, 24436, 85882, 10600, 38652, 55984, 70302, 60570, 69337, 59716, 64192, 29060, 14144, 3266, 23198, 46322, 97469, 33814, 12659, 44004, 49555, 28773, 24436, 68278, 17435, 38652, 32208, 89755, 5075, 70736, 931, 95881, 29060, 33441, 79686, 86029, 9451, 33930, 33507, 36962, 74718, 23198, 46322, 27987, 59172, 95451, 7072, 98255, 17056, 15733, 87364, 48423, 5267, 87802, 19337, 33507, 36962, 74718, 23198, 81648, 2383, 75372, 95451, 24436, 5771, 17056, 73540, 85175, 48423, 25549, 24146, 22215, 74938, 66110, 80132, 46689, 74814, 94426, 66631, 18847, 59279, 90303, 2635, 51431, 3752, 41872, 41405, 98911, 31375, 1443, 87038]
Tree:
None

Fitness:
12.3333