best_fitness	avg_fitness
0.333333	0.333333
0.333333	0.333333
0.333333	0.333333
0.333333	0.333333
0.333333	0.333333
0.333333	0.333333
0.333333	0.333333
0.333333	0.333333
0.333333	0.333333
0.333333	0.333333
0.333333	0.333333
0.333333	0.333333
0.333333	0.333333
0.333333	0.333333
0.333333	0.333333
0.333333	0.333333
0.333333	0.333333
0.333333	0.333333
0.333333	0.333333
0.333333	0.333333
0.333333	0.333333
0.333333	0.333333
0.333333	0.333333
0.333333	0.333333
0.333333	0.333333
0.333333	0.333333
0.333333	0.333333
0.333333	0.333333
0.333333	0.333333
0.333333	0.333333
0.333333	0.333333
0.333333	0.333333
0.333333	0.333333
0.333333	0.333333
0.333333	0.333333
0.333333	0.333333
0.333333	0.333333
0.333333	0.333333
0.333333	0.333333
0.333333	0.333333
