Generation:
2000

Phenotype:
P_ON_CACHE,false;*:*:IS_DROP_OBJECT,true,17;IS_DROP_OBJECT,true,97;B_RANDOM_WALK,19;IS_DROP_OBJECT,false,84;IS_MOTIVATION_1_DEC,false,51#P_ON_SOURCE,false;P_HAS_OBJECT,true;*:*:B_RANDOM_WALK,53;IS_MOTIVATION_1_INC,false,87;IS_MOTIVATION_1_DEC,false,93;B_ANTI_PHOTOTAXIS,72#

Genotype:
[19816, 70588, 57244, 83963, 76279, 96409, 35277, 19096, 20523, 35996, 44618, 28387, 99643, 93745, 87636, 14561, 36604, 48879, 36337, 64237, 44482, 94330, 53506, 63540, 99367, 53273, 21027, 68448, 72289, 52135, 92653, 26721, 79167, 8895, 36887, 54849, 79167, 34297, 48228, 54849, 69828, 97356, 74709, 4653, 1813, 56374, 46552, 5762, 32776, 41641, 62258, 4653, 1813, 14738, 54088, 27182, 11228, 98831, 14540, 20493, 22153, 3884, 4653, 92199, 7264, 78999, 58989, 4653, 71939, 7264, 78231, 97578, 20001, 9643, 4516, 59555, 4653, 92199, 7264, 78231, 97578, 20001, 9643, 77497, 91487, 59942, 92565, 9430, 95427, 77497, 25968, 20368, 92565, 60295, 6776, 28488]
Tree:
None

Fitness:
9.6