hc02_19_5_10_092249_265346_30702_1
hc02_19_5_13_075247_681938_14988_1
hc06_19_5_13_043032_511606_12801_1
hc06_19_5_23_015733_693125_20689_4
hc10_19_5_19_002453_698328_23383_1
hc10_19_5_22_050332_392917_27574_2
hc11_19_5_10_092224_513371_16379_1
mi03_19_5_14_114631_51390_28871_1
mi04_19_5_22_232850_289194_22325_3
mi04_19_6_7_063429_666653_6207_7
mi06_19_5_18_232131_886423_2421_1
mi06_19_5_23_015717_179919_10359_3
mi08_19_5_19_021014_601238_3850_2
mi08_19_5_19_022855_680737_5573_2
mi10_19_5_31_215858_735760_20551_6
mi15_19_5_10_105122_484742_15934_1
mi15_19_5_29_080847_478933_29291_4
mi15_19_5_29_080847_479318_29292_5
mi16_19_5_11_190015_11503_30990_1
mi16_19_5_15_105335_851783_3179_1
mi16_19_5_29_080847_480711_29250_5


