Generation:
1300

Phenotype:
*:*:IS_MOTIVATION_1_INC,false,46#P_ON_CACHE,false;*:*:B_RANDOM_WALK,12;IS_WANT_OBJECT,false,81;IS_MOTIVATION_1_INC,true,1;IS_WANT_OBJECT,false,83;B_PHOTOTAXIS,12;IS_DROP_OBJECT,false,87;B_RANDOM_WALK,98#

Genotype:
[47064, 28256, 12331, 69347, 59137, 41954, 88977, 56419, 52118, 21128, 74019, 48223, 385, 23772, 86162, 39742, 2578, 30907, 52549, 8741, 82187, 51391, 79074, 44836, 98233, 63236, 83438, 39228, 3595, 59195, 23772, 25389, 47248, 77168, 30907, 20171, 36326, 86162, 28887, 2578, 30907, 99680, 46638, 82187, 51391, 67392, 44836, 95807, 52485, 83438, 39228, 3595, 59195, 1171, 67987, 7359, 74711, 60974, 76701, 70580, 21106, 3666, 30094, 83279, 23227, 72188, 76606, 23695, 12006, 72224, 33461, 4254]
Tree:
None

Fitness:
17.3333