best_fitness	avg_fitness
1.33333	1.33333
1.33333	1.33333
1.33333	1.33333
1.33333	1.33333
1.33333	1.33333
1.33333	1.33333
1.33333	1.33333
1.33333	1.33333
1.33333	1.33333
1.33333	1.33333
1.33333	1.33333
1.33333	1.33333
1.33333	1.33333
1.33333	1.33333
1.33333	1.33333
1.33333	1.33333
1.33333	1.33333
1.33333	1.33333
1.33333	1.33333
1.33333	1.33333
1.33333	1.33333
1.33333	1.33333
1.33333	1.33333
