ave_fitness	ave_genome_length	ave_tree_depth	ave_tree_nodes	ave_used_codons	best_fitness	gen	invalids	max_genome_length	max_tree_depth	max_tree_nodes	max_used_codons	min_genome_length	min_tree_depth	min_tree_nodes	min_used_codons	runtime_error	time_adjust	time_taken	total_inds	total_time	unique_inds	unused_search	
0.0	54.47142857142857	8.128571428571428	52.371428571428574	36.47142857142857	0.0	0	0	118	10	114	79	16	7	15	11	0	0	1453.5421113967896	70	1453.5421113967896	70	0.0	
0.0	54.65714285714286	8.83673469387755	45.857142857142854	31.918367346938776	0.0	1	22	147	13.0	115.0	79.0	13	7.0	15.0	11.0	0	0	920.2619926929474	140	2373.804104089737	108	22.857142857142847	
0.0	62.27142857142857	8.923076923076923	47.276923076923076	32.95384615384615	0.0	2	28	147	12.0	153.0	107.0	13	7.0	15.0	11.0	0	0	1275.4036612510681	210	3649.207765340805	142	32.38095238095238	
0.0	63.44285714285714	8.712121212121213	45.71212121212121	31.924242424242426	0.0	3	33	147	14.0	128.0	89.0	16	7.0	15.0	11.0	0	0	1303.555861234665	280	4952.76362657547	181	35.35714285714285	
0.0	76.52857142857142	8.914285714285715	46.42857142857143	32.48571428571429	0.0	4	34	175	14	127	88	16	7	15	11	0	0	1517.65962600708	350	6470.42325258255	214	38.857142857142854	
0.0	76.15714285714286	8.955223880597014	46.17910447761194	32.223880597014926	0.0	5	38	192	14.0	127.0	88.0	15	7.0	15.0	11.0	0	0	1494.9609394073486	420	7965.384191989899	261	37.857142857142854	
0.0	79.62857142857143	8.594202898550725	44.44927536231884	30.985507246376812	0.0	6	40	192	13.0	130.0	90.0	16	7.0	15.0	11.0	0	0	1535.3027725219727	490	9500.686964511871	296	39.59183673469388	
0.0	78.28571428571429	8.515625	44.5625	31.125	0.0	7	47	192	12.0	126.0	87.0	16	7.0	15.0	11.0	0	0	1374.3370842933655	560	10875.024048805237	330	41.07142857142857	
0.0	71.77142857142857	8.353846153846154	38.23076923076923	26.723076923076924	0.0	8	53	192	15.0	117.0	82.0	12	7.0	15.0	11.0	0	0	1417.1018481254578	630	12292.125896930695	363	42.38095238095239	
0.015873015873015872	68.54285714285714	9.031746031746032	44.98412698412698	31.444444444444443	1.0	9	61	214	15.0	117.0	82.0	5	7.0	15.0	11.0	0	0	1256.7414875030518	700	13548.867384433746	400	42.85714285714286	
0.0625	68.62857142857143	8.921875	43.828125	30.671875	1.0	10	68	214	15.0	131.0	92.0	16	7.0	15.0	11.0	0	0	1251.5612065792084	770	14800.428591012955	437	43.246753246753244	
0.08823529411764706	70.58571428571429	8.75	41.294117647058826	28.926470588235293	1.0	11	71	156	13.0	131.0	92.0	16	7.0	15.0	11.0	0	0	1330.1936819553375	840	16130.622272968292	475	43.452380952380956	
0.11594202898550725	72.32857142857142	9.507246376811594	53.405797101449274	37.27536231884058	1.0	12	73	141	13.0	114.0	79.0	29	7.0	15.0	11.0	0	0	1337.9649302959442	910	17468.587203264236	520	42.85714285714286	
0.09836065573770492	69.55714285714286	9.295081967213115	53.80327868852459	37.57377049180328	1.0	13	83	138	15.0	108.0	75.0	33	7.0	18.0	13.0	0	0	1144.729063987732	980	18613.31626725197	552	43.673469387755105	
0.14516129032258066	74.44285714285714	9.64516129032258	62.82258064516129	43.806451612903224	1.0	14	92	157	16.0	145.0	101.0	23	7.0	17.0	12.0	0	0	1222.1345479488373	1050	19835.450815200806	596	43.23809523809524	
0.16271186440677965	78.08571428571429	10.135593220338983	68.11864406779661	47.52542372881356	1.0	15	104	157	15.0	108.0	75.0	19	7.0	17.0	12.0	0	0	1166.7773463726044	1120	21002.22816157341	638	43.03571428571429	
0.2727272727272727	81.68571428571428	10.196969696969697	69.45454545454545	48.34848484848485	1.4	16	109	157	14.0	128.0	90.0	16	7.0	17.0	12.0	0	0	1411.4935970306396	1190	22413.72175860405	678	43.02521008403362	
0.1625	87.67142857142858	10.03125	68.46875	47.703125	1.4	17	116	203	13.0	95.0	67.0	37	7.0	15.0	11.0	0	0	1316.566253900528	1260	23730.288012504578	725	42.46031746031746	
0.203125	102.37142857142857	10.3125	70.21875	48.84375	1.4	18	123	203	15.0	145.0	101.0	41	7.0	15.0	11.0	0	0	1268.645358324051	1330	24998.93337082863	769	42.18045112781955	
0.37058823529411766	96.67142857142858	10.397058823529411	69.01470588235294	48.044117647058826	2.4	19	126	211	13.0	104.0	74.0	33	7.0	15.0	11.0	0	0	1453.0691332817078	1400	26452.002504110336	815	41.785714285714285	
0.26875	88.5	10.484375	70.234375	48.90625	2.4	20	133	247	16.0	111.0	77.0	33	7.0	15.0	11.0	0	0	1330.0059819221497	1470	27782.008486032486	863	41.29251700680272	
0.19344262295081968	86.0	10.39344262295082	71.06557377049181	49.57377049180328	2.4	21	143	277	16.0	111.0	77.0	28	8.0	27.0	19.0	0	0	1246.4276359081268	1540	29028.436121940613	905	41.23376623376623	
0.19999999999999998	86.64285714285714	10.524590163934427	73.73770491803279	51.40983606557377	2.4	22	153	277	16.0	121.0	84.0	29	8.0	27.0	19.0	0	0	1187.0493063926697	1610	30215.485428333282	951	40.931677018633536	
0.27619047619047615	88.02857142857142	10.11111111111111	68.98412698412699	48.17460317460318	2.4	23	161	138	14.0	102.0	71.0	34	7.0	18.0	13.0	0	0	1248.902396440506	1680	31464.38782477379	998	40.595238095238095	
0.3258064516129033	84.14285714285714	9.82258064516129	64.1774193548387	44.806451612903224	2.4	24	170	131	14.0	134.0	94.0	29	7.0	18.0	13.0	0	0	1255.1653807163239	1750	32719.553205490112	1037	40.74285714285715	
0.4135593220338983	79.12857142857143	10.11864406779661	65.54237288135593	45.728813559322035	2.4	25	182	131	15.0	117.0	82.0	45	8.0	27.0	19.0	0	0	1217.8167836666107	1820	33937.36998915672	1071	41.15384615384615	
0.3641791044776119	82.62857142857143	10.044776119402986	63.985074626865675	44.656716417910445	2.4	26	186	120	14.0	133.0	93.0	38	7.0	18.0	13.0	0	0	1324.5514976978302	1890	35261.92148685455	1112	41.16402116402117	
0.284375	85.1	9.71875	59.296875	41.375	2.4	27	193	139	14.0	100.0	69.0	33	7.0	17.0	12.0	0	0	1265.514095544815	1960	36527.43558239937	1150	41.326530612244895	
0.33225806451612905	83.0	9.516129032258064	60.0	41.87096774193548	2.4	28	202	122	14.0	108.0	75.0	49	7.0	17.0	12.0	0	0	1288.7984397411346	2030	37816.2340221405	1189	41.42857142857142	
0.419672131147541	84.44285714285714	9.967213114754099	67.01639344262296	46.78688524590164	2.4	29	212	160	14.0	139.0	96.0	25	7.0	21.0	15.0	0	0	1231.6108968257904	2100	39047.84491896629	1223	41.761904761904766	
0.4484848484848485	89.1	10.212121212121213	67.27272727272727	46.878787878787875	2.4	30	217	163	15.0	138.0	97.0	34	8.0	25.0	18.0	0	0	1342.2361834049225	2170	40390.081102371216	1267	41.612903225806456	
0.4727272727272727	92.72857142857143	9.772727272727273	61.60606060606061	42.95454545454545	2.4	31	222	150	12.0	128.0	89.0	46	7.0	24.0	17.0	0	0	1334.5722105503082	2240	41724.653312921524	1311	41.47321428571429	
0.4064516129032258	90.21428571428571	10.048387096774194	64.95161290322581	45.306451612903224	2.4	32	231	170	16.0	129.0	88.0	42	7.0	15.0	11.0	0	0	1245.014331817627	2310	42969.66764473915	1355	41.341991341991346	
0.5043478260869565	93.55714285714286	10.318840579710145	68.14492753623189	47.405797101449274	2.4	33	233	152	16.0	153.0	107.0	46	7.0	15.0	11.0	0	0	1440.4825472831726	2380	44410.15019202232	1407	40.88235294117647	
0.6060606060606061	104.81428571428572	10.454545454545455	73.13636363636364	50.878787878787875	2.8	34	238	188	13.0	202.0	140.0	35	7.0	17.0	12.0	0	0	1335.9942917823792	2450	45746.1444838047	1452	40.734693877551024	
0.6852941176470587	105.05714285714286	10.779411764705882	78.45588235294117	54.470588235294116	3.6	35	241	188	13.0	151.0	104.0	35	7.0	29.0	20.0	0	0	1373.4434564113617	2520	47119.587940216064	1496	40.63492063492063	
0.5393939393939393	103.14285714285714	10.924242424242424	82.62121212121212	57.56060606060606	3.6	36	246	187	13.0	151.0	104.0	38	8.0	34.0	24.0	0	0	1331.3243730068207	2590	48450.912313222885	1545	40.34749034749034	
0.375	105.85714285714286	11.234375	85.546875	59.65625	3.6	37	253	159	16.0	203.0	140.0	28	7.0	20.0	14.0	0	0	1287.1908020973206	2660	49738.103115320206	1596	40.0	
0.6676470588235295	107.74285714285715	11.205882352941176	81.11764705882354	56.60294117647059	3.6	38	256	193	15.0	157.0	107.0	58	8.0	27.0	19.0	0	0	1417.8018853664398	2730	51155.905000686646	1641	39.89010989010989	
0.6823529411764707	110.38571428571429	11.720588235294118	90.19117647058823	63.01470588235294	3.6	39	259	193	17.0	201.0	140.0	43	8.0	27.0	19.0	0	0	1461.1310555934906	2800	52617.036056280136	1693	39.535714285714285	
0.5	111.48571428571428	11.0625	82.96875	58.109375	3.6	40	266	177	16.0	139.0	96.0	41	7.0	17.0	12.0	0	0	1316.0008392333984	2870	53933.036895513535	1743	39.268292682926834	
0.38125000000000003	105.08571428571429	10.734375	80.84375	56.59375	3.6	41	273	194	16.0	225.0	155.0	27	7.0	15.0	11.0	0	0	1308.215006351471	2940	55241.251901865005	1789	39.14965986394557	
0.4484848484848485	105.64285714285714	11.363636363636363	91.12121212121212	63.77272727272727	3.6	42	278	181	15.0	199.0	139.0	47	7.0	17.0	12.0	0	0	1343.8461377620697	3010	56585.098039627075	1837	38.970099667774086	
0.584126984126984	102.98571428571428	11.253968253968255	89.0952380952381	62.42857142857143	3.6	43	286	196	16.0	155.0	109.0	28	7.0	17.0	12.0	0	0	1278.121357679367	3080	57863.21939730644	1883	38.86363636363637	
0.4031746031746032	105.02857142857142	11.158730158730158	89.41269841269842	62.63492063492063	3.6	44	294	207	14.0	155.0	109.0	29	7.0	17.0	12.0	0	0	1241.8450031280518	3150	59105.064400434494	1930	38.73015873015873	
0.49846153846153857	102.24285714285715	11.153846153846153	86.23076923076923	60.292307692307695	3.6	45	300	183	14.0	155.0	109.0	37	7.0	18.0	13.0	0	0	1283.9103574752808	3220	60388.974757909775	1974	38.69565217391304	
0.5138461538461538	98.7	11.046153846153846	82.86153846153846	58.01538461538462	3.6	46	306	182	14.0	155.0	109.0	37	7.0	17.0	12.0	0	0	1278.4080748558044	3290	61667.38283276558	2022	38.54103343465045	
0.5741935483870968	95.82857142857142	11.370967741935484	89.03225806451613	62.145161290322584	3.6	47	315	137	15.0	166.0	114.0	44	7.0	18.0	13.0	0	0	1225.3419110774994	3360	62892.72474384308	2067	38.482142857142854	
0.5389830508474577	101.85714285714286	11.220338983050848	94.44067796610169	65.94915254237289	3.6	48	327	166	16.0	159.0	111.0	23	9.0	34.0	24.0	0	0	1177.9330027103424	3430	64070.65774655342	2116	38.30903790087463	
0.45454545454545453	102.67142857142858	11.045454545454545	92.81818181818181	64.87878787878788	3.6	49	332	189	13.0	138.0	95.0	35	7.0	15.0	11.0	0	0	1331.3642637729645	3500	65402.022010326385	2160	38.28571428571429	
0.6459016393442623	103.28571428571429	11.19672131147541	95.39344262295081	66.77049180327869	3.6	50	342	162	17.0	170.0	120.0	47	8.0	32.0	23.0	0	0	1303.5413837432861	3570	66705.56339406967	2212	38.03921568627451	
0.65	99.25714285714285	11.333333333333334	93.93333333333334	65.71666666666667	3.6	51	353	162	17.0	160.0	112.0	49	8.0	32.0	23.0	0	0	1199.60000872612	3640	67905.16340279579	2252	38.13186813186813	
0.5555555555555556	98.2	10.984126984126984	86.39682539682539	60.492063492063494	3.6	52	361	146	14.0	110.0	76.0	44	8.0	34.0	24.0	0	0	1266.026933670044	3710	69171.19033646584	2298	38.05929919137466	
0.5696969696969697	101.81428571428572	11.090909090909092	87.84848484848484	61.43939393939394	3.6	53	366	178	16.0	158.0	110.0	50	8.0	25.0	18.0	0	0	1287.4271981716156	3780	70458.61753463745	2345	37.96296296296296	
0.529032258064516	102.81428571428572	11.419354838709678	94.7258064516129	66.35483870967742	3.6	54	375	192	16.0	135.0	94.0	33	7.0	17.0	12.0	0	0	1227.812425851822	3850	71686.42996048927	2390	37.922077922077925	
0.593939393939394	105.54285714285714	11.257575757575758	88.93939393939394	62.31818181818182	3.6	55	380	192	16.0	176.0	123.0	46	8.0	25.0	18.0	0	0	1285.4422583580017	3920	72971.87221884727	2442	37.704081632653065	
0.5415384615384616	100.88571428571429	10.738461538461538	82.13846153846154	57.55384615384615	3.6	56	386	192	16.0	172.0	120.0	38	7.0	20.0	14.0	0	0	1290.9949882030487	3990	74262.86720705032	2491	37.56892230576441	
0.34492753623188405	106.45714285714286	10.927536231884059	83.95652173913044	58.78260869565217	3.6	57	388	192	16.0	172.0	120.0	61	7.0	18.0	13.0	0	0	1411.2696018218994	4060	75674.13680887222	2542	37.38916256157635	
0.6461538461538462	105.4	11.692307692307692	91.35384615384615	63.96923076923077	3.6	58	394	152	16.0	172.0	120.0	55	7.0	15.0	11.0	0	0	1331.4810013771057	4130	77005.61781024933	2586	37.38498789346247	
0.6129032258064516	99.61428571428571	10.96774193548387	84.75806451612904	59.41935483870968	3.6	59	403	162	16.0	172.0	120.0	38	7.0	15.0	11.0	0	0	1281.2282438278198	4200	78286.84605407715	2627	37.45238095238095	
0.737313432835821	95.27142857142857	11.507462686567164	94.6268656716418	66.29850746268657	3.6	60	407	165	16.0	166.0	116.0	32	9.0	50.0	35.0	0	0	1420.4274833202362	4270	79707.27353739738	2671	37.44730679156909	
0.5451612903225806	106.85714285714286	11.661290322580646	99.24193548387096	69.46774193548387	3.6	61	416	172	15.0	184.0	128.0	42	9.0	41.0	29.0	0	0	1319.0336470603943	4340	81026.30718445778	2720	37.32718894009217	
0.4967741935483871	110.8	11.274193548387096	95.12903225806451	66.56451612903226	3.6	62	425	188	15.0	159.0	111.0	21	8.0	36.0	26.0	0	0	1255.111023902893	4410	82281.41820836067	2767	37.2562358276644	
0.476923076923077	114.44285714285714	11.323076923076924	95.70769230769231	67.04615384615384	3.6	63	431	188	17.0	197.0	137.0	45	8.0	34.0	24.0	0	0	1317.4526495933533	4480	83598.87085795403	2814	37.18749999999999	
0.5396825396825397	110.51428571428572	11.619047619047619	95.19047619047619	66.73015873015873	3.6	64	439	209	15.0	185.0	129.0	48	7.0	17.0	12.0	0	0	1286.9154906272888	4550	84885.78634858131	2864	37.05494505494505	
0.5645161290322581	118.8	11.774193548387096	101.35483870967742	70.91935483870968	3.6	65	448	209	15.0	209.0	147.0	39	8.0	41.0	29.0	0	0	1278.6201014518738	4620	86164.40645003319	2910	37.01298701298701	
0.4888888888888889	122.94285714285714	11.412698412698413	94.82539682539682	66.3015873015873	3.6	66	456	260	16.0	243.0	170.0	37	7.0	15.0	11.0	0	0	1302.6336586475372	4690	87467.04010868073	2958	36.92963752665245	
0.4028985507246377	109.48571428571428	11.0	89.7536231884058	62.927536231884055	3.6	67	458	222	16.0	192.0	133.0	61	7.0	20.0	14.0	0	0	1387.4514210224152	4760	88854.49152970314	3011	36.7436974789916	
0.33939393939393936	106.2	11.257575757575758	88.68181818181819	62.09090909090909	3.6	68	463	265	17.0	174.0	121.0	39	8.0	27.0	19.0	0	0	1330.2874147891998	4830	90184.77894449234	3063	36.58385093167702	
0.29850746268656714	113.11428571428571	11.014925373134329	91.46268656716418	64.01492537313433	3.6	69	467	265	17.0	226.0	158.0	40	7.0	27.0	19.0	0	0	1354.1650969982147	4900	91538.94404149055	3113	36.46938775510205	
0.5449275362318841	113.21428571428571	11.27536231884058	95.57971014492753	66.84057971014492	3.6	70	469	262	17.0	226.0	158.0	53	8.0	27.0	19.0	0	0	1400.0626347064972	4970	92939.00667619705	3160	36.418511066398395	
0.6805970149253732	109.58571428571429	11.35820895522388	98.08955223880596	68.53731343283582	3.6	71	473	160	14.0	178.0	124.0	45	7.0	15.0	11.0	0	0	1351.6002702713013	5040	94290.60694646835	3206	36.38888888888889	
0.6126984126984127	103.67142857142858	11.412698412698413	98.9047619047619	69.15873015873017	3.6	72	481	172	16.0	161.0	113.0	38	7.0	15.0	11.0	0	0	1253.6922233104706	5110	95544.29916977882	3255	36.3013698630137	
0.5428571428571429	99.11428571428571	11.126984126984127	89.3015873015873	62.46031746031746	3.6	73	489	161	16.0	162.0	112.0	38	8.0	26.0	18.0	0	0	1278.9174115657806	5180	96823.2165813446	3298	36.33204633204633	
0.3266666666666667	103.34285714285714	10.65	85.98333333333333	60.21666666666667	3.6	74	500	185	14.0	139.0	97.0	34	7.0	21.0	15.0	0	0	1224.9505224227905	5250	98048.1671037674	3346	36.266666666666666	
0.5582089552238806	99.55714285714286	11.17910447761194	90.22388059701493	63.25373134328358	3.6	75	504	160	16.0	134.0	94.0	34	7.0	21.0	15.0	0	0	1397.2993075847626	5320	99445.46641135216	3392	36.24060150375939	
0.5129032258064515	96.75714285714285	11.209677419354838	88.8225806451613	62.274193548387096	3.6	76	513	152	16.0	146.0	102.0	34	7.0	21.0	15.0	0	0	1237.4511897563934	5390	100682.91760110855	3434	36.28942486085344	
0.5017543859649123	97.98571428571428	11.0	79.49122807017544	55.70175438596491	3.6	77	527	188	16.0	124.0	88.0	33	7.0	20.0	14.0	0	0	1143.6020271778107	5460	101826.51962828636	3472	36.410256410256416	
0.419047619047619	95.68571428571428	11.015873015873016	79.61904761904762	55.682539682539684	3.6	78	535	177	16.0	148.0	102.0	43	7.0	20.0	14.0	0	0	1228.8630890846252	5530	103055.38271737099	3514	36.45569620253165	
0.39375000000000004	93.72857142857143	10.59375	71.640625	50.09375	3.6	79	542	170	15.0	168.0	118.0	43	7.0	17.0	12.0	0	0	1233.1658961772919	5600	104288.54861354828	3552	36.57142857142858	
0.521875	98.72857142857143	10.96875	81.9375	57.28125	3.6	80	549	170	17.0	180.0	127.0	43	7.0	15.0	11.0	0	0	1293.41286110878	5670	105581.96147465706	3594	36.61375661375661	
0.639344262295082	97.02857142857142	10.950819672131148	84.29508196721312	58.950819672131146	3.6	81	559	170	16.0	155.0	109.0	35	7.0	17.0	12.0	0	0	1268.3641519546509	5740	106850.32562661171	3635	36.672473867595826	
0.6032258064516128	98.98571428571428	10.64516129032258	81.64516129032258	57.306451612903224	3.6	82	568	205	13.0	111.0	78.0	37	8.0	33.0	24.0	0	0	1285.596198797226	5810	108135.92182540894	3670	36.83304647160068	
0.5365079365079365	97.92857142857143	10.936507936507937	87.03174603174604	61.01587301587302	3.6	83	576	205	15.0	150.0	104.0	51	7.0	18.0	13.0	0	0	1213.708333492279	5880	109349.63015890121	3718	36.7687074829932	
0.5462686567164179	106.25714285714285	10.671641791044776	81.11940298507463	56.8955223880597	3.6	84	580	205	13.0	109.0	76.0	44	7.0	15.0	11.0	0	0	1271.7600870132446	5950	110621.39024591446	3764	36.73949579831933	
0.50625	103.11428571428571	10.515625	78.265625	54.90625	3.6	85	587	153	13.0	172.0	121.0	46	7.0	15.0	11.0	0	0	1224.2438547611237	6020	111845.63410067558	3807	36.76079734219269	
0.40937500000000004	100.47142857142858	11.03125	83.875	58.65625	3.6	86	594	153	16.0	174.0	121.0	39	7.0	15.0	11.0	0	0	1255.6649417877197	6090	113101.2990424633	3845	36.86371100164204	
0.526984126984127	105.5	11.285714285714286	91.03174603174604	63.61904761904762	3.6	87	602	166	16.0	189.0	132.0	24	7.0	15.0	11.0	0	0	1263.8050196170807	6160	114365.10406208038	3892	36.81818181818181	
0.5253731343283583	109.9	11.64179104477612	98.68656716417911	69.01492537313433	3.6	88	606	167	16.0	213.0	148.0	75	7.0	15.0	11.0	0	0	1347.8802189826965	6230	115712.98428106308	3943	36.70947030497592	
0.4064516129032258	112.22857142857143	11.016129032258064	91.03225806451613	63.596774193548384	3.6	89	615	196	16.0	213.0	148.0	31	8.0	24.0	17.0	0	0	1296.848350763321	6300	117009.8326318264	3986	36.730158730158735	
0.38461538461538464	114.94285714285714	11.338461538461539	93.55384615384615	65.41538461538461	3.6	90	621	194	16.0	213.0	148.0	68	8.0	24.0	17.0	0	0	1412.2394878864288	6370	118422.07211971283	4038	36.60910518053375	
0.4895522388059701	111.07142857142857	10.656716417910447	83.49253731343283	58.47761194029851	3.6	91	625	180	15.0	194.0	135.0	48	8.0	24.0	17.0	0	0	1414.1838867664337	6440	119836.25600647926	4083	36.599378881987576	
0.3303030303030303	119.0	10.727272727272727	82.74242424242425	57.93939393939394	3.6	92	630	282	17.0	261.0	182.0	29	7.0	23.0	16.0	0	0	1301.761045217514	6510	121138.01705169678	4130	36.55913978494624	
0.5710144927536231	107.0	10.927536231884059	87.79710144927536	61.405797101449274	3.6	93	632	176	17.0	211.0	147.0	44	8.0	25.0	18.0	0	0	1323.4348182678223	6580	122461.4518699646	4180	36.474164133738604	
0.49552238805970156	104.6	11.194029850746269	92.80597014925372	65.02985074626865	3.6	94	636	170	16.0	217.0	151.0	44	7.0	18.0	13.0	0	0	1327.8937168121338	6650	123789.34558677673	4224	36.48120300751879	
0.44307692307692303	100.47142857142858	11.107692307692307	88.63076923076923	62.06153846153846	3.6	95	642	196	16.0	238.0	165.0	44	7.0	17.0	12.0	0	0	1260.8998584747314	6720	125050.24544525146	4265	36.532738095238095	
0.37538461538461537	104.91428571428571	10.846153846153847	86.15384615384616	60.38461538461539	3.6	96	648	249	16.0	242.0	167.0	36	7.0	18.0	13.0	0	0	1284.5663611888885	6790	126334.81180644035	4310	36.52430044182622	
0.4444444444444444	108.55714285714286	11.047619047619047	85.52380952380952	59.79365079365079	3.6	97	656	251	17.0	240.0	167.0	44	7.0	15.0	11.0	0	0	1220.1450552940369	6860	127554.95686173439	4354	36.530612244897966	
0.49846153846153846	112.91428571428571	11.015384615384615	91.15384615384616	63.61538461538461	3.6	98	662	282	16.0	234.0	162.0	58	8.0	29.0	20.0	0	0	1235.5023674964905	6930	128790.45922923088	4398	36.53679653679654	
0.3507692307692308	101.7	10.661538461538461	85.55384615384615	59.84615384615385	3.6	99	668	282	15.0	280.0	196.0	51	7.0	20.0	14.0	0	0	1255.2167320251465	7000	130045.67596125603	4447	36.471428571428575	
0.3815384615384615	103.92857142857143	10.907692307692308	83.84615384615384	58.738461538461536	3.6	100	674	282	16.0	300.0	211.0	28	7.0	18.0	13.0	0	0	1292.5100107192993	7070	131338.18597197533	4490	36.4922206506365	
0.5733333333333334	103.9	10.816666666666666	85.8	59.983333333333334	3.6	101	685	307	16.0	302.0	211.0	28	7.0	18.0	13.0	0	0	1187.412490606308	7140	132525.59846258163	4533	36.51260504201681	
0.36000000000000004	95.41428571428571	10.916666666666666	84.7	59.43333333333333	3.6	102	696	286	14.0	216.0	149.0	29	7.0	18.0	13.0	0	0	1216.385330438614	7210	133741.98379302025	4576	36.53259361997227	
0.4634920634920635	89.9	10.777777777777779	82.82539682539682	58.04761904761905	3.6	103	704	177	17.0	200.0	138.0	31	7.0	17.0	12.0	0	0	1196.7156665325165	7280	134938.69945955276	4611	36.66208791208791	
0.3878787878787879	94.58571428571429	10.393939393939394	76.84848484848484	53.93939393939394	3.6	104	709	178	13.0	142.0	100.0	45	7.0	17.0	12.0	0	0	1253.485294342041	7350	136192.1847538948	4649	36.74829931972789	
0.5117647058823529	94.34285714285714	10.397058823529411	73.22058823529412	51.279411764705884	3.6	105	712	147	13.0	136.0	96.0	51	7.0	17.0	12.0	0	0	1310.749845981598	7420	137502.9345998764	4696	36.711590296495956	
0.6119402985074627	94.88571428571429	10.388059701492537	73.4776119402985	51.507462686567166	3.6	106	716	200	13.0	150.0	104.0	32	7.0	17.0	12.0	0	0	1302.39896941185	7490	138805.33356928825	4736	36.7690253671562	
0.42424242424242425	95.05714285714286	10.772727272727273	83.03030303030303	58.18181818181818	3.6	107	721	157	16.0	150.0	104.0	45	7.0	17.0	12.0	0	0	1273.1385321617126	7560	140078.47210144997	4783	36.73280423280423	
0.6352941176470589	94.71428571428571	11.058823529411764	88.22058823529412	61.69117647058823	3.6	108	724	144	13.0	131.0	92.0	52	7.0	17.0	12.0	0	0	1325.4250004291534	7630	141403.89710187912	4829	36.71035386631717	
0.5672131147540984	95.64285714285714	11.262295081967213	91.57377049180327	64.18032786885246	3.6	109	734	151	17.0	150.0	104.0	54	7.0	17.0	12.0	0	0	1218.6858670711517	7700	142622.58296895027	4872	36.727272727272734	
0.42500000000000004	100.37142857142857	11.34375	92.03125	64.546875	3.6	110	741	144	17.0	172.0	121.0	55	7.0	15.0	11.0	0	0	1278.2334322929382	7770	143900.8164012432	4918	36.7052767052767	
0.5142857142857143	100.04285714285714	11.46031746031746	89.63492063492063	62.74603174603175	3.6	111	749	196	17.0	179.0	126.0	29	8.0	32.0	23.0	0	0	1170.75656747818	7840	145071.5729687214	4963	36.69642857142858	
0.5333333333333333	102.47142857142858	11.666666666666666	96.41269841269842	67.52380952380952	3.6	112	757	164	16.0	209.0	144.0	50	8.0	35.0	25.0	0	0	1223.1833899021149	7910	146294.7563586235	5008	36.68773704171934	
0.38235294117647056	101.61428571428571	10.897058823529411	85.94117647058823	60.30882352941177	3.6	113	760	175	17.0	173.0	121.0	30	8.0	33.0	24.0	0	0	1355.6252286434174	7980	147650.38158726692	5059	36.604010025062664	
0.40303030303030307	104.88571428571429	11.0	88.15151515151516	61.75757575757576	3.6	114	765	170	14.0	172.0	121.0	41	7.0	15.0	11.0	0	0	1350.5982162952423	8050	149000.97980356216	5100	36.64596273291926	
0.41000000000000003	99.44285714285714	10.883333333333333	88.45	61.86666666666667	3.6	115	776	176	16.0	154.0	108.0	46	8.0	35.0	25.0	0	0	1212.010487318039	8120	150212.9902908802	5146	36.62561576354679	
0.5015384615384616	109.28571428571429	11.384615384615385	99.9076923076923	69.81538461538462	3.6	116	782	231	16.0	190.0	131.0	36	8.0	33.0	24.0	0	0	1337.9640364646912	8190	151550.9543273449	5195	36.568986568986574	
0.5555555555555556	107.62857142857143	10.968253968253968	90.3015873015873	63.20634920634921	3.6	117	790	187	16.0	162.0	113.0	36	8.0	36.0	26.0	0	0	1278.1411731243134	8260	152829.0955004692	5240	36.561743341404366	
0.4612903225806452	105.18571428571428	11.0	91.61290322580645	64.16129032258064	3.6	118	799	251	15.0	178.0	125.0	31	8.0	36.0	26.0	0	0	1246.1770329475403	8330	154075.27253341675	5288	36.51860744297719	
0.6179104477611941	101.72857142857143	10.82089552238806	85.92537313432835	60.11940298507463	3.6	119	803	194	17.0	242.0	168.0	49	8.0	34.0	24.0	0	0	1355.054706811905	8400	155430.32724022865	5332	36.523809523809526	
0.69375	105.72857142857143	11.359375	97.453125	68.171875	3.6	120	810	208	17.0	242.0	168.0	38	9.0	47.0	33.0	0	0	1326.91894197464	8470	156757.2461822033	5374	36.552538370720185	
0.7081967213114755	108.95714285714286	11.01639344262295	91.42622950819673	64.11475409836065	3.6	121	820	208	15.0	225.0	157.0	34	8.0	40.0	29.0	0	0	1209.955234527588	8540	157967.20141673088	5413	36.615925058548	
0.7484848484848484	107.44285714285714	11.151515151515152	89.84848484848484	62.93939393939394	3.6	122	825	275	16.0	137.0	95.0	69	7.0	18.0	13.0	0	0	1334.7711472511292	8610	159301.972563982	5456	36.63182346109175	
0.715625	108.75714285714285	11.5	95.1875	66.5625	3.6	123	832	275	17.0	163.0	115.0	41	7.0	18.0	13.0	0	0	1276.4086275100708	8680	160578.38119149208	5502	36.61290322580645	
0.7000000000000001	102.48571428571428	11.640625	97.5625	68.171875	3.6	124	839	208	15.0	163.0	114.0	50	9.0	34.0	24.0	0	0	1284.6060218811035	8750	161862.98721337318	5549	36.58285714285714	
0.66	100.15714285714286	11.483333333333333	94.91666666666667	66.36666666666666	3.6	125	850	191	16.0	164.0	114.0	28	7.0	18.0	13.0	0	0	1186.7792074680328	8820	163049.76642084122	5597	36.54195011337868	
0.496875	109.47142857142858	11.328125	93.90625	65.78125	3.6	126	857	199	16.0	142.0	100.0	52	8.0	34.0	24.0	0	0	1293.6636228561401	8890	164343.43004369736	5648	36.467941507311586	
0.36231884057971014	112.98571428571428	11.507246376811594	95.95652173913044	67.17391304347827	3.6	127	859	212	17.0	181.0	127.0	49	7.0	17.0	12.0	0	0	1389.8920722007751	8960	165733.32211589813	5697	36.417410714285715	
0.503225806451613	110.98571428571428	11.32258064516129	91.09677419354838	63.75806451612903	3.6	128	868	219	14.0	160.0	111.0	55	7.0	21.0	15.0	0	0	1271.3651204109192	9030	167004.68723630905	5740	36.434108527131784	
0.4888888888888889	109.35714285714286	11.174603174603174	92.4920634920635	64.76190476190476	3.6	129	876	219	14.0	179.0	124.0	45	8.0	34.0	24.0	0	0	1279.3878796100616	9100	168284.0751159191	5781	36.472527472527474	
0.5606557377049181	108.22857142857143	11.573770491803279	97.91803278688525	68.59016393442623	3.6	130	886	229	16.0	156.0	108.0	32	8.0	25.0	18.0	0	0	1228.6428065299988	9170	169512.7179224491	5829	36.4340239912759	
0.7633333333333333	103.1	11.75	99.7	69.9	3.6	131	897	229	16.0	144.0	102.0	42	9.0	34.0	24.0	0	0	1221.4912462234497	9240	170734.20916867256	5868	36.49350649350649	
0.6985074626865672	106.97142857142858	11.746268656716419	97.19402985074628	68.04477611940298	3.6	132	901	233	16.0	174.0	122.0	51	8.0	34.0	24.0	0	0	1362.9315288066864	9310	172097.14069747925	5914	36.476906552094526	
0.6524590163934426	100.4	11.508196721311476	91.08196721311475	63.77049180327869	3.6	133	911	274	16.0	174.0	122.0	51	9.0	32.0	23.0	0	0	1191.9598338603973	9380	173289.10053133965	5957	36.49253731343284	
0.5806451612903226	94.5	11.048387096774194	88.30645161290323	61.806451612903224	3.6	134	920	175	16.0	130.0	91.0	51	7.0	18.0	13.0	0	0	1239.7625615596771	9450	174528.86309289932	6006	36.44444444444444	
0.5645161290322581	92.54285714285714	10.935483870967742	84.64516129032258	59.403225806451616	5.4	135	929	147	16.0	130.0	91.0	54	7.0	18.0	13.0	0	0	1225.2891290187836	9520	175754.1522219181	6042	36.53361344537815	
0.8295081967213115	96.38571428571429	11.557377049180328	89.54098360655738	62.704918032786885	5.4	136	939	158	16.0	130.0	91.0	28	7.0	18.0	13.0	0	0	1244.187621831894	9590	176998.33984375	6078	36.62148070907195	
0.6698412698412699	99.82857142857142	11.666666666666666	91.23809523809524	63.904761904761905	5.4	137	947	181	16.0	133.0	94.0	54	9.0	32.0	23.0	0	0	1260.866205215454	9660	178259.20604896545	6114	36.7080745341615	
0.6173913043478261	102.02857142857142	11.289855072463768	89.27536231884058	62.52173913043478	5.4	138	949	179	14.0	129.0	91.0	61	9.0	32.0	23.0	0	0	1365.3687717914581	9730	179624.5748207569	6160	36.69064748201439	
0.5565217391304349	100.02857142857142	11.115942028985508	90.7536231884058	63.6231884057971	5.4	139	951	179	16.0	130.0	91.0	61	7.0	17.0	12.0	0	0	1383.840589761734	9800	181008.41541051865	6212	36.61224489795918	
0.4393939393939394	101.02857142857142	11.56060606060606	90.33333333333333	63.166666666666664	5.4	140	956	196	16.0	189.0	130.0	35	8.0	32.0	23.0	0	0	1360.7928667068481	9870	182369.2082772255	6260	36.575481256332324	
0.4774193548387096	102.18571428571428	11.17741935483871	83.75806451612904	58.596774193548384	5.4	141	965	200	16.0	189.0	130.0	26	7.0	18.0	13.0	0	0	1233.3265392780304	9940	183602.53481650352	6302	36.59959758551308	
0.5470588235294118	105.95714285714286	11.161764705882353	84.8529411764706	59.294117647058826	5.4	142	968	185	16.0	196.0	135.0	23	8.0	32.0	23.0	0	0	1369.6603798866272	10010	184972.19519639015	6343	36.633366633366634	
0.4984126984126985	102.74285714285715	11.031746031746032	87.22222222222223	61.0	5.4	143	976	192	15.0	167.0	115.0	34	8.0	25.0	18.0	0	0	1225.8115501403809	10080	186198.00674653053	6391	36.59722222222223	
0.6830769230769231	109.32857142857142	11.2	90.61538461538461	63.43076923076923	5.4	144	982	207	16.0	191.0	133.0	45	8.0	25.0	18.0	0	0	1261.708289861679	10150	187459.7150363922	6438	36.57142857142858	
1.0031250000000003	110.84285714285714	11.375	97.15625	67.9375	5.4	145	989	246	14.0	184.0	129.0	41	8.0	25.0	18.0	0	0	1273.2533519268036	10220	188732.96838831902	6487	36.52641878669276	
0.513846153846154	119.2	11.276923076923078	97.03076923076924	67.95384615384616	5.4	146	995	222	14.0	169.0	119.0	65	8.0	34.0	24.0	0	0	1264.3596241474152	10290	189997.32801246643	6538	36.46258503401361	
0.9681159420289857	114.27142857142857	11.18840579710145	90.78260869565217	63.56521739130435	6.0	147	997	192	13.0	134.0	93.0	80	8.0	34.0	24.0	0	0	1306.9888586997986	10360	191304.31687116623	6583	36.457528957528964	
1.0298507462686568	115.2	11.417910447761194	91.26865671641791	64.0	6.0	148	1001	192	14.0	137.0	96.0	43	8.0	25.0	18.0	0	0	1289.9805717468262	10430	192594.29744291306	6630	36.43336529242569	
0.9258064516129032	111.54285714285714	11.258064516129032	90.46774193548387	63.354838709677416	6.0	149	1010	218	15.0	205.0	142.0	43	7.0	18.0	13.0	0	0	1163.107027053833	10500	193757.4044699669	6672	36.457142857142856	
0.9457627118644067	106.02857142857142	11.627118644067796	97.55932203389831	68.10169491525424	6.0	150	1022	192	15.0	202.0	139.0	39	8.0	39.0	28.0	0	0	1103.3784675598145	10570	194860.7829375267	6720	36.423841059602644	
0.9415384615384614	105.81428571428572	11.492307692307692	93.98461538461538	65.73846153846154	6.0	151	1028	192	15.0	141.0	98.0	40	7.0	23.0	16.0	0	0	1259.387169122696	10640	196120.1701066494	6776	36.31578947368421	
0.9181818181818181	107.28571428571429	11.424242424242424	91.86363636363636	64.24242424242425	6.6	152	1033	178	15.0	174.0	122.0	64	8.0	34.0	24.0	0	0	1282.3505296707153	10710	197402.5206363201	6825	36.274509803921575	
0.8119402985074627	110.51428571428572	11.388059701492537	90.49253731343283	63.32835820895522	6.6	153	1037	208	15.0	174.0	122.0	49	7.0	18.0	13.0	0	0	1242.8631298542023	10780	198645.38376617432	6878	36.19666048237477	
0.7000000000000001	109.5	11.147058823529411	90.27941176470588	63.161764705882355	6.6	154	1040	211	16.0	183.0	128.0	46	7.0	18.0	13.0	0	0	1244.826924085617	10850	199890.21069025993	6928	36.147465437788014	
0.696875	109.95714285714286	10.921875	88.859375	62.296875	6.6	155	1047	198	15.0	155.0	109.0	46	7.0	17.0	12.0	0	0	1217.847983598709	10920	201108.05867385864	6979	36.08974358974359	
1.0029850746268656	110.18571428571428	10.925373134328359	90.19402985074628	63.19402985074627	6.6	156	1051	202	15.0	182.0	127.0	46	9.0	34.0	24.0	0	0	1288.476079940796	10990	202396.53475379944	7029	36.04185623293904	
0.7619047619047619	111.52857142857142	10.777777777777779	84.11111111111111	59.01587301587302	6.6	157	1059	173	15.0	147.0	104.0	43	8.0	32.0	23.0	0	0	1190.6350107192993	11060	203587.16976451874	7076	36.02169981916818	
0.7205882352941176	117.37142857142857	10.573529411764707	79.70588235294117	55.85294117647059	6.8	158	1062	174	15.0	160.0	113.0	44	7.0	20.0	14.0	0	0	1271.5563578605652	11130	204858.7261223793	7127	35.96585804132974	
0.9057142857142858	115.45714285714286	10.914285714285715	83.87142857142857	58.58571428571429	6.8	159	1062	204	15	178	125	44	7	20	14	0	0	1381.443508386612	11200	206240.16963076591	7176	35.92857142857143	
0.9212121212121211	120.48571428571428	10.878787878787879	85.03030303030303	59.53030303030303	6.8	160	1067	204	16.0	185.0	128.0	29	7.0	15.0	11.0	0	0	1288.2968301773071	11270	207528.46646094322	7221	35.92724046140195	
0.7114285714285714	128.62857142857143	11.071428571428571	90.04285714285714	62.957142857142856	6.8	161	1068	204	17	187	132	77	7	18	13	0	0	1365.761385679245	11340	208894.22784662247	7272	35.87301587301587	
0.8114285714285714	125.22857142857143	10.285714285714286	78.25714285714285	54.82857142857143	6.8	162	1068	222	17	192	133	53	7	18	13	0	0	1433.1850998401642	11410	210327.41294646263	7321	35.83698510078878	
0.8617647058823529	128.12857142857143	10.661764705882353	83.07352941176471	58.14705882352941	6.8	163	1071	235	15.0	209.0	145.0	53	7.0	18.0	13.0	0	0	1368.4804592132568	11480	211695.8934056759	7369	35.81010452961672	
1.2617647058823527	131.3	11.0	88.80882352941177	62.25	6.8	164	1074	297	16.0	241.0	167.0	49	7.0	17.0	12.0	0	0	1330.7574734687805	11550	213026.65087914467	7411	35.83549783549783	
1.191044776119403	115.22857142857143	10.940298507462687	89.91044776119404	63.014925373134325	6.8	165	1078	222	16.0	241.0	167.0	46	7.0	17.0	12.0	0	0	1326.965330839157	11620	214353.61620998383	7462	35.78313253012048	
1.3714285714285714	116.85714285714286	11.085714285714285	88.31428571428572	61.92857142857143	6.8	166	1079	222	16	147	103	53	7	17	12	0	0	1371.6107940673828	11690	215725.2270040512	7510	35.757057313943534	
1.087878787878788	132.22857142857143	11.045454545454545	86.42424242424242	60.515151515151516	6.8	167	1084	222	16.0	146.0	102.0	82	7.0	17.0	12.0	0	0	1273.5941870212555	11760	216998.82119107246	7556	35.74829931972789	
1.0205882352941178	136.31428571428572	11.147058823529411	84.23529411764706	58.98529411764706	6.8	168	1087	246	15.0	126.0	88.0	69	7.0	17.0	12.0	0	0	1407.5622308254242	11830	218406.3834218979	7604	35.72273879966188	
0.6	136.1	11.08695652173913	86.76811594202898	60.73913043478261	6.8	169	1089	262	15.0	137.0	98.0	59	7.0	17.0	12.0	0	0	1386.2688267230988	11900	219792.652248621	7658	35.647058823529406	
1.0318840579710145	146.21428571428572	11.26086956521739	93.1159420289855	65.14492753623189	6.8	170	1091	262	15.0	216.0	150.0	87	7.0	17.0	12.0	0	0	1419.0156888961792	11970	221211.66793751717	7706	35.62238930659983	
1.1072463768115943	127.2	11.289855072463768	90.14492753623189	62.88405797101449	6.8	171	1093	222	16.0	145.0	100.0	76	7.0	15.0	11.0	0	0	1383.4112584590912	12040	222595.07919597626	7757	35.573089700996675	
0.9652173913043477	132.55714285714285	11.246376811594203	91.4927536231884	64.02898550724638	7.6	172	1095	222	15.0	163.0	114.0	67	7.0	15.0	11.0	0	0	1368.3886830806732	12110	223963.46787905693	7807	35.53261767134599	
0.808695652173913	125.47142857142858	10.971014492753623	91.55072463768116	64.04347826086956	7.6	173	1097	225	15.0	166.0	115.0	68	7.0	17.0	12.0	0	0	1387.5590176582336	12180	225351.02689671516	7863	35.44334975369459	
0.8925373134328358	116.4	10.746268656716419	86.2089552238806	60.25373134328358	7.6	174	1101	239	14.0	162.0	114.0	68	7.0	18.0	13.0	0	0	1327.251546382904	12250	226678.27844309807	7911	35.42040816326531	
1.2228571428571429	120.27142857142857	10.742857142857142	85.98571428571428	60.114285714285714	7.6	175	1102	210	13	130	90	70	8	34	24	0	0	1380.505114555359	12320	228058.78355765343	7961	35.38149350649351	
0.8811594202898553	125.85714285714286	10.695652173913043	81.30434782608695	56.88405797101449	7.6	176	1104	192	14.0	148.0	103.0	71	8.0	27.0	19.0	0	0	1317.5625371932983	12390	229376.34609484673	8015	35.310734463276845	
1.0147058823529411	124.0	10.676470588235293	80.83823529411765	56.5735294117647	7.6	177	1107	196	14.0	170.0	118.0	75	8.0	25.0	18.0	0	0	1321.4222815036774	12460	230697.7683763504	8062	35.29695024077046	
0.9791044776119402	124.92857142857143	10.940298507462687	87.80597014925372	61.55223880597015	7.6	178	1111	214	16.0	169.0	118.0	32	8.0	25.0	18.0	0	0	1276.7418141365051	12530	231974.5101904869	8108	35.291300877893065	
0.890625	124.44285714285714	11.234375	95.625	66.90625	7.6	179	1118	217	17.0	187.0	130.0	40	8.0	25.0	18.0	0	0	1198.8862216472626	12600	233173.39641213417	8158	35.25396825396825	
0.9365079365079365	128.18571428571428	10.904761904761905	91.36507936507937	63.93650793650794	7.6	180	1126	217	14.0	171.0	119.0	44	7.0	18.0	13.0	0	0	1223.5966715812683	12670	234396.99308371544	8210	35.201262825572215	
0.9791044776119404	131.32857142857142	11.059701492537313	89.23880597014926	62.37313432835821	7.6	181	1130	230	15.0	141.0	97.0	46	7.0	18.0	13.0	0	0	1315.6327276229858	12740	235712.62581133842	8261	35.15698587127159	
1.14	136.5	11.457142857142857	97.1	67.84285714285714	7.6	182	1130	216	17	197	138	35	8	31	22	0	0	1428.1434264183044	12810	237140.76923775673	8316	35.08196721311475	
1.1727272727272726	128.38571428571427	11.242424242424242	86.57575757575758	60.56060606060606	7.6	183	1135	245	15.0	138.0	98.0	35	7.0	15.0	11.0	0	0	1383.7052652835846	12880	238524.4745030403	8361	35.08540372670808	
1.0865671641791044	134.65714285714284	11.253731343283581	91.6268656716418	64.05970149253731	7.6	184	1139	286	17.0	174.0	121.0	35	7.0	15.0	11.0	0	0	1379.516830444336	12950	239903.99133348465	8408	35.07335907335907	
1.2492753623188406	132.71428571428572	11.217391304347826	88.85507246376811	62.08695652173913	8.0	185	1141	216	17.0	193.0	135.0	73	7.0	18.0	13.0	0	0	1418.6186301708221	13020	241322.60996365547	8452	35.084485407066055	
0.803125	125.17142857142858	11.34375	90.546875	63.234375	8.0	186	1148	191	17.0	193.0	135.0	51	8.0	36.0	25.0	0	0	1297.347314119339	13090	242619.9572777748	8503	35.042016806722685	
0.7882352941176469	128.12857142857143	11.058823529411764	92.47058823529412	64.69117647058823	8.0	187	1151	184	17.0	194.0	138.0	51	7.0	17.0	12.0	0	0	1353.277119398117	13160	243973.23439717293	8553	35.00759878419453	
0.8799999999999999	125.2	11.042857142857143	89.47142857142858	62.55714285714286	8.0	188	1151	177	15	197	136	51	7	18	13	0	0	1341.1849846839905	13230	245314.41938185692	8602	34.98110355253212	
0.7911764705882353	125.74285714285715	10.573529411764707	80.55882352941177	56.3235294117647	8.0	189	1154	198	14.0	147.0	102.0	80	7.0	20.0	14.0	0	0	1324.786759853363	13300	246639.20614171028	8651	34.954887218045116	
0.937142857142857	123.44285714285714	10.571428571428571	81.6	57.0	8.0	190	1155	196	15	169	116	66	7	18	13	0	0	1341.7619154453278	13370	247980.9680571556	8702	34.91398653702319	
0.5911764705882353	123.98571428571428	10.485294117647058	82.1470588235294	57.529411764705884	8.0	191	1158	231	15.0	175.0	122.0	58	7.0	18.0	13.0	0	0	1300.017939567566	13440	249280.98599672318	8750	34.89583333333334	
0.9382352941176472	122.9	10.897058823529411	86.94117647058823	60.720588235294116	8.0	192	1161	239	16.0	176.0	123.0	34	7.0	18.0	13.0	0	0	1279.2108912467957	13510	250560.19688796997	8793	34.91487786824574	
1.3142857142857143	121.95714285714286	10.628571428571428	80.25714285714285	56.142857142857146	8.0	193	1162	197	15	148	102	61	7	17	12	0	0	1323.5754232406616	13580	251883.77231121063	8845	34.867452135493366	
1.5742857142857143	134.21428571428572	11.114285714285714	87.85714285714286	61.47142857142857	8.0	194	1163	196	15	152	105	74	7	15	11	0	0	1356.6231808662415	13650	253240.39549207687	8893	34.84981684981685	
1.002857142857143	126.25714285714285	10.657142857142857	80.15714285714286	56.128571428571426	8.0	195	1163	230	17	141	98	62	7	15	11	0	0	1401.0596809387207	13720	254641.4551730156	8947	34.78862973760933	
1.3352941176470587	124.94285714285714	11.058823529411764	86.94117647058823	60.794117647058826	8.0	196	1166	230	14.0	182.0	126.0	66	7.0	18.0	13.0	0	0	1311.7333149909973	13790	255953.1884880066	8994	34.77882523567803	
1.7362318840579711	124.02857142857142	11.072463768115941	86.31884057971014	60.53623188405797	8.0	197	1168	282	15.0	173.0	122.0	48	7.0	18.0	13.0	0	0	1354.9281332492828	13860	257308.11662125587	9047	34.725829725829726	
1.2857142857142858	129.8	11.414285714285715	94.77142857142857	66.25714285714285	8.0	198	1169	282	16	221	154	52	7	15	11	0	0	1401.6765410900116	13930	258709.7931623459	9100	34.67336683417085	
1.0714285714285714	120.42857142857143	11.214285714285714	93.48571428571428	65.52857142857142	8.0	199	1170	208	17	176	124	52	7	15	11	0	0	1457.07137966156	14000	260166.86454200745	9146	34.67142857142858	
1.1352941176470588	114.0	11.0	89.0	62.25	8.0	200	1173	195	16.0	175.0	122.0	58	7.0	15.0	11.0	0	0	1371.8576409816742	14070	261538.72218298912	9194	34.65529495380241	
