Generation:
200

Phenotype:
*:*:IS_WANT_OBJECT,true,57;B_RANDOM_WALK,87#P_ON_CACHE,false;*:*:IS_WANT_OBJECT,true,67;IS_DROP_OBJECT,true,37#

Genotype:
[31790, 67343, 23871, 63536, 13427, 53847, 95130, 34415, 66166, 70104, 40572, 52173, 79453, 27384, 5610, 18752, 72504, 81581, 40953, 90542, 33390, 93469, 7185, 35501, 25827, 13427, 36522, 3670, 80981, 29843, 99690, 40572, 18752, 41847, 81581, 20863, 98455, 33390, 61243, 63536, 60005, 49696, 88407, 94149, 10652, 35578, 32528, 36947, 89279, 77772, 84651, 66596, 75]
Tree:
None

Fitness:
5.6