best_fitness	avg_fitness
3.66667	2.67619
3.66667	2.68095
3.66667	2.67619
3.66667	2.68095
3.66667	2.68095
3.66667	2.67143
3.66667	2.67143
3.66667	2.67619
3.66667	2.67619
3.66667	2.68095
3.66667	2.67619
3.66667	2.67143
3.66667	2.68095
3.66667	2.68095
3.66667	2.68095
3.66667	2.67143
3.66667	2.67619
3.66667	2.68095
3.66667	2.68095
3.66667	2.68095
3.66667	2.68095
3.66667	2.68095
3.66667	2.68095
3.66667	2.68095
3.66667	2.68095
3.66667	2.68095
3.66667	2.68095
3.66667	2.68095
3.66667	2.68095
3.66667	2.68095
3.66667	2.68095
3.66667	2.68095
3.66667	2.68095
3.66667	2.68095
3.66667	2.68095
3.66667	2.68095
3.66667	2.68095
3.66667	2.68095
3.66667	2.68095
3.66667	2.68095
