Generation:
2000

Phenotype:
*:*:IS_DROP_OBJECT,false,49;IS_MOTIVATION_2_DEC,false,7#P_HAS_OBJECT,true;P_MOTIVATION_2_LT,true;*:B_RANDOM_WALK;B_PHOTOTAXIS;B_RANDOM_WALK;B_PHOTOTAXIS;*:IS_MOTIVATION_2_DEC,false,93#P_HAS_OBJECT,false;*:*:B_PHOTOTAXIS,54#P_HAS_OBJECT,false;P_MOTIVATION_1_GT,false;*:*:IS_MOTIVATION_2_INC,false,10;IS_WANT_OBJECT,true,71#P_ON_NEST,true;P_MOTIVATION_1_GT,true;P_MOTIVATION_1_LT,false;*:*:IS_DROP_OBJECT,true,40#P_HAS_OBJECT,true;*:B_PHOTOTAXIS;*:B_PHOTOTAXIS,79;B_RANDOM_WALK,91;B_PHOTOTAXIS,54#P_MOTIVATION_1_LT,true;P_MOTIVATION_1_GT,true;*:*:IS_MOTIVATION_2_INC,false,10#P_MOTIVATION_2_GT,false;P_ON_CACHE,false;*:B_ANTI_PHOTOTAXIS;*:B_ANTI_PHOTOTAXIS,20#*:B_RANDOM_WALK;*:IS_DROP_OBJECT,true,32;B_ANTI_PHOTOTAXIS,46;B_ANTI_PHOTOTAXIS,34#

Genotype:
[75392, 9486, 88315, 63412, 10923, 61386, 62060, 17547, 41393, 29143, 79881, 38429, 2617, 48927, 93327, 37727, 75803, 18187, 72892, 70598, 72892, 70598, 70562, 71414, 34620, 41737, 20509, 14090, 29143, 43357, 628, 33800, 34052, 62265, 94838, 70622, 71414, 42363, 21431, 27081, 34547, 50179, 60016, 47477, 34937, 17768, 70598, 33594, 65696, 40882, 48314, 14727, 17547, 41393, 29143, 40867, 38429, 45600, 45867, 63786, 37727, 628, 46646, 72892, 70598, 6428, 11705, 61386, 62060, 17547, 34087, 29143, 95377, 30497, 45600, 73742, 57055, 55291, 628, 18187, 43844, 49877, 50815, 35110, 64398, 53684, 46127, 69004, 27682, 40280, 69847, 29143, 26802, 70598, 51052, 89187, 61386, 62060, 33420, 58199, 29143, 74287, 30497, 45041, 92703, 23959, 55291, 628, 18187, 43844, 98313, 15920, 35416, 64398, 53684, 63407, 45432, 50179, 54527, 28758, 35226, 28063, 93666, 80866, 94212, 77124, 10923, 61386, 62060, 99838, 33546, 13508, 79881, 38429, 60116, 48927, 93327, 37727, 13724, 18187, 72892, 70598, 43376, 71414, 34554, 62060, 17547, 49262, 29143, 95377, 30497, 45600, 92703, 57055, 64239, 628, 18187, 43844, 70598, 15920, 71414, 64398, 53684, 46127, 62060, 50179, 12766, 69847, 29143, 28063, 93666, 80080, 48927, 77124, 76249, 15920, 71414, 25693, 78396, 27081, 82455, 50179, 55999, 98648, 34937, 79811, 36959, 87550, 48927, 46891, 55291, 628, 41240, 96400, 8632, 15920, 85231, 31154, 99969, 32754, 74731, 19900, 46393, 25693, 99969, 52439, 15002, 46527, 52439, 52439, 15190, 76051, 951, 77557, 45618, 85052, 73506, 55291, 628, 18187, 5423, 26694, 15920, 35933, 46681, 23273, 3366, 91396, 64322, 56821, 85451, 38458, 38275, 39523, 78487, 20827, 43425, 75116, 1231, 47621, 5871, 59609]
Tree:
None

Fitness:
25.0