Generation:
200

Phenotype:
*:*:B_RANDOM_WALK,15;B_PHOTOTAXIS,31#*:B_RANDOM_WALK;B_ANTI_PHOTOTAXIS;B_PHOTOTAXIS;*:IS_WANT_OBJECT,false,40;IS_DROP_OBJECT,false,34#P_HAS_OBJECT,true;*:B_PHOTOTAXIS;B_RANDOM_WALK;B_ANTI_PHOTOTAXIS;B_RANDOM_WALK;*:B_ANTI_PHOTOTAXIS,66;B_ANTI_PHOTOTAXIS,93;IS_DROP_OBJECT,false,11;B_ANTI_PHOTOTAXIS,12#P_ON_NEST,false;*:*:IS_DROP_OBJECT,false,22;IS_WANT_OBJECT,true,61;IS_WANT_OBJECT,true,57;IS_WANT_OBJECT,true,77#

Genotype:
[54524, 11891, 14195, 68769, 6949, 60208, 11844, 64896, 25195, 28946, 22841, 25113, 34892, 47170, 98469, 1041, 79122, 86664, 8529, 85768, 29592, 56759, 26314, 7969, 99574, 85029, 60635, 33165, 23128, 85109, 21812, 91216, 19359, 46601, 53367, 85399, 97432, 82171, 83233, 59624, 1916, 26158, 902, 2329, 17120, 68394, 18247, 35235, 12118, 15453, 16694, 79139, 65516, 78886, 34390, 84407, 57195, 68817, 24354, 17944, 61577, 55249, 40971, 17040, 36632, 4709, 47425, 34029, 81822, 59001, 21875, 29341, 82771, 24554, 41843, 55616, 98207, 49933, 59501, 88055, 28220, 60846, 79046, 27331, 11127, 57543, 34103, 4215, 73904, 85876, 23449, 7045, 40683, 91149, 2244, 36226, 10485, 26245, 18730, 19098, 68943, 94862, 82887, 55104, 16826, 48726, 24499, 80743, 71019, 81933, 86138, 21758, 30276, 37226, 39413, 70090, 90953, 54854, 43975, 10717, 37858, 1448, 69803, 97570, 56408, 11915, 94734, 56405, 88139, 92892, 13833, 81926, 79871, 79437, 879, 44299, 77546, 71055, 27228, 15552, 18208, 82865, 8729, 3404, 46225, 2354, 91534, 91039, 80341, 29760, 53877, 18328, 57109, 76257, 79760, 71774, 99313, 64243, 31544, 55511, 91862, 85270, 98153, 2345, 19033, 65049, 12887, 28048, 71643, 80610, 41282, 37990, 31213, 51683, 65030, 96758, 42165, 59240, 97862, 61751, 47322, 90214, 25877, 70449, 22099, 74614, 83476, 67886, 48154, 65268, 60823, 93400, 50838, 63062, 68427, 72639, 77573, 88059]
Tree:
None

Fitness:
13.3333