ave_fitness	ave_genome_length	ave_tree_depth	ave_tree_nodes	ave_used_codons	best_fitness	gen	invalids	max_genome_length	max_tree_depth	max_tree_nodes	max_used_codons	min_genome_length	min_tree_depth	min_tree_nodes	min_used_codons	runtime_error	time_adjust	time_taken	total_inds	total_time	unique_inds	unused_search	
0.0	51.214285714285715	8.057142857142857	49.142857142857146	34.3	0.0	0	0	127	10	124	85	16	7	15	11	0	0	1491.5260071754456	70	1491.5260071754456	70	0.0	
0.0	49.15714285714286	8.454545454545455	46.22727272727273	32.29545454545455	0.0	1	27	102	11.0	107.0	76.0	10	7.0	15.0	11.0	0	0	787.5078213214874	140	2279.033828496933	105	25.0	
0.0	55.7	8.435483870967742	45.03225806451613	31.467741935483872	0.0	2	36	102	11.0	81.0	56.0	11	7.0	15.0	11.0	0	0	1141.5036780834198	210	3420.537506580353	146	30.47619047619048	
0.0	54.82857142857143	8.338983050847459	40.28813559322034	28.1864406779661	0.0	3	48	115	13.0	81.0	58.0	11	7.0	15.0	11.0	0	0	1116.9007768630981	280	4537.438283443451	176	37.142857142857146	
0.0	60.07142857142857	8.328358208955224	40.37313432835821	28.208955223880597	0.0	4	52	117	13.0	143.0	99.0	24	7.0	15.0	11.0	0	0	1268.8422780036926	350	5806.280561447144	209	40.28571428571428	
0.0	57.128571428571426	8.246376811594203	38.30434782608695	26.753623188405797	0.0	5	54	117	14.0	109.0	77.0	29	7.0	15.0	11.0	0	0	1298.8496854305267	420	7105.13024687767	245	41.666666666666664	
0.0	48.0	8.014705882352942	31.88235294117647	22.220588235294116	0.0	6	57	117	11.0	104.0	72.0	20	7.0	15.0	11.0	0	0	1244.2608001232147	490	8349.391047000885	276	43.673469387755105	
0.0	44.97142857142857	8.23076923076923	33.6	23.338461538461537	0.0	7	63	96	11.0	74.0	51.0	10	7.0	15.0	11.0	0	0	1203.9549293518066	560	9553.345976352692	304	45.714285714285715	
0.0	47.385714285714286	8.23076923076923	32.49230769230769	22.6	0.0	8	69	96	14.0	96.0	66.0	9	7.0	15.0	11.0	0	0	1219.2843010425568	630	10772.630277395248	328	47.93650793650793	
0.0	45.51428571428571	8.046875	33.40625	23.15625	0.0	9	76	90	14.0	96.0	66.0	13	7.0	15.0	11.0	0	0	1153.2884697914124	700	11925.91874718666	360	48.57142857142858	
0.0	48.25714285714286	8.25	36.53333333333333	25.35	0.0	10	87	98	14.0	96.0	66.0	18	7.0	15.0	11.0	0	0	1105.6908249855042	770	13031.609572172165	385	50.0	
0.0	43.84285714285714	8.206349206349206	34.96825396825397	24.26984126984127	0.0	11	95	92	11.0	72.0	49.0	19	7.0	15.0	11.0	0	0	1148.3350658416748	840	14179.94463801384	412	50.952380952380956	
0.0	41.31428571428572	7.953846153846154	32.43076923076923	22.523076923076925	0.0	12	101	100	12.0	81.0	55.0	14	7.0	15.0	11.0	0	0	1196.0727140903473	910	15376.017352104187	442	51.42857142857143	
0.0	37.614285714285714	7.870967741935484	31.241935483870968	21.677419354838708	0.0	13	110	77	10.0	61.0	42.0	13	7.0	15.0	11.0	0	0	1132.676013469696	980	16508.693365573883	467	52.3469387755102	
0.0	37.97142857142857	8.044776119402986	33.25373134328358	23.104477611940297	0.0	14	114	77	11.0	70.0	48.0	9	7.0	15.0	11.0	0	0	1269.8833894729614	1050	17778.576755046844	496	52.76190476190476	
0.0	38.32857142857143	8.032786885245901	34.278688524590166	23.737704918032787	0.0	15	124	67	11.0	61.0	42.0	9	7.0	15.0	11.0	0	0	1173.3804268836975	1120	18951.957181930542	520	53.57142857142857	
0.0	43.1	8.25	36.703125	25.390625	0.0	16	131	82	13.0	72.0	49.0	13	7.0	17.0	12.0	0	0	1271.0934836864471	1190	20223.05066561699	550	53.78151260504202	
0.0	44.67142857142857	8.264705882352942	36.80882352941177	25.558823529411764	0.0	17	134	82	13.0	72.0	49.0	14	7.0	15.0	11.0	0	0	1376.2122638225555	1260	21599.262929439545	582	53.80952380952381	
0.0	44.871428571428574	8.741935483870968	40.20967741935484	27.838709677419356	0.0	18	143	81	13.0	70.0	48.0	20	7.0	15.0	11.0	0	0	1146.429275751114	1330	22745.69220519066	621	53.30827067669173	
0.0	41.05714285714286	8.15625	36.75	25.453125	0.0	19	150	81	13.0	86.0	59.0	16	7.0	15.0	11.0	0	0	1166.8527567386627	1400	23912.54496192932	646	53.85714285714286	
0.0	38.67142857142857	7.96969696969697	36.666666666666664	25.37878787878788	0.0	20	155	79	12.0	98.0	67.0	16	7.0	15.0	11.0	0	0	1191.6686305999756	1470	25104.213592529297	677	53.945578231292515	
0.0	39.142857142857146	7.938461538461539	35.56923076923077	24.661538461538463	0.0	21	161	92	12.0	111.0	76.0	11	7.0	15.0	11.0	0	0	1265.2813863754272	1540	26369.494978904724	700	54.54545454545455	
0.0	41.3	8.016666666666667	33.333333333333336	23.216666666666665	0.0	22	172	100	12.0	111.0	76.0	14	7.0	15.0	11.0	0	0	1232.6776287555695	1610	27602.172607660294	732	54.53416149068323	
0.0	42.57142857142857	8.064516129032258	36.725806451612904	25.516129032258064	0.0	23	181	100	12.0	111.0	76.0	16	7.0	15.0	11.0	0	0	1255.2107284069061	1680	28857.3833360672	762	54.642857142857146	
0.0	39.92857142857143	8.033333333333333	36.25	25.233333333333334	0.0	24	192	100	11.0	128.0	88.0	16	7.0	15.0	11.0	0	0	1108.290051460266	1750	29965.673387527466	785	55.142857142857146	
0.0	39.92857142857143	7.951612903225806	32.935483870967744	23.0	0.0	25	201	100	11.0	116.0	80.0	19	7.0	15.0	11.0	0	0	1185.9689738750458	1820	31151.64236140251	816	55.16483516483516	
0.0	37.82857142857143	8.206349206349206	34.285714285714285	23.904761904761905	0.0	26	209	64	12.0	70.0	49.0	8	7.0	15.0	11.0	0	0	1195.7452630996704	1890	32347.387624502182	846	55.238095238095234	
0.034375	37.17142857142857	8.046875	31.890625	22.203125	2.2	27	216	78	11.0	53.0	36.0	18	7.0	15.0	11.0	0	0	1202.5880761146545	1960	33549.97570061684	880	55.10204081632653	
0.06567164179104479	38.68571428571428	8.074626865671641	32.16417910447761	22.47761194029851	2.2	28	220	78	11.0	71.0	50.0	26	7.0	15.0	11.0	0	0	1259.5971426963806	2030	34809.57284331322	912	55.073891625615765	
0.0676923076923077	39.47142857142857	8.215384615384615	33.184615384615384	23.16923076923077	2.2	29	226	83	11.0	62.0	43.0	13	7.0	15.0	11.0	0	0	1185.3849420547485	2100	35994.957785367966	948	54.85714285714286	
0.09850746268656717	38.128571428571426	8.35820895522388	34.40298507462686	23.925373134328357	2.2	30	230	78	12.0	64.0	44.0	6	7.0	15.0	11.0	0	0	1241.1651434898376	2170	37236.1229288578	984	54.65437788018433	
0.15942028985507245	39.58571428571429	8.318840579710145	33.289855072463766	23.159420289855074	2.2	31	232	78	11.0	53.0	37.0	19	7.0	15.0	11.0	0	0	1317.5670759677887	2240	38553.69000482559	1019	54.50892857142857	
0.1746031746031746	39.81428571428572	8.46031746031746	34.3968253968254	23.88888888888889	2.2	32	240	78	12.0	65.0	45.0	8	7.0	15.0	11.0	0	0	1149.8889350891113	2310	39703.5789399147	1050	54.54545454545455	
0.34242424242424246	40.385714285714286	8.590909090909092	34.621212121212125	24.03030303030303	2.2	33	245	78	12.0	55.0	38.0	18	7.0	15.0	11.0	0	0	1225.082518339157	2380	40928.66145825386	1077	54.747899159663866	
0.36119402985074633	40.957142857142856	8.597014925373134	35.059701492537314	24.388059701492537	2.2	34	249	63	11.0	55.0	38.0	23	7.0	15.0	11.0	0	0	1279.3333694934845	2450	42207.994827747345	1113	54.57142857142857	
0.7058823529411765	44.82857142857143	9.411764705882353	39.89705882352941	27.691176470588236	3.4	35	252	70	12.0	60.0	42.0	17	7.0	17.0	12.0	0	0	1392.7149376869202	2520	43600.709765434265	1147	54.48412698412699	
0.7432835820895523	44.42857142857143	9.253731343283581	38.02985074626866	26.37313432835821	3.4	36	256	74	12.0	61.0	42.0	10	7.0	15.0	11.0	0	0	1377.4181213378906	2590	44978.127886772156	1189	54.092664092664094	
0.9777777777777777	45.4	9.53968253968254	38.93650793650794	27.0	3.4	37	264	63	13.0	63.0	44.0	24	7.0	15.0	11.0	0	0	1305.5338666439056	2660	46283.66175341606	1223	54.02255639097744	
0.7914285714285715	47.5	9.528571428571428	39.05714285714286	27.042857142857144	3.4	38	265	71	14	74	51	24	7	15	11	0	0	1648.2017374038696	2730	47931.86349081993	1259	53.88278388278388	
0.8375	48.58571428571429	9.765625	41.03125	28.375	3.4	39	272	76	14.0	70.0	49.0	20	7.0	17.0	12.0	0	0	1553.2654123306274	2800	49485.12890315056	1289	53.964285714285715	
1.0115942028985507	49.614285714285714	9.623188405797102	40.17391304347826	27.840579710144926	3.4	40	274	100	14.0	70.0	49.0	26	7.0	15.0	11.0	0	0	1568.61261343956	2870	51053.74151659012	1315	54.181184668989545	
0.8529411764705882	50.457142857142856	9.411764705882353	38.10294117647059	26.441176470588236	3.4	41	277	98	14.0	72.0	50.0	31	7.0	17.0	12.0	0	0	1462.350108385086	2940	52516.091624975204	1354	53.945578231292515	
0.8794117647058823	50.642857142857146	9.661764705882353	39.779411764705884	27.544117647058822	3.4	42	280	83	12.0	60.0	41.0	25	7.0	17.0	12.0	0	0	1509.6904785633087	3010	54025.78210353851	1395	53.65448504983389	
0.9761194029850747	52.8	9.925373134328359	41.73134328358209	28.850746268656717	3.4	43	284	111	13.0	67.0	46.0	27	7.0	15.0	11.0	0	0	1428.3931682109833	3080	55454.1752717495	1433	53.47402597402598	
0.8647058823529411	48.9	10.0	42.3235294117647	29.279411764705884	4.2	44	287	88	14.0	76.0	52.0	16	7.0	15.0	11.0	0	0	1494.1756393909454	3150	56948.35091114044	1472	53.269841269841265	
1.0424242424242423	49.17142857142857	9.833333333333334	42.333333333333336	29.242424242424242	4.2	45	292	112	14.0	80.0	54.0	16	7.0	17.0	12.0	0	0	1379.1085047721863	3220	58327.45941591263	1505	53.26086956521739	
0.771875	50.05714285714286	10.03125	42.71875	29.53125	4.2	46	299	88	16.0	92.0	63.0	19	7.0	17.0	12.0	0	0	1400.237672328949	3290	59727.69708824158	1545	53.03951367781155	
1.1353846153846157	50.81428571428572	10.076923076923077	44.01538461538462	30.4	4.2	47	305	107	16.0	92.0	63.0	24	7.0	15.0	11.0	0	0	1423.6584026813507	3360	61151.35549092293	1581	52.94642857142857	
1.1235294117647059	49.371428571428574	10.132352941176471	43.69117647058823	30.25	4.2	48	308	107	16.0	92.0	63.0	30	7.0	15.0	11.0	0	0	1714.970829486847	3430	62866.326320409775	1622	52.71137026239067	
1.0597014925373134	45.614285714285714	9.701492537313433	39.985074626865675	27.71641791044776	4.2	49	312	76	14.0	74.0	51.0	11	7.0	15.0	11.0	0	0	1657.487958908081	3500	64523.814279317856	1655	52.714285714285715	
0.88	48.885714285714286	9.785714285714286	40.5	28.085714285714285	4.2	50	313	82	15	83	57	21	7	17	12	0	0	1540.9249086380005	3570	66064.73918795586	1695	52.52100840336135	
0.7507692307692307	45.67142857142857	9.723076923076922	39.63076923076923	27.523076923076925	4.2	51	319	90	12.0	58.0	40.0	16	7.0	17.0	12.0	0	0	1441.3254835605621	3640	67506.06467151642	1737	52.28021978021978	
0.7507692307692307	47.0	9.63076923076923	39.8	27.630769230769232	4.2	52	325	90	15.0	81.0	56.0	11	7.0	15.0	11.0	0	0	1391.308912038803	3710	68897.37358355522	1778	52.075471698113205	
0.9852941176470589	43.957142857142856	9.161764705882353	35.411764705882355	24.647058823529413	4.2	53	328	65	13.0	67.0	46.0	11	7.0	15.0	11.0	0	0	1472.8560938835144	3780	70370.22967743874	1803	52.3015873015873	
1.178125	44.55714285714286	9.40625	37.71875	26.25	4.2	54	335	67	12.0	56.0	39.0	18	7.0	15.0	11.0	0	0	1336.6707475185394	3850	71706.90042495728	1834	52.36363636363636	
0.8119402985074627	46.22857142857143	9.73134328358209	40.76119402985075	28.29850746268657	4.2	55	339	69	15.0	77.0	54.0	17	7.0	17.0	12.0	0	0	1429.5852918624878	3920	73136.48571681976	1873	52.21938775510204	
0.8117647058823528	49.48571428571429	9.735294117647058	41.55882352941177	28.941176470588236	4.2	56	342	85	16.0	86.0	60.0	29	7.0	22.0	16.0	0	0	1495.8487544059753	3990	74632.33447122574	1914	52.03007518796993	
0.9868852459016394	48.128571428571426	9.491803278688524	42.0	29.114754098360656	4.2	57	352	79	12.0	70.0	48.0	14	7.0	17.0	12.0	0	0	1276.0967299938202	4060	75908.43120121956	1946	52.06896551724138	
1.2625000000000002	52.65714285714286	9.796875	43.328125	30.015625	4.2	58	359	89	13.0	82.0	57.0	17	7.0	22.0	16.0	0	0	1362.44513297081	4130	77270.87633419037	1973	52.22760290556901	
1.0676923076923077	52.05714285714286	9.830769230769231	41.03076923076923	28.446153846153845	4.2	59	365	96	13.0	69.0	48.0	23	7.0	17.0	12.0	0	0	1396.953720331192	4200	78667.83005452156	2005	52.26190476190476	
1.1283582089552238	56.128571428571426	10.17910447761194	45.1044776119403	31.208955223880597	4.2	60	369	88	14.0	78.0	53.0	27	7.0	15.0	11.0	0	0	1436.686828136444	4270	80104.516882658	2046	52.08430913348946	
1.4090909090909092	50.371428571428574	9.590909090909092	39.65151515151515	27.46969696969697	4.2	61	374	90	13.0	69.0	47.0	29	7.0	15.0	11.0	0	0	1422.8141329288483	4340	81527.33101558685	2078	52.11981566820276	
1.3492537313432837	49.31428571428572	9.701492537313433	40.417910447761194	27.955223880597014	4.2	62	378	89	13.0	69.0	47.0	20	7.0	15.0	11.0	0	0	1456.0519716739655	4410	82983.38298726082	2102	52.33560090702948	
1.2553846153846155	49.614285714285714	9.692307692307692	41.03076923076923	28.384615384615383	4.2	63	384	80	14.0	99.0	69.0	27	7.0	15.0	11.0	0	0	1392.803105354309	4480	84376.18609261513	2129	52.47767857142857	
1.2698412698412698	48.285714285714285	9.476190476190476	37.888888888888886	26.253968253968253	4.2	64	392	76	14.0	79.0	55.0	22	7.0	15.0	11.0	0	0	1389.5213630199432	4550	85765.70745563507	2150	52.74725274725275	
1.2242424242424241	47.01428571428571	9.636363636363637	40.36363636363637	27.954545454545453	4.2	65	397	76	13.0	90.0	62.0	30	7.0	17.0	12.0	0	0	1439.142699956894	4620	87204.85015559196	2176	52.9004329004329	
1.3044776119402985	47.17142857142857	9.477611940298507	38.1044776119403	26.402985074626866	4.2	66	401	77	12.0	58.0	40.0	24	7.0	18.0	13.0	0	0	1466.7361838817596	4690	88671.58633947372	2203	53.02771855010661	
1.0927536231884059	46.371428571428574	9.623188405797102	38.507246376811594	26.71014492753623	4.2	67	403	66	13.0	69.0	47.0	27	7.0	15.0	11.0	0	0	1551.5396387577057	4760	90223.12597823143	2236	53.02521008403362	
1.2	46.34285714285714	9.4	38.2	26.476923076923075	4.2	68	409	80	12.0	58.0	40.0	21	7.0	15.0	11.0	0	0	1353.0723476409912	4830	91576.19832587242	2269	53.02277432712215	
1.052941176470588	46.94285714285714	9.691176470588236	39.794117647058826	27.61764705882353	4.2	69	412	72	13.0	69.0	48.0	24	7.0	17.0	12.0	0	0	1479.3192684650421	4900	93055.51759433746	2303	53.0	
1.173529411764706	46.17142857142857	9.705882352941176	40.220588235294116	27.88235294117647	4.2	70	415	77	12.0	58.0	40.0	13	7.0	17.0	12.0	0	0	1531.4438898563385	4970	94586.9614841938	2333	53.058350100603626	
1.2579710144927536	45.32857142857143	9.608695652173912	39.01449275362319	27.043478260869566	4.2	71	417	58	12.0	60.0	41.0	33	7.0	17.0	12.0	0	0	1513.4961431026459	5040	96100.45762729645	2368	53.01587301587302	
1.2228571428571429	45.114285714285714	9.757142857142858	40.371428571428574	27.928571428571427	4.2	72	418	60	12	58	40	30	7	17	12	0	0	1504.0718672275543	5110	97604.529494524	2402	52.99412915851272	
1.236923076923077	45.05714285714286	9.6	38.96923076923077	26.96923076923077	4.4	73	424	68	13.0	65.0	45.0	22	7.0	17.0	12.0	0	0	1389.862965106964	5180	98994.39245963097	2424	53.204633204633204	
0.828125	45.82857142857143	9.40625	36.875	25.59375	4.4	74	431	86	12.0	58.0	40.0	20	7.0	15.0	11.0	0	0	1385.548754453659	5250	100379.94121408463	2452	53.2952380952381	
1.0307692307692307	47.47142857142857	9.23076923076923	36.36923076923077	25.246153846153845	4.4	75	437	84	12.0	56.0	39.0	13	7.0	15.0	11.0	0	0	1340.5930144786835	5320	101720.53422856331	2476	53.45864661654136	
1.3	48.22857142857143	9.617647058823529	39.38235294117647	27.323529411764707	4.4	76	440	71	12.0	56.0	39.0	20	7.0	17.0	12.0	0	0	1444.9256925582886	5390	103165.4599211216	2505	53.52504638218924	
1.06875	46.94285714285714	9.390625	36.984375	25.65625	4.4	77	447	71	12.0	56.0	39.0	20	7.0	15.0	11.0	0	0	1342.7668912410736	5460	104508.22681236267	2532	53.62637362637363	
1.1533333333333335	47.1	9.383333333333333	38.0	26.35	4.4	78	458	72	11.0	61.0	42.0	14	7.0	17.0	12.0	0	0	1232.2701041698456	5530	105740.49691653252	2561	53.688969258589516	
1.5375	46.214285714285715	9.109375	35.78125	24.8125	4.4	79	465	72	13.0	69.0	47.0	27	7.0	17.0	12.0	0	0	1309.017071723938	5600	107049.51398825645	2582	53.89285714285714	
1.5384615384615385	44.34285714285714	9.353846153846154	37.55384615384615	26.06153846153846	4.4	80	471	63	13.0	69.0	47.0	19	7.0	15.0	11.0	0	0	1341.5427906513214	5670	108391.05677890778	2609	53.985890652557316	
1.549206349206349	43.15714285714286	9.571428571428571	39.36507936507937	27.333333333333332	4.4	81	479	73	14.0	78.0	53.0	14	7.0	17.0	12.0	0	0	1264.3847732543945	5740	109655.44155216217	2636	54.07665505226481	
1.1484848484848487	47.15714285714286	9.484848484848484	38.84848484848485	26.96969696969697	4.4	82	484	77	15.0	85.0	59.0	23	7.0	15.0	11.0	0	0	1369.4697544574738	5810	111024.91130661964	2671	54.02753872633391	
1.4953846153846158	48.7	9.876923076923077	42.292307692307695	29.29230769230769	4.4	83	490	79	15.0	85.0	59.0	26	7.0	15.0	11.0	0	0	1394.8486988544464	5880	112419.76000547409	2700	54.08163265306122	
1.2923076923076924	48.214285714285715	9.276923076923078	36.8	25.49230769230769	4.4	84	496	73	13.0	55.0	38.0	17	7.0	15.0	11.0	0	0	1297.8532721996307	5950	113717.61327767372	2726	54.18487394957983	
1.3650793650793651	46.81428571428572	9.634920634920634	38.80952380952381	26.904761904761905	4.4	85	504	93	13.0	60.0	42.0	19	7.0	15.0	11.0	0	0	1284.3425900936127	6020	115001.95586776733	2744	54.41860465116279	
1.6382352941176472	47.857142857142854	9.632352941176471	39.88235294117647	27.63235294117647	4.4	86	507	73	13.0	59.0	41.0	26	7.0	15.0	11.0	0	0	1439.3615379333496	6090	116441.31740570068	2768	54.54844006568145	
1.5117647058823531	47.92857142857143	9.676470588235293	40.220588235294116	27.83823529411765	4.4	87	510	78	13.0	65.0	45.0	28	7.0	15.0	11.0	0	0	1381.6628603935242	6160	117822.98026609421	2792	54.675324675324674	
1.6794117647058826	47.27142857142857	9.735294117647058	40.794117647058826	28.25	4.4	88	513	78	12.0	60.0	42.0	28	7.0	18.0	13.0	0	0	1385.1642022132874	6230	119208.1444683075	2823	54.686998394863565	
1.6707692307692312	45.81428571428572	9.76923076923077	41.07692307692308	28.4	4.4	89	519	73	16.0	86.0	60.0	22	7.0	17.0	12.0	0	0	1303.6664106845856	6300	120511.81087899208	2847	54.80952380952381	
1.5508196721311474	45.84285714285714	9.967213114754099	42.295081967213115	29.21311475409836	4.4	90	529	74	13.0	67.0	46.0	21	7.0	22.0	16.0	0	0	1284.1484446525574	6370	121795.95932364464	2870	54.94505494505494	
1.30625	45.785714285714285	9.5625	39.15625	27.109375	4.4	91	536	83	13.0	67.0	46.0	19	7.0	22.0	16.0	0	0	1324.2654218673706	6440	123120.22474551201	2897	55.01552795031056	
1.3882352941176472	44.07142857142857	9.338235294117647	37.044117647058826	25.779411764705884	4.4	92	539	86	13.0	113.0	79.0	14	7.0	17.0	12.0	0	0	1366.394245147705	6510	124486.61899065971	2923	55.09984639016897	
1.3353846153846156	45.6	9.338461538461539	36.723076923076924	25.53846153846154	4.4	93	545	69	13.0	67.0	46.0	24	7.0	17.0	12.0	0	0	1329.1818215847015	6580	125815.80081224442	2945	55.243161094224924	
1.065625	46.67142857142857	9.21875	36.21875	25.140625	4.4	94	552	77	13.0	67.0	46.0	23	7.0	17.0	12.0	0	0	1316.7497172355652	6650	127132.55052947998	2968	55.368421052631575	
1.046875	46.52857142857143	9.328125	38.0	26.328125	4.4	95	559	72	12.0	64.0	44.0	24	7.0	17.0	12.0	0	0	1305.1989123821259	6720	128437.7494418621	2991	55.49107142857143	
1.18125	46.1	9.4375	38.90625	26.984375	4.4	96	566	72	12.0	56.0	39.0	17	7.0	20.0	14.0	0	0	1335.646806716919	6790	129773.39624857903	3024	55.46391752577319	
1.1384615384615384	46.31428571428572	9.461538461538462	38.41538461538462	26.615384615384617	4.4	97	572	72	12.0	73.0	50.0	23	7.0	17.0	12.0	0	0	1373.0438005924225	6860	131146.44004917145	3058	55.42274052478134	
1.6656716417910449	46.628571428571426	9.567164179104477	38.701492537313435	26.82089552238806	4.4	98	576	82	12.0	55.0	38.0	24	7.0	22.0	16.0	0	0	1389.2386298179626	6930	132535.6786789894	3085	55.483405483405484	
1.6144927536231886	48.4	9.594202898550725	39.26086956521739	27.17391304347826	4.4	99	578	82	13.0	73.0	50.0	31	7.0	17.0	12.0	0	0	1407.9452917575836	7000	133943.623970747	3108	55.6	
1.3428571428571427	48.58571428571429	9.73015873015873	39.65079365079365	27.476190476190474	4.4	100	586	96	13.0	65.0	45.0	22	7.0	17.0	12.0	0	0	1342.1422820091248	7070	135285.76625275612	3138	55.61527581329562	
1.381818181818182	45.52857142857143	9.424242424242424	37.666666666666664	26.09090909090909	4.4	101	591	70	14.0	72.0	50.0	20	7.0	17.0	12.0	0	0	1346.1819984912872	7140	136631.9482512474	3169	55.616246498599445	
1.373913043478261	45.72857142857143	8.927536231884059	33.81159420289855	23.52173913043478	4.4	102	593	69	14.0	70.0	49.0	26	7.0	15.0	11.0	0	0	1379.1262459754944	7210	138011.0744972229	3189	55.769764216366156	
1.6153846153846154	46.68571428571428	9.415384615384616	38.13846153846154	26.46153846153846	4.4	103	599	66	13.0	63.0	44.0	24	7.0	17.0	12.0	0	0	1331.796181678772	7280	139342.87067890167	3212	55.87912087912088	
1.4181818181818182	48.41428571428571	9.318181818181818	37.71212121212121	26.151515151515152	4.4	104	604	66	13.0	67.0	46.0	17	7.0	15.0	11.0	0	0	1346.3825330734253	7350	140689.2532119751	3240	55.91836734693877	
1.7076923076923076	47.371428571428574	9.23076923076923	37.276923076923076	25.83076923076923	4.4	105	610	64	12.0	55.0	38.0	33	7.0	17.0	12.0	0	0	1313.477553844452	7420	142002.73076581955	3260	56.06469002695418	
1.5806451612903225	46.0	9.338709677419354	38.16129032258065	26.451612903225808	4.4	106	619	78	13.0	76.0	53.0	17	7.0	17.0	12.0	0	0	1270.5523161888123	7490	143273.28308200836	3283	56.16822429906542	
1.5582089552238807	47.642857142857146	9.149253731343284	36.64179104477612	25.388059701492537	4.4	107	623	88	12.0	76.0	53.0	24	7.0	17.0	12.0	0	0	1386.0741164684296	7560	144659.3571984768	3303	56.30952380952381	
1.2567164179104477	47.34285714285714	9.447761194029852	38.62686567164179	26.70149253731343	4.4	108	627	72	12.0	60.0	41.0	20	7.0	17.0	12.0	0	0	1389.678281545639	7630	146049.03548002243	3329	56.36959370904325	
1.4029850746268657	45.785714285714285	9.507462686567164	38.6865671641791	26.791044776119403	4.4	109	631	72	12.0	60.0	41.0	28	7.0	17.0	12.0	0	0	1451.3384892940521	7700	147500.37396931648	3356	56.41558441558441	
1.476923076923077	46.51428571428571	9.461538461538462	39.215384615384615	27.123076923076923	4.4	110	637	72	12.0	60.0	41.0	25	7.0	22.0	16.0	0	0	1372.6929495334625	7770	148873.06691884995	3386	56.42213642213642	
1.2285714285714286	46.857142857142854	9.634920634920634	39.74603174603175	27.523809523809526	4.4	111	645	70	13.0	69.0	47.0	23	7.0	15.0	11.0	0	0	1355.8638484477997	7840	150228.93076729774	3409	56.51785714285714	
1.1582089552238808	47.98571428571429	9.432835820895523	38.73134328358209	26.880597014925375	4.4	112	649	73	12.0	62.0	43.0	20	7.0	15.0	11.0	0	0	1425.3717308044434	7910	151654.3024981022	3439	56.52338811630847	
1.136231884057971	50.714285714285715	9.26086956521739	37.34782608695652	25.956521739130434	4.4	113	651	74	12.0	72.0	50.0	29	7.0	15.0	11.0	0	0	1476.986876487732	7980	153131.28937458992	3469	56.528822055137844	
0.8835820895522388	49.31428571428572	9.432835820895523	38.52238805970149	26.71641791044776	4.4	114	655	79	13.0	65.0	45.0	29	7.0	15.0	11.0	0	0	1407.5394139289856	8050	154538.8287885189	3505	56.45962732919255	
0.9630769230769232	48.142857142857146	9.476923076923077	39.12307692307692	27.107692307692307	4.4	115	661	70	13.0	63.0	44.0	31	7.0	17.0	12.0	0	0	1387.2784075737	8120	155926.1071960926	3532	56.50246305418719	
0.9820895522388061	50.58571428571429	9.537313432835822	40.07462686567164	27.80597014925373	4.4	116	665	97	13.0	63.0	44.0	32	7.0	15.0	11.0	0	0	1435.405349969864	8190	157361.51254606247	3572	56.385836385836384	
0.8888888888888888	50.285714285714285	9.571428571428571	38.80952380952381	26.904761904761905	4.4	117	673	97	12.0	67.0	46.0	33	7.0	15.0	11.0	0	0	1331.2666783332825	8260	158692.77922439575	3598	56.440677966101696	
0.9235294117647058	50.357142857142854	9.338235294117647	38.3235294117647	26.558823529411764	4.4	118	676	102	13.0	69.0	47.0	23	7.0	15.0	11.0	0	0	1435.6614480018616	8330	160128.4406723976	3632	56.398559423769505	
0.8322580645161292	47.52857142857143	9.016129032258064	35.564516129032256	24.774193548387096	4.4	119	685	97	13.0	67.0	46.0	15	7.0	15.0	11.0	0	0	1332.785368680954	8400	161461.22604107857	3651	56.535714285714285	
1.1938461538461538	44.2	9.323076923076924	37.16923076923077	25.8	4.4	120	691	70	13.0	63.0	43.0	18	7.0	15.0	11.0	0	0	1365.6576550006866	8470	162826.88369607925	3679	56.564344746162924	
1.1476923076923078	44.68571428571428	9.23076923076923	36.15384615384615	25.138461538461538	4.4	121	697	66	15.0	85.0	58.0	24	7.0	15.0	11.0	0	0	1408.4381861686707	8540	164235.32188224792	3704	56.62763466042154	
1.5968750000000003	47.128571428571426	9.625	40.015625	27.734375	4.4	122	704	72	12.0	58.0	40.0	30	7.0	15.0	11.0	0	0	1396.8525748252869	8610	165632.1744570732	3728	56.70150987224158	
1.3470588235294119	47.642857142857146	9.794117647058824	41.36764705882353	28.676470588235293	4.4	123	707	73	14.0	72.0	50.0	31	7.0	23.0	16.0	0	0	1467.1677238941193	8680	167099.34218096733	3761	56.6705069124424	
1.6911764705882355	46.31428571428572	9.911764705882353	41.10294117647059	28.5	4.4	124	710	68	12.0	65.0	45.0	22	7.0	15.0	11.0	0	0	1534.585764169693	8750	168633.92794513702	3789	56.69714285714286	
1.0419354838709676	47.42857142857143	9.548387096774194	39.04838709677419	27.048387096774192	4.4	125	719	72	12.0	66.0	45.0	23	7.0	15.0	11.0	0	0	1338.3822956085205	8820	169972.31024074554	3817	56.723356009070294	
1.2707692307692307	46.371428571428574	9.692307692307692	39.46153846153846	27.353846153846153	4.4	126	725	70	15.0	85.0	58.0	20	7.0	18.0	13.0	0	0	1437.7512471675873	8890	171410.06148791313	3845	56.74915635545557	
0.8235294117647058	48.042857142857144	9.264705882352942	36.6764705882353	25.485294117647058	4.4	127	728	77	17.0	101.0	69.0	20	7.0	15.0	11.0	0	0	1451.5885756015778	8960	172861.6500635147	3875	56.752232142857146	
0.9969230769230771	47.55714285714286	9.6	37.93846153846154	26.369230769230768	4.4	128	734	77	13.0	65.0	45.0	25	7.0	15.0	11.0	0	0	1378.4939148426056	9030	174240.14397835732	3908	56.72203765227021	
1.0575757575757578	46.0	9.575757575757576	38.57575757575758	26.742424242424242	4.4	129	739	65	12.0	60.0	41.0	25	7.0	17.0	12.0	0	0	1411.1955428123474	9100	175651.33952116966	3940	56.7032967032967	
1.71044776119403	45.84285714285714	9.373134328358208	37.6865671641791	26.149253731343283	4.4	130	743	65	12.0	58.0	40.0	20	7.0	15.0	11.0	0	0	1430.1743564605713	9170	177081.51387763023	3959	56.82660850599782	
1.5714285714285714	45.08571428571429	9.253968253968255	36.01587301587302	25.0	4.4	131	751	75	12.0	60.0	41.0	29	7.0	15.0	11.0	0	0	1313.187084197998	9240	178394.70096182823	3979	56.93722943722943	
0.8676470588235294	45.94285714285714	9.044117647058824	35.161764705882355	24.426470588235293	4.4	132	754	68	11.0	55.0	38.0	36	7.0	15.0	11.0	0	0	1394.5575544834137	9310	179789.25851631165	3997	57.06766917293233	
1.2727272727272727	45.34285714285714	9.272727272727273	36.07575757575758	25.12121212121212	4.4	133	759	67	11.0	49.0	34.0	23	7.0	15.0	11.0	0	0	1402.181396484375	9380	181191.43991279602	4020	57.142857142857146	
0.8953846153846154	47.542857142857144	9.246153846153845	36.15384615384615	25.046153846153846	4.4	134	765	71	12.0	62.0	42.0	27	7.0	15.0	11.0	0	0	1330.5739285945892	9450	182522.0138413906	4049	57.15343915343916	
1.3611940298507466	46.957142857142856	9.208955223880597	35.80597014925373	24.83582089552239	4.4	135	769	71	13.0	63.0	44.0	28	7.0	15.0	11.0	0	0	1353.6903874874115	9520	183875.70422887802	4075	57.195378151260506	
1.318840579710145	47.01428571428571	9.478260869565217	37.89855072463768	26.318840579710145	4.4	136	771	73	13.0	65.0	45.0	19	7.0	15.0	11.0	0	0	1493.5136713981628	9590	185369.21790027618	4108	57.16371220020855	
1.3903225806451616	46.628571428571426	9.629032258064516	39.74193548387097	27.451612903225808	4.4	137	780	68	12.0	63.0	44.0	22	7.0	17.0	12.0	0	0	1304.621618270874	9660	186673.83951854706	4130	57.2463768115942	
1.4799999999999998	46.885714285714286	9.815384615384616	41.01538461538462	28.369230769230768	4.4	138	786	74	12.0	60.0	41.0	31	7.0	17.0	12.0	0	0	1343.7653844356537	9730	188017.6049029827	4151	57.33812949640288	
1.6096774193548389	46.27142857142857	9.774193548387096	40.354838709677416	27.919354838709676	4.4	139	795	83	12.0	60.0	41.0	19	7.0	17.0	12.0	0	0	1288.0635423660278	9800	189305.66844534874	4169	57.45918367346939	
1.5515151515151515	48.2	9.454545454545455	38.54545454545455	26.681818181818183	4.4	140	800	83	12.0	60.0	41.0	24	7.0	17.0	12.0	0	0	1354.0979459285736	9870	190659.7663912773	4195	57.497467071935155	
1.671875	47.957142857142856	9.671875	41.015625	28.40625	4.4	141	807	83	14.0	93.0	65.0	19	7.0	17.0	12.0	0	0	1330.232140302658	9940	191989.99853157997	4222	57.5251509054326	
2.0718750000000004	44.871428571428574	9.625	38.296875	26.578125	4.4	142	814	81	12.0	58.0	40.0	20	7.0	17.0	12.0	0	0	1365.7980020046234	10010	193355.7965335846	4235	57.69230769230769	
1.1935483870967742	45.48571428571429	9.435483870967742	38.11290322580645	26.467741935483872	4.4	143	823	73	13.0	65.0	45.0	17	7.0	17.0	12.0	0	0	1277.2488629817963	10080	194633.0453965664	4260	57.73809523809524	
1.0848484848484847	47.65714285714286	9.287878787878787	36.666666666666664	25.46969696969697	4.4	144	828	89	14.0	70.0	49.0	30	7.0	15.0	11.0	0	0	1371.7035341262817	10150	196004.74893069267	4290	57.73399014778325	
0.7723076923076924	47.31428571428572	8.984615384615385	34.815384615384616	24.215384615384615	4.4	145	834	90	12.0	70.0	49.0	19	7.0	15.0	11.0	0	0	1328.4391481876373	10220	197333.1880788803	4319	57.73972602739726	
0.6666666666666666	46.08571428571429	8.954545454545455	34.196969696969695	23.848484848484848	4.4	146	839	79	12.0	57.0	40.0	17	7.0	15.0	11.0	0	0	1303.621630191803	10290	198636.8097090721	4350	57.72594752186589	
0.8562500000000001	45.1	8.96875	36.0625	25.078125	4.4	147	846	88	14.0	87.0	60.0	19	7.0	15.0	11.0	0	0	1226.2345700263977	10360	199863.0442790985	4375	57.77027027027027	
0.8492753623188405	45.9	9.333333333333334	38.05797101449275	26.52173913043478	4.4	148	848	79	14.0	72.0	50.0	20	7.0	15.0	11.0	0	0	1338.6410727500916	10430	201201.6853518486	4400	57.81399808245446	
0.7999999999999999	46.44285714285714	8.984848484848484	36.333333333333336	25.333333333333332	4.4	149	853	80	13.0	61.0	43.0	20	7.0	15.0	11.0	0	0	1246.3436460494995	10500	202448.0289978981	4429	57.81904761904762	
1.166666666666667	46.642857142857146	9.166666666666666	36.378787878787875	25.242424242424242	4.4	150	858	90	12.0	55.0	38.0	22	7.0	15.0	11.0	0	0	1312.6004674434662	10570	203760.62946534157	4453	57.8713339640492	
0.8645161290322582	47.857142857142854	9.016129032258064	35.693548387096776	24.774193548387096	4.4	151	867	102	14.0	68.0	48.0	14	7.0	17.0	12.0	0	0	1211.7864904403687	10640	204972.41595578194	4474	57.95112781954887	
1.0769230769230769	48.957142857142856	9.415384615384616	39.13846153846154	27.153846153846153	4.4	152	873	90	12.0	83.0	58.0	26	7.0	15.0	11.0	0	0	1369.7744925022125	10710	206342.19044828415	4502	57.96451914098973	
1.08125	45.57142857142857	9.015625	35.421875	24.59375	4.4	153	880	79	12.0	58.0	40.0	19	7.0	15.0	11.0	0	0	1314.8507323265076	10780	207657.04118061066	4526	58.01484230055659	
1.2567164179104477	47.785714285714285	9.194029850746269	36.417910447761194	25.26865671641791	4.4	154	884	86	13.0	65.0	45.0	19	7.0	15.0	11.0	0	0	1411.6750903129578	10850	209068.7162709236	4548	58.08294930875576	
1.3545454545454547	47.285714285714285	9.469696969696969	38.09090909090909	26.424242424242426	4.4	155	889	88	12.0	58.0	40.0	20	7.0	15.0	11.0	0	0	1421.0439109802246	10920	210489.76018190384	4575	58.104395604395606	
1.171875	48.41428571428571	9.4375	37.890625	26.3125	4.4	156	896	88	13.0	65.0	45.0	21	7.0	15.0	11.0	0	0	1402.7414302825928	10990	211892.50161218643	4598	58.16196542311192	
1.2507462686567166	49.77142857142857	9.343283582089553	38.3134328358209	26.582089552238806	4.4	157	900	98	12.0	55.0	38.0	31	7.0	17.0	12.0	0	0	1445.1576344966888	11060	213337.65924668312	4619	58.2368896925859	
1.2276923076923079	46.91428571428571	9.861538461538462	42.38461538461539	29.338461538461537	4.4	158	906	88	13.0	71.0	49.0	21	7.0	17.0	12.0	0	0	1406.4257626533508	11130	214744.08500933647	4650	58.22102425876011	
1.3313432835820895	47.48571428571429	9.343283582089553	37.776119402985074	26.17910447761194	4.4	159	910	88	13.0	65.0	45.0	29	7.0	15.0	11.0	0	0	1383.9268760681152	11200	216128.0118854046	4671	58.29464285714286	
1.2151515151515153	46.47142857142857	9.378787878787879	37.56060606060606	26.015151515151516	4.4	160	915	88	13.0	63.0	44.0	24	7.0	17.0	12.0	0	0	1404.916788816452	11270	217532.92867422104	4693	58.358473824312334	
1.1536231884057973	47.2	9.27536231884058	36.55072463768116	25.333333333333332	4.4	161	917	64	12.0	60.0	41.0	37	7.0	17.0	12.0	0	0	1460.6277379989624	11340	218993.55641222	4719	58.386243386243386	
1.2030769230769232	47.8	9.676923076923076	39.50769230769231	27.369230769230768	4.4	162	923	64	13.0	67.0	46.0	29	7.0	15.0	11.0	0	0	1428.6245846748352	11410	220422.18099689484	4745	58.413672217353195	
1.0753623188405796	47.77142857142857	9.63768115942029	39.01449275362319	27.0	4.4	163	925	72	13.0	61.0	43.0	26	7.0	17.0	12.0	0	0	1506.268358707428	11480	221928.44935560226	4770	58.44947735191638	
1.211764705882353	47.714285714285715	9.558823529411764	38.55882352941177	26.691176470588236	4.4	164	928	70	12.0	62.0	42.0	28	7.0	17.0	12.0	0	0	1467.5798873901367	11550	223396.0292429924	4799	58.45021645021645	
1.4800000000000002	46.47142857142857	9.676923076923076	39.276923076923076	27.2	4.4	165	934	73	12.0	58.0	40.0	15	8.0	24.0	17.0	0	0	1429.2029321193695	11620	224825.23217511177	4826	58.46815834767642	
1.2412698412698415	45.22857142857143	9.412698412698413	37.03174603174603	25.682539682539684	4.4	166	942	69	11.0	60.0	42.0	22	8.0	22.0	16.0	0	0	1309.093043088913	11690	226134.32521820068	4850	58.51154833190761	
1.2984126984126987	43.8	9.444444444444445	37.82539682539682	26.26984126984127	4.4	167	950	71	11.0	61.0	42.0	8	7.0	15.0	11.0	0	0	1328.6161589622498	11760	227462.94137716293	4872	58.57142857142857	
1.3151515151515154	45.67142857142857	9.530303030303031	39.15151515151515	27.196969696969695	4.4	168	955	80	13.0	85.0	59.0	16	7.0	17.0	12.0	0	0	1425.018842458725	11830	228887.96021962166	4890	58.66441251056636	
0.996825396825397	46.42857142857143	9.698412698412698	41.492063492063494	28.746031746031747	4.4	169	963	69	15.0	83.0	58.0	26	7.0	22.0	16.0	0	0	1358.4127249717712	11900	230246.37294459343	4918	58.67226890756302	
1.6328358208955225	48.042857142857144	9.417910447761194	41.52238805970149	28.746268656716417	4.4	170	967	79	12.0	83.0	58.0	34	7.0	15.0	11.0	0	0	1372.9690611362457	11970	231619.34200572968	4948	58.66332497911445	
1.328125	46.34285714285714	9.40625	38.3125	26.5625	4.4	171	974	66	13.0	65.0	45.0	30	7.0	15.0	11.0	0	0	1335.2061040401459	12040	232954.54810976982	4972	58.70431893687707	
1.1555555555555557	45.18571428571428	9.555555555555555	39.53968253968254	27.428571428571427	4.4	172	982	73	12.0	62.0	42.0	17	7.0	15.0	11.0	0	0	1317.4978523254395	12110	234272.04596209526	4996	58.74483897605285	
1.4312500000000001	46.5	9.515625	38.46875	26.6875	4.4	173	989	73	12.0	55.0	38.0	30	7.0	17.0	12.0	0	0	1324.4329504966736	12180	235596.47891259193	5017	58.80952380952381	
1.7432835820895525	45.9	9.686567164179104	39.507462686567166	27.34328358208955	4.4	174	993	73	13.0	65.0	45.0	28	7.0	15.0	11.0	0	0	1389.5465321540833	12250	236986.02544474602	5038	58.8734693877551	
1.5363636363636364	45.0	9.5	38.878787878787875	26.954545454545453	4.4	175	998	78	13.0	65.0	45.0	23	7.0	15.0	11.0	0	0	1334.447963476181	12320	238320.4734082222	5058	58.94480519480519	
1.2686567164179106	45.885714285714286	9.507462686567164	39.343283582089555	27.238805970149254	4.4	176	1002	66	15.0	81.0	56.0	24	7.0	17.0	12.0	0	0	1357.176688671112	12390	239677.6500968933	5083	58.974979822437454	
1.4060606060606062	48.542857142857144	9.575757575757576	39.68181818181818	27.484848484848484	4.4	177	1007	109	13.0	67.0	46.0	11	7.0	17.0	12.0	0	0	1335.7096908092499	12460	241013.35978770256	5116	58.94060995184591	
1.1294117647058826	46.114285714285714	9.367647058823529	37.529411764705884	26.058823529411764	4.4	178	1010	66	12.0	58.0	40.0	19	7.0	15.0	11.0	0	0	1347.3101425170898	12530	242360.66993021965	5147	58.922585794094175	
1.3382352941176472	47.7	9.073529411764707	35.63235294117647	24.794117647058822	4.4	179	1013	76	12.0	59.0	40.0	28	7.0	15.0	11.0	0	0	1360.7974762916565	12600	243721.4674065113	5167	58.99206349206349	
1.1	47.27142857142857	9.469696969696969	39.0	27.12121212121212	4.4	180	1018	66	14.0	72.0	50.0	26	7.0	15.0	11.0	0	0	1349.7148742675781	12670	245071.18228077888	5189	59.04498816101026	
1.203125	47.128571428571426	9.765625	42.234375	29.28125	4.4	181	1025	79	12.0	58.0	40.0	23	7.0	17.0	12.0	0	0	1373.2641253471375	12740	246444.44640612602	5217	59.050235478806904	
1.3363636363636364	48.285714285714285	9.712121212121213	41.333333333333336	28.606060606060606	4.4	182	1030	91	13.0	67.0	46.0	29	7.0	17.0	12.0	0	0	1432.6349976062775	12810	247877.0814037323	5243	59.07103825136612	
1.406060606060606	47.08571428571429	9.606060606060606	38.84848484848485	26.924242424242426	4.4	183	1035	79	12.0	56.0	39.0	28	7.0	15.0	11.0	0	0	1426.9911932945251	12880	249304.07259702682	5269	59.0916149068323	
1.4575757575757575	45.97142857142857	9.469696969696969	38.15151515151515	26.424242424242426	4.4	184	1040	79	12.0	60.0	41.0	28	7.0	15.0	11.0	0	0	1410.5910189151764	12950	250714.663615942	5286	59.18146718146718	
1.2417910447761193	46.44285714285714	9.522388059701493	38.343283582089555	26.53731343283582	4.4	185	1044	70	12.0	60.0	41.0	20	7.0	15.0	11.0	0	0	1423.4877572059631	13020	252138.15137314796	5307	59.23963133640553	
1.4580645161290324	46.42857142857143	9.85483870967742	41.806451612903224	28.983870967741936	4.4	186	1053	70	13.0	72.0	50.0	32	7.0	15.0	11.0	0	0	1343.8142080307007	13090	253481.96558117867	5335	59.2436974789916	
1.1292307692307693	46.385714285714286	9.76923076923077	40.215384615384615	27.953846153846154	4.4	187	1059	82	13.0	72.0	50.0	26	7.0	15.0	11.0	0	0	1427.1361861228943	13160	254909.10176730156	5360	59.27051671732523	
1.337313432835821	47.1	9.522388059701493	38.67164179104478	26.80597014925373	4.4	188	1063	68	13.0	65.0	45.0	22	7.0	17.0	12.0	0	0	1455.6760427951813	13230	256364.77781009674	5383	59.31216931216931	
1.250793650793651	46.97142857142857	9.53968253968254	39.17460317460318	27.126984126984127	4.4	189	1071	75	12.0	60.0	41.0	10	7.0	21.0	15.0	0	0	1312.995683670044	13300	257677.77349376678	5404	59.36842105263158	
1.193939393939394	46.285714285714285	9.409090909090908	38.34848484848485	26.606060606060606	4.4	190	1076	75	12.0	62.0	43.0	31	7.0	15.0	11.0	0	0	1353.0392744541168	13370	259030.8127682209	5421	59.45400149588631	
0.8307692307692308	45.542857142857144	9.046153846153846	34.63076923076923	24.107692307692307	4.4	191	1082	75	12.0	56.0	39.0	17	7.0	15.0	11.0	0	0	1319.5641243457794	13440	260350.37689256668	5443	59.501488095238095	
1.0117647058823531	46.17142857142857	9.25	37.0	25.66176470588235	4.4	192	1085	75	12.0	56.0	39.0	22	7.0	15.0	11.0	0	0	1344.591429233551	13510	261694.96832180023	5466	59.54108068097705	
0.9970149253731343	45.65714285714286	9.447761194029852	37.32835820895522	25.955223880597014	4.4	193	1089	74	12.0	60.0	41.0	25	7.0	17.0	12.0	0	0	1410.026619195938	13580	263104.99494099617	5490	59.57290132547865	
1.1	46.15714285714286	9.109375	34.78125	24.171875	4.4	194	1096	67	12.0	54.0	38.0	23	7.0	17.0	12.0	0	0	1313.9462513923645	13650	264418.94119238853	5507	59.65567765567766	
1.3432835820895523	45.214285714285715	9.582089552238806	38.417910447761194	26.70149253731343	4.4	195	1100	70	16.0	84.0	59.0	20	7.0	15.0	11.0	0	0	1375.6374390125275	13720	265794.57863140106	5528	59.708454810495624	
1.3058823529411767	45.92857142857143	9.323529411764707	36.86764705882353	25.58823529411765	4.4	196	1103	82	13.0	61.0	43.0	23	7.0	15.0	11.0	0	0	1446.3077626228333	13790	267240.8863940239	5551	59.746192893401016	
1.488888888888889	45.885714285714286	9.46031746031746	37.92063492063492	26.26984126984127	4.4	197	1111	69	13.0	61.0	43.0	21	7.0	15.0	11.0	0	0	1325.5503277778625	13860	268566.43672180176	5568	59.82683982683983	
1.4176470588235295	45.51428571428571	9.352941176470589	37.35294117647059	25.941176470588236	4.4	198	1114	66	13.0	65.0	45.0	24	7.0	17.0	12.0	0	0	1422.9661393165588	13930	269989.4028611183	5589	59.87796123474515	
1.4800000000000002	45.98571428571429	9.261538461538462	36.41538461538462	25.26153846153846	4.4	199	1120	74	12.0	55.0	38.0	28	7.0	15.0	11.0	0	0	1307.7600603103638	14000	271297.1629214287	5614	59.9	
1.5701492537313433	44.214285714285715	9.597014925373134	38.865671641791046	26.925373134328357	4.4	200	1124	62	12.0	57.0	39.0	23	7.0	15.0	11.0	0	0	1419.364943265915	14070	272716.5278646946	5635	59.950248756218905	
