Generation:
200

Phenotype:
*:*:IS_WANT_OBJECT,false,6#*:*:IS_WANT_OBJECT,true,87;B_ANTI_PHOTOTAXIS,63;B_ANTI_PHOTOTAXIS,87;B_ANTI_PHOTOTAXIS,78#P_HAS_OBJECT,false;*:B_ANTI_PHOTOTAXIS;*:B_RANDOM_WALK,87;B_PHOTOTAXIS,21#*:B_PHOTOTAXIS;*:B_PHOTOTAXIS,66;IS_DROP_OBJECT,false,13#

Genotype:
[78596, 5678, 76797, 56136, 87, 84634, 89351, 82839, 48175, 40618, 34443, 41214, 81514, 31767, 43105, 47509, 8777, 66000, 54180, 38299, 59339, 30476, 50682, 48769, 82380, 16926, 58065, 4861, 8042, 8122, 15168, 55644, 68017, 87, 34105, 17102, 96922, 2572, 37650, 40724, 87868, 22090, 97831, 78317, 47509, 47587, 79835, 13268, 38299, 29289, 93420, 68464, 77338, 6170, 93104, 87, 82839, 18788, 34443, 89133, 26180, 97831, 78317, 47509, 8777, 66000, 54180, 18545, 53586, 93420, 35936, 48769, 82380, 81068, 48757, 48769, 77890, 2711, 48757, 4861, 52378, 38299, 59339, 61653, 3464, 48769, 82380, 67242, 58065, 4861, 8042, 54027, 15168, 55644, 66622, 87, 34105, 86156, 96922, 1222, 18788, 68154, 87868, 22090, 97831, 78317, 47509, 47587, 52225, 13268, 38299, 29289, 93420, 68464, 16385, 6170, 87874, 88025, 82839, 18788, 34443, 89133, 66311, 97831, 32832, 47509, 8777, 66000, 54180, 38299, 40245, 14373, 35936, 48769, 82380, 75714, 27109, 14861, 52378, 48080, 42704, 55644, 62483, 56317, 61061, 77546, 93654, 99130, 98687, 21295, 58698, 66000, 8786, 4861, 40245, 72962, 35936, 48769, 37373, 2711, 94227, 73540, 26640, 62483, 40129, 61061, 77546, 93654, 99130, 98687, 21295, 58698, 66000, 8786, 38299, 40245, 93420, 35936, 48769, 37373, 2711, 48757, 4861, 52378, 48080, 39337, 55644, 62483, 50365, 61061, 77546, 93654, 99130, 98687, 21295, 58698, 97225, 47924, 4861, 10986, 8122, 34943, 55644, 68017, 87, 34105, 41073, 96922, 2572, 37650, 40220, 87868, 22090, 97831, 78317, 47509, 47587, 66000, 13268, 38299, 29289, 94593, 68464, 77338, 72514, 93104, 87, 82839, 18788, 34443, 24524, 26180, 97831, 50841, 47509, 8777, 66000, 54180, 38299, 40245, 93420, 35936, 52906, 82380, 2711, 48757, 52155, 23922, 61957, 11129, 71743, 62483, 50365, 61061, 77546, 93654, 99130, 98687, 21295, 58698, 66000, 8786, 38299, 40245, 93420, 35936, 48769, 37373, 2711, 48757, 4861, 52378, 48080, 9454, 55644, 62483, 50365, 61061, 77546, 93654, 99130, 98687, 21295, 58698, 97225, 47924, 62674, 57569, 24469, 50365, 50539, 65268, 93654, 77844, 69476, 21295, 58698, 83504, 47924, 24897, 57569, 17453, 41972, 89937, 32732, 97104, 43291, 58820, 55405, 88595, 97167, 45782, 46658, 90852, 21565, 71372, 79054, 93889, 14704, 83605]
Tree:
None

Fitness:
11.3333