ave_fitness	ave_genome_length	ave_tree_depth	ave_tree_nodes	ave_used_codons	best_fitness	gen	invalids	max_genome_length	max_tree_depth	max_tree_nodes	max_used_codons	min_genome_length	min_tree_depth	min_tree_nodes	min_used_codons	runtime_error	time_adjust	time_taken	total_inds	total_time	unique_inds	unused_search	
0.0	55.65714285714286	8.2	53.285714285714285	37.22857142857143	0.0	0	0	159	10	153	106	16	7	15	11	0	0	1160.8442959785461	70	1160.8442959785461	69	1.4285714285714164	
0.0	46.81428571428572	8.521739130434783	48.02173913043478	33.58695652173913	0.0	1	25	115	14.0	130.0	90.0	10	7.0	15.0	11.0	0	0	683.1023461818695	140	1843.9466421604156	106	24.285714285714292	
0.0	50.32857142857143	8.620689655172415	47.58620689655172	33.3448275862069	0.0	2	38	129	14.0	130.0	90.0	10	7.0	15.0	11.0	0	0	871.6681885719299	210	2715.6148307323456	134	36.1904761904762	
0.0	48.3	8.629032258064516	43.32258064516129	30.370967741935484	0.0	3	47	129	14.0	130.0	90.0	16	7.0	15.0	11.0	0	0	936.284145116806	280	3651.8989758491516	164	41.42857142857142	
0.0	53.8	8.457627118644067	39.152542372881356	27.508474576271187	0.0	4	59	129	15.0	131.0	92.0	9	7.0	15.0	11.0	0	0	896.9115073680878	350	4548.810483217239	195	44.285714285714285	
0.0	51.5	8.064516129032258	34.096774193548384	23.806451612903224	0.0	5	68	129	12.0	168.0	117.0	16	7.0	15.0	11.0	0	0	895.5718441009521	420	5444.3823273181915	223	46.904761904761905	
0.0	53.18571428571428	7.8088235294117645	28.720588235294116	20.102941176470587	0.0	6	71	133	12.0	112.0	78.0	16	7.0	15.0	11.0	0	0	997.0152559280396	490	6441.397583246231	258	47.3469387755102	
0.0	52.31428571428572	7.893939393939394	32.46969696969697	22.666666666666668	0.0	7	76	132	13.0	150.0	105.0	7	7.0	15.0	11.0	0	0	966.760865688324	560	7408.158448934555	293	47.67857142857142	
0.0	51.32857142857143	8.0	31.91044776119403	22.19402985074627	0.0	8	80	132	12.0	100.0	69.0	16	7.0	15.0	11.0	0	0	928.3144083023071	630	8336.472857236862	327	48.09523809523809	
0.0	46.6	7.714285714285714	28.555555555555557	19.936507936507937	0.0	9	88	111	12.0	122.0	85.0	15	7.0	15.0	11.0	0	0	875.8629820346832	700	9212.335839271545	363	48.142857142857146	
0.0	47.785714285714285	8.0	30.102941176470587	20.985294117647058	0.0	10	91	111	15.0	121.0	84.0	15	7.0	15.0	11.0	0	0	960.5799281597137	770	10172.91576743126	399	48.18181818181818	
0.0	48.357142857142854	8.044117647058824	31.044117647058822	21.66176470588235	0.0	11	94	111	14.0	91.0	63.0	16	7.0	15.0	11.0	0	0	946.4903337955475	840	11119.406101226807	437	47.976190476190474	
0.0	49.9	8.166666666666666	34.015151515151516	23.71212121212121	0.0	12	99	113	11.0	91.0	63.0	16	7.0	15.0	11.0	0	0	965.9566402435303	910	12085.362741470337	467	48.681318681318686	
0.0	45.68571428571428	8.196969696969697	33.25757575757576	23.181818181818183	0.0	13	104	110	11.0	69.0	48.0	15	7.0	15.0	11.0	0	0	950.5721271038055	980	13035.934868574142	498	49.183673469387756	
0.0	47.1	8.03125	30.8125	21.53125	0.0	14	111	89	11.0	59.0	41.0	15	7.0	15.0	11.0	0	0	947.6943504810333	1050	13983.629219055176	527	49.80952380952382	
0.0	48.042857142857144	8.096774193548388	29.838709677419356	20.919354838709676	0.0	15	120	89	13.0	68.0	48.0	16	7.0	15.0	11.0	0	0	912.3623991012573	1120	14895.991618156433	558	50.17857142857143	
0.0	47.114285714285714	7.854838709677419	27.93548387096774	19.629032258064516	0.0	16	129	89	14.0	107.0	75.0	6	7.0	15.0	11.0	0	0	894.7896089553833	1190	15790.781227111816	583	51.00840336134454	
0.0	45.74285714285714	7.787878787878788	27.484848484848484	19.348484848484848	0.0	17	134	89	14.0	107.0	75.0	12	7.0	15.0	11.0	0	0	978.8091037273407	1260	16769.590330839157	604	52.06349206349206	
0.0	45.02857142857143	7.405797101449275	21.36231884057971	15.115942028985508	0.0	18	136	91	10.0	48.0	34.0	16	7.0	15.0	11.0	0	0	1010.855215549469	1330	17780.445546388626	622	53.233082706766915	
0.0	40.15714285714286	7.417910447761194	22.47761194029851	15.925373134328359	0.0	19	140	77	10.0	72.0	51.0	14	7.0	15.0	11.0	0	0	989.2236711978912	1400	18769.669217586517	651	53.5	
0.0	38.614285714285714	7.46969696969697	24.46969696969697	17.333333333333332	0.0	20	145	76	13.0	84.0	59.0	6	7.0	15.0	11.0	0	0	978.3420081138611	1470	19748.01122570038	671	54.35374149659864	
0.0	37.542857142857144	7.46875	23.59375	16.703125	0.0	21	152	94	13.0	77.0	53.0	10	7.0	15.0	11.0	0	0	952.1893382072449	1540	20700.200563907623	689	55.25974025974026	
0.0	39.48571428571429	7.857142857142857	30.873015873015873	21.825396825396826	0.0	22	160	112	13.0	79.0	56.0	12	7.0	15.0	11.0	0	0	972.9738481044769	1610	21673.1744120121	707	56.086956521739125	
0.0	35.114285714285714	7.622950819672131	25.852459016393443	18.21311475409836	0.0	23	170	84	13.0	83.0	58.0	14	7.0	15.0	11.0	0	0	894.9459128379822	1680	22568.120324850082	729	56.607142857142854	
0.0	40.0	7.790322580645161	28.419354838709676	19.93548387096774	0.0	24	179	96	11.0	83.0	58.0	8	7.0	15.0	11.0	0	0	917.9975316524506	1750	23486.117856502533	749	57.2	
0.0	41.67142857142857	7.676470588235294	25.205882352941178	17.66176470588235	0.0	25	182	86	12.0	69.0	47.0	14	7.0	15.0	11.0	0	0	999.5840528011322	1820	24485.701909303665	770	57.69230769230769	
0.0	38.5	7.467741935483871	22.951612903225808	16.193548387096776	0.0	26	191	86	11.0	69.0	47.0	12	7.0	15.0	11.0	0	0	911.0491921901703	1890	25396.751101493835	795	57.93650793650794	
0.0	41.65714285714286	7.476923076923077	23.661538461538463	16.76923076923077	0.0	27	197	86	11.0	69.0	48.0	16	7.0	15.0	11.0	0	0	984.3652250766754	1960	26381.11632657051	817	58.316326530612244	
0.0	41.65714285714286	7.454545454545454	23.106060606060606	16.37878787878788	0.0	28	202	86	10.0	69.0	48.0	7	7.0	15.0	11.0	0	0	1046.7490870952606	2030	27427.86541366577	837	58.76847290640394	
0.0	39.8	7.3076923076923075	20.384615384615383	14.476923076923077	0.0	29	208	87	10.0	38.0	27.0	12	7.0	15.0	11.0	0	0	1017.1004867553711	2100	28444.965900421143	854	59.333333333333336	
0.005208328125	40.55714285714286	7.625	24.109375	17.03125	0.333333	30	215	87	15.0	85.0	58.0	14	7.0	15.0	11.0	0	0	968.846873998642	2170	29413.812774419785	867	60.046082949308754	
0.005291	41.72857142857143	8.031746031746032	27.53968253968254	19.365079365079364	0.333333	31	223	89	15.0	85.0	58.0	14	7.0	15.0	11.0	0	0	972.9129145145416	2240	30386.725688934326	889	60.3125	
0.005128199999999999	40.41428571428571	8.03076923076923	27.615384615384617	19.415384615384614	0.333333	32	229	93	15.0	85.0	58.0	6	7.0	15.0	11.0	0	0	972.3876821994781	2310	31359.113371133804	913	60.476190476190474	
0.01041665625	39.84285714285714	8.421875	30.5625	21.390625	0.333333	33	236	89	15.0	85.0	58.0	15	7.0	15.0	11.0	0	0	963.6026101112366	2380	32322.71598124504	938	60.588235294117645	
0.010752677419354838	39.48571428571429	8.306451612903226	28.112903225806452	19.693548387096776	0.333333	34	245	98	15.0	85.0	58.0	7	7.0	15.0	11.0	0	0	951.4660487174988	2450	33274.18202996254	964	60.6530612244898	
0.05913970967741935	40.74285714285714	8.758064516129032	32.774193548387096	22.822580645161292	1.33333	35	254	107	16.0	92.0	63.0	9	7.0	15.0	11.0	0	0	931.0880270004272	2520	34205.27005696297	990	60.714285714285715	
0.16393422950819672	43.957142857142856	9.721311475409836	39.885245901639344	27.60655737704918	1.33333	36	264	137	15.0	85.0	58.0	6	7.0	15.0	11.0	0	0	924.8846991062164	2590	35130.15475606918	1011	60.965250965250966	
0.17948701538461537	48.94285714285714	10.076923076923077	42.784615384615385	29.584615384615386	2.0	37	270	99	16.0	92.0	63.0	11	7.0	15.0	11.0	0	0	1033.36985039711	2660	36163.52460646629	1046	60.67669172932331	
0.1818178787878788	50.8	10.348484848484848	44.81818181818182	30.954545454545453	2.0	38	275	74	16.0	92.0	63.0	18	7.0	15.0	11.0	0	0	1036.101249217987	2730	37199.62585568428	1077	60.54945054945055	
0.21739097101449278	51.642857142857146	10.231884057971014	46.0	31.82608695652174	2.0	39	277	74	15.0	85.0	59.0	20	7.0	15.0	11.0	0	0	1090.4450497627258	2800	38290.070905447006	1113	60.25	
0.3235289558823529	57.58571428571429	10.852941176470589	49.85294117647059	34.411764705882355	2.0	40	280	112	15.0	85.0	58.0	20	7.0	15.0	11.0	0	0	1112.1165137290955	2870	39402.1874191761	1154	59.79094076655052	
0.4106276811594203	62.08571428571429	9.985507246376812	43.666666666666664	30.159420289855074	3.0	41	282	112	15.0	85.0	58.0	29	7.0	15.0	11.0	0	0	1078.7924864292145	2940	40480.979905605316	1190	59.523809523809526	
0.31343274626865675	63.871428571428574	9.955223880597014	43.11940298507463	29.791044776119403	3.0	42	286	151	15.0	85.0	58.0	14	7.0	15.0	11.0	0	0	1046.0484161376953	3010	41527.02832174301	1232	59.06976744186046	
0.2523809	67.67142857142858	9.857142857142858	43.68571428571428	30.15714285714286	3.0	43	287	151	15	85	58	24	7	15	11	0	0	1071.6453220844269	3080	42598.67364382744	1272	58.7012987012987	
0.33823523529411764	68.65714285714286	10.073529411764707	45.5735294117647	31.485294117647058	3.0	44	290	159	15.0	102.0	71.0	24	7.0	17.0	12.0	0	0	1061.3569939136505	3150	43660.03063774109	1314	58.285714285714285	
0.4019607647058823	60.357142857142854	9.867647058823529	43.5	30.029411764705884	3.0	45	293	151	14.0	118.0	80.0	17	7.0	17.0	12.0	0	0	1061.200210571289	3220	44721.23084831238	1354	57.95031055900621	
0.4476189142857143	63.65714285714286	10.2	44.81428571428572	30.985714285714284	3.0	46	294	114	14	107	74	17	7	17	12	0	0	1121.6353497505188	3290	45842.8661980629	1393	57.659574468085104	
0.5169082173913044	68.2	10.08695652173913	43.78260869565217	30.304347826086957	3.0	47	296	122	14.0	76.0	52.0	22	7.0	15.0	11.0	0	0	1094.6498022079468	3360	46937.51600027084	1428	57.5	
0.5120772608695653	68.95714285714286	10.91304347826087	52.333333333333336	36.10144927536232	3.0	48	298	136	16.0	94.0	64.0	26	7.0	15.0	11.0	0	0	1130.0877466201782	3430	48067.60374689102	1475	56.99708454810495	
0.6183574927536233	72.51428571428572	11.231884057971014	53.63768115942029	36.927536231884055	3.0	49	300	146	16.0	94.0	64.0	33	7.0	15.0	11.0	0	0	1087.9622430801392	3500	49155.56598997116	1522	56.51428571428572	
0.6095236285714286	67.82857142857142	10.442857142857143	47.6	32.82857142857143	3.0	50	301	112	16	94	64	38	7	15	11	0	0	1045.960433959961	3570	50201.52642393112	1561	56.27450980392157	
0.7999999000000001	69.9	11.1	52.042857142857144	35.871428571428574	3.0	51	302	132	14	76	52	34	7	15	11	0	0	1094.5624375343323	3640	51296.088861465454	1596	56.15384615384615	
0.7632848695652175	67.67142857142858	11.101449275362318	51.289855072463766	35.42028985507246	3.0	52	304	108	15.0	89.0	60.0	10	7.0	15.0	11.0	0	0	1052.3500356674194	3710	52348.43889713287	1632	56.01078167115903	
0.5294117352941177	69.94285714285714	11.558823529411764	55.01470588235294	37.911764705882355	3.0	53	307	114	17.0	97.0	67.0	27	7.0	17.0	12.0	0	0	1060.6768081188202	3780	53409.115705251694	1669	55.84656084656084	
0.5523808	72.6	10.814285714285715	49.82857142857143	34.41428571428571	3.0	54	308	136	16	104	72	27	7	17	12	0	0	1089.6307623386383	3850	54498.74646759033	1707	55.66233766233766	
0.5686274411764706	72.4	11.044117647058824	51.455882352941174	35.529411764705884	3.0	55	311	133	16.0	104.0	72.0	25	7.0	15.0	11.0	0	0	1005.9701273441315	3920	55504.71659493446	1744	55.51020408163265	
0.4190475714285714	77.98571428571428	10.528571428571428	50.0	34.6	3.0	56	311	133	15	105	73	43	7	15	11	0	0	1090.8064169883728	3990	56595.523011922836	1781	55.363408521303256	
0.42857140000000005	77.68571428571428	10.742857142857142	52.81428571428572	36.48571428571429	3.0	57	312	112	16	126	88	48	7	17	12	0	0	1029.8259603977203	4060	57625.34897232056	1820	55.172413793103445	
0.43961344927536233	77.87142857142857	10.710144927536232	49.63768115942029	34.231884057971016	3.0	58	314	138	16.0	94.0	64.0	13	7.0	17.0	12.0	0	0	836.2838742733002	4130	58461.63284659386	1862	54.91525423728814	
0.5380952428571429	77.25714285714285	11.67142857142857	57.05714285714286	39.27142857142857	3.0	59	314	124	16	94	64	13	7	17	12	0	0	907.7606313228607	4200	59369.39347791672	1916	54.38095238095238	
0.4571428	76.01428571428572	11.071428571428571	51.4	35.41428571428571	3.0	60	314	119	15	83	57	35	7	17	12	0	0	897.0963525772095	4270	60266.48983049393	1955	54.21545667447307	
0.516908115942029	74.05714285714286	10.623188405797102	47.81159420289855	32.94202898550725	3.0	61	316	111	14.0	76.0	52.0	35	7.0	17.0	12.0	0	0	838.8968138694763	4340	61105.3866443634	1989	54.1705069124424	
0.42380952857142856	82.15714285714286	10.585714285714285	48.08571428571429	33.285714285714285	3.0	62	317	138	14	120	83	39	7	15	11	0	0	881.6402785778046	4410	61987.02692294121	2024	54.10430839002267	
0.4190475714285714	81.32857142857142	10.7	50.457142857142856	34.9	3.0	63	317	144	14	119	83	40	7	15	11	0	0	867.0059485435486	4480	62854.03287148476	2064	53.92857142857143	
0.49047642857142854	83.35714285714286	10.057142857142857	46.285714285714285	31.97142857142857	3.0	64	317	119	17	119	83	41	7	15	11	0	0	815.7703013420105	4550	63669.80317282677	2093	54.0	
0.5142857571428572	84.28571428571429	10.357142857142858	49.714285714285715	34.32857142857143	3.0	65	318	128	15	149	103	48	7	15	11	0	0	822.8583927154541	4620	64492.66156554222	2129	53.91774891774892	
0.5476191285714285	82.61428571428571	10.557142857142857	51.98571428571429	35.92857142857143	3.0	66	319	170	16	148	103	34	7	15	11	0	0	836.626590013504	4690	65329.288155555725	2165	53.83795309168444	
0.5571429571428571	79.37142857142857	10.685714285714285	51.98571428571429	35.871428571428574	3.0	67	319	141	17	111	76	29	7	17	12	0	0	842.7848839759827	4760	66172.07303953171	2209	53.59243697478991	
0.5920397014925373	80.25714285714285	10.328358208955224	47.492537313432834	32.76119402985075	3.0	68	323	171	16.0	94.0	64.0	35	7.0	17.0	12.0	0	0	779.6971621513367	4830	66951.77020168304	2244	53.54037267080745	
0.7428568571428572	79.61428571428571	11.2	54.114285714285714	37.27142857142857	3.0	69	324	172	16	92	63	34	7	15	11	0	0	816.1121048927307	4900	67767.88230657578	2279	53.48979591836734	
0.6476190428571428	78.72857142857143	11.442857142857143	54.67142857142857	37.65714285714286	3.0	70	324	112	17	97	67	29	7	17	12	0	0	857.2157990932465	4970	68625.09810566902	2316	53.40040241448692	
0.6029413823529411	77.58571428571429	11.323529411764707	53.8235294117647	37.13235294117647	3.0	71	327	115	17.0	99.0	68.0	47	7.0	15.0	11.0	0	0	828.5284655094147	5040	69453.62657117844	2354	53.29365079365079	
0.3921568235294118	78.54285714285714	10.941176470588236	50.86764705882353	35.10294117647059	3.0	72	330	115	17.0	97.0	67.0	47	7.0	17.0	12.0	0	0	796.9217762947083	5110	70250.54834747314	2388	53.268101761252446	
0.4619046714285714	77.25714285714285	10.342857142857143	46.457142857142856	32.128571428571426	3.0	73	330	121	17	97	67	30	7	17	12	0	0	828.7962057590485	5180	71079.3445532322	2427	53.14671814671815	
0.4509801911764706	78.3	10.279411764705882	45.35294117647059	31.38235294117647	3.0	74	333	139	16.0	92.0	63.0	41	7.0	15.0	11.0	0	0	801.1510791778564	5250	71880.49563241005	2463	53.08571428571429	
0.5523807142857143	76.15714285714286	10.257142857142858	45.857142857142854	31.728571428571428	3.0	75	333	103	16	92	63	45	7	15	11	0	0	844.214349269867	5320	72724.70998167992	2500	53.00751879699248	
0.38571428571428573	76.57142857142857	9.871428571428572	42.142857142857146	29.185714285714287	3.0	76	333	130	16	92	63	40	7	15	11	0	0	830.5756890773773	5390	73555.2856707573	2528	53.098330241187384	
0.49758449275362326	79.85714285714286	9.695652173913043	41.3768115942029	28.652173913043477	3.0	77	335	119	16.0	92.0	63.0	50	7.0	15.0	11.0	0	0	795.7402350902557	5460	74351.02590584755	2553	53.24175824175824	
0.3238094714285714	82.15714285714286	9.585714285714285	40.07142857142857	27.84285714285714	3.0	78	335	113	15	83	57	41	7	15	11	0	0	826.0684311389923	5530	75177.09433698654	2581	53.32730560578662	
0.45714285714285713	78.7	9.914285714285715	42.1	29.12857142857143	3.0	79	335	125	16	90	62	36	7	15	11	0	0	813.3318173885345	5600	75990.42615437508	2612	53.35714285714286	
0.6571428571428571	74.04285714285714	10.271428571428572	45.34285714285714	31.37142857142857	3.0	80	335	108	16	90	62	32	7	17	12	0	0	809.7352702617645	5670	76800.16142463684	2635	53.5273368606702	
0.39999994285714285	72.27142857142857	9.885714285714286	42.67142857142857	29.514285714285716	3.0	81	336	107	14	76	52	32	7	17	12	0	0	793.9978973865509	5740	77594.15932202339	2672	53.44947735191637	
0.447619	71.38571428571429	10.028571428571428	44.285714285714285	30.65714285714286	3.0	82	337	103	15	90	63	32	7	15	11	0	0	842.1934750080109	5810	78436.3527970314	2709	53.373493975903614	
0.5904758142857144	74.2	11.085714285714285	52.9	36.51428571428571	3.0	83	337	100	15	98	68	26	7	15	11	0	0	813.8609149456024	5880	79250.213711977	2745	53.316326530612244	
0.5120771014492753	75.7	10.782608695652174	52.0	35.94202898550725	3.0	84	339	134	16.0	92.0	63.0	30	7.0	18.0	13.0	0	0	817.7074205875397	5950	80067.92113256454	2781	53.26050420168067	
0.5458935362318841	75.67142857142858	10.63768115942029	49.608695652173914	34.27536231884058	3.0	85	341	151	17.0	103.0	70.0	16	7.0	15.0	11.0	0	0	841.6900546550751	6020	80909.61118721962	2820	53.15614617940199	
0.6190474285714286	74.57142857142857	11.071428571428571	52.44285714285714	36.1	3.0	86	342	125	17	101	69	33	7	15	11	0	0	828.3625576496124	6090	81737.97374486923	2855	53.11986863711002	
0.34782597101449275	77.7	10.333333333333334	46.333333333333336	32.01449275362319	3.0	87	344	125	14.0	79.0	55.0	34	7.0	17.0	12.0	0	0	830.4211542606354	6160	82568.39489912987	2892	53.05194805194805	
0.39999984285714285	76.14285714285714	10.085714285714285	44.15714285714286	30.5	3.0	88	345	125	16	114	80	25	7	15	11	0	0	824.5507395267487	6230	83392.94563865662	2927	53.017656500802566	
0.3095237571428571	76.24285714285715	10.128571428571428	44.92857142857143	31.114285714285714	3.0	89	346	137	16	102	71	25	7	15	11	0	0	864.0678181648254	6300	84257.01345682144	2957	53.06349206349206	
0.3188405362318841	81.6	10.710144927536232	49.72463768115942	34.34782608695652	3.0	90	348	124	16.0	94.0	64.0	25	7.0	15.0	11.0	0	0	799.1974606513977	6370	85056.21091747284	2991	53.045525902668764	
0.347619	78.95714285714286	9.985714285714286	43.47142857142857	30.1	3.0	91	349	123	15	85	58	16	7	15	11	0	0	824.6730527877808	6440	85880.88397026062	3030	52.95031055900621	
0.41428575714285715	79.44285714285714	9.928571428571429	44.68571428571428	30.957142857142856	3.0	92	349	135	15	96	66	31	7	15	11	0	0	817.7607464790344	6510	86698.64471673965	3063	52.94930875576037	
0.4571427571428571	76.28571428571429	10.385714285714286	45.92857142857143	31.785714285714285	3.0	93	350	135	15	83	57	47	7	15	11	0	0	824.1917436122894	6580	87522.83646035194	3101	52.87234042553192	
0.5523808142857143	73.67142857142858	11.028571428571428	50.542857142857144	34.91428571428571	3.0	94	350	108	17	99	68	40	7	17	12	0	0	860.68168592453	6650	88383.51814627647	3137	52.82706766917293	
0.5490195294117647	72.84285714285714	10.75	48.5735294117647	33.588235294117645	3.0	95	353	108	17.0	99.0	68.0	39	7.0	15.0	11.0	0	0	814.0125143527985	6720	89197.53066062927	3175	52.75297619047619	
0.5571428571428572	74.87142857142857	10.971428571428572	50.44285714285714	34.857142857142854	3.0	96	354	114	16	92	63	39	7	15	11	0	0	828.0360949039459	6790	90025.56675553322	3210	52.724594992636234	
0.5952379428571429	76.34285714285714	11.257142857142858	52.642857142857146	36.371428571428574	3.0	97	354	112	15	83	57	32	7	15	11	0	0	844.4473185539246	6860	90870.01407408714	3247	52.667638483965014	
0.5142856142857143	79.11428571428571	11.271428571428572	54.02857142857143	37.22857142857143	3.0	98	354	120	15	83	57	39	7	17	12	0	0	849.36234998703	6930	91719.37642407417	3282	52.64069264069264	
0.35238075714285716	83.7	10.971428571428572	51.08571428571429	35.22857142857143	3.0	99	355	136	17	103	70	41	7	17	12	0	0	845.7507350444794	7000	92565.12715911865	3320	52.57142857142857	
0.5285713285714286	81.65714285714286	10.471428571428572	46.82857142857143	32.371428571428574	3.0	100	355	136	16	90	62	41	7	17	12	0	0	838.0777957439423	7070	93403.2049548626	3358	52.503536067892504	
0.3768114492753623	78.18571428571428	10.318840579710145	46.73913043478261	32.30434782608695	3.0	101	357	136	14.0	110.0	76.0	40	7.0	17.0	12.0	0	0	807.1417937278748	7140	94210.34674859047	3385	52.59103641456583	
0.5000000428571428	74.07142857142857	10.3	44.72857142857143	30.957142857142856	3.0	102	358	149	15	86	59	33	7	15	11	0	0	805.2722978591919	7210	95015.61904644966	3420	52.56588072122052	
0.3523809	77.11428571428571	9.971428571428572	43.41428571428571	30.02857142857143	3.0	103	359	149	14	78	53	41	7	15	11	0	0	833.7392854690552	7280	95849.35833191872	3452	52.582417582417584	
0.34285714285714286	77.5	10.214285714285714	45.3	31.37142857142857	3.0	104	359	142	17	99	68	38	7	15	11	0	0	845.4822854995728	7350	96694.84061741829	3490	52.51700680272109	
0.3864734782608696	79.7	10.08695652173913	44.46376811594203	30.82608695652174	3.0	105	361	135	15.0	96.0	67.0	35	7.0	15.0	11.0	0	0	800.4322109222412	7420	97495.27282834053	3522	52.53369272237197	
0.4117647058823529	76.11428571428571	10.602941176470589	49.85294117647059	34.51470588235294	3.0	106	364	128	15.0	96.0	67.0	23	7.0	15.0	11.0	0	0	821.9935166835785	7490	98317.26634502411	3558	52.496662216288385	
0.4333334285714286	81.65714285714286	10.314285714285715	47.24285714285714	32.6	3.0	107	365	154	15	109	75	31	7	15	11	0	0	834.0897605419159	7560	99151.35610556602	3586	52.56613756613756	
0.33333332857142856	78.91428571428571	10.2	45.642857142857146	31.52857142857143	3.0	108	366	154	14	76	52	43	7	15	11	0	0	829.559333562851	7630	99980.91543912888	3622	52.529488859764086	
0.5190476142857142	78.82857142857142	10.5	48.371428571428574	33.4	3.0	109	367	154	14	76	52	35	7	17	12	0	0	833.2182998657227	7700	100814.1337389946	3656	52.519480519480524	
0.4523809	78.75714285714285	10.971428571428572	52.67142857142857	36.371428571428574	3.0	110	367	154	14	115	81	29	7	17	12	0	0	868.1474237442017	7770	101682.2811627388	3685	52.57400257400258	
0.6086955942028985	74.27142857142857	11.0	52.55072463768116	36.27536231884058	3.0	111	369	128	17.0	115.0	81.0	37	7.0	17.0	12.0	0	0	820.2734670639038	7840	102502.5546298027	3720	52.55102040816326	
0.7960198208955223	77.21428571428571	11.776119402985074	57.92537313432836	39.92537313432836	3.0	112	373	129	17.0	99.0	68.0	35	7.0	17.0	12.0	0	0	790.4775042533875	7910	103293.03213405609	3753	52.553729456384325	
0.4492753188405797	76.34285714285714	10.971014492753623	51.768115942028984	35.79710144927536	3.0	113	375	126	17.0	99.0	68.0	36	7.0	17.0	12.0	0	0	823.4057214260101	7980	104116.4378554821	3789	52.51879699248121	
0.4190475428571429	74.87142857142857	10.585714285714285	47.785714285714285	33.07142857142857	3.0	114	375	118	14	76	52	35	7	15	11	0	0	853.1510343551636	8050	104969.58888983727	3824	52.49689440993789	
0.7857142428571429	77.38571428571429	11.128571428571428	53.5	36.94285714285714	3.0	115	375	134	14	80	55	35	7	15	11	0	0	844.1637687683105	8120	105813.75265860558	3853	52.54926108374384	
0.6476191428571428	78.34285714285714	11.185714285714285	53.128571428571426	36.68571428571428	3.0	116	376	118	16	88	61	39	7	17	12	0	0	820.4409844875336	8190	106634.19364309311	3885	52.56410256410257	
0.6285714857142858	74.02857142857142	11.271428571428572	54.05714285714286	37.214285714285715	3.0	117	376	121	17	99	68	33	7	18	13	0	0	835.7651867866516	8260	107469.95882987976	3925	52.4818401937046	
0.6323527058823529	77.27142857142857	10.602941176470589	47.89705882352941	33.10294117647059	3.0	118	379	135	17.0	99.0	68.0	35	7.0	17.0	12.0	0	0	793.6174252033234	8330	108263.57625508308	3962	52.43697478991597	
0.4476190714285714	78.4	10.914285714285715	52.17142857142857	36.08571428571429	3.0	119	380	135	16	97	68	35	7	17	12	0	0	827.5941035747528	8400	109091.17035865784	4006	52.30952380952381	
0.502415463768116	76.74285714285715	10.956521739130435	51.30434782608695	35.43478260869565	3.0	120	382	136	17.0	101.0	69.0	35	7.0	15.0	11.0	0	0	813.6964554786682	8470	109904.8668141365	4042	52.278630460448646	
0.5476191	81.4	11.042857142857143	53.97142857142857	37.17142857142857	3.0	121	382	111	16	105	72	38	7	15	11	0	0	834.1476531028748	8540	110739.01446723938	4076	52.27166276346604	
0.5238093571428573	83.08571428571429	11.014285714285714	52.642857142857146	36.3	3.0	122	383	111	16	118	82	55	7	17	12	0	0	835.1633751392365	8610	111574.17784237862	4111	52.253193960511034	
0.4202899130434783	84.72857142857143	10.304347826086957	46.3768115942029	32.01449275362319	3.66667	123	385	130	16.0	105.0	72.0	48	7.0	15.0	11.0	0	0	814.6317641735077	8680	112388.80960655212	4155	52.13133640552996	
0.4238094428571429	83.28571428571429	11.014285714285714	53.01428571428571	36.6	3.66667	124	386	130	16	130	91	43	7	17	12	0	0	820.989107131958	8750	113209.79871368408	4196	52.04571428571428	
0.4857144571428571	78.8	10.6	50.385714285714286	34.9	3.66667	125	387	130	16	130	91	43	7	21	15	0	0	851.976133108139	8820	114061.77484679222	4233	52.006802721088434	
0.5333335	83.47142857142858	10.285714285714286	46.7	32.31428571428572	3.66667	126	388	153	15	83	57	46	7	21	15	0	0	824.2196781635284	8890	114885.99452495575	4270	51.968503937007874	
0.40000015714285714	82.68571428571428	10.7	50.08571428571429	34.7	3.66667	127	389	153	15	94	66	38	7	17	12	0	0	846.6406967639923	8960	115732.63522171974	4315	51.841517857142854	
0.4714287285714286	81.22857142857143	10.557142857142857	50.9	35.24285714285714	3.66667	128	389	143	15	98	68	30	7	18	13	0	0	849.7357952594757	9030	116582.37101697922	4352	51.80509413067553	
0.5904762428571428	83.42857142857143	10.685714285714285	49.75714285714286	34.385714285714286	3.66667	129	390	172	17	122	84	35	7	15	11	0	0	829.4405193328857	9100	117411.8115363121	4388	51.78021978021978	
0.826087347826087	83.62857142857143	10.884057971014492	52.36231884057971	36.17391304347826	3.66667	130	392	168	15.0	139.0	98.0	43	7.0	15.0	11.0	0	0	810.4204096794128	9170	118222.23194599152	4420	51.79934569247546	
0.7761908142857142	89.6	10.971428571428572	51.0	35.214285714285715	3.66667	131	392	167	15	87	59	40	7	17	12	0	0	840.5455403327942	9240	119062.77748632431	4453	51.807359307359306	
0.46190499999999995	93.64285714285714	10.057142857142857	44.871428571428574	31.042857142857144	3.66667	132	392	167	16	90	62	41	7	15	11	0	0	838.8705432415009	9310	119901.64802956581	4493	51.74006444683136	
0.7333338142857142	101.67142857142858	10.271428571428572	45.628571428571426	31.585714285714285	3.66667	133	392	189	17	103	71	41	7	15	11	0	0	815.0179507732391	9380	120716.66598033905	4525	51.759061833688705	
0.6047622857142857	112.07142857142857	9.957142857142857	43.68571428571428	30.428571428571427	3.66667	134	393	174	17	151	105	33	7	15	11	0	0	825.9064626693726	9450	121542.57244300842	4556	51.78835978835979	
0.4238098571428571	119.08571428571429	10.185714285714285	47.5	33.02857142857143	3.66667	135	394	181	17	151	105	33	7	15	11	0	0	858.1041941642761	9520	122400.6766371727	4595	51.733193277310924	
0.5476193857142857	125.25714285714285	10.385714285714286	48.44285714285714	33.68571428571428	3.66667	136	394	229	17	147	101	33	7	15	11	0	0	864.9287283420563	9590	123265.60536551476	4633	51.68925964546403	
0.39801014925373135	123.05714285714286	10.597014925373134	51.985074626865675	36.11940298507463	3.66667	137	398	193	17.0	138.0	95.0	33	7.0	21.0	15.0	0	0	815.6547141075134	9660	124081.26007962227	4666	51.697722567287784	
0.6956527101449275	130.75714285714287	10.333333333333334	47.507246376811594	33.05797101449275	3.66667	138	400	193	15.0	122.0	84.0	19	7.0	15.0	11.0	0	0	815.2088470458984	9730	124896.46892666817	4701	51.685508735868446	
0.7333340142857143	129.05714285714285	10.142857142857142	47.885714285714286	33.3	3.66667	139	400	184	15	149	102	89	7	15	11	0	0	813.8628056049347	9800	125710.3317322731	4743	51.602040816326536	
0.6571434	129.75714285714287	10.228571428571428	51.07142857142857	35.57142857142857	3.66667	140	400	223	16	123	85	96	7	15	11	0	0	840.7815818786621	9870	126551.11331415176	4776	51.610942249240125	
0.6238100142857144	126.94285714285714	10.514285714285714	48.55714285714286	33.84285714285714	4.33333	141	400	163	16	121	85	96	7	15	11	0	0	835.6476972103119	9940	127386.76101136208	4812	51.589537223340045	
0.8238100142857143	125.44285714285714	10.628571428571428	50.6	35.22857142857143	4.33333	142	400	164	16	118	81	74	7	15	11	0	0	807.8880717754364	10010	128194.64908313751	4846	51.58841158841159	
0.7952385714285715	127.14285714285714	10.542857142857143	49.08571428571429	34.22857142857143	4.33333	143	400	161	15	132	92	99	7	17	12	0	0	839.64590716362	10080	129034.29499030113	4877	51.617063492063494	
0.6190477142857143	126.75714285714285	10.657142857142857	52.01428571428571	36.114285714285714	4.33333	144	400	170	16	143	100	65	7	17	12	0	0	854.3727190494537	10150	129888.66770935059	4917	51.556650246305416	
0.9857149000000001	129.85714285714286	11.028571428571428	56.05714285714286	38.92857142857143	4.33333	145	401	174	16	156	109	90	7	17	12	0	0	851.4615416526794	10220	130740.12925100327	4959	51.477495107632095	
0.7428575142857142	130.42857142857142	10.342857142857143	47.72857142857143	33.2	4.33333	146	401	174	15	132	92	102	7	15	11	0	0	856.0914225578308	10290	131596.2206735611	4992	51.4868804664723	
0.7285717142857143	127.92857142857143	10.357142857142858	52.214285714285715	36.42857142857143	4.33333	147	401	179	16	182	127	81	7	15	11	0	0	834.4257061481476	10360	132430.64637970924	5035	51.3996138996139	
0.8095241857142856	126.74285714285715	10.8	54.9	38.15714285714286	4.33333	148	401	211	16	152	105	71	7	15	11	0	0	869.0512733459473	10430	133299.6976530552	5071	51.38063279002876	
0.7142857571428571	127.32857142857142	10.742857142857142	51.871428571428574	36.07142857142857	4.33333	149	401	165	16	98	68	71	7	17	12	0	0	878.5949463844299	10500	134178.29259943962	5111	51.32380952380952	
0.7999999428571428	131.1	10.8	53.25714285714286	36.957142857142856	4.33333	150	402	168	16	127	88	92	7	15	11	0	0	813.1939289569855	10570	134991.4865283966	5143	51.343424787133394	
1.0714284428571428	133.34285714285716	11.457142857142857	67.95714285714286	47.2	5.0	151	402	177	16	153	105	96	7	17	12	0	0	851.2023758888245	10640	135842.68890428543	5186	51.2593984962406	
0.8952377142857143	133.07142857142858	10.457142857142857	58.785714285714285	40.9	5.0	152	402	173	16	146	102	99	7	15	11	0	0	864.4160125255585	10710	136707.104916811	5226	51.20448179271709	
0.795238	131.92857142857142	10.9	74.9	52.214285714285715	5.0	153	402	170	16	132	92	92	7	21	15	0	0	870.65869307518	10780	137577.76360988617	5270	51.11317254174397	
0.7333331285714286	132.3	11.185714285714285	79.34285714285714	55.22857142857143	5.0	154	402	170	17	151	105	109	7	17	12	0	0	853.3039951324463	10850	138431.06760501862	5316	51.004608294930875	
0.9238092714285715	131.18571428571428	11.128571428571428	80.22857142857143	55.81428571428572	5.0	155	402	215	14	151	105	45	7	15	11	0	0	846.1805078983307	10920	139277.24811291695	5368	50.84249084249085	
1.3285711857142857	130.9142857142857	11.585714285714285	90.78571428571429	63.128571428571426	5.0	156	402	187	15	185	128	89	7	17	12	0	0	854.8299901485443	10990	140132.0781030655	5418	50.70063694267516	
1.0809521999999998	132.22857142857143	11.371428571428572	92.12857142857143	64.14285714285714	8.66667	157	402	184	15	156	108	74	7	17	12	0	0	856.4850735664368	11060	140988.56317663193	5467	50.56962025316455	
0.9130434347826089	134.38571428571427	11.768115942028986	96.47826086956522	67.15942028985508	8.66667	158	404	208	15.0	184.0	128.0	71	9.0	33.0	23.0	0	0	881.7379312515259	11130	141870.30110788345	5519	50.41329739442947	
0.6809523857142857	135.82857142857142	11.457142857142857	92.52857142857142	64.47142857142858	8.66667	159	404	202	16	166	116	54	7	15	11	0	0	892.7594029903412	11200	142763.0605108738	5570	50.26785714285714	
0.8309178260869565	143.95714285714286	11.956521739130435	98.33333333333333	68.47826086956522	8.66667	160	406	262	16.0	153.0	105.0	92	7.0	17.0	12.0	0	0	846.6642529964447	11270	143609.72476387024	5628	50.06211180124224	
0.7666666714285715	132.0857142857143	11.657142857142857	92.8	64.64285714285714	8.66667	161	407	202	16	212	146	54	8	24	17	0	0	821.9406952857971	11340	144431.66545915604	5683	49.885361552028215	
1.1111110579710144	124.1	11.840579710144928	88.01449275362319	61.26086956521739	8.66667	162	409	207	16.0	181.0	125.0	55	7.0	17.0	12.0	0	0	836.6436581611633	11410	145268.3091173172	5733	49.75460122699387	
1.2139304029850746	132.57142857142858	11.955223880597014	93.4776119402985	65.02985074626865	8.66667	163	413	264	16.0	151.0	105.0	55	7.0	32.0	22.0	0	0	807.7229733467102	11480	146076.0320906639	5784	49.616724738675956	
0.6999999	139.74285714285713	11.8	96.81428571428572	67.37142857142857	8.66667	164	414	264	17	168	116	55	7	23	16	0	0	865.42467045784	11550	146941.45676112175	5841	49.42857142857143	
1.1449274347826086	139.14285714285714	11.623188405797102	91.02898550724638	63.405797101449274	8.66667	165	416	206	17.0	239.0	166.0	34	7.0	15.0	11.0	0	0	837.659993648529	11620	147779.11675477028	5882	49.38037865748709	
1.0666667428571428	133.8	11.4	83.52857142857142	58.31428571428572	8.66667	166	416	181	16	184	128	34	7	15	11	0	0	910.4148132801056	11690	148689.53156805038	5930	49.27288280581694	
1.2571428142857144	135.62857142857143	11.114285714285714	86.75714285714285	60.628571428571426	8.66667	167	417	204	16	188	130	34	7	15	11	0	0	867.3049716949463	11760	149556.83653974533	5981	49.14115646258503	
1.1571430428571428	139.7	11.014285714285714	87.24285714285715	61.0	8.66667	168	418	212	14	190	133	34	7	15	11	0	0	825.8318119049072	11830	150382.66835165024	6028	49.044801352493664	
1.1523813857142857	147.21428571428572	11.257142857142858	92.25714285714285	64.41428571428571	8.66667	169	419	214	15	203	142	34	7	15	11	0	0	855.6611223220825	11900	151238.32947397232	6082	48.89075630252101	
1.4523814285714285	152.45714285714286	11.185714285714285	93.57142857142857	65.32857142857142	8.66667	170	420	270	16	203	142	34	7	15	11	0	0	874.9308619499207	11970	152113.26033592224	6130	48.78863826232247	
1.9095241428571428	158.52857142857144	11.5	94.2	65.87142857142857	9.66667	171	421	277	16	169	118	65	7	15	11	0	0	872.6528131961823	12040	152985.91314911842	6182	48.65448504983389	
1.6333336142857142	159.71428571428572	11.585714285714285	89.02857142857142	62.2	9.66667	172	421	289	16	178	124	68	7	15	11	0	0	932.8676075935364	12110	153918.78075671196	6237	48.49710982658959	
1.3238098142857142	164.87142857142857	11.6	101.28571428571429	70.67142857142858	9.66667	173	421	322	15	206	143	93	8	41	29	0	0	908.2755539417267	12180	154827.0563106537	6293	48.33333333333333	
1.2714291	163.35714285714286	11.528571428571428	101.85714285714286	71.15714285714286	10.6667	174	422	288	14	227	158	56	8	30	21	0	0	906.8345334529877	12250	155733.89084410667	6350	48.16326530612245	
1.0190483714285712	164.44285714285715	11.628571428571428	109.82857142857142	76.67142857142858	10.6667	175	423	308	16	232	161	73	7	17	12	0	0	904.5828535556793	12320	156638.47369766235	6404	48.01948051948052	
1.3142867571428571	173.2	11.457142857142857	105.38571428571429	73.52857142857142	10.6667	176	424	325	16	215	150	86	7	21	15	0	0	911.1243953704834	12390	157549.59809303284	6460	47.86117836965295	
0.7476200000000001	179.9142857142857	11.514285714285714	108.65714285714286	75.82857142857142	10.6667	177	424	348	16	268	188	91	7	17	12	0	0	909.307728767395	12460	158458.90582180023	6519	47.68057784911718	
1.2095248571428572	162.4	11.228571428571428	99.21428571428571	69.17142857142858	10.6667	178	424	348	16	275	194	87	8	26	18	0	0	862.7160756587982	12530	159321.62189745903	6575	47.525937749401436	
1.300001057142857	158.54285714285714	11.028571428571428	94.64285714285714	66.04285714285714	11.0	179	425	388	16	217	152	73	7	17	12	0	0	849.1389031410217	12600	160170.76080060005	6632	47.36507936507937	
1.6038654202898552	155.65714285714284	11.318840579710145	102.69565217391305	71.7536231884058	11.0	180	427	417	16.0	303.0	213.0	71	8.0	24.0	17.0	0	0	859.2107229232788	12670	161029.97152352333	6681	47.269139700078924	
1.5000008999999999	162.9142857142857	11.514285714285714	112.4	78.44285714285714	11.0	181	427	417	17	249	175	87	7	17	12	0	0	890.4361963272095	12740	161920.40771985054	6738	47.11145996860283	
1.085715185714286	153.82857142857142	11.142857142857142	101.91428571428571	71.34285714285714	11.0	182	427	417	15	206	143	50	7	17	12	0	0	883.3445222377777	12810	162803.75224208832	6789	47.002341920374704	
1.5686293088235295	145.18571428571428	10.838235294117647	98.42647058823529	68.91176470588235	11.0	183	430	227	15.0	206.0	143.0	79	7.0	17.0	12.0	0	0	799.0880408287048	12880	163602.84028291702	6838	46.90993788819876	
1.4380970428571431	156.9857142857143	10.914285714285715	101.07142857142857	70.87142857142857	11.0	184	430	227	15	208	145	95	8	25	18	0	0	840.6142587661743	12950	164443.4545416832	6890	46.7953667953668	
1.5169102463768116	152.02857142857144	11.115942028985508	97.26086956521739	68.3623188405797	11.0	185	432	258	16.0	178.0	124.0	61	7.0	17.0	12.0	0	0	840.4451704025269	13020	165283.89971208572	6946	46.65130568356375	
1.7254920000000002	151.87142857142857	11.397058823529411	108.95588235294117	76.57352941176471	11.0	186	435	293	16.0	244.0	171.0	37	7.0	17.0	12.0	0	0	830.6805222034454	13090	166114.58023428917	6998	46.539343009931244	
1.4142875714285714	160.44285714285715	11.285714285714286	109.07142857142857	76.51428571428572	11.0	187	435	327	15	206	144	58	7	17	12	0	0	842.4193487167358	13160	166956.9995830059	7059	46.36018237082067	
1.4527374626865672	162.25714285714287	11.074626865671641	101.01492537313433	70.86567164179104	11.0	188	439	333	17.0	209.0	146.0	58	7.0	17.0	12.0	0	0	810.3876168727875	13230	167767.3871998787	7113	46.235827664399096	
1.371982188405797	172.62857142857143	11.55072463768116	112.46376811594203	78.91304347826087	11.0	189	441	376	17.0	225.0	157.0	31	7.0	21.0	15.0	0	0	874.5396971702576	13300	168641.92689704895	7170	46.09022556390977	
1.9428575714285716	177.9	11.757142857142858	115.58571428571429	81.04285714285714	11.0	190	441	376	16	218	153	109	7	15	11	0	0	896.6017191410065	13370	169538.52861618996	7225	45.96110695587136	
1.5333333857142857	154.64285714285714	11.614285714285714	109.62857142857143	77.12857142857143	11.0	191	442	344	16	257	179	71	7	17	12	0	0	886.7154450416565	13440	170425.2440612316	7282	45.81845238095238	
1.8578431470588237	154.74285714285713	10.897058823529411	98.69117647058823	69.47058823529412	11.0	192	445	337	16.0	237.0	166.0	49	7.0	17.0	12.0	0	0	821.5474979877472	13510	171246.79155921936	7333	45.72168763878608	
2.509804014705882	160.68571428571428	11.102941176470589	105.58823529411765	74.16176470588235	11.0	193	448	327	16.0	206.0	144.0	85	7.0	17.0	12.0	0	0	859.7500476837158	13580	172106.54160690308	7384	45.6259204712813	
2.376190571428572	157.14285714285714	11.614285714285714	116.45714285714286	81.81428571428572	11.0	194	449	327	17	206	144	127	7	17	12	0	0	1189.5688824653625	13650	173296.11048936844	7434	45.53846153846154	
1.9215681470588233	159.44285714285715	11.308823529411764	109.41176470588235	76.77941176470588	11.3333	195	452	350	16.0	220.0	154.0	51	7.0	17.0	12.0	0	0	1129.4403760433197	13720	174425.55086541176	7484	45.45189504373178	
1.6811593333333332	180.07142857142858	11.202898550724637	103.27536231884058	72.56521739130434	11.3333	196	454	398	16.0	220.0	154.0	96	7.0	17.0	12.0	0	0	1191.0239024162292	13790	175616.574767828	7532	45.38071065989848	
1.1523805714285715	173.71428571428572	11.228571428571428	108.42857142857143	76.01428571428572	11.3333	197	454	394	17	300	209	89	7	17	12	0	0	1241.68474984169	13860	176858.25951766968	7582	45.2958152958153	
0.9190470857142857	186.68571428571428	11.285714285714286	105.17142857142858	73.42857142857143	11.3333	198	454	444	16	189	131	68	7	17	12	0	0	1267.3110206127167	13930	178125.5705382824	7634	45.197415649676955	
1.3904762285714287	207.22857142857143	11.157142857142857	103.67142857142858	72.6	11.3333	199	454	416	15	211	147	93	7	17	12	0	0	1235.8081893920898	14000	179361.37872767448	7687	45.09285714285715	
1.1904757857142856	205.02857142857144	11.6	110.41428571428571	77.22857142857143	11.3333	200	455	418	17	242	167	89	7	17	12	0	0	1189.0817348957062	14070	180550.4604625702	7741	44.98223169864961	
