Generation:
200

Phenotype:
*:*:B_RANDOM_WALK,64#*:*:IS_WANT_OBJECT,true,73#*:B_PHOTOTAXIS;B_ANTI_PHOTOTAXIS;B_PHOTOTAXIS;*:B_PHOTOTAXIS,90#P_ON_SOURCE,false;P_ON_NEST,true;P_ON_SOURCE,false;P_ON_NEST,true;*:B_RANDOM_WALK;*:IS_DROP_OBJECT,false,93#P_HAS_OBJECT,true;P_ON_SOURCE,false;P_ON_NEST,false;P_ON_SOURCE,false;*:*:B_ANTI_PHOTOTAXIS,99;IS_DROP_OBJECT,true,5#*:*:IS_DROP_OBJECT,false,37#P_ON_SOURCE,false;P_HAS_OBJECT,false;*:B_RANDOM_WALK;*:B_PHOTOTAXIS,87#

Genotype:
[97368, 98814, 15, 45366, 49043, 31888, 48373, 18080, 62076, 8231, 56321, 29448, 51939, 84061, 24478, 26013, 4300, 49015, 7297, 719, 74542, 35140, 94407, 38818, 60854, 9207, 27260, 86796, 6300, 24478, 68881, 39280, 46614, 18915, 44425, 62881, 24156, 46409, 62076, 31602, 80974, 46170, 19662, 84061, 11361, 26013, 22870, 49015, 7297, 18416, 39758, 24156, 92658, 1177, 12920, 15182, 51055, 86796, 99571, 24478, 67090, 50684, 49015, 7297, 54255, 62881, 24156, 46409, 23565, 12920, 96764, 50935, 86796, 6300, 24875, 92674, 59688, 77374, 83538, 9601, 75110, 48295, 58834, 19315, 99674, 10609, 37740, 84427, 45657, 26006, 82337, 506, 34830, 26852, 62444, 1219, 25753, 63543, 72241, 37507, 55419, 77180, 87774, 64098, 69339, 58089, 58525, 10885, 83086, 40589, 46589, 98892, 60075, 54855, 86796, 49483, 452, 38668, 59688, 32412, 93583, 88420, 86276, 68810, 47493, 1437, 99674, 86360, 7979, 51269, 78634, 26355, 1556, 91387, 99042, 26852, 36826, 68427, 50451, 62692, 72241, 92871, 44779, 77180, 82490, 73712, 59729, 57129, 9276, 49524, 83086, 86694, 99235, 98685, 43929, 58778, 69505, 19848, 43933, 92308, 19370, 94182, 25160, 21227, 27311, 94297, 42646, 65245, 10417, 80205, 18598, 44283, 32304, 25836, 90507, 55983, 18280, 93653, 32838, 61580, 6614, 7723, 77351, 15253, 10408, 36255, 31183, 8698, 90481]
Tree:
None

Fitness:
9.33333