ave_fitness	ave_genome_length	ave_tree_depth	ave_tree_nodes	ave_used_codons	best_fitness	gen	invalids	max_genome_length	max_tree_depth	max_tree_nodes	max_used_codons	min_genome_length	min_tree_depth	min_tree_nodes	min_used_codons	runtime_error	time_adjust	time_taken	total_inds	total_time	unique_inds	unused_search	
0.0	59.07142857142857	8.242857142857142	56.614285714285714	39.542857142857144	0.0	0	0	145	10	140	97	16	7	15	11	0	0	1169.690488576889	70	1169.690488576889	70	0.0	
0.0	50.27142857142857	8.346153846153847	42.28846153846154	29.576923076923077	0.0	1	19	135	13.0	123.0	86.0	16	7.0	15.0	11.0	0	0	787.3785943984985	140	1957.0690829753876	103	26.428571428571416	
0.0	54.74285714285714	8.557377049180328	46.16393442622951	32.24590163934426	0.0	2	29	135	15.0	165.0	115.0	12	7.0	15.0	11.0	0	0	938.7425782680511	210	2895.8116612434387	135	35.71428571428571	
0.0	51.642857142857146	8.370967741935484	37.83870967741935	26.516129032258064	0.0	3	38	118	14.0	94.0	65.0	16	7.0	15.0	11.0	0	0	942.695719242096	280	3838.5073804855347	158	43.57142857142857	
0.0	56.785714285714285	8.633333333333333	37.21666666666667	26.033333333333335	0.0	4	49	118	14.0	110.0	76.0	16	7.0	15.0	11.0	0	0	885.8054118156433	350	4724.312792301178	181	48.285714285714285	
0.0	51.042857142857144	8.262295081967213	31.0	21.770491803278688	0.0	5	59	104	15.0	82.0	57.0	16	7.0	15.0	11.0	0	0	924.4190652370453	420	5648.731857538223	213	49.28571428571429	
0.0	53.857142857142854	8.323529411764707	30.36764705882353	21.352941176470587	0.0	6	62	102	16.0	87.0	61.0	16	7.0	15.0	11.0	0	0	1047.2205936908722	490	6695.9524512290955	248	49.38775510204082	
0.0	49.1	8.180327868852459	30.016393442622952	21.0327868852459	0.0	7	72	102	16.0	87.0	61.0	8	7.0	15.0	11.0	0	0	930.1726357936859	560	7626.125087022781	285	49.10714285714286	
0.0	55.44285714285714	7.911764705882353	30.08823529411765	21.11764705882353	0.0	8	75	112	16.0	87.0	61.0	11	7.0	15.0	11.0	0	0	1032.9531548023224	630	8659.078241825104	320	49.20634920634921	
0.0	52.285714285714285	8.144927536231885	32.231884057971016	22.536231884057973	0.0	9	77	102	13.0	78.0	54.0	11	7.0	15.0	11.0	0	0	1013.0469434261322	700	9672.125185251236	350	50.0	
0.0	51.68571428571428	8.074626865671641	32.6865671641791	22.865671641791046	0.0	10	81	107	13.0	120.0	83.0	1	7.0	15.0	11.0	0	0	994.281341791153	770	10666.406527042389	380	50.64935064935065	
0.0	52.357142857142854	7.890625	31.546875	22.0625	0.0	11	88	112	11.0	103.0	72.0	13	7.0	15.0	11.0	0	0	972.3549239635468	840	11638.761451005936	410	51.19047619047619	
0.010101015151515153	62.714285714285715	8.06060606060606	31.863636363636363	22.318181818181817	0.666667	12	93	144	13.0	120.0	85.0	15	7.0	15.0	11.0	0	0	980.2881197929382	910	12619.049570798874	447	50.87912087912088	
0.0252525303030303	64.27142857142857	8.030303030303031	35.09090909090909	24.515151515151516	1.0	13	98	144	13.0	130.0	92.0	12	7.0	15.0	11.0	0	0	947.473888874054	980	13566.523459672928	481	50.91836734693877	
0.02487562686567164	76.08571428571429	8.402985074626866	38.656716417910445	27.0	1.0	14	102	151	14.0	120.0	85.0	18	7.0	15.0	11.0	0	0	941.4107511043549	1050	14507.934210777283	517	50.761904761904766	
0.0252525303030303	76.98571428571428	8.484848484848484	41.95454545454545	29.28787878787879	1.0	15	107	151	13.0	120.0	85.0	11	7.0	15.0	11.0	0	0	913.708245754242	1120	15421.642456531525	549	50.98214285714286	
0.03825137704918032	81.1	8.885245901639344	46.42622950819672	32.540983606557376	1.0	16	117	174	14.0	120.0	85.0	9	7.0	15.0	11.0	0	0	861.190309047699	1190	16282.832765579224	583	51.00840336134454	
0.05208334375	83.55714285714286	8.96875	49.421875	34.578125	1.0	17	124	174	13.0	130.0	92.0	20	7.0	15.0	11.0	0	0	875.4400391578674	1260	17158.27280473709	617	51.03174603174603	
0.06862745588235294	93.7	8.955882352941176	49.26470588235294	34.455882352941174	1.0	18	127	179	14.0	142.0	99.0	6	7.0	18.0	13.0	0	0	980.5721442699432	1330	18138.844949007034	656	50.67669172932331	
0.10476191428571428	120.38571428571429	9.7	66.24285714285715	46.4	1.0	19	127	242	14	158	111	28	7	17	12	0	0	1055.9512012004852	1400	19194.79615020752	701	49.92857142857143	
0.21739128985507244	127.37142857142857	10.246376811594203	76.3623188405797	53.55072463768116	2.0	20	129	223	14.0	140.0	99.0	28	7.0	20.0	14.0	0	0	1041.341071844101	1470	20236.13722205162	747	49.183673469387756	
0.25238095714285713	133.07142857142858	10.942857142857143	90.45714285714286	63.41428571428571	2.0	21	130	200	15	205	143	28	7	17	12	0	0	1134.3435549736023	1540	21370.480777025223	793	48.506493506493506	
0.40952375714285716	135.8	11.0	93.92857142857143	66.05714285714286	2.0	22	130	233	15	233	162	43	7	15	11	0	0	1139.2642567157745	1610	22509.745033740997	835	48.13664596273291	
0.3380951857142857	142.64285714285714	11.0	96.01428571428572	67.78571428571429	2.0	23	131	207	15	200	141	43	7	15	11	0	0	1120.3483958244324	1680	23630.09342956543	884	47.38095238095238	
0.3380951857142857	143.87142857142857	11.385714285714286	101.25714285714285	71.45714285714286	2.0	24	131	199	15	200	141	43	7	15	11	0	0	1152.897774219513	1750	24782.991203784943	937	46.457142857142856	
0.30952377142857146	146.85714285714286	11.2	95.88571428571429	67.54285714285714	3.33333	25	131	201	15	171	119	81	7	15	11	0	0	1193.1125886440277	1820	25976.10379242897	991	45.549450549450555	
0.21739121739130435	140.5	10.73913043478261	85.6376811594203	60.34782608695652	3.33333	26	133	199	14.0	188.0	131.0	49	7.0	15.0	11.0	0	0	1123.9312241077423	1890	27100.035016536713	1048	44.55026455026455	
0.31400952173913044	143.52857142857144	10.666666666666666	86.94202898550725	61.130434782608695	3.33333	27	135	226	15.0	188.0	131.0	49	7.0	15.0	11.0	0	0	1104.3782739639282	1960	28204.41329050064	1103	43.724489795918366	
0.38571395714285717	136.71428571428572	10.6	85.12857142857143	59.94285714285714	3.33333	28	135	201	14	188	132	49	7	15	11	0	0	1115.9533743858337	2030	29320.366664886475	1144	43.645320197044335	
0.38095214285714285	137.47142857142856	10.414285714285715	79.35714285714286	55.8	3.33333	29	135	196	14	157	110	91	7	15	11	0	0	1103.8424401283264	2100	30424.2091050148	1193	43.19047619047619	
0.38571402857142856	150.4142857142857	10.8	82.44285714285714	57.885714285714286	3.33333	30	135	213	14	153	107	72	7	15	11	0	0	1111.8443813323975	2170	31536.0534863472	1245	42.626728110599075	
0.5761900428571428	157.28571428571428	10.942857142857143	83.95714285714286	58.91428571428571	3.33333	31	135	225	15	182	129	92	7	15	11	0	0	1144.4175646305084	2240	32680.471050977707	1287	42.544642857142854	
0.39047595714285716	163.1	11.257142857142858	93.5	65.58571428571429	3.66667	32	135	235	17	202	141	97	7	15	11	0	0	1152.8673515319824	2310	33833.33840250969	1342	41.9047619047619	
0.3619046285714286	162.77142857142857	10.757142857142858	87.95714285714286	61.77142857142857	3.66667	33	136	245	16	276	193	86	7	15	11	0	0	1115.9698674678802	2380	34949.30826997757	1390	41.59663865546218	
0.4619044428571429	164.27142857142857	10.9	93.31428571428572	65.48571428571428	3.66667	34	137	249	14	203	143	82	7	15	11	0	0	1145.729255437851	2450	36095.03752541542	1441	41.18367346938776	
0.48571395714285714	170.42857142857142	10.985714285714286	93.07142857142857	65.45714285714286	5.0	35	137	306	14	214	151	73	8	31	22	0	0	1196.2204298973083	2520	37291.25795531273	1494	40.714285714285715	
0.3872548088235294	172.07142857142858	10.823529411764707	92.1470588235294	64.79411764705883	5.0	36	140	306	17.0	214.0	151.0	74	7.0	15.0	11.0	0	0	1160.900416135788	2590	38452.15837144852	1545	40.34749034749034	
0.3904760857142857	172.11428571428573	10.814285714285715	96.8	67.9	5.0	37	141	274	16	214	151	83	7	15	11	0	0	1126.4328248500824	2660	39578.5911962986	1597	39.9624060150376	
0.44761895714285715	175.3	10.771428571428572	85.1	59.857142857142854	5.0	38	142	307	15	159	110	81	7	15	11	0	0	1149.0667185783386	2730	40727.65791487694	1640	39.92673992673993	
0.45238104285714287	176.9	10.985714285714286	95.18571428571428	66.84285714285714	5.0	39	142	307	17	215	152	81	7	15	11	0	0	1185.1247041225433	2800	41912.78261899948	1693	39.535714285714285	
0.48571437142857143	165.11428571428573	10.442857142857143	83.8	58.84285714285714	5.0	40	142	282	17	187	131	81	7	15	11	0	0	1154.9595568180084	2870	43067.74217581749	1741	39.33797909407666	
0.6859905362318841	174.47142857142856	10.91304347826087	97.2463768115942	68.2463768115942	5.0	41	144	282	17.0	241.0	170.0	91	7.0	15.0	11.0	0	0	1166.8376972675323	2940	44234.57987308502	1787	39.21768707482993	
0.6476189	183.28571428571428	11.357142857142858	107.21428571428571	75.3	5.0	42	145	357	17	219	154	135	7	15	11	0	0	1202.7523758411407	3010	45437.33224892616	1837	38.970099667774086	
0.8523807142857144	167.4	10.67142857142857	92.18571428571428	64.84285714285714	6.0	43	145	257	16	189	132	92	7	15	11	0	0	1182.1846928596497	3080	46619.51694178581	1886	38.76623376623377	
1.0666662857142857	163.8	10.857142857142858	99.35714285714286	69.77142857142857	6.0	44	145	317	17	220	153	95	7	15	11	0	0	1179.7687394618988	3150	47799.28568124771	1933	38.63492063492063	
0.9095238999999999	158.04285714285714	11.6	113.38571428571429	79.61428571428571	7.0	45	145	284	16	193	134	94	7	15	11	0	0	1188.8774762153625	3220	48988.163157463074	1990	38.19875776397515	
0.6000000857142856	153.05714285714285	11.157142857142857	101.58571428571429	71.44285714285714	7.0	46	146	227	16	199	140	80	8	24	17	0	0	1153.3049802780151	3290	50141.46813774109	2044	37.87234042553192	
0.7619048571428572	160.27142857142857	10.8	96.94285714285714	68.08571428571429	7.0	47	147	242	16	199	140	88	7	17	12	0	0	1103.5931582450867	3360	51245.061295986176	2096	37.61904761904762	
0.7571428571428571	161.3	10.685714285714285	94.38571428571429	66.14285714285714	7.0	48	148	249	17	239	169	88	7	15	11	0	0	1126.5048842430115	3430	52371.56618022919	2149	37.34693877551021	
0.8088236323529412	166.35714285714286	10.691176470588236	94.94117647058823	66.44117647058823	7.0	49	151	230	16.0	199.0	140.0	88	7.0	17.0	12.0	0	0	1053.5214273929596	3500	53425.08760762215	2193	37.34285714285714	
0.7666668	169.95714285714286	10.8	103.21428571428571	72.15714285714286	7.0	50	152	229	16	199	140	103	7	17	12	0	0	1108.9401955604553	3570	54534.0278031826	2242	37.19887955182073	
1.154589376811594	168.67142857142858	11.0	113.10144927536231	79.21739130434783	8.33333	51	154	283	16.0	207.0	145.0	77	7.0	15.0	11.0	0	0	1056.4569957256317	3640	55590.484798908234	2298	36.86813186813187	
0.8666665714285714	166.37142857142857	10.885714285714286	110.94285714285714	77.55714285714286	8.33333	52	154	246	15	247	171	44	7	17	12	0	0	1100.843784570694	3710	56691.32858347893	2350	36.657681940700805	
0.8428571	167.72857142857143	11.17142857142857	117.52857142857142	82.11428571428571	8.33333	53	155	252	16	247	171	102	8	26	18	0	0	1027.9701752662659	3780	57719.29875874519	2397	36.58730158730159	
1.3428568142857142	176.4	11.014285714285714	107.55714285714286	75.25714285714285	8.33333	54	156	257	15	247	171	122	7	15	11	0	0	885.9334275722504	3850	58605.232186317444	2448	36.41558441558441	
1.2761901285714286	168.22857142857143	11.542857142857143	117.1	82.05714285714286	8.33333	55	156	289	17	247	173	50	7	15	11	0	0	921.2892906665802	3920	59526.521476984024	2500	36.224489795918366	
1.0588232794117647	169.6	11.691176470588236	116.3529411764706	81.5	8.66667	56	159	325	17.0	220.0	153.0	59	7.0	15.0	11.0	0	0	915.9472019672394	3990	60442.46867895126	2553	36.015037593984964	
1.057970724637681	170.68571428571428	11.492753623188406	109.55072463768116	76.8840579710145	8.66667	57	161	323	16.0	208.0	146.0	52	7.0	15.0	11.0	0	0	936.4689571857452	4060	61378.93763613701	2611	35.689655172413794	
0.8507460149253732	177.9142857142857	11.64179104477612	112.64179104477611	78.94029850746269	8.66667	58	165	323	16.0	210.0	146.0	74	7.0	15.0	11.0	0	0	851.0624468326569	4130	62230.000082969666	2663	35.520581113801455	
0.757142657142857	168.75714285714287	11.17142857142857	100.6	70.52857142857142	8.66667	59	166	289	16	202	141	80	7	15	11	0	0	838.6517822742462	4200	63068.65186524391	2706	35.57142857142857	
0.6225488676470589	163.5142857142857	10.911764705882353	97.0	68.01470588235294	8.66667	60	169	278	16.0	210.0	146.0	68	7.0	15.0	11.0	0	0	862.3245739936829	4270	63930.976439237595	2751	35.57377049180329	
0.618357347826087	174.21428571428572	10.782608695652174	91.56521739130434	64.26086956521739	8.66667	61	171	351	17.0	212.0	149.0	48	7.0	15.0	11.0	0	0	812.3902390003204	4340	64743.366678237915	2800	35.483870967741936	
0.8039213235294117	174.97142857142856	10.970588235294118	97.76470588235294	68.55882352941177	8.66667	62	174	286	16.0	249.0	174.0	61	7.0	15.0	11.0	0	0	802.8916437625885	4410	65546.2583220005	2844	35.51020408163265	
1.285023768115942	175.5857142857143	11.420289855072463	108.10144927536231	75.8695652173913	8.66667	63	176	300	17.0	244.0	171.0	96	7.0	15.0	11.0	0	0	833.9021635055542	4480	66380.16048550606	2894	35.40178571428572	
0.7860695970149254	171.32857142857142	11.567164179104477	112.64179104477611	78.97014925373135	9.0	64	180	300	16.0	247.0	172.0	39	7.0	15.0	11.0	0	0	834.5529305934906	4550	67214.71341609955	2944	35.296703296703285	
0.8937197536231885	172.28571428571428	11.942028985507246	122.84057971014492	86.18840579710145	9.0	65	182	300	17.0	273.0	190.0	60	7.0	15.0	11.0	0	0	868.6273460388184	4620	68083.34076213837	3000	35.06493506493507	
0.8208955820895523	175.15714285714284	11.253731343283581	105.73134328358209	74.14925373134328	9.0	66	186	338	16.0	228.0	159.0	85	7.0	15.0	11.0	0	0	816.8870167732239	4690	68900.22777891159	3048	35.01066098081024	
0.9460783382352941	179.07142857142858	11.544117647058824	116.38235294117646	81.51470588235294	9.0	67	189	338	16.0	227.0	158.0	107	7.0	17.0	12.0	0	0	809.0730016231537	4760	69709.30078053474	3100	34.87394957983193	
0.9130433913043479	177.65714285714284	11.608695652173912	117.91304347826087	82.71014492753623	9.0	68	191	384	17.0	227.0	158.0	96	7.0	15.0	11.0	0	0	853.9840505123138	4830	70563.28483104706	3153	34.72049689440993	
0.7661691791044777	179.6	11.08955223880597	99.70149253731343	69.92537313432835	9.0	69	195	390	17.0	227.0	158.0	41	7.0	15.0	11.0	0	0	787.3572351932526	4900	71350.64206624031	3196	34.77551020408163	
0.7342996231884058	178.5	10.782608695652174	95.6231884057971	67.08695652173913	9.0	70	197	384	16.0	227.0	158.0	82	7.0	15.0	11.0	0	0	833.7424957752228	4970	72184.38456201553	3244	34.728370221327964	
0.7190476285714287	193.0857142857143	11.17142857142857	99.71428571428571	69.98571428571428	9.0	71	197	442	17	207	146	87	7	15	11	0	0	852.6650075912476	5040	73037.04956960678	3296	34.60317460317461	
0.821256	201.5142857142857	10.942028985507246	86.42028985507247	60.69565217391305	9.0	72	199	434	16.0	202.0	141.0	66	7.0	15.0	11.0	0	0	819.1961922645569	5110	73856.24576187134	3338	34.677103718199604	
0.9809523857142856	198.12857142857143	11.228571428571428	96.51428571428572	67.74285714285715	9.0	73	200	430	15	226	158	75	7	15	11	0	0	872.541934967041	5180	74728.78769683838	3387	34.61389961389962	
0.9333334285714284	192.72857142857143	11.6	108.87142857142857	76.25714285714285	9.0	74	201	430	16	226	158	98	7	15	11	0	0	850.7271156311035	5250	75579.51481246948	3441	34.457142857142856	
0.9900498955223881	199.14285714285714	11.91044776119403	118.2089552238806	82.67164179104478	9.0	75	205	447	16.0	226.0	158.0	77	7.0	15.0	11.0	0	0	835.8605015277863	5320	76415.37531399727	3490	34.3984962406015	
0.8823529852941178	175.61428571428573	11.764705882352942	121.57352941176471	85.16176470588235	9.0	76	208	379	16.0	210.0	146.0	50	7.0	15.0	11.0	0	0	877.7028653621674	5390	77293.07817935944	3538	34.35992578849721	
1.0047618857142857	199.0142857142857	11.4	113.07142857142857	79.42857142857143	9.0	77	209	470	17	244	170	68	7	15	11	0	0	881.2400033473969	5460	78174.31818270683	3583	34.37728937728937	
0.9178743913043479	236.4142857142857	11.782608695652174	119.42028985507247	83.95652173913044	9.0	78	211	470	16.0	245.0	170.0	68	7.0	15.0	11.0	0	0	862.7318623065948	5530	79037.05004501343	3635	34.26763110307414	
0.8695652173913043	244.84285714285716	11.347826086956522	110.43478260869566	77.53623188405797	9.0	79	213	474	15.0	215.0	148.0	65	7.0	15.0	11.0	0	0	825.5070259571075	5600	79862.55707097054	3688	34.14285714285714	
0.9855073913043478	230.9	11.26086956521739	107.8840579710145	75.69565217391305	9.0	80	215	437	15.0	202.0	141.0	43	7.0	15.0	11.0	0	0	830.5373811721802	5670	80693.09445214272	3735	34.12698412698413	
0.7727272727272727	205.77142857142857	11.303030303030303	110.28787878787878	77.28787878787878	9.0	81	220	437	17.0	289.0	201.0	43	7.0	15.0	11.0	0	0	791.350380897522	5740	81484.44483304024	3782	34.11149825783973	
1.1363636818181817	188.5142857142857	11.651515151515152	114.63636363636364	80.39393939393939	9.0	82	225	384	17.0	243.0	170.0	43	7.0	15.0	11.0	0	0	781.5531952381134	5810	82265.99802827835	3831	34.06196213425129	
0.9227053623188405	193.8	11.840579710144928	114.46376811594203	80.3768115942029	9.0	83	227	388	16.0	256.0	179.0	79	7.0	15.0	11.0	0	0	861.8447425365448	5880	83127.8427708149	3884	33.945578231292515	
0.8855721940298508	194.64285714285714	11.955223880597014	118.64179104477611	83.22388059701493	9.0	84	231	379	17.0	303.0	210.0	44	7.0	15.0	11.0	0	0	841.2416820526123	5950	83969.08445286751	3937	33.831932773109244	
0.6571428428571429	215.75714285714287	11.742857142857142	117.88571428571429	82.68571428571428	9.0	85	232	438	15	268	186	129	7	15	11	0	0	887.3463213443756	6020	84856.43077421188	3988	33.754152823920265	
0.7101449275362319	220.72857142857143	11.405797101449275	105.85507246376811	74.30434782608695	9.0	86	234	438	17.0	265.0	184.0	68	7.0	15.0	11.0	0	0	856.7088375091553	6090	85713.13961172104	4038	33.694581280788185	
0.6428571428571429	229.0857142857143	11.128571428571428	112.34285714285714	78.64285714285714	9.0	87	234	406	17	256	179	48	7	15	11	0	0	876.6284148693085	6160	86589.76802659035	4094	33.538961038961034	
0.790476142857143	220.45714285714286	11.5	124.62857142857143	87.21428571428571	9.0	88	234	406	16	304	210	92	7	15	11	0	0	885.8742215633392	6230	87475.64224815369	4141	33.53130016051364	
0.7058823088235294	226.14285714285714	11.382352941176471	112.0	78.48529411764706	9.0	89	237	412	16.0	243.0	170.0	66	7.0	15.0	11.0	0	0	820.8654427528381	6300	88296.50769090652	4188	33.52380952380952	
0.8190475714285714	225.67142857142858	11.4	110.02857142857142	77.0	9.0	90	237	415	15	210	146	84	7	15	11	0	0	871.2435553073883	6370	89167.75124621391	4243	33.39089481946624	
0.7053139130434782	252.2	11.855072463768115	120.2463768115942	84.10144927536231	9.0	91	239	440	16.0	275.0	192.0	73	7.0	17.0	12.0	0	0	828.5251581668854	6440	89996.2764043808	4296	33.29192546583852	
0.8619049	258.72857142857146	12.285714285714286	129.75714285714287	90.95714285714286	9.0	92	239	404	17	273	192	101	7	15	11	0	0	867.7143080234528	6510	90863.99071240425	4352	33.14900153609831	
1.1225490735294117	264.0857142857143	12.338235294117647	131.72058823529412	92.44117647058823	9.33333	93	242	455	17.0	273.0	192.0	122	7.0	17.0	12.0	0	0	819.9071578979492	6580	91683.8978703022	4405	33.05471124620061	
1.3236715072463767	256.64285714285717	12.26086956521739	132.7391304347826	93.07246376811594	9.33333	94	244	422	17.0	295.0	204.0	94	7.0	15.0	11.0	0	0	863.4065334796906	6650	92547.30440378189	4458	32.96240601503759	
1.4411765294117647	235.64285714285714	12.176470588235293	132.94117647058823	93.20588235294117	9.33333	95	247	437	17.0	232.0	163.0	93	7.0	15.0	11.0	0	0	834.3527445793152	6720	93381.6571483612	4509	32.90178571428571	
0.9619047714285716	227.82857142857142	12.1	126.5	88.7	9.33333	96	247	439	17	203	144	73	7	15	11	0	0	912.7477788925171	6790	94294.40492725372	4562	32.81296023564066	
1.159420144927536	229.87142857142857	12.27536231884058	131.2173913043478	91.76811594202898	9.33333	97	249	439	17.0	226.0	159.0	77	7.0	15.0	11.0	0	0	863.7727982997894	6860	95158.17772555351	4618	32.68221574344024	
1.0735292647058823	218.02857142857144	11.426470588235293	115.23529411764706	80.80882352941177	9.33333	98	252	423	15.0	214.0	151.0	54	7.0	15.0	11.0	0	0	846.0425181388855	6930	96004.2202436924	4666	32.66955266955267	
0.9852937794117648	226.37142857142857	11.970588235294118	128.97058823529412	90.25	9.33333	99	255	444	17.0	257.0	180.0	97	7.0	15.0	11.0	0	0	845.3543810844421	7000	96849.57462477684	4719	32.58571428571429	
0.9661832898550724	235.04285714285714	11.942028985507246	126.59420289855072	88.65217391304348	9.33333	100	257	456	16.0	320.0	222.0	91	7.0	15.0	11.0	0	0	862.7341873645782	7070	97712.30881214142	4778	32.41867043847242	
0.880952142857143	233.85714285714286	11.942857142857143	119.07142857142857	83.38571428571429	9.33333	101	258	446	17	244	171	66	7	15	11	0	0	874.2572598457336	7140	98586.56607198715	4832	32.324929971988794	
0.7632847826086957	242.28571428571428	11.710144927536232	116.52173913043478	81.57971014492753	9.33333	102	260	460	16.0	231.0	161.0	66	7.0	15.0	11.0	0	0	846.8235580921173	7210	99433.38963007927	4891	32.163661581137305	
1.014705588235294	207.4857142857143	11.352941176470589	115.6470588235294	80.86764705882354	9.33333	103	263	403	17.0	243.0	170.0	66	7.0	15.0	11.0	0	0	814.0804660320282	7280	100247.4700961113	4941	32.129120879120876	
0.7826084057971014	210.57142857142858	10.942028985507246	106.5072463768116	74.33333333333333	9.33333	104	265	474	15.0	262.0	183.0	40	7.0	15.0	11.0	0	0	829.0090408325195	7350	101076.47913694382	4994	32.054421768707485	
1.0241542028985506	190.05714285714285	11.478260869565217	117.59420289855072	82.27536231884058	9.33333	105	267	320	17.0	198.0	138.0	99	7.0	15.0	11.0	0	0	843.1579837799072	7420	101919.63712072372	5048	31.967654986522902	
1.042856757142857	186.47142857142856	11.7	124.42857142857143	87.05714285714286	9.33333	106	268	400	17	283	196	95	7	15	11	0	0	871.326413154602	7490	102790.96353387833	5100	31.90921228304407	
0.7960197014925373	189.7	11.134328358208956	108.22388059701493	75.73134328358209	9.33333	107	272	400	17.0	227.0	159.0	71	7.0	15.0	11.0	0	0	796.0082905292511	7560	103586.97182440758	5153	31.838624338624342	
0.9323668550724639	181.55714285714285	11.304347826086957	118.4927536231884	82.95652173913044	9.33333	108	274	313	17.0	331.0	231.0	66	7.0	15.0	11.0	0	0	812.2935013771057	7630	104399.26532578468	5197	31.887287024901696	
1.2270528985507247	207.0857142857143	11.72463768115942	123.95652173913044	86.71014492753623	9.33333	109	276	313	17.0	234.0	162.0	65	7.0	15.0	11.0	0	0	838.8680267333984	7700	105238.13335251808	5247	31.85714285714286	
1.0386470579710148	217.61428571428573	12.159420289855072	127.85507246376811	89.4927536231884	9.33333	110	278	387	17.0	271.0	188.0	108	7.0	18.0	13.0	0	0	842.3160638809204	7770	106080.449416399	5297	31.827541827541822	
1.090476142857143	197.24285714285713	11.7	122.54285714285714	85.8	9.33333	111	279	345	17	298	207	60	7	15	11	0	0	849.5335562229156	7840	106929.98297262192	5355	31.69642857142857	
0.8357485507246377	205.45714285714286	11.565217391304348	117.76811594202898	82.56521739130434	9.33333	112	281	395	17.0	262.0	185.0	117	7.0	15.0	11.0	0	0	857.9429979324341	7910	107787.92597055435	5404	31.68141592920354	
0.8480389705882354	210.0857142857143	11.985294117647058	125.91176470588235	88.1470588235294	9.33333	113	284	344	16.0	229.0	159.0	73	7.0	15.0	11.0	0	0	840.5187649726868	7980	108628.44473552704	5452	31.679197994987476	
0.8285711857142857	190.3	12.014285714285714	123.95714285714286	86.8	9.33333	114	284	296	17	256	177	107	7	15	11	0	0	891.3435707092285	8050	109519.78830623627	5503	31.63975155279502	
0.7142854285714286	213.8	11.485714285714286	123.74285714285715	86.6	9.33333	115	284	413	16	351	244	117	7	15	11	0	0	886.651463508606	8120	110406.43976974487	5556	31.57635467980296	
0.7745096029411764	219.78571428571428	11.058823529411764	110.8529411764706	77.44117647058823	9.33333	116	287	329	17.0	349.0	244.0	59	7.0	15.0	11.0	0	0	830.0492408275604	8190	111236.48901057243	5608	31.526251526251528	
0.8238092857142858	228.84285714285716	11.3	114.17142857142858	79.8	9.33333	117	287	386	17	303	211	129	7	15	11	0	0	849.231419801712	8260	112085.72043037415	5659	31.489104116222762	
0.9809520857142857	227.04285714285714	11.628571428571428	131.02857142857144	91.41428571428571	9.33333	118	287	357	16	303	211	111	7	15	11	0	0	861.7086405754089	8330	112947.42907094955	5716	31.38055222088836	
0.7979794848484848	230.38571428571427	11.136363636363637	119.56060606060606	83.60606060606061	9.33333	119	292	485	17.0	363.0	254.0	111	7.0	15.0	11.0	0	0	786.395806312561	8400	113733.82487726212	5766	31.35714285714286	
0.9999996999999999	214.65714285714284	11.271428571428572	119.32857142857142	83.47142857142858	9.33333	120	293	357	17	227	158	72	7	15	11	0	0	828.2650766372681	8470	114562.08995389938	5820	31.286894923258558	
0.6952379	229.82857142857142	11.757142857142858	125.62857142857143	87.94285714285714	9.33333	121	294	468	17	287	201	72	7	15	11	0	0	882.6346755027771	8540	115444.72462940216	5876	31.194379391100696	
0.9333331428571429	210.92857142857142	11.785714285714286	125.14285714285714	87.47142857142858	9.33333	122	294	368	17	276	192	88	7	15	11	0	0	883.9617123603821	8610	116328.68634176254	5925	31.184668989547035	
0.7904758571428571	211.54285714285714	11.214285714285714	113.32857142857142	79.44285714285714	9.33333	123	294	364	17	240	167	73	8	32	23	0	0	911.3582062721252	8680	117240.04454803467	5980	31.105990783410135	
0.6763282608695653	220.07142857142858	11.898550724637682	125.3768115942029	87.8695652173913	9.33333	124	296	379	17.0	304.0	213.0	46	7.0	15.0	11.0	0	0	878.4819552898407	8750	118118.52650332451	6033	31.051428571428573	
0.8190472857142856	231.97142857142856	11.4	113.22857142857143	79.32857142857142	9.33333	125	297	418	16	227	159	94	7	15	11	0	0	884.5725660324097	8820	119003.09906935692	6086	30.997732426303855	
0.7428569	227.38571428571427	11.285714285714286	113.0	79.11428571428571	9.33333	126	298	418	16	252	174	62	7	15	11	0	0	892.5957615375519	8890	119895.69483089447	6142	30.911136107986508	
0.9952378571428572	223.4	11.5	111.45714285714286	77.97142857142858	9.33333	127	299	380	17	223	156	62	7	17	12	0	0	875.8444662094116	8960	120771.53929710388	6194	30.870535714285722	
0.9476187142857142	231.05714285714285	11.414285714285715	113.75714285714285	79.71428571428571	9.33333	128	300	380	17	223	156	116	7	15	11	0	0	870.6419632434845	9030	121642.18126034737	6247	30.819490586932446	
1.0428569	225.9142857142857	11.685714285714285	117.02857142857142	82.08571428571429	9.33333	129	301	373	17	259	181	127	7	15	11	0	0	840.1801126003265	9100	122482.3613729477	6293	30.84615384615384	
1.0048306231884059	226.85714285714286	11.81159420289855	123.10144927536231	86.30434782608695	9.33333	130	303	474	17.0	243.0	170.0	77	7.0	15.0	11.0	0	0	870.8384099006653	9170	123353.19978284836	6341	30.850599781897486	
0.9476188571428571	215.71428571428572	11.3	104.98571428571428	73.7	9.33333	131	304	362	17	243	170	92	7	15	11	0	0	879.9881694316864	9240	124233.18795228004	6394	30.800865800865793	
0.7809521285714286	212.1	11.585714285714285	118.28571428571429	82.78571428571429	9.33333	132	304	389	17	305	213	109	8	35	25	0	0	890.0931117534637	9310	125123.28106403351	6447	30.75187969924812	
0.7794115147058823	196.97142857142856	11.75	120.22058823529412	84.16176470588235	9.33333	133	307	328	16.0	240.0	167.0	84	8.0	26.0	18.0	0	0	856.8638808727264	9380	125980.14494490623	6498	30.72494669509595	
0.9095235	218.77142857142857	11.7	116.18571428571428	81.31428571428572	9.33333	134	307	328	15	208	146	150	7	24	17	0	0	898.1857476234436	9450	126878.33069252968	6551	30.677248677248684	
1.0904759285714285	219.7	11.728571428571428	118.64285714285714	83.08571428571429	9.33333	135	308	343	15	233	162	111	7	15	11	0	0	868.4851272106171	9520	127746.8158197403	6598	30.693277310924373	
0.9857140000000001	206.65714285714284	11.957142857142857	128.64285714285714	90.01428571428572	9.33333	136	309	406	17	311	218	99	7	15	11	0	0	847.4001727104187	9590	128594.21599245071	6651	30.646506777893634	
0.7303918676470588	203.21428571428572	11.75	112.88235294117646	79.01470588235294	9.33333	137	312	316	17.0	240.0	170.0	60	7.0	15.0	11.0	0	0	828.7887105941772	9660	129423.00470304489	6703	30.610766045548658	
0.8714281428571429	200.6	11.485714285714286	109.88571428571429	77.0	9.33333	138	313	362	17	267	186	72	7	15	11	0	0	864.729505777359	9730	130287.73420882225	6758	30.544707091469675	
1.009523442857143	192.17142857142858	11.528571428571428	114.75714285714285	80.42857142857143	9.33333	139	314	330	16	227	159	49	7	17	12	0	0	853.3919386863708	9800	131141.12614750862	6808	30.530612244897952	
0.6952378714285714	189.17142857142858	10.442857142857143	92.85714285714286	65.02857142857142	9.33333	140	315	307	15	256	179	49	7	15	11	0	0	840.5311415195465	9870	131981.65728902817	6850	30.59777102330294	
0.7761902857142857	191.3	11.0	95.24285714285715	66.64285714285714	9.33333	141	316	307	17	278	193	49	7	15	11	0	0	858.5114026069641	9940	132840.16869163513	6891	30.674044265593565	
0.8454103333333334	175.15714285714284	10.826086956521738	94.6376811594203	66.47826086956522	9.33333	142	318	296	17.0	263.0	185.0	68	7.0	15.0	11.0	0	0	850.2127823829651	10010	133690.3814740181	6942	30.64935064935065	
0.8186272205882353	184.4857142857143	11.25	103.1470588235294	72.5	9.33333	143	321	279	17.0	291.0	203.0	60	7.0	15.0	11.0	0	0	843.3956949710846	10080	134533.77716898918	6988	30.674603174603178	
0.8047616142857144	178.31428571428572	10.942857142857143	94.78571428571429	66.62857142857143	9.33333	144	322	312	16	198	138	60	7	15	11	0	0	862.2838668823242	10150	135396.0610358715	7038	30.660098522167488	
1.1014487971014493	175.12857142857143	11.898550724637682	116.84057971014492	82.0	9.33333	145	324	275	17.0	268.0	187.0	58	7.0	15.0	11.0	0	0	884.961457490921	10220	136281.02249336243	7089	30.636007827788646	
0.9033814492753623	183.21428571428572	12.420289855072463	138.97101449275362	97.3913043478261	9.33333	146	326	291	17.0	274.0	190.0	52	7.0	15.0	11.0	0	0	900.9131271839142	10290	137181.93562054634	7141	30.602526724975704	
0.9227049275362319	186.4	12.507246376811594	132.33333333333334	92.71014492753623	9.33333	147	328	371	17.0	246.0	172.0	51	7.0	17.0	12.0	0	0	912.228856086731	10360	138094.16447663307	7197	30.530888030888022	
0.8627448529411765	189.24285714285713	11.779411764705882	121.47058823529412	85.08823529411765	9.33333	148	331	371	16.0	247.0	171.0	65	7.0	15.0	11.0	0	0	863.2124202251434	10430	138957.37689685822	7245	30.536912751677846	
0.8571426142857143	196.4857142857143	12.185714285714285	127.98571428571428	89.6	9.33333	149	331	288	16	240	166	84	7	15	11	0	0	885.7859930992126	10500	139843.16288995743	7296	30.51428571428572	
0.8714282285714287	194.38571428571427	11.757142857142858	123.2	86.1	9.33333	150	332	337	17	335	233	114	7	15	11	0	0	865.6924831867218	10570	140708.85537314415	7345	30.510879848628193	
0.8970585147058824	199.34285714285716	11.632352941176471	114.47058823529412	80.13235294117646	9.33333	151	335	337	17.0	306.0	214.0	119	7.0	15.0	11.0	0	0	837.8182330131531	10640	141546.6736061573	7398	30.469924812030087	
0.7729466086956521	193.07142857142858	11.840579710144928	130.34782608695653	91.17391304347827	9.33333	152	337	328	16.0	310.0	216.0	68	7.0	15.0	11.0	0	0	859.3025314807892	10710	142405.9761376381	7451	30.429505135387487	
0.7342992608695651	195.0142857142857	11.81159420289855	126.07246376811594	88.07246376811594	9.33333	153	339	328	17.0	257.0	178.0	74	7.0	15.0	11.0	0	0	838.850754737854	10780	143244.82689237595	7505	30.380333951762523	
1.2753619855072464	197.87142857142857	12.36231884057971	135.7536231884058	94.82608695652173	9.33333	154	341	337	17.0	243.0	170.0	80	7.0	29.0	21.0	0	0	853.5002775192261	10850	144098.32716989517	7561	30.313364055299544	
0.9952378	186.67142857142858	11.914285714285715	129.35714285714286	90.48571428571428	9.33333	155	342	328	15	232	163	99	7	15	11	0	0	848.6692459583282	10920	144946.9964158535	7617	30.247252747252745	
0.8047616142857144	187.42857142857142	11.571428571428571	116.71428571428571	81.64285714285714	9.33333	156	343	328	17	238	167	99	7	15	11	0	0	848.4186549186707	10990	145795.41507077217	7670	30.209281164695184	
0.8142855285714287	189.5857142857143	11.67142857142857	121.3	84.82857142857142	9.33333	157	344	313	17	255	178	84	7	15	11	0	0	900.303982257843	11060	146695.71905303	7727	30.135623869801094	
0.8619044714285714	185.52857142857144	11.157142857142857	114.45714285714286	79.98571428571428	9.33333	158	345	246	17	243	169	84	7	15	11	0	0	885.9512646198273	11130	147581.67031764984	7772	30.170709793351307	
0.7391302463768117	190.34285714285716	11.072463768115941	106.21739130434783	74.3913043478261	9.33333	159	347	298	17.0	261.0	182.0	65	7.0	15.0	11.0	0	0	839.1935837268829	11200	148420.86390137672	7820	30.17857142857143	
1.0833329411764705	193.31428571428572	10.397058823529411	95.3970588235294	66.8970588235294	9.33333	160	350	357	17.0	261.0	182.0	88	7.0	15.0	11.0	0	0	813.4495642185211	11270	149234.31346559525	7859	30.266193433895296	
0.7619045714285715	194.75714285714287	10.4	92.7	65.01428571428572	9.33333	161	351	357	16	282	196	60	7	15	11	0	0	835.9034295082092	11340	150070.21689510345	7902	30.317460317460316	
0.9661833333333334	194.84285714285716	10.884057971014492	104.73913043478261	73.3623188405797	9.33333	162	353	357	17.0	263.0	182.0	82	7.0	15.0	11.0	0	0	844.426967382431	11410	150914.6438624859	7944	30.376862401402278	
1.1285711	188.64285714285714	11.8	127.07142857142857	88.8	9.33333	163	354	396	17	239	167	37	7	15	11	0	0	850.0064465999603	11480	151764.65030908585	7994	30.365853658536594	
0.9313723088235294	188.62857142857143	11.367647058823529	114.6470588235294	80.29411764705883	9.33333	164	357	457	17.0	311.0	218.0	37	7.0	15.0	11.0	0	0	822.9245624542236	11550	152587.57487154007	8036	30.424242424242422	
0.7952379142857144	203.5	11.714285714285714	115.2	80.74285714285715	9.33333	165	358	443	17	338	234	48	7	15	11	0	0	883.244535446167	11620	153470.81940698624	8083	30.43889845094664	
0.6809521428571429	205.75714285714287	11.8	116.42857142857143	81.31428571428572	9.33333	166	358	457	17	375	259	116	7	15	11	0	0	852.4121739864349	11690	154323.23158097267	8130	30.453378956372973	
0.8840576811594203	214.4142857142857	11.695652173913043	120.23188405797102	84.0	9.33333	167	360	443	17.0	250.0	174.0	116	7.0	15.0	11.0	0	0	832.5067746639252	11760	155155.7383556366	8178	30.459183673469397	
0.6904759428571428	212.92857142857142	11.814285714285715	122.48571428571428	85.58571428571429	9.33333	168	361	443	17	256	178	108	7	15	11	0	0	843.999050617218	11830	155999.73740625381	8233	30.40574809805578	
0.9190472428571429	218.67142857142858	11.4	116.47142857142858	81.31428571428572	9.33333	169	362	447	17	256	178	112	7	15	11	0	0	847.2425444126129	11900	156846.97995066643	8289	30.344537815126046	
1.048308884057971	217.18571428571428	11.014492753623188	105.94202898550725	73.98550724637681	9.33333	170	364	381	17.0	290.0	201.0	96	7.0	15.0	11.0	0	0	854.815948009491	11970	157701.79589867592	8329	30.417710944026737	
0.6857140428571429	209.55714285714285	10.942857142857143	101.87142857142857	71.32857142857142	9.33333	171	365	417	16	196	138	85	7	15	11	0	0	864.7510907649994	12040	158566.54698944092	8378	30.415282392026583	
0.7095236142857142	188.68571428571428	11.285714285714286	108.34285714285714	75.82857142857142	9.33333	172	365	384	17	243	170	96	7	15	11	0	0	921.2113718986511	12110	159487.75836133957	8430	30.388109000825764	
0.7857141428571428	190.34285714285716	11.1	104.57142857142857	73.21428571428571	9.33333	173	366	384	17	315	217	53	7	15	11	0	0	883.2684495449066	12180	160371.02681088448	8484	30.344827586206904	
0.7285712428571429	189.9857142857143	11.442857142857143	110.94285714285714	77.7	9.33333	174	366	384	16	276	190	96	7	15	11	0	0	928.9800069332123	12250	161300.0068178177	8540	30.285714285714278	
0.9238092857142858	192.37142857142857	11.942857142857143	123.28571428571429	86.11428571428571	9.33333	175	366	337	17	294	205	97	8	24	17	0	0	917.7580490112305	12320	162217.76486682892	8599	30.202922077922082	
0.6999997142857143	208.8	12.085714285714285	123.52857142857142	86.34285714285714	9.33333	176	366	364	16	250	175	35	7	15	11	0	0	925.8340630531311	12390	163143.59892988205	8649	30.193704600484267	
0.9227050724637682	231.8	11.927536231884059	123.31884057971014	86.31884057971014	9.33333	177	368	397	17.0	242.0	170.0	88	8.0	32.0	23.0	0	0	871.3020806312561	12460	164014.9010105133	8706	30.12841091492777	
0.7904759285714286	240.4857142857143	12.071428571428571	130.2	91.3	9.33333	178	368	401	17	268	188	93	8	30	22	0	0	909.5163159370422	12530	164924.41732645035	8769	30.01596169193934	
0.8333330428571429	216.1	11.971428571428572	128.38571428571427	89.9	9.33333	179	369	445	17	272	188	130	7	15	11	0	0	861.5174493789673	12600	165785.93477582932	8817	30.02380952380952	
0.8714284142857143	196.75714285714287	11.142857142857142	104.4	73.15714285714286	9.33333	180	370	445	16	234	164	74	7	15	11	0	0	835.8751814365387	12670	166621.80995726585	8866	30.023677979479075	
0.7333331285714286	189.02857142857144	11.128571428571428	102.42857142857143	71.75714285714285	9.33333	181	370	445	16	253	176	74	7	21	15	0	0	862.5786340236664	12740	167484.38859128952	8919	29.99215070643642	
1.0761901714285715	184.07142857142858	11.285714285714286	108.38571428571429	75.85714285714286	9.33333	182	371	342	16	215	150	100	7	21	15	0	0	895.3449170589447	12810	168379.73350834846	8969	29.984387197501945	
0.699999742857143	179.65714285714284	11.428571428571429	113.84285714285714	79.75714285714285	9.33333	183	372	274	16	226	159	100	7	15	11	0	0	880.3055055141449	12880	169260.0390138626	9021	29.961180124223603	
0.9904757571428572	180.71428571428572	11.814285714285715	122.67142857142858	85.88571428571429	9.33333	184	373	314	16	228	162	94	7	15	11	0	0	926.2986779212952	12950	170186.3376917839	9077	29.907335907335906	
0.7149756086956522	188.1	12.101449275362318	127.5072463768116	89.1304347826087	9.33333	185	375	362	17.0	243.0	170.0	96	7.0	15.0	11.0	0	0	862.1348114013672	13020	171048.47250318527	9134	29.846390168970814	
0.8047616714285714	191.17142857142858	12.585714285714285	138.38571428571427	96.84285714285714	9.33333	186	376	314	16	247	173	68	9	48	34	0	0	875.7355768680573	13090	171924.20808005333	9194	29.763177998472116	
0.8428568571428571	203.92857142857142	12.471428571428572	141.65714285714284	99.1	9.33333	187	376	314	17	313	218	129	8	38	27	0	0	1173.9013974666595	13160	173098.10947752	9251	29.703647416413375	
0.8309177246376812	196.5142857142857	12.73913043478261	147.3913043478261	103.1304347826087	9.33333	188	378	350	17.0	300.0	209.0	68	8.0	32.0	23.0	0	0	1177.3186175823212	13230	174275.4280951023	9305	29.66742252456538	
0.7428569571428572	194.35714285714286	12.357142857142858	139.34285714285716	97.6	9.33333	189	378	361	17	314	219	68	7	15	11	0	0	1222.1172516345978	13300	175497.5453467369	9361	29.616541353383468	
0.8115939565217392	183.94285714285715	12.028985507246377	119.6231884057971	83.92753623188406	9.33333	190	380	354	17.0	243.0	170.0	68	7.0	15.0	11.0	0	0	1187.8830871582031	13370	176685.4284338951	9414	29.58863126402393	
0.9476187571428571	188.61428571428573	11.814285714285715	117.04285714285714	82.0	9.33333	191	381	354	17	243	170	68	7	15	11	0	0	1168.5282781124115	13440	177853.95671200752	9463	29.59077380952381	
0.9095234714285715	194.02857142857144	11.82857142857143	113.94285714285714	79.91428571428571	9.33333	192	382	354	17	243	170	85	7	15	11	0	0	1197.7120952606201	13510	179051.66880726814	9512	29.592894152479644	
0.9666665142857144	204.04285714285714	11.82857142857143	119.74285714285715	83.82857142857142	9.33333	193	383	354	17	232	162	92	8	32	23	0	0	1221.353687286377	13580	180273.02249455452	9560	29.602356406480112	
1.0428568571428571	198.84285714285716	12.142857142857142	129.0142857142857	90.38571428571429	9.33333	194	384	339	17	257	181	88	7	15	11	0	0	1251.7773613929749	13650	181524.7998559475	9611	29.58974358974359	
0.9227050289855073	199.0	11.46376811594203	116.8695652173913	81.85507246376811	9.33333	195	386	343	17.0	272.0	189.0	66	7.0	15.0	11.0	0	0	1170.7228019237518	13720	182695.52265787125	9659	29.599125364431487	
0.8888886956521739	196.75714285714287	11.884057971014492	119.84057971014492	84.02898550724638	9.33333	196	388	366	16.0	211.0	147.0	76	7.0	15.0	11.0	0	0	1151.4807195663452	13790	183847.0033774376	9712	29.572153734590273	
1.3970585294117646	193.07142857142858	11.882352941176471	122.08823529411765	85.48529411764706	9.33333	197	391	317	17.0	243.0	170.0	89	7.0	15.0	11.0	0	0	1108.4701128005981	13860	184955.4734902382	9761	29.57431457431457	
1.0252522272727271	189.74285714285713	11.333333333333334	107.01515151515152	75.0	9.33333	198	396	350	17.0	236.0	163.0	101	7.0	15.0	11.0	0	0	1097.847677230835	13930	186053.32116746902	9808	29.590811198851398	
0.7922703768115942	188.17142857142858	11.44927536231884	109.08695652173913	76.43478260869566	9.33333	199	398	394	17.0	290.0	202.0	60	7.0	15.0	11.0	0	0	1116.0326194763184	14000	187169.35378694534	9863	29.549999999999997	
1.433333185714286	184.0	12.071428571428571	124.02857142857142	86.78571428571429	9.33333	200	398	394	17	243	170	93	7	15	11	0	0	1163.3635766506195	14070	188332.71736359596	9914	29.538024164889833	
