best_fitness	avg_fitness
2.66667	2.00952
2.66667	2.00952
2.66667	2.00952
2.66667	2.00952
2.66667	2.00952
2.66667	2.00952
2.66667	2.00952
2.66667	2.00952
2.66667	2.00952
2.66667	2.00952
2.66667	2.00952
2.66667	2.00952
2.66667	2.00952
2.66667	2.00952
2.66667	2.00952
2.66667	2.00952
2.66667	2.00952
2.66667	2.00952
2.66667	2.00952
2.66667	2.00952
2.66667	2.00952
2.66667	2.00952
2.66667	2.00952
2.66667	2.00952
2.66667	2.00952
2.66667	2.00952
2.66667	2.00952
2.66667	2.00952
2.66667	2.00952
2.66667	2.00952
2.66667	2.00952
2.66667	2.00952
2.66667	2.00952
2.66667	2.00952
2.66667	2.00952
2.66667	2.00952
2.66667	2.00952
2.66667	2.00952
2.66667	2.00952
2.66667	2.00952
