best_fitness	avg_fitness
1.33333	0.0285714
2	0.333333
2	1.67143
2	1.67143
2	1.67143
2	1.67143
2	1.67143
2	1.67143
2	1.67143
2	1.67143
2	1.67143
2	1.67143
2	1.67143
2	1.67143
2	1.67143
2	1.67143
2	1.67143
2	1.67143
2	1.67143
2	1.67143
2	1.67143
2	1.67143
2	1.67143
2	1.67143
2	1.67143
2	1.67143
2	1.67143
2	1.67143
2	1.67143
2	1.67143
2	1.67143
2	1.67143
2	1.67143
2	1.67143
2	1.67143
2	1.67143
2	1.67143
2	1.67143
2	1.67143
2	1.67143
2	1.67143
2	1.67143
2	1.67143
2	1.67143
2	1.67143
2	1.67143
2	1.67143
2	1.67143
2	1.67143
2	1.67143
2	1.67143
2	1.67143
2	1.67143
2	1.67143
2	1.67143
2	1.67143
2	1.67143
2	1.67143
2	1.67143
2	1.67143
2	1.67143
2	1.67143
2	1.67143
2	1.67143
2	1.67143
2	1.67143
2	1.67143
2	1.67143
2	1.67143
2	1.67143
2	1.67143
2	1.67143
2	1.67143
2	1.67143
2	1.67143
2	1.67143
2	1.67143
2	1.67143
2	1.67143
2	1.67143
2	1.67143
2	1.67143
2	1.67143
2	1.67143
2	1.67143
2	1.67143
2	1.67143
2	1.67143
2	1.67143
2	1.67143
2	1.67143
2	1.67143
2	1.67143
2	1.67143
2	1.67143
2	1.67143
2	1.67143
2	1.67143
2	1.67143
2	1.67143
2	1.67143
2	1.67143
2	1.67143
2	1.67143
2	1.67143
2	1.67143
2	1.67143
2	1.67143
2	1.67143
2	1.67143
2	1.67143
2	1.67143
2	1.67143
2	1.67143
2	1.67143
2	1.67143
2	1.67143
2	1.67143
2	1.67143
2	1.67143
2	1.67143
2	1.67143
2	1.67143
2	1.67143
2	1.67143
2	1.67143
2	1.67143
2	1.67143
2	1.67143
2	1.67143
2	1.67143
2	1.67143
2	1.67143
2	1.67143
2	1.67143
2	1.67143
2	1.67143
2	1.67143
2	1.67143
2	1.67143
2	1.67143
2	1.67143
2	1.67143
2	1.67143
2	1.67143
2	1.67143
2	1.67143
2	1.67143
2	1.67143
2	1.67143
2	1.67143
2	1.67143
2	1.67143
2	1.67143
2	1.67143
2	1.67143
2	1.67143
2	1.67143
2	1.67143
2	1.67143
2	1.67143
2	1.67143
2	1.67143
2	1.67143
2	1.67143
2	1.67143
2	1.67143
2	1.67143
2	1.67143
2	1.67143
2	1.67143
2	1.67143
2	1.67143
2	1.67143
2	1.67143
2	1.67143
2	1.67143
2	1.67143
2	1.67143
2	1.67143
2	1.67143
2	1.67143
2	1.67143
2	1.67143
2	1.67143
2	1.67143
2	1.67143
2	1.67143
2	1.67143
2	1.67143
2	1.67143
2	1.67143
2	1.67143
2	1.67143
2	1.67143
2	1.67143
2	1.67143
2	1.67143
2	1.67143
2	1.67143
