best_fitness	avg_fitness
2.66667	2.3381
2.66667	2.30952
2.66667	2.32857
2.66667	2.3
2.66667	2.3381
2.66667	2.3381
2.66667	2.32857
2.66667	2.32857
2.66667	2.32857
2.66667	2.3381
2.66667	2.3381
2.66667	2.32857
2.66667	2.3381
2.66667	2.3381
2.66667	2.31905
2.66667	2.32857
2.66667	2.3381
2.66667	2.32857
2.66667	2.32857
2.66667	2.31905
2.66667	2.3381
2.66667	2.3381
2.66667	2.32857
2.66667	2.3381
2.66667	2.32857
2.66667	2.3381
2.66667	2.3381
2.66667	2.32857
2.66667	2.32857
2.66667	2.32857
2.66667	2.3381
2.66667	2.32857
2.66667	2.3381
2.66667	2.32857
2.66667	2.32857
2.66667	2.32857
2.66667	2.31905
2.66667	2.3381
2.66667	2.3381
2.66667	2.3381
